[
  {
    "link_thumb": "https://live.staticflickr.com/65535/50039776031_c3e58e60f7_n.jpg",
    "id_album": "-1610342324",
    "description": "Nebula_248963",
    "title": "Nebula_248963",
    "link_img": "https://live.staticflickr.com/65535/50039776031_d6f22b1086_o.jpg",
    "id_image": "Nebula_248963",
    "count_view": 0
  },
  {
    "link_thumb": "https://live.staticflickr.com/65535/50038768593_50cdf47331_n.jpg",
    "id_album": "523598895",
    "description": "Artistic_220877",
    "title": "Artistic_220877",
    "link_img": "https://live.staticflickr.com/65535/50038768593_6a0c574f2f_o.jpg",
    "id_image": "Artistic_220877",
    "count_view": 0
  },
  {
    "link_thumb": "https://live.staticflickr.com/65535/50039516293_9c8bdce52e_n.jpg",
    "id_album": "-1102314093",
    "description": "Planets_249556",
    "title": "Planets_249556",
    "link_img": "https://live.staticflickr.com/65535/50039516293_8cc7866bdd_o.jpg",
    "id_image": "Planets_249556",
    "count_view": 0
  },
  {
    "link_thumb": "https://live.staticflickr.com/65535/50038901743_0e03d54cc6_n.jpg",
    "id_album": "-1964113117",
    "description": "City_229033",
    "title": "City_229033",
    "link_img": "https://live.staticflickr.com/65535/50038901743_b3d146c39f_o.jpg",
    "id_image": "City_229033",
    "count_view": 0
  },
  {
    "link_thumb": "https://live.staticflickr.com/65535/50039988213_0c1bb94def_n.jpg",
    "id_album": "1613540653",
    "description": "Space_822456",
    "title": "Space_822456",
    "link_img": "https://live.staticflickr.com/65535/50039988213_af63c25a55_o.jpg",
    "id_image": "Space_822456",
    "count_view": 0
  },
  {
    "link_thumb": "https://live.staticflickr.com/65535/50039885988_64343aa07e_n.jpg",
    "id_album": "779690680",
    "description": "Robot_949786",
    "title": "Robot_949786",
    "link_img": "https://live.staticflickr.com/65535/50039885988_76b6ddaa08_o.jpg",
    "id_image": "Robot_949786",
    "count_view": 0
  },
  {
    "link_thumb": "https://live.staticflickr.com/65535/50040538706_74380bdbea_n.jpg",
    "id_album": "1613540653",
    "description": "Space_781842",
    "title": "Space_781842",
    "link_img": "https://live.staticflickr.com/65535/50040538706_2b2245d5b0_o.jpg",
    "id_image": "Space_781842",
    "count_view": 0
  },
  {
    "link_thumb": "https://live.staticflickr.com/65535/50039615907_26ecb7c867_n.jpg",
    "id_album": "869545341",
    "description": "Astronaut_340451",
    "title": "Astronaut_340451",
    "link_img": "https://live.staticflickr.com/65535/50039615907_5a408bc839_o.jpg",
    "id_image": "Astronaut_340451",
    "count_view": 0
  },
  {
    "link_thumb": "https://live.staticflickr.com/65535/50040553947_5db6de7077_n.jpg",
    "id_album": "779690680",
    "description": "Robot_325642",
    "title": "Robot_325642",
    "link_img": "https://live.staticflickr.com/65535/50040553947_1058e8661a_o.jpg",
    "id_image": "Robot_325642",
    "count_view": 0
  },
  {
    "link_thumb": "https://live.staticflickr.com/65535/50039461011_e01bf1c217_n.jpg",
    "id_album": "-1964113117",
    "description": "City_301681",
    "title": "City_301681",
    "link_img": "https://live.staticflickr.com/65535/50039461011_a64ced3f84_o.jpg",
    "id_image": "City_301681",
    "count_view": 0
  },
  {
    "link_thumb": "https://live.staticflickr.com/65535/50041555042_4f9792f3b7_n.jpg",
    "id_album": "1267121215",
    "description": "Steampunk_190375",
    "title": "Steampunk_190375",
    "link_img": "https://live.staticflickr.com/65535/50041555042_10216c7a9b_o.jpg",
    "id_image": "Steampunk_190375",
    "count_view": 0
  },
  {
    "link_thumb": "https://live.staticflickr.com/65535/50040830233_58557d9c93_n.jpg",
    "id_album": "2020068132",
    "description": "Vehicle_289753",
    "title": "Vehicle_289753",
    "link_img": "https://live.staticflickr.com/65535/50040830233_2acbc50e0a_o.jpg",
    "id_image": "Vehicle_289753",
    "count_view": 0
  },
  {
    "link_thumb": "https://live.staticflickr.com/65535/50039787391_b2d8cb877a_n.jpg",
    "id_album": "-1610342324",
    "description": "Nebula_357577",
    "title": "Nebula_357577",
    "link_img": "https://live.staticflickr.com/65535/50039787391_9e2be356b7_o.jpg",
    "id_image": "Nebula_357577",
    "count_view": 0
  },
  {
    "link_thumb": "https://live.staticflickr.com/65535/50041477042_f628429dd4_n.jpg",
    "id_album": "-1863373220",
    "description": "StarWars_671995",
    "title": "StarWars_671995",
    "link_img": "https://live.staticflickr.com/65535/50041477042_d7d01526c2_o.jpg",
    "id_image": "StarWars_671995",
    "count_view": 0
  },
  {
    "link_thumb": "https://live.staticflickr.com/65535/50039699773_9350666857_n.jpg",
    "id_album": "779690680",
    "description": "Robot_114063",
    "title": "Robot_114063",
    "link_img": "https://live.staticflickr.com/65535/50039699773_7b3cff72f9_o.jpg",
    "id_image": "Robot_114063",
    "count_view": 0
  },
  {
    "link_thumb": "https://live.staticflickr.com/65535/50039002613_69c94cdb45_n.jpg",
    "id_album": "-437872736",
    "description": "Creature_318332",
    "title": "Creature_318332",
    "link_img": "https://live.staticflickr.com/65535/50039002613_6b4f80d1ab_o.jpg",
    "id_image": "Creature_318332",
    "count_view": 0
  },
  {
    "link_thumb": "https://live.staticflickr.com/65535/50040195377_56dbcceb01_n.jpg",
    "id_album": "395161030",
    "description": "Planet_335814",
    "title": "Planet_335814",
    "link_img": "https://live.staticflickr.com/65535/50040195377_6b8c72a68b_o.jpg",
    "id_image": "Planet_335814",
    "count_view": 0
  },
  {
    "link_thumb": "https://live.staticflickr.com/65535/50039659991_b0f5625a5b_n.jpg",
    "id_album": "1402713104",
    "description": "Landscape_121806",
    "title": "Landscape_121806",
    "link_img": "https://live.staticflickr.com/65535/50039659991_2905d2aab4_o.jpg",
    "id_image": "Landscape_121806",
    "count_view": 0
  },
  {
    "link_thumb": "https://live.staticflickr.com/65535/50039851273_f55b51a7b6_n.jpg",
    "id_album": "779690680",
    "description": "Robot_907940",
    "title": "Robot_907940",
    "link_img": "https://live.staticflickr.com/65535/50039851273_248483de52_o.jpg",
    "id_image": "Robot_907940",
    "count_view": 0
  },
  {
    "link_thumb": "https://live.staticflickr.com/65535/50040307717_573766253a_n.jpg",
    "id_album": "-1102314093",
    "description": "Planets_106277",
    "title": "Planets_106277",
    "link_img": "https://live.staticflickr.com/65535/50040307717_6dbe18efbb_o.jpg",
    "id_image": "Planets_106277",
    "count_view": 0
  },
  {
    "link_thumb": "https://live.staticflickr.com/65535/50039557308_8bbe7d72fc_n.jpg",
    "id_album": "-1102314093",
    "description": "Planets_397549",
    "title": "Planets_397549",
    "link_img": "https://live.staticflickr.com/65535/50039557308_453a4b9190_o.jpg",
    "id_image": "Planets_397549",
    "count_view": 0
  },
  {
    "link_thumb": "https://live.staticflickr.com/65535/50039299641_a11c6b6e40_n.jpg",
    "id_album": "523598895",
    "description": "Artistic_162949",
    "title": "Artistic_162949",
    "link_img": "https://live.staticflickr.com/65535/50039299641_265e6ce5b5_o.jpg",
    "id_image": "Artistic_162949",
    "count_view": 0
  },
  {
    "link_thumb": "https://live.staticflickr.com/65535/50039477816_4c3a1d8591_n.jpg",
    "id_album": "-1964113117",
    "description": "City_552303",
    "title": "City_552303",
    "link_img": "https://live.staticflickr.com/65535/50039477816_399524efb0_o.jpg",
    "id_image": "City_552303",
    "count_view": 0
  },
  {
    "link_thumb": "https://live.staticflickr.com/65535/50039641882_90e92013b7_n.jpg",
    "id_album": "869545341",
    "description": "Astronaut_923963",
    "title": "Astronaut_923963",
    "link_img": "https://live.staticflickr.com/65535/50039641882_c7a78e4be5_o.jpg",
    "id_image": "Astronaut_923963",
    "count_view": 0
  },
  {
    "link_thumb": "https://live.staticflickr.com/65535/50039255341_5ae11220d5_n.jpg",
    "id_album": "849020728",
    "description": "Alien_234560",
    "title": "Alien_234560",
    "link_img": "https://live.staticflickr.com/65535/50039255341_a236aa9039_o.jpg",
    "id_image": "Alien_234560",
    "count_view": 0
  },
  {
    "link_thumb": "https://live.staticflickr.com/65535/50039884673_fe7041f763_n.jpg",
    "id_album": "779690680",
    "description": "Robot_944758",
    "title": "Robot_944758",
    "link_img": "https://live.staticflickr.com/65535/50039884673_4bda8aba29_o.jpg",
    "id_image": "Robot_944758",
    "count_view": 0
  },
  {
    "link_thumb": "https://live.staticflickr.com/65535/50038885663_416f6703df_n.jpg",
    "id_album": "-1964113117",
    "description": "City_145242",
    "title": "City_145242",
    "link_img": "https://live.staticflickr.com/65535/50038885663_35b2595cbc_o.jpg",
    "id_image": "City_145242",
    "count_view": 0
  },
  {
    "link_thumb": "https://live.staticflickr.com/65535/50040030977_8a31a7ced4_n.jpg",
    "id_album": "-1610342324",
    "description": "Nebula_19652",
    "title": "Nebula_19652",
    "link_img": "https://live.staticflickr.com/65535/50040030977_2db422affe_o.jpg",
    "id_image": "Nebula_19652",
    "count_view": 0
  },
  {
    "link_thumb": "https://live.staticflickr.com/65535/50039988887_942389e290_n.jpg",
    "id_album": "1402713104",
    "description": "Landscape_935869",
    "title": "Landscape_935869",
    "link_img": "https://live.staticflickr.com/65535/50039988887_e2f3ba5910_o.jpg",
    "id_image": "Landscape_935869",
    "count_view": 0
  },
  {
    "link_thumb": "https://live.staticflickr.com/65535/50040060111_8495163a39_n.jpg",
    "id_album": "-1102314093",
    "description": "Planets_216382",
    "title": "Planets_216382",
    "link_img": "https://live.staticflickr.com/65535/50040060111_d9d032cf20_o.jpg",
    "id_image": "Planets_216382",
    "count_view": 0
  },
  {
    "link_thumb": "https://live.staticflickr.com/65535/50040534397_0ed702eca6_n.jpg",
    "id_album": "779690680",
    "description": "Robot_243469",
    "title": "Robot_243469",
    "link_img": "https://live.staticflickr.com/65535/50040534397_2cfa1c7e69_o.jpg",
    "id_image": "Robot_243469",
    "count_view": 0
  },
  {
    "link_thumb": "https://live.staticflickr.com/65535/50040885157_35e7da5de9_n.jpg",
    "id_album": "2130067313",
    "description": "Spaceship_280011",
    "title": "Spaceship_280011",
    "link_img": "https://live.staticflickr.com/65535/50040885157_218684762d_o.jpg",
    "id_image": "Spaceship_280011",
    "count_view": 0
  },
  {
    "link_thumb": "https://live.staticflickr.com/65535/50038951623_81a6bb3cf6_n.jpg",
    "id_album": "-1964113117",
    "description": "City_8370",
    "title": "City_8370",
    "link_img": "https://live.staticflickr.com/65535/50038951623_f4ec691a3b_o.jpg",
    "id_image": "City_8370",
    "count_view": 0
  },
  {
    "link_thumb": "https://live.staticflickr.com/65535/50039810966_74a8e4e6a3_n.jpg",
    "id_album": "-1610342324",
    "description": "Nebula_560769",
    "title": "Nebula_560769",
    "link_img": "https://live.staticflickr.com/65535/50039810966_cabd38a3ca_o.jpg",
    "id_image": "Nebula_560769",
    "count_view": 0
  },
  {
    "link_thumb": "https://live.staticflickr.com/65535/50039502131_c93848c896_n.jpg",
    "id_album": "-1964113117",
    "description": "City_855864",
    "title": "City_855864",
    "link_img": "https://live.staticflickr.com/65535/50039502131_30c64a5b3f_o.jpg",
    "id_image": "City_855864",
    "count_view": 0
  },
  {
    "link_thumb": "https://live.staticflickr.com/65535/50039780136_538a8d09af_n.jpg",
    "id_album": "-1610342324",
    "description": "Nebula_271590",
    "title": "Nebula_271590",
    "link_img": "https://live.staticflickr.com/65535/50039780136_7425de8c45_o.jpg",
    "id_image": "Nebula_271590",
    "count_view": 0
  },
  {
    "link_thumb": "https://live.staticflickr.com/65535/50040033052_51d89bd09a_n.jpg",
    "id_album": "-1610342324",
    "description": "Nebula_206533",
    "title": "Nebula_206533",
    "link_img": "https://live.staticflickr.com/65535/50040033052_7236fd1d92_o.jpg",
    "id_image": "Nebula_206533",
    "count_view": 0
  },
  {
    "link_thumb": "https://live.staticflickr.com/65535/50039389223_a8b9b5bd2f_n.jpg",
    "id_album": "395161030",
    "description": "Planet_370819",
    "title": "Planet_370819",
    "link_img": "https://live.staticflickr.com/65535/50039389223_af2d83ac5b_o.jpg",
    "id_image": "Planet_370819",
    "count_view": 0
  },
  {
    "link_thumb": "https://live.staticflickr.com/65535/50039003743_660da69a7f_n.jpg",
    "id_album": "-437872736",
    "description": "Creature_323930",
    "title": "Creature_323930",
    "link_img": "https://live.staticflickr.com/65535/50039003743_0cb2b207d3_o.jpg",
    "id_image": "Creature_323930",
    "count_view": 0
  },
  {
    "link_thumb": "https://live.staticflickr.com/65535/50039210013_441c686ea4_n.jpg",
    "id_album": "-1610342324",
    "description": "Nebula_1002217",
    "title": "Nebula_1002217",
    "link_img": "https://live.staticflickr.com/65535/50039210013_fdd37df259_o.jpg",
    "id_image": "Nebula_1002217",
    "count_view": 0
  },
  {
    "link_thumb": "https://live.staticflickr.com/65535/50039699848_2ca234fcd0_n.jpg",
    "id_album": "779690680",
    "description": "Robot_114142",
    "title": "Robot_114142",
    "link_img": "https://live.staticflickr.com/65535/50039699848_ca654009a2_o.jpg",
    "id_image": "Robot_114142",
    "count_view": 0
  },
  {
    "link_thumb": "https://live.staticflickr.com/65535/50040501532_e119287726_n.jpg",
    "id_album": "-839602625",
    "description": "Predator_113128",
    "title": "Predator_113128",
    "link_img": "https://live.staticflickr.com/65535/50040501532_dc6b3cd073_o.jpg",
    "id_image": "Predator_113128",
    "count_view": 0
  },
  {
    "link_thumb": "https://live.staticflickr.com/65535/50040724576_eed21e059e_n.jpg",
    "id_album": "2130067313",
    "description": "Spaceship_613078",
    "title": "Spaceship_613078",
    "link_img": "https://live.staticflickr.com/65535/50040724576_a657c1b767_o.jpg",
    "id_image": "Spaceship_613078",
    "count_view": 0
  },
  {
    "link_thumb": "https://live.staticflickr.com/65535/50040541592_826c60b8a7_n.jpg",
    "id_album": "779690680",
    "description": "Robot_267556",
    "title": "Robot_267556",
    "link_img": "https://live.staticflickr.com/65535/50040541592_038682a85c_o.jpg",
    "id_image": "Robot_267556",
    "count_view": 0
  },
  {
    "link_thumb": "https://live.staticflickr.com/65535/50039248726_17ab597e17_n.jpg",
    "id_album": "849020728",
    "description": "Alien_178710",
    "title": "Alien_178710",
    "link_img": "https://live.staticflickr.com/65535/50039248726_51fc613551_o.jpg",
    "id_image": "Alien_178710",
    "count_view": 0
  },
  {
    "link_thumb": "https://live.staticflickr.com/65535/50040968277_ce10c3c45c_n.jpg",
    "id_album": "2130067313",
    "description": "Spaceship_500900",
    "title": "Spaceship_500900",
    "link_img": "https://live.staticflickr.com/65535/50040968277_2d85da61c9_o.jpg",
    "id_image": "Spaceship_500900",
    "count_view": 0
  },
  {
    "link_thumb": "https://live.staticflickr.com/65535/50040222852_744ee7804c_n.jpg",
    "id_album": "395161030",
    "description": "Planet_539302",
    "title": "Planet_539302",
    "link_img": "https://live.staticflickr.com/65535/50040222852_d874893703_o.jpg",
    "id_image": "Planet_539302",
    "count_view": 0
  },
  {
    "link_thumb": "https://live.staticflickr.com/65535/50039569558_36c895c848_n.jpg",
    "id_album": "-1102314093",
    "description": "Planets_511225",
    "title": "Planets_511225",
    "link_img": "https://live.staticflickr.com/65535/50039569558_79d4602b00_o.jpg",
    "id_image": "Planets_511225",
    "count_view": 0
  },
  {
    "link_thumb": "https://live.staticflickr.com/65535/50039831358_b329178d50_n.jpg",
    "id_album": "779690680",
    "description": "Robot_874028",
    "title": "Robot_874028",
    "link_img": "https://live.staticflickr.com/65535/50039831358_bed6b08a00_o.jpg",
    "id_image": "Robot_874028",
    "count_view": 0
  },
  {
    "link_thumb": "https://live.staticflickr.com/65535/50040660178_cb7d490940_n.jpg",
    "id_album": "-1863373220",
    "description": "StarWars_670890",
    "title": "StarWars_670890",
    "link_img": "https://live.staticflickr.com/65535/50040660178_e4931bb587_o.jpg",
    "id_image": "StarWars_670890",
    "count_view": 0
  },
  {
    "link_thumb": "https://live.staticflickr.com/65535/50040203112_157c5421f5_n.jpg",
    "id_album": "395161030",
    "description": "Planet_371297",
    "title": "Planet_371297",
    "link_img": "https://live.staticflickr.com/65535/50040203112_f18033737c_o.jpg",
    "id_image": "Planet_371297",
    "count_view": 0
  },
  {
    "link_thumb": "https://live.staticflickr.com/65535/50040158888_72c50e0fe5_n.jpg",
    "id_album": "2130067313",
    "description": "Spaceship_546334",
    "title": "Spaceship_546334",
    "link_img": "https://live.staticflickr.com/65535/50040158888_91798d82ca_o.jpg",
    "id_image": "Spaceship_546334",
    "count_view": 0
  },
  {
    "link_thumb": "https://live.staticflickr.com/65535/50039544973_f399c24af8_n.jpg",
    "id_album": "-1102314093",
    "description": "Planets_355966",
    "title": "Planets_355966",
    "link_img": "https://live.staticflickr.com/65535/50039544973_66d048a308_o.jpg",
    "id_image": "Planets_355966",
    "count_view": 0
  },
  {
    "link_thumb": "https://live.staticflickr.com/65535/50041788117_605ac920b8_n.jpg",
    "id_album": "-1126835654",
    "description": "Women_350154",
    "title": "Women_350154",
    "link_img": "https://live.staticflickr.com/65535/50041788117_617b52c05a_o.jpg",
    "id_image": "Women_350154",
    "count_view": 0
  },
  {
    "link_thumb": "https://live.staticflickr.com/65535/50038868178_056266e835_n.jpg",
    "id_album": "-1780971522",
    "description": "Biohazard_566062",
    "title": "Biohazard_566062",
    "link_img": "https://live.staticflickr.com/65535/50038868178_59e96c3e1c_o.jpg",
    "id_image": "Biohazard_566062",
    "count_view": 0
  },
  {
    "link_thumb": "https://live.staticflickr.com/65535/50041843017_89dbc1c09d_n.jpg",
    "id_album": "-1675918237",
    "description": "WomenWarrior_584726",
    "title": "WomenWarrior_584726",
    "link_img": "https://live.staticflickr.com/65535/50041843017_d9fdbe7036_o.jpg",
    "id_image": "WomenWarrior_584726",
    "count_view": 0
  },
  {
    "link_thumb": "https://live.staticflickr.com/65535/50039092848_f99cb4982e_n.jpg",
    "id_album": "1204249541",
    "description": "Galaxy_549912",
    "title": "Galaxy_549912",
    "link_img": "https://live.staticflickr.com/65535/50039092848_15749f4339_o.jpg",
    "id_image": "Galaxy_549912",
    "count_view": 0
  },
  {
    "link_thumb": "https://live.staticflickr.com/65535/50041620177_835444a20e_n.jpg",
    "id_album": "-1177476763",
    "description": "Sunrise_201123",
    "title": "Sunrise_201123",
    "link_img": "https://live.staticflickr.com/65535/50041620177_38cae4512b_o.jpg",
    "id_image": "Sunrise_201123",
    "count_view": 0
  },
  {
    "link_thumb": "https://live.staticflickr.com/65535/50039423746_97509086a6_n.jpg",
    "id_album": "406431601",
    "description": "Building_804048",
    "title": "Building_804048",
    "link_img": "https://live.staticflickr.com/65535/50039423746_7cf2deb51f_o.jpg",
    "id_image": "Building_804048",
    "count_view": 0
  },
  {
    "link_thumb": "https://live.staticflickr.com/65535/50039172588_daac72dca9_n.jpg",
    "id_album": "1402713104",
    "description": "Landscape_913066",
    "title": "Landscape_913066",
    "link_img": "https://live.staticflickr.com/65535/50039172588_96e300c7ce_o.jpg",
    "id_image": "Landscape_913066",
    "count_view": 0
  },
  {
    "link_thumb": "https://live.staticflickr.com/65535/50039659017_143e3feec8_n.jpg",
    "id_album": "1187037014",
    "description": "Battle_221914",
    "title": "Battle_221914",
    "link_img": "https://live.staticflickr.com/65535/50039659017_98ab5f27d2_o.jpg",
    "id_image": "Battle_221914",
    "count_view": 0
  },
  {
    "link_thumb": "https://live.staticflickr.com/65535/50039674967_7851c147a2_n.jpg",
    "id_album": "-1780971522",
    "description": "Biohazard_306971",
    "title": "Biohazard_306971",
    "link_img": "https://live.staticflickr.com/65535/50039674967_ba69541ed3_o.jpg",
    "id_image": "Biohazard_306971",
    "count_view": 0
  },
  {
    "link_thumb": "https://live.staticflickr.com/65535/50038767243_141f34b2a3_n.jpg",
    "id_album": "523598895",
    "description": "Artistic_214924",
    "title": "Artistic_214924",
    "link_img": "https://live.staticflickr.com/65535/50038767243_84459953db_o.jpg",
    "id_image": "Artistic_214924",
    "count_view": 0
  },
  {
    "link_thumb": "https://live.staticflickr.com/65535/50039187998_bef0e94e3a_n.jpg",
    "id_album": "-1388385651",
    "description": "MilkyWay_650777",
    "title": "MilkyWay_650777",
    "link_img": "https://live.staticflickr.com/65535/50039187998_2d2dcdbc08_o.jpg",
    "id_image": "MilkyWay_650777",
    "count_view": 0
  },
  {
    "link_thumb": "https://live.staticflickr.com/65535/50040918077_3e1b733fdb_n.jpg",
    "id_album": "2130067313",
    "description": "Spaceship_329515",
    "title": "Spaceship_329515",
    "link_img": "https://live.staticflickr.com/65535/50040918077_577088a402_o.jpg",
    "id_image": "Spaceship_329515",
    "count_view": 0
  },
  {
    "link_thumb": "https://live.staticflickr.com/65535/50040363916_5fec4e7f5d_n.jpg",
    "id_album": "779690680",
    "description": "Robot_750349",
    "title": "Robot_750349",
    "link_img": "https://live.staticflickr.com/65535/50040363916_91b01c3b59_o.jpg",
    "id_image": "Robot_750349",
    "count_view": 0
  },
  {
    "link_thumb": "https://live.staticflickr.com/65535/50038697633_b237584ebe_n.jpg",
    "id_album": "849020728",
    "description": "Alien_118769",
    "title": "Alien_118769",
    "link_img": "https://live.staticflickr.com/65535/50038697633_cd7e19cb62_o.jpg",
    "id_image": "Alien_118769",
    "count_view": 0
  },
  {
    "link_thumb": "https://live.staticflickr.com/65535/50039595627_d944ea941a_n.jpg",
    "id_album": "523598895",
    "description": "Artistic_401753",
    "title": "Artistic_401753",
    "link_img": "https://live.staticflickr.com/65535/50039595627_e07b326afd_o.jpg",
    "id_image": "Artistic_401753",
    "count_view": 0
  },
  {
    "link_thumb": "https://live.staticflickr.com/65535/50039244861_31265efe67_n.jpg",
    "id_album": "849020728",
    "description": "Alien_116320",
    "title": "Alien_116320",
    "link_img": "https://live.staticflickr.com/65535/50039244861_f588ed1233_o.jpg",
    "id_image": "Alien_116320",
    "count_view": 0
  },
  {
    "link_thumb": "https://live.staticflickr.com/65535/50039830157_4dfc89e288_n.jpg",
    "id_album": "-1372247677",
    "description": "Cyberpunk_949756",
    "title": "Cyberpunk_949756",
    "link_img": "https://live.staticflickr.com/65535/50039830157_1904dd5371_o.jpg",
    "id_image": "Cyberpunk_949756",
    "count_view": 0
  },
  {
    "link_thumb": "https://live.staticflickr.com/65535/50039841023_344c5db0c6_n.jpg",
    "id_album": "779690680",
    "description": "Robot_886631",
    "title": "Robot_886631",
    "link_img": "https://live.staticflickr.com/65535/50039841023_2141924e95_o.jpg",
    "id_image": "Robot_886631",
    "count_view": 0
  },
  {
    "link_thumb": "https://live.staticflickr.com/65535/50039359603_20cacee3fa_n.jpg",
    "id_album": "395161030",
    "description": "Planet_173023",
    "title": "Planet_173023",
    "link_img": "https://live.staticflickr.com/65535/50039359603_ae53f89bd4_o.jpg",
    "id_image": "Planet_173023",
    "count_view": 0
  },
  {
    "link_thumb": "https://live.staticflickr.com/65535/50039271391_17aa0ba07b_n.jpg",
    "id_album": "849020728",
    "description": "Alien_599877",
    "title": "Alien_599877",
    "link_img": "https://live.staticflickr.com/65535/50039271391_2e6a81543e_o.jpg",
    "id_image": "Alien_599877",
    "count_view": 0
  },
  {
    "link_thumb": "https://live.staticflickr.com/65535/50038935373_e1da1aa759_n.jpg",
    "id_album": "-1964113117",
    "description": "City_649506",
    "title": "City_649506",
    "link_img": "https://live.staticflickr.com/65535/50038935373_e2b4950c31_o.jpg",
    "id_image": "City_649506",
    "count_view": 0
  },
  {
    "link_thumb": "https://live.staticflickr.com/65535/50039140883_023f1a95ce_n.jpg",
    "id_album": "1402713104",
    "description": "Landscape_459374",
    "title": "Landscape_459374",
    "link_img": "https://live.staticflickr.com/65535/50039140883_ec4d917ef5_o.jpg",
    "id_image": "Landscape_459374",
    "count_view": 0
  },
  {
    "link_thumb": "https://live.staticflickr.com/65535/50039114628_3a5f03e325_n.jpg",
    "id_album": "1402713104",
    "description": "Landscape_186055",
    "title": "Landscape_186055",
    "link_img": "https://live.staticflickr.com/65535/50039114628_5ae1ee65a5_o.jpg",
    "id_image": "Landscape_186055",
    "count_view": 0
  },
  {
    "link_thumb": "https://live.staticflickr.com/65535/50040052897_c090505e9d_n.jpg",
    "id_album": "-1610342324",
    "description": "Nebula_379571",
    "title": "Nebula_379571",
    "link_img": "https://live.staticflickr.com/65535/50040052897_0e350d2360_o.jpg",
    "id_image": "Nebula_379571",
    "count_view": 0
  },
  {
    "link_thumb": "https://live.staticflickr.com/65535/50039939046_99834d90b9_n.jpg",
    "id_album": "395161030",
    "description": "Planet_374641",
    "title": "Planet_374641",
    "link_img": "https://live.staticflickr.com/65535/50039939046_18e6a69cd3_o.jpg",
    "id_image": "Planet_374641",
    "count_view": 0
  },
  {
    "link_thumb": "https://live.staticflickr.com/65535/50039498177_7d9f7f86fc_n.jpg",
    "id_album": "-406145265",
    "description": "Aircraft_269371",
    "title": "Aircraft_269371",
    "link_img": "https://live.staticflickr.com/65535/50039498177_a432629343_o.jpg",
    "id_image": "Aircraft_269371",
    "count_view": 0
  },
  {
    "link_thumb": "https://live.staticflickr.com/65535/50041153411_f44de4ff2b_n.jpg",
    "id_album": "-1863373220",
    "description": "StarWars_245460",
    "title": "StarWars_245460",
    "link_img": "https://live.staticflickr.com/65535/50041153411_06e2856132_o.jpg",
    "id_image": "StarWars_245460",
    "count_view": 0
  },
  {
    "link_thumb": "https://live.staticflickr.com/65535/50041700912_d413469871_n.jpg",
    "id_album": "-1261420436",
    "description": "Warrior_248663",
    "title": "Warrior_248663",
    "link_img": "https://live.staticflickr.com/65535/50041700912_a924d4822c_o.jpg",
    "id_image": "Warrior_248663",
    "count_view": 0
  },
  {
    "link_thumb": "https://live.staticflickr.com/65535/50040324017_579f4b6038_n.jpg",
    "id_album": "-1102314093",
    "description": "Planets_218404",
    "title": "Planets_218404",
    "link_img": "https://live.staticflickr.com/65535/50040324017_5f5a4d24ec_o.jpg",
    "id_image": "Planets_218404",
    "count_view": 0
  },
  {
    "link_thumb": "https://live.staticflickr.com/65535/50040265906_aeee3252f2_n.jpg",
    "id_album": "779690680",
    "description": "Robot_217185",
    "title": "Robot_217185",
    "link_img": "https://live.staticflickr.com/65535/50040265906_740b924553_o.jpg",
    "id_image": "Robot_217185",
    "count_view": 0
  },
  {
    "link_thumb": "https://live.staticflickr.com/65535/50039710132_973a7d97e1_n.jpg",
    "id_album": "-1964113117",
    "description": "City_215042",
    "title": "City_215042",
    "link_img": "https://live.staticflickr.com/65535/50039710132_2a1fb90b59_o.jpg",
    "id_image": "City_215042",
    "count_view": 0
  },
  {
    "link_thumb": "https://live.staticflickr.com/65535/50039847908_1d44bdc836_n.jpg",
    "id_album": "779690680",
    "description": "Robot_902777",
    "title": "Robot_902777",
    "link_img": "https://live.staticflickr.com/65535/50039847908_05ccb57985_o.jpg",
    "id_image": "Robot_902777",
    "count_view": 0
  },
  {
    "link_thumb": "https://live.staticflickr.com/65535/50040246168_f937beb9e3_n.jpg",
    "id_album": "-1449720967",
    "description": "StarTrek_177180",
    "title": "StarTrek_177180",
    "link_img": "https://live.staticflickr.com/65535/50040246168_fdcde32423_o.jpg",
    "id_image": "StarTrek_177180",
    "count_view": 0
  },
  {
    "link_thumb": "https://live.staticflickr.com/65535/50041392096_280a64d11c_n.jpg",
    "id_album": "2020068132",
    "description": "Vehicle_345581",
    "title": "Vehicle_345581",
    "link_img": "https://live.staticflickr.com/65535/50041392096_5fcd387f0f_o.jpg",
    "id_image": "Vehicle_345581",
    "count_view": 0
  },
  {
    "link_thumb": "https://live.staticflickr.com/65535/50038991223_4a56f57b51_n.jpg",
    "id_album": "894679094",
    "description": "Collision_331411",
    "title": "Collision_331411",
    "link_img": "https://live.staticflickr.com/65535/50038991223_7be9854142_o.jpg",
    "id_image": "Collision_331411",
    "count_view": 0
  },
  {
    "link_thumb": "https://live.staticflickr.com/65535/50038931293_2874897db5_n.jpg",
    "id_album": "-1964113117",
    "description": "City_576566",
    "title": "City_576566",
    "link_img": "https://live.staticflickr.com/65535/50038931293_135ec1cd00_o.jpg",
    "id_image": "City_576566",
    "count_view": 0
  },
  {
    "link_thumb": "https://live.staticflickr.com/65535/50039994677_0af103918c_n.jpg",
    "id_album": "-1388385651",
    "description": "MilkyWay_308365",
    "title": "MilkyWay_308365",
    "link_img": "https://live.staticflickr.com/65535/50039994677_4912721877_o.jpg",
    "id_image": "MilkyWay_308365",
    "count_view": 0
  },
  {
    "link_thumb": "https://live.staticflickr.com/65535/50039463936_b6df08e8c9_n.jpg",
    "id_album": "-1964113117",
    "description": "City_332525",
    "title": "City_332525",
    "link_img": "https://live.staticflickr.com/65535/50039463936_fe05499c4e_o.jpg",
    "id_image": "City_332525",
    "count_view": 0
  },
  {
    "link_thumb": "https://live.staticflickr.com/65535/50041667387_3f6f7c909b_n.jpg",
    "id_album": "2020068132",
    "description": "Vehicle_590989",
    "title": "Vehicle_590989",
    "link_img": "https://live.staticflickr.com/65535/50041667387_c62f481277_o.jpg",
    "id_image": "Vehicle_590989",
    "count_view": 0
  },
  {
    "link_thumb": "https://live.staticflickr.com/65535/50041679732_ab7c5cb28f_n.jpg",
    "id_album": "2020068132",
    "description": "Vehicle_874660",
    "title": "Vehicle_874660",
    "link_img": "https://live.staticflickr.com/65535/50041679732_900c5f1d91_o.jpg",
    "id_image": "Vehicle_874660",
    "count_view": 0
  },
  {
    "link_thumb": "https://live.staticflickr.com/65535/50040909293_8f6f519bff_n.jpg",
    "id_album": "-1261420436",
    "description": "Warrior_484316",
    "title": "Warrior_484316",
    "link_img": "https://live.staticflickr.com/65535/50040909293_720f809d89_o.jpg",
    "id_image": "Warrior_484316",
    "count_view": 0
  },
  {
    "link_thumb": "https://live.staticflickr.com/65535/50039600648_e429bea63e_n.jpg",
    "id_album": "-1102314093",
    "description": "Planets_957534",
    "title": "Planets_957534",
    "link_img": "https://live.staticflickr.com/65535/50039600648_f3aacfb1d0_o.jpg",
    "id_image": "Planets_957534",
    "count_view": 0
  },
  {
    "link_thumb": "https://live.staticflickr.com/65535/50040502167_9bbd67299c_n.jpg",
    "id_album": "-839602625",
    "description": "Predator_177845",
    "title": "Predator_177845",
    "link_img": "https://live.staticflickr.com/65535/50040502167_3b501d8a8a_o.jpg",
    "id_image": "Predator_177845",
    "count_view": 0
  },
  {
    "link_thumb": "https://live.staticflickr.com/65535/50039614258_73026ac21e_n.jpg",
    "id_album": "376235057",
    "description": "Planetscape_359260",
    "title": "Planetscape_359260",
    "link_img": "https://live.staticflickr.com/65535/50039614258_a194715da0_o.jpg",
    "id_image": "Planetscape_359260",
    "count_view": 0
  },
  {
    "link_thumb": "https://live.staticflickr.com/65535/50039447748_b43a90227a_n.jpg",
    "id_album": "1443611160",
    "description": "PlanetRise_211944",
    "title": "PlanetRise_211944",
    "link_img": "https://live.staticflickr.com/65535/50039447748_b4a16ed442_o.jpg",
    "id_image": "PlanetRise_211944",
    "count_view": 0
  },
  {
    "link_thumb": "https://live.staticflickr.com/65535/50039550082_479b552b2a_n.jpg",
    "id_album": "-419633230",
    "description": "Apocalyptic_957340",
    "title": "Apocalyptic_957340",
    "link_img": "https://live.staticflickr.com/65535/50039550082_48929cab07_o.jpg",
    "id_image": "Apocalyptic_957340",
    "count_view": 0
  },
  {
    "link_thumb": "https://live.staticflickr.com/65535/50039633391_938be46f30_n.jpg",
    "id_album": "1204249541",
    "description": "Galaxy_422151",
    "title": "Galaxy_422151",
    "link_img": "https://live.staticflickr.com/65535/50039633391_17f33fd81c_o.jpg",
    "id_image": "Galaxy_422151",
    "count_view": 0
  },
  {
    "link_thumb": "https://live.staticflickr.com/65535/50040390831_a96b1853c3_n.jpg",
    "id_album": "779690680",
    "description": "Robot_881755",
    "title": "Robot_881755",
    "link_img": "https://live.staticflickr.com/65535/50040390831_bb9b51118c_o.jpg",
    "id_image": "Robot_881755",
    "count_view": 0
  },
  {
    "link_thumb": "https://live.staticflickr.com/65535/50039424846_0181c86c19_n.jpg",
    "id_album": "406431601",
    "description": "Building_872518",
    "title": "Building_872518",
    "link_img": "https://live.staticflickr.com/65535/50039424846_7a672d67ed_o.jpg",
    "id_image": "Building_872518",
    "count_view": 0
  },
  {
    "link_thumb": "https://live.staticflickr.com/65535/50041127651_bc0db5a670_n.jpg",
    "id_album": "-1863373220",
    "description": "StarWars_205590",
    "title": "StarWars_205590",
    "link_img": "https://live.staticflickr.com/65535/50041127651_ce8208c82f_o.jpg",
    "id_image": "StarWars_205590",
    "count_view": 0
  },
  {
    "link_thumb": "https://live.staticflickr.com/65535/50039932482_18d840ddbb_n.jpg",
    "id_album": "1402713104",
    "description": "Landscape_272370",
    "title": "Landscape_272370",
    "link_img": "https://live.staticflickr.com/65535/50039932482_ba8321fd3e_o.jpg",
    "id_image": "Landscape_272370",
    "count_view": 0
  },
  {
    "link_thumb": "https://live.staticflickr.com/65535/50039720051_2ff6d7a20a_n.jpg",
    "id_album": "1402713104",
    "description": "Landscape_900201",
    "title": "Landscape_900201",
    "link_img": "https://live.staticflickr.com/65535/50039720051_383ee3d02b_o.jpg",
    "id_image": "Landscape_900201",
    "count_view": 0
  },
  {
    "link_thumb": "https://live.staticflickr.com/65535/50039706217_e5a32367fe_n.jpg",
    "id_album": "-1964113117",
    "description": "City_205947",
    "title": "City_205947",
    "link_img": "https://live.staticflickr.com/65535/50039706217_7ce252b0bb_o.jpg",
    "id_image": "City_205947",
    "count_view": 0
  },
  {
    "link_thumb": "https://live.staticflickr.com/65535/50040695652_1f5ba38cc9_n.jpg",
    "id_album": "779690680",
    "description": "Robot_934613",
    "title": "Robot_934613",
    "link_img": "https://live.staticflickr.com/65535/50040695652_8209c71908_o.jpg",
    "id_image": "Robot_934613",
    "count_view": 0
  },
  {
    "link_thumb": "https://live.staticflickr.com/65535/50040556351_14a6b22076_n.jpg",
    "id_album": "-1532370292",
    "description": "SpaceStation_1007078",
    "title": "SpaceStation_1007078",
    "link_img": "https://live.staticflickr.com/65535/50040556351_241aec1500_o.jpg",
    "id_image": "SpaceStation_1007078",
    "count_view": 0
  },
  {
    "link_thumb": "https://live.staticflickr.com/65535/50038903188_ef38781ea4_n.jpg",
    "id_album": "-1964113117",
    "description": "City_235574",
    "title": "City_235574",
    "link_img": "https://live.staticflickr.com/65535/50038903188_2831e8b808_o.jpg",
    "id_image": "City_235574",
    "count_view": 0
  },
  {
    "link_thumb": "https://live.staticflickr.com/65535/50039508382_f3767a51f1_n.jpg",
    "id_album": "849020728",
    "description": "Alien_152001",
    "title": "Alien_152001",
    "link_img": "https://live.staticflickr.com/65535/50039508382_88ca33fe31_o.jpg",
    "id_image": "Alien_152001",
    "count_view": 0
  },
  {
    "link_thumb": "https://live.staticflickr.com/65535/50039837012_0f36c881c1_n.jpg",
    "id_album": "829169633",
    "description": "Cyborg_1010639",
    "title": "Cyborg_1010639",
    "link_img": "https://live.staticflickr.com/65535/50039837012_8ff93eba29_o.jpg",
    "id_image": "Cyborg_1010639",
    "count_view": 0
  },
  {
    "link_thumb": "https://live.staticflickr.com/65535/50039350968_95fbe45329_n.jpg",
    "id_album": "395161030",
    "description": "Planet_1003035",
    "title": "Planet_1003035",
    "link_img": "https://live.staticflickr.com/65535/50039350968_064a32d958_o.jpg",
    "id_image": "Planet_1003035",
    "count_view": 0
  },
  {
    "link_thumb": "https://live.staticflickr.com/65535/50039570007_263ff28893_n.jpg",
    "id_album": "523598895",
    "description": "Artistic_188244",
    "title": "Artistic_188244",
    "link_img": "https://live.staticflickr.com/65535/50039570007_0429d40303_o.jpg",
    "id_image": "Artistic_188244",
    "count_view": 0
  },
  {
    "link_thumb": "https://live.staticflickr.com/65535/50040169758_bed6549464_n.jpg",
    "id_album": "2130067313",
    "description": "Spaceship_609835",
    "title": "Spaceship_609835",
    "link_img": "https://live.staticflickr.com/65535/50040169758_abe25a5c2a_o.jpg",
    "id_image": "Spaceship_609835",
    "count_view": 0
  },
  {
    "link_thumb": "https://live.staticflickr.com/65535/50040808878_569e6cbceb_n.jpg",
    "id_album": "-1177476763",
    "description": "Sunrise_391881",
    "title": "Sunrise_391881",
    "link_img": "https://live.staticflickr.com/65535/50040808878_83ac0613a0_o.jpg",
    "id_image": "Sunrise_391881",
    "count_view": 0
  },
  {
    "link_thumb": "https://live.staticflickr.com/65535/50039207598_5f11fbdae8_n.jpg",
    "id_album": "416351698",
    "description": "Moon_551065",
    "title": "Moon_551065",
    "link_img": "https://live.staticflickr.com/65535/50039207598_1ae266b927_o.jpg",
    "id_image": "Moon_551065",
    "count_view": 0
  },
  {
    "link_thumb": "https://live.staticflickr.com/65535/50040417956_e992bce8a8_n.jpg",
    "id_album": "779690680",
    "description": "Robot_921713",
    "title": "Robot_921713",
    "link_img": "https://live.staticflickr.com/65535/50040417956_7cdcc76808_o.jpg",
    "id_image": "Robot_921713",
    "count_view": 0
  },
  {
    "link_thumb": "https://live.staticflickr.com/65535/50039841298_eb2ebd2254_n.jpg",
    "id_album": "779690680",
    "description": "Robot_886635",
    "title": "Robot_886635",
    "link_img": "https://live.staticflickr.com/65535/50039841298_32e33be649_o.jpg",
    "id_image": "Robot_886635",
    "count_view": 0
  },
  {
    "link_thumb": "https://live.staticflickr.com/65535/50041351426_00ee3a4f1d_n.jpg",
    "id_album": "-221671103",
    "description": "Sun_549919",
    "title": "Sun_549919",
    "link_img": "https://live.staticflickr.com/65535/50041351426_6177a6fa10_o.jpg",
    "id_image": "Sun_549919",
    "count_view": 0
  },
  {
    "link_thumb": "https://live.staticflickr.com/65535/50040188396_c951e8cf0a_n.jpg",
    "id_album": "-482547208",
    "description": "PostApocalyptic_106770",
    "title": "PostApocalyptic_106770",
    "link_img": "https://live.staticflickr.com/65535/50040188396_24a49a4bf9_o.jpg",
    "id_image": "PostApocalyptic_106770",
    "count_view": 0
  },
  {
    "link_thumb": "https://live.staticflickr.com/65535/50039919857_ace01248de_n.jpg",
    "id_album": "1204249541",
    "description": "Galaxy_942511",
    "title": "Galaxy_942511",
    "link_img": "https://live.staticflickr.com/65535/50039919857_9038d76819_o.jpg",
    "id_image": "Galaxy_942511",
    "count_view": 0
  },
  {
    "link_thumb": "https://live.staticflickr.com/65535/50039372561_8545cea783_n.jpg",
    "id_album": "869545341",
    "description": "Astronaut_857747",
    "title": "Astronaut_857747",
    "link_img": "https://live.staticflickr.com/65535/50039372561_5d3e19c018_o.jpg",
    "id_image": "Astronaut_857747",
    "count_view": 0
  },
  {
    "link_thumb": "https://live.staticflickr.com/65535/50041395786_061b968ffe_n.jpg",
    "id_album": "2020068132",
    "description": "Vehicle_391906",
    "title": "Vehicle_391906",
    "link_img": "https://live.staticflickr.com/65535/50041395786_45c1440ba9_o.jpg",
    "id_image": "Vehicle_391906",
    "count_view": 0
  },
  {
    "link_thumb": "https://live.staticflickr.com/65535/50041739942_25fd76083f_n.jpg",
    "id_album": "-1261420436",
    "description": "Warrior_599815",
    "title": "Warrior_599815",
    "link_img": "https://live.staticflickr.com/65535/50041739942_e4b3b1bfc0_o.jpg",
    "id_image": "Warrior_599815",
    "count_view": 0
  },
  {
    "link_thumb": "https://live.staticflickr.com/65535/50040374686_f583c47a6b_n.jpg",
    "id_album": "779690680",
    "description": "Robot_857291",
    "title": "Robot_857291",
    "link_img": "https://live.staticflickr.com/65535/50040374686_052293ffcb_o.jpg",
    "id_image": "Robot_857291",
    "count_view": 0
  },
  {
    "link_thumb": "https://live.staticflickr.com/65535/50039904402_81438eb12f_n.jpg",
    "id_album": "1204249541",
    "description": "Galaxy_546246",
    "title": "Galaxy_546246",
    "link_img": "https://live.staticflickr.com/65535/50039904402_c72a50a48b_o.jpg",
    "id_image": "Galaxy_546246",
    "count_view": 0
  },
  {
    "link_thumb": "https://live.staticflickr.com/65535/50040167367_7a61cd4f5e_n.jpg",
    "id_album": "395161030",
    "description": "Planet_105256",
    "title": "Planet_105256",
    "link_img": "https://live.staticflickr.com/65535/50040167367_4581d3d8d4_o.jpg",
    "id_image": "Planet_105256",
    "count_view": 0
  },
  {
    "link_thumb": "https://live.staticflickr.com/65535/50039280841_dbe7fd84b1_n.jpg",
    "id_album": "-419633230",
    "description": "Apocalyptic_255601",
    "title": "Apocalyptic_255601",
    "link_img": "https://live.staticflickr.com/65535/50039280841_cbfd3438b3_o.jpg",
    "id_image": "Apocalyptic_255601",
    "count_view": 0
  },
  {
    "link_thumb": "https://live.staticflickr.com/65535/50039108303_89f33f385a_n.jpg",
    "id_album": "1204249541",
    "description": "Galaxy_984395",
    "title": "Galaxy_984395",
    "link_img": "https://live.staticflickr.com/65535/50039108303_e338379a11_o.jpg",
    "id_image": "Galaxy_984395",
    "count_view": 0
  },
  {
    "link_thumb": "https://live.staticflickr.com/65535/50040589491_59e7f6a175_n.jpg",
    "id_album": "2130067313",
    "description": "Spaceship_179010",
    "title": "Spaceship_179010",
    "link_img": "https://live.staticflickr.com/65535/50040589491_c33829dda3_o.jpg",
    "id_image": "Spaceship_179010",
    "count_view": 0
  },
  {
    "link_thumb": "https://live.staticflickr.com/65535/50039857373_f86542642e_n.jpg",
    "id_album": "779690680",
    "description": "Robot_914390",
    "title": "Robot_914390",
    "link_img": "https://live.staticflickr.com/65535/50039857373_c8669ec296_o.jpg",
    "id_image": "Robot_914390",
    "count_view": 0
  },
  {
    "link_thumb": "https://live.staticflickr.com/65535/50040474326_143fc64e99_n.jpg",
    "id_album": "1613540653",
    "description": "Space_180938",
    "title": "Space_180938",
    "link_img": "https://live.staticflickr.com/65535/50040474326_d0abfd4255_o.jpg",
    "id_image": "Space_180938",
    "count_view": 0
  },
  {
    "link_thumb": "https://live.staticflickr.com/65535/50039843308_6041443b89_n.jpg",
    "id_album": "779690680",
    "description": "Robot_889659",
    "title": "Robot_889659",
    "link_img": "https://live.staticflickr.com/65535/50039843308_647797432a_o.jpg",
    "id_image": "Robot_889659",
    "count_view": 0
  },
  {
    "link_thumb": "https://live.staticflickr.com/65535/50039992632_90c4441156_n.jpg",
    "id_album": "1402713104",
    "description": "Landscape_979174",
    "title": "Landscape_979174",
    "link_img": "https://live.staticflickr.com/65535/50039992632_a47e47ba91_o.jpg",
    "id_image": "Landscape_979174",
    "count_view": 0
  },
  {
    "link_thumb": "https://live.staticflickr.com/65535/50041340232_e307d0a462_n.jpg",
    "id_album": "-1863373220",
    "description": "StarWars_103480",
    "title": "StarWars_103480",
    "link_img": "https://live.staticflickr.com/65535/50041340232_5220ef7836_o.jpg",
    "id_image": "StarWars_103480",
    "count_view": 0
  },
  {
    "link_thumb": "https://live.staticflickr.com/65535/50038826893_3b48e23432_n.jpg",
    "id_album": "869545341",
    "description": "Astronaut_865987",
    "title": "Astronaut_865987",
    "link_img": "https://live.staticflickr.com/65535/50038826893_a7bc4c89c8_o.jpg",
    "id_image": "Astronaut_865987",
    "count_view": 0
  },
  {
    "link_thumb": "https://live.staticflickr.com/65535/50038769988_d91a9f022c_n.jpg",
    "id_album": "523598895",
    "description": "Artistic_222304",
    "title": "Artistic_222304",
    "link_img": "https://live.staticflickr.com/65535/50038769988_f96c5375b1_o.jpg",
    "id_image": "Artistic_222304",
    "count_view": 0
  },
  {
    "link_thumb": "https://live.staticflickr.com/65535/50040050433_16871e3977_n.jpg",
    "id_album": "2130067313",
    "description": "Spaceship_239613",
    "title": "Spaceship_239613",
    "link_img": "https://live.staticflickr.com/65535/50040050433_34ed5e54ab_o.jpg",
    "id_image": "Spaceship_239613",
    "count_view": 0
  },
  {
    "link_thumb": "https://live.staticflickr.com/65535/50040201902_205a574916_n.jpg",
    "id_album": "395161030",
    "description": "Planet_364701",
    "title": "Planet_364701",
    "link_img": "https://live.staticflickr.com/65535/50040201902_a40f178895_o.jpg",
    "id_image": "Planet_364701",
    "count_view": 0
  },
  {
    "link_thumb": "https://live.staticflickr.com/65535/50040397841_f38afaf39c_n.jpg",
    "id_album": "779690680",
    "description": "Robot_898622",
    "title": "Robot_898622",
    "link_img": "https://live.staticflickr.com/65535/50040397841_5446778fc4_o.jpg",
    "id_image": "Robot_898622",
    "count_view": 0
  },
  {
    "link_thumb": "https://live.staticflickr.com/65535/50039854023_58566d8048_n.jpg",
    "id_album": "779690680",
    "description": "Robot_910947",
    "title": "Robot_910947",
    "link_img": "https://live.staticflickr.com/65535/50039854023_ce17a48a4e_o.jpg",
    "id_image": "Robot_910947",
    "count_view": 0
  },
  {
    "link_thumb": "https://live.staticflickr.com/65535/50039896027_c7f5471989_n.jpg",
    "id_album": "1204249541",
    "description": "Galaxy_422263",
    "title": "Galaxy_422263",
    "link_img": "https://live.staticflickr.com/65535/50039896027_ee16687425_o.jpg",
    "id_image": "Galaxy_422263",
    "count_view": 0
  },
  {
    "link_thumb": "https://live.staticflickr.com/65535/50038895113_490604467c_n.jpg",
    "id_album": "-1964113117",
    "description": "City_205979",
    "title": "City_205979",
    "link_img": "https://live.staticflickr.com/65535/50038895113_7d433d8c6a_o.jpg",
    "id_image": "City_205979",
    "count_view": 0
  },
  {
    "link_thumb": "https://live.staticflickr.com/65535/50041436532_5fa4366a71_n.jpg",
    "id_album": "-1863373220",
    "description": "StarWars_382008",
    "title": "StarWars_382008",
    "link_img": "https://live.staticflickr.com/65535/50041436532_f0db220b66_o.jpg",
    "id_image": "StarWars_382008",
    "count_view": 0
  },
  {
    "link_thumb": "https://live.staticflickr.com/65535/50039589338_24e8c06c73_n.jpg",
    "id_album": "-1102314093",
    "description": "Planets_82727",
    "title": "Planets_82727",
    "link_img": "https://live.staticflickr.com/65535/50039589338_0c179607bf_o.jpg",
    "id_image": "Planets_82727",
    "count_view": 0
  },
  {
    "link_thumb": "https://live.staticflickr.com/65535/50039875563_d1d7d73a2d_n.jpg",
    "id_album": "779690680",
    "description": "Robot_933176",
    "title": "Robot_933176",
    "link_img": "https://live.staticflickr.com/65535/50039875563_3fabc64571_o.jpg",
    "id_image": "Robot_933176",
    "count_view": 0
  },
  {
    "link_thumb": "https://live.staticflickr.com/65535/50041442527_f81dff17bc_n.jpg",
    "id_album": "-1863373220",
    "description": "StarWars_429294",
    "title": "StarWars_429294",
    "link_img": "https://live.staticflickr.com/65535/50041442527_7d034c47a5_o.jpg",
    "id_image": "StarWars_429294",
    "count_view": 0
  },
  {
    "link_thumb": "https://live.staticflickr.com/65535/50039918802_e987155e6f_n.jpg",
    "id_album": "1204249541",
    "description": "Galaxy_901163",
    "title": "Galaxy_901163",
    "link_img": "https://live.staticflickr.com/65535/50039918802_9b9656af81_o.jpg",
    "id_image": "Galaxy_901163",
    "count_view": 0
  },
  {
    "link_thumb": "https://live.staticflickr.com/65535/50039754392_5d309dd950_n.jpg",
    "id_album": "-1964113117",
    "description": "City_711666",
    "title": "City_711666",
    "link_img": "https://live.staticflickr.com/65535/50039754392_97366ba4fd_o.jpg",
    "id_image": "City_711666",
    "count_view": 0
  },
  {
    "link_thumb": "https://live.staticflickr.com/65535/50040062536_1f3a47b520_n.jpg",
    "id_album": "-1102314093",
    "description": "Planets_225063",
    "title": "Planets_225063",
    "link_img": "https://live.staticflickr.com/65535/50040062536_3959b3d6ae_o.jpg",
    "id_image": "Planets_225063",
    "count_view": 0
  },
  {
    "link_thumb": "https://live.staticflickr.com/65535/50039624873_98f4293153_n.jpg",
    "id_album": "376235057",
    "description": "Planetscape_531444",
    "title": "Planetscape_531444",
    "link_img": "https://live.staticflickr.com/65535/50039624873_48e2e179f1_o.jpg",
    "id_image": "Planetscape_531444",
    "count_view": 0
  },
  {
    "link_thumb": "https://live.staticflickr.com/65535/50040429636_784e0934e6_n.jpg",
    "id_album": "779690680",
    "description": "Robot_932189",
    "title": "Robot_932189",
    "link_img": "https://live.staticflickr.com/65535/50040429636_94cd6cd15e_o.jpg",
    "id_image": "Robot_932189",
    "count_view": 0
  },
  {
    "link_thumb": "https://live.staticflickr.com/65535/50040215592_701921c097_n.jpg",
    "id_album": "395161030",
    "description": "Planet_463339",
    "title": "Planet_463339",
    "link_img": "https://live.staticflickr.com/65535/50040215592_1d2a23b3c3_o.jpg",
    "id_image": "Planet_463339",
    "count_view": 0
  },
  {
    "link_thumb": "https://live.staticflickr.com/65535/50039276221_869b666fe1_n.jpg",
    "id_album": "849020728",
    "description": "Alien_907089",
    "title": "Alien_907089",
    "link_img": "https://live.staticflickr.com/65535/50039276221_d85b50a5f7_o.jpg",
    "id_image": "Alien_907089",
    "count_view": 0
  },
  {
    "link_thumb": "https://live.staticflickr.com/65535/50040388982_0e91d75b11_n.jpg",
    "id_album": "-1102314093",
    "description": "Planets_546966",
    "title": "Planets_546966",
    "link_img": "https://live.staticflickr.com/65535/50040388982_1d64cc3377_o.jpg",
    "id_image": "Planets_546966",
    "count_view": 0
  },
  {
    "link_thumb": "https://live.staticflickr.com/65535/50040670542_5e6d63da17_n.jpg",
    "id_album": "779690680",
    "description": "Robot_909552",
    "title": "Robot_909552",
    "link_img": "https://live.staticflickr.com/65535/50040670542_016b0643c4_o.jpg",
    "id_image": "Robot_909552",
    "count_view": 0
  },
  {
    "link_thumb": "https://live.staticflickr.com/65535/50040088112_90f212da3d_n.jpg",
    "id_album": "-1610342324",
    "description": "Nebula_705310",
    "title": "Nebula_705310",
    "link_img": "https://live.staticflickr.com/65535/50040088112_6a1545ae21_o.jpg",
    "id_image": "Nebula_705310",
    "count_view": 0
  },
  {
    "link_thumb": "https://live.staticflickr.com/65535/50039534122_c0604ca57b_n.jpg",
    "id_album": "849020728",
    "description": "Alien_609323",
    "title": "Alien_609323",
    "link_img": "https://live.staticflickr.com/65535/50039534122_137e5e1ede_o.jpg",
    "id_image": "Alien_609323",
    "count_view": 0
  },
  {
    "link_thumb": "https://live.staticflickr.com/65535/50039407283_06a2cda10b_n.jpg",
    "id_album": "395161030",
    "description": "Planet_526200",
    "title": "Planet_526200",
    "link_img": "https://live.staticflickr.com/65535/50039407283_3d79f041ec_o.jpg",
    "id_image": "Planet_526200",
    "count_view": 0
  },
  {
    "link_thumb": "https://live.staticflickr.com/65535/50040117033_4f9cae898b_n.jpg",
    "id_album": "2130067313",
    "description": "Spaceship_377029",
    "title": "Spaceship_377029",
    "link_img": "https://live.staticflickr.com/65535/50040117033_d37dee069b_o.jpg",
    "id_image": "Spaceship_377029",
    "count_view": 0
  },
  {
    "link_thumb": "https://live.staticflickr.com/65535/50039482416_5c40ce104f_n.jpg",
    "id_album": "-1964113117",
    "description": "City_635056",
    "title": "City_635056",
    "link_img": "https://live.staticflickr.com/65535/50039482416_49959e162f_o.jpg",
    "id_image": "City_635056",
    "count_view": 0
  },
  {
    "link_thumb": "https://live.staticflickr.com/65535/50039889732_c64aa2f89d_n.jpg",
    "id_album": "1204249541",
    "description": "Galaxy_221265",
    "title": "Galaxy_221265",
    "link_img": "https://live.staticflickr.com/65535/50039889732_9d679067ba_o.jpg",
    "id_image": "Galaxy_221265",
    "count_view": 0
  },
  {
    "link_thumb": "https://live.staticflickr.com/65535/50040655997_737e3286e7_n.jpg",
    "id_album": "779690680",
    "description": "Robot_883159",
    "title": "Robot_883159",
    "link_img": "https://live.staticflickr.com/65535/50040655997_6f73399a42_o.jpg",
    "id_image": "Robot_883159",
    "count_view": 0
  },
  {
    "link_thumb": "https://live.staticflickr.com/65535/50039078458_f1508e0074_n.jpg",
    "id_album": "1204249541",
    "description": "Galaxy_240106",
    "title": "Galaxy_240106",
    "link_img": "https://live.staticflickr.com/65535/50039078458_122fd01f7f_o.jpg",
    "id_image": "Galaxy_240106",
    "count_view": 0
  },
  {
    "link_thumb": "https://live.staticflickr.com/65535/50039662002_f71551e217_n.jpg",
    "id_album": "1187037014",
    "description": "Battle_274820",
    "title": "Battle_274820",
    "link_img": "https://live.staticflickr.com/65535/50039662002_556b4d0f89_o.jpg",
    "id_image": "Battle_274820",
    "count_view": 0
  },
  {
    "link_thumb": "https://live.staticflickr.com/65535/50041718477_98d2279614_n.jpg",
    "id_album": "-1261420436",
    "description": "Warrior_386973",
    "title": "Warrior_386973",
    "link_img": "https://live.staticflickr.com/65535/50041718477_9f3a1fc707_o.jpg",
    "id_image": "Warrior_386973",
    "count_view": 0
  },
  {
    "link_thumb": "https://live.staticflickr.com/65535/50040847932_c65d1cdf3c_n.jpg",
    "id_album": "2130067313",
    "description": "Spaceship_162097",
    "title": "Spaceship_162097",
    "link_img": "https://live.staticflickr.com/65535/50040847932_ec62fa67eb_o.jpg",
    "id_image": "Spaceship_162097",
    "count_view": 0
  },
  {
    "link_thumb": "https://live.staticflickr.com/65535/50038912633_5e98916c79_n.jpg",
    "id_album": "-1964113117",
    "description": "City_304670",
    "title": "City_304670",
    "link_img": "https://live.staticflickr.com/65535/50038912633_4a3d9e20e8_o.jpg",
    "id_image": "City_304670",
    "count_view": 0
  },
  {
    "link_thumb": "https://live.staticflickr.com/65535/50041563377_7cee198df0_n.jpg",
    "id_album": "1267121215",
    "description": "Steampunk_21623",
    "title": "Steampunk_21623",
    "link_img": "https://live.staticflickr.com/65535/50041563377_5e8fd5d829_o.jpg",
    "id_image": "Steampunk_21623",
    "count_view": 0
  },
  {
    "link_thumb": "https://live.staticflickr.com/65535/50039302993_15aa956093_n.jpg",
    "id_album": "-1610342324",
    "description": "Nebula_922578",
    "title": "Nebula_922578",
    "link_img": "https://live.staticflickr.com/65535/50039302993_f4f69a73ee_o.jpg",
    "id_image": "Nebula_922578",
    "count_view": 0
  },
  {
    "link_thumb": "https://live.staticflickr.com/65535/50039502982_89e07033b2_n.jpg",
    "id_album": "-406145265",
    "description": "Aircraft_530108",
    "title": "Aircraft_530108",
    "link_img": "https://live.staticflickr.com/65535/50039502982_65bc5347df_o.jpg",
    "id_image": "Aircraft_530108",
    "count_view": 0
  },
  {
    "link_thumb": "https://live.staticflickr.com/65535/50039587687_0180ce96bf_n.jpg",
    "id_album": "523598895",
    "description": "Artistic_268293",
    "title": "Artistic_268293",
    "link_img": "https://live.staticflickr.com/65535/50039587687_96342d4d9a_o.jpg",
    "id_image": "Artistic_268293",
    "count_view": 0
  },
  {
    "link_thumb": "https://live.staticflickr.com/65535/50039723868_dd4d7f61e0_n.jpg",
    "id_album": "779690680",
    "description": "Robot_262877",
    "title": "Robot_262877",
    "link_img": "https://live.staticflickr.com/65535/50039723868_46e35aca96_o.jpg",
    "id_image": "Robot_262877",
    "count_view": 0
  },
  {
    "link_thumb": "https://live.staticflickr.com/65535/50039852963_4b0eafcea6_n.jpg",
    "id_album": "779690680",
    "description": "Robot_910928",
    "title": "Robot_910928",
    "link_img": "https://live.staticflickr.com/65535/50039852963_2e43908fc9_o.jpg",
    "id_image": "Robot_910928",
    "count_view": 0
  },
  {
    "link_thumb": "https://live.staticflickr.com/65535/50039273491_e07c08f6c8_n.jpg",
    "id_album": "849020728",
    "description": "Alien_715367",
    "title": "Alien_715367",
    "link_img": "https://live.staticflickr.com/65535/50039273491_ac93b10f34_o.jpg",
    "id_image": "Alien_715367",
    "count_view": 0
  },
  {
    "link_thumb": "https://live.staticflickr.com/65535/50040163812_52eb398483_n.jpg",
    "id_album": "1896531081",
    "description": "People_957850",
    "title": "People_957850",
    "link_img": "https://live.staticflickr.com/65535/50040163812_a344719112_o.jpg",
    "id_image": "People_957850",
    "count_view": 0
  },
  {
    "link_thumb": "https://live.staticflickr.com/65535/50040014667_efc2708031_n.jpg",
    "id_album": "-1388385651",
    "description": "MilkyWay_851521",
    "title": "MilkyWay_851521",
    "link_img": "https://live.staticflickr.com/65535/50040014667_8a4c283816_o.jpg",
    "id_image": "MilkyWay_851521",
    "count_view": 0
  },
  {
    "link_thumb": "https://live.staticflickr.com/65535/50041419471_68d3cbcf44_n.jpg",
    "id_album": "2020068132",
    "description": "Vehicle_909031",
    "title": "Vehicle_909031",
    "link_img": "https://live.staticflickr.com/65535/50041419471_8007eaccd8_o.jpg",
    "id_image": "Vehicle_909031",
    "count_view": 0
  },
  {
    "link_thumb": "https://live.staticflickr.com/65535/50039628292_5a142d5267_n.jpg",
    "id_album": "869545341",
    "description": "Astronaut_747736",
    "title": "Astronaut_747736",
    "link_img": "https://live.staticflickr.com/65535/50039628292_95ceeb1750_o.jpg",
    "id_image": "Astronaut_747736",
    "count_view": 0
  },
  {
    "link_thumb": "https://live.staticflickr.com/65535/50039656707_41b1fd95e4_n.jpg",
    "id_album": "1187037014",
    "description": "Battle_150262",
    "title": "Battle_150262",
    "link_img": "https://live.staticflickr.com/65535/50039656707_eb3627472d_o.jpg",
    "id_image": "Battle_150262",
    "count_view": 0
  },
  {
    "link_thumb": "https://live.staticflickr.com/65535/50041513637_cc3af829fa_n.jpg",
    "id_album": "-1863373220",
    "description": "StarWars_981428",
    "title": "StarWars_981428",
    "link_img": "https://live.staticflickr.com/65535/50041513637_d01076b0c0_o.jpg",
    "id_image": "StarWars_981428",
    "count_view": 0
  },
  {
    "link_thumb": "https://live.staticflickr.com/65535/50040155381_0145e2797d_n.jpg",
    "id_album": "376235057",
    "description": "Planetscape_284410",
    "title": "Planetscape_284410",
    "link_img": "https://live.staticflickr.com/65535/50040155381_4d711a724f_o.jpg",
    "id_image": "Planetscape_284410",
    "count_view": 0
  },
  {
    "link_thumb": "https://live.staticflickr.com/65535/50040471706_5f9d29bd2b_n.jpg",
    "id_album": "1613540653",
    "description": "Space_171898",
    "title": "Space_171898",
    "link_img": "https://live.staticflickr.com/65535/50040471706_37e893056a_o.jpg",
    "id_image": "Space_171898",
    "count_view": 0
  },
  {
    "link_thumb": "https://live.staticflickr.com/65535/50039898673_e43a73f358_n.jpg",
    "id_album": "779690680",
    "description": "Robot_989272",
    "title": "Robot_989272",
    "link_img": "https://live.staticflickr.com/65535/50039898673_e862e3fd45_o.jpg",
    "id_image": "Robot_989272",
    "count_view": 0
  },
  {
    "link_thumb": "https://live.staticflickr.com/65535/50038999178_5d0a41eb3b_n.jpg",
    "id_album": "-437872736",
    "description": "Creature_232439",
    "title": "Creature_232439",
    "link_img": "https://live.staticflickr.com/65535/50038999178_230a9cb878_o.jpg",
    "id_image": "Creature_232439",
    "count_view": 0
  },
  {
    "link_thumb": "https://live.staticflickr.com/65535/50040545156_7a666c73b0_n.jpg",
    "id_album": "1613540653",
    "description": "Space_83512",
    "title": "Space_83512",
    "link_img": "https://live.staticflickr.com/65535/50040545156_1c8a888b3c_o.jpg",
    "id_image": "Space_83512",
    "count_view": 0
  },
  {
    "link_thumb": "https://live.staticflickr.com/65535/50040495867_9cd82f3cc1_n.jpg",
    "id_album": "-482547208",
    "description": "PostApocalyptic_922151",
    "title": "PostApocalyptic_922151",
    "link_img": "https://live.staticflickr.com/65535/50040495867_84a5845ab7_o.jpg",
    "id_image": "PostApocalyptic_922151",
    "count_view": 0
  },
  {
    "link_thumb": "https://live.staticflickr.com/65535/50040067807_f0e4499439_n.jpg",
    "id_album": "-1610342324",
    "description": "Nebula_526675",
    "title": "Nebula_526675",
    "link_img": "https://live.staticflickr.com/65535/50040067807_27b76111bb_o.jpg",
    "id_image": "Nebula_526675",
    "count_view": 0
  },
  {
    "link_thumb": "https://live.staticflickr.com/65535/50040384416_b4bc991b06_n.jpg",
    "id_album": "779690680",
    "description": "Robot_874029",
    "title": "Robot_874029",
    "link_img": "https://live.staticflickr.com/65535/50040384416_4dbe12890e_o.jpg",
    "id_image": "Robot_874029",
    "count_view": 0
  },
  {
    "link_thumb": "https://live.staticflickr.com/65535/50040437822_82b623feb8_n.jpg",
    "id_album": "376235057",
    "description": "Planetscape_427580",
    "title": "Planetscape_427580",
    "link_img": "https://live.staticflickr.com/65535/50040437822_3e6bf9c9de_o.jpg",
    "id_image": "Planetscape_427580",
    "count_view": 0
  },
  {
    "link_thumb": "https://live.staticflickr.com/65535/50039693716_dcd6d4ce62_n.jpg",
    "id_album": "1402713104",
    "description": "Landscape_558948",
    "title": "Landscape_558948",
    "link_img": "https://live.staticflickr.com/65535/50039693716_bc36f43346_o.jpg",
    "id_image": "Landscape_558948",
    "count_view": 0
  },
  {
    "link_thumb": "https://live.staticflickr.com/65535/50040263522_06a220168d_n.jpg",
    "id_album": "1443611160",
    "description": "PlanetRise_287016",
    "title": "PlanetRise_287016",
    "link_img": "https://live.staticflickr.com/65535/50040263522_23640c196b_o.jpg",
    "id_image": "PlanetRise_287016",
    "count_view": 0
  },
  {
    "link_thumb": "https://live.staticflickr.com/65535/50041379146_ba0b1c5c2a_n.jpg",
    "id_album": "2020068132",
    "description": "Vehicle_241644",
    "title": "Vehicle_241644",
    "link_img": "https://live.staticflickr.com/65535/50041379146_34d19bc646_o.jpg",
    "id_image": "Vehicle_241644",
    "count_view": 0
  },
  {
    "link_thumb": "https://live.staticflickr.com/65535/50039774087_6f2d66117d_n.jpg",
    "id_album": "-1964113117",
    "description": "City_883152",
    "title": "City_883152",
    "link_img": "https://live.staticflickr.com/65535/50039774087_7c905d4156_o.jpg",
    "id_image": "City_883152",
    "count_view": 0
  },
  {
    "link_thumb": "https://live.staticflickr.com/65535/50040367052_e8de176005_n.jpg",
    "id_album": "-1102314093",
    "description": "Planets_377117",
    "title": "Planets_377117",
    "link_img": "https://live.staticflickr.com/65535/50040367052_28929ce335_o.jpg",
    "id_image": "Planets_377117",
    "count_view": 0
  },
  {
    "link_thumb": "https://live.staticflickr.com/65535/50039947592_2ce8e61052_n.jpg",
    "id_album": "1402713104",
    "description": "Landscape_375742",
    "title": "Landscape_375742",
    "link_img": "https://live.staticflickr.com/65535/50039947592_911a3a5f20_o.jpg",
    "id_image": "Landscape_375742",
    "count_view": 0
  },
  {
    "link_thumb": "https://live.staticflickr.com/65535/50039823912_ff9d5aff92_n.jpg",
    "id_album": "-1372247677",
    "description": "Cyberpunk_735467",
    "title": "Cyberpunk_735467",
    "link_img": "https://live.staticflickr.com/65535/50039823912_c2f61a5865_o.jpg",
    "id_image": "Cyberpunk_735467",
    "count_view": 0
  },
  {
    "link_thumb": "https://live.staticflickr.com/65535/50039476396_231b149ca3_n.jpg",
    "id_album": "-1964113117",
    "description": "City_528309",
    "title": "City_528309",
    "link_img": "https://live.staticflickr.com/65535/50039476396_59ef8f5e71_o.jpg",
    "id_image": "City_528309",
    "count_view": 0
  },
  {
    "link_thumb": "https://live.staticflickr.com/65535/50039268228_c9cc405199_n.jpg",
    "id_album": "-1610342324",
    "description": "Nebula_607459",
    "title": "Nebula_607459",
    "link_img": "https://live.staticflickr.com/65535/50039268228_63d44a5718_o.jpg",
    "id_image": "Nebula_607459",
    "count_view": 0
  },
  {
    "link_thumb": "https://live.staticflickr.com/65535/50040245391_629f756284_n.jpg",
    "id_album": "-839602625",
    "description": "Predator_551711",
    "title": "Predator_551711",
    "link_img": "https://live.staticflickr.com/65535/50040245391_56e3614f12_o.jpg",
    "id_image": "Predator_551711",
    "count_view": 0
  },
  {
    "link_thumb": "https://live.staticflickr.com/65535/50040762247_05992692fd_n.jpg",
    "id_album": "1613540653",
    "description": "Space_345414",
    "title": "Space_345414",
    "link_img": "https://live.staticflickr.com/65535/50040762247_6999ffbb5b_o.jpg",
    "id_image": "Space_345414",
    "count_view": 0
  },
  {
    "link_thumb": "https://live.staticflickr.com/65535/50041501387_603bd73c22_n.jpg",
    "id_album": "-1863373220",
    "description": "StarWars_902709",
    "title": "StarWars_902709",
    "link_img": "https://live.staticflickr.com/65535/50041501387_fc8dc326a2_o.jpg",
    "id_image": "StarWars_902709",
    "count_view": 0
  },
  {
    "link_thumb": "https://live.staticflickr.com/65535/50039859122_a4e80b556e_n.jpg",
    "id_album": "829169633",
    "description": "Cyborg_602355",
    "title": "Cyborg_602355",
    "link_img": "https://live.staticflickr.com/65535/50039859122_4465209aa5_o.jpg",
    "id_image": "Cyborg_602355",
    "count_view": 0
  },
  {
    "link_thumb": "https://live.staticflickr.com/65535/50039204128_c8cb2db35a_n.jpg",
    "id_album": "416351698",
    "description": "Moon_115680",
    "title": "Moon_115680",
    "link_img": "https://live.staticflickr.com/65535/50039204128_13e536417f_o.jpg",
    "id_image": "Moon_115680",
    "count_view": 0
  },
  {
    "link_thumb": "https://live.staticflickr.com/65535/50039562053_c3a5d5f5dc_n.jpg",
    "id_album": "-1102314093",
    "description": "Planets_419633",
    "title": "Planets_419633",
    "link_img": "https://live.staticflickr.com/65535/50039562053_5891c1ea8f_o.jpg",
    "id_image": "Planets_419633",
    "count_view": 0
  },
  {
    "link_thumb": "https://live.staticflickr.com/65535/50039335656_bc9e10e64a_n.jpg",
    "id_album": "523598895",
    "description": "Artistic_429148",
    "title": "Artistic_429148",
    "link_img": "https://live.staticflickr.com/65535/50039335656_4b173eeeb2_o.jpg",
    "id_image": "Artistic_429148",
    "count_view": 0
  },
  {
    "link_thumb": "https://live.staticflickr.com/65535/50039081008_b6bd6fdcc2_n.jpg",
    "id_album": "1204249541",
    "description": "Galaxy_298926",
    "title": "Galaxy_298926",
    "link_img": "https://live.staticflickr.com/65535/50039081008_e8778a0803_o.jpg",
    "id_image": "Galaxy_298926",
    "count_view": 0
  },
  {
    "link_thumb": "https://live.staticflickr.com/65535/50039283386_52a9e867dc_n.jpg",
    "id_album": "-419633230",
    "description": "Apocalyptic_333573",
    "title": "Apocalyptic_333573",
    "link_img": "https://live.staticflickr.com/65535/50039283386_f761325d64_o.jpg",
    "id_image": "Apocalyptic_333573",
    "count_view": 0
  },
  {
    "link_thumb": "https://live.staticflickr.com/65535/50039960156_3e00bae2f3_n.jpg",
    "id_album": "395161030",
    "description": "Planet_558937",
    "title": "Planet_558937",
    "link_img": "https://live.staticflickr.com/65535/50039960156_3d0af5d8b5_o.jpg",
    "id_image": "Planet_558937",
    "count_view": 0
  },
  {
    "link_thumb": "https://live.staticflickr.com/65535/50039892317_c3bfd4ffa4_n.jpg",
    "id_album": "1204249541",
    "description": "Galaxy_286761",
    "title": "Galaxy_286761",
    "link_img": "https://live.staticflickr.com/65535/50039892317_6277409baa_o.jpg",
    "id_image": "Galaxy_286761",
    "count_view": 0
  },
  {
    "link_thumb": "https://live.staticflickr.com/65535/50040734627_ef99d0d673_n.jpg",
    "id_album": "1613540653",
    "description": "Space_152721",
    "title": "Space_152721",
    "link_img": "https://live.staticflickr.com/65535/50040734627_b86f5c4655_o.jpg",
    "id_image": "Space_152721",
    "count_view": 0
  },
  {
    "link_thumb": "https://live.staticflickr.com/65535/50038765733_eb5a3c3982_n.jpg",
    "id_album": "523598895",
    "description": "Artistic_209957",
    "title": "Artistic_209957",
    "link_img": "https://live.staticflickr.com/65535/50038765733_43ef1e2484_o.jpg",
    "id_image": "Artistic_209957",
    "count_view": 0
  },
  {
    "link_thumb": "https://live.staticflickr.com/65535/50039500177_92f33abff7_n.jpg",
    "id_album": "-406145265",
    "description": "Aircraft_341264",
    "title": "Aircraft_341264",
    "link_img": "https://live.staticflickr.com/65535/50039500177_c0db2e300d_o.jpg",
    "id_image": "Aircraft_341264",
    "count_view": 0
  },
  {
    "link_thumb": "https://live.staticflickr.com/65535/50041651227_e177df5708_n.jpg",
    "id_album": "2020068132",
    "description": "Vehicle_325810",
    "title": "Vehicle_325810",
    "link_img": "https://live.staticflickr.com/65535/50041651227_6c5e641738_o.jpg",
    "id_image": "Vehicle_325810",
    "count_view": 0
  },
  {
    "link_thumb": "https://live.staticflickr.com/65535/50039571827_ffd30f86c3_n.jpg",
    "id_album": "523598895",
    "description": "Artistic_193500",
    "title": "Artistic_193500",
    "link_img": "https://live.staticflickr.com/65535/50039571827_d6c716f8de_o.jpg",
    "id_image": "Artistic_193500",
    "count_view": 0
  },
  {
    "link_thumb": "https://live.staticflickr.com/65535/50039019683_9f54f65e3b_n.jpg",
    "id_album": "-1372247677",
    "description": "Cyberpunk_949757",
    "title": "Cyberpunk_949757",
    "link_img": "https://live.staticflickr.com/65535/50039019683_3a6c6d9446_o.jpg",
    "id_image": "Cyberpunk_949757",
    "count_view": 0
  },
  {
    "link_thumb": "https://live.staticflickr.com/65535/50038981758_b18a591750_n.jpg",
    "id_album": "-1964113117",
    "description": "City_974784",
    "title": "City_974784",
    "link_img": "https://live.staticflickr.com/65535/50038981758_650637f195_o.jpg",
    "id_image": "City_974784",
    "count_view": 0
  },
  {
    "link_thumb": "https://live.staticflickr.com/65535/50040549872_eea889a3d7_n.jpg",
    "id_album": "779690680",
    "description": "Robot_309455",
    "title": "Robot_309455",
    "link_img": "https://live.staticflickr.com/65535/50040549872_152c55883b_o.jpg",
    "id_image": "Robot_309455",
    "count_view": 0
  },
  {
    "link_thumb": "https://live.staticflickr.com/65535/50041327351_21d2115a24_n.jpg",
    "id_album": "1267121215",
    "description": "Steampunk_703396",
    "title": "Steampunk_703396",
    "link_img": "https://live.staticflickr.com/65535/50041327351_323b197dee_o.jpg",
    "id_image": "Steampunk_703396",
    "count_view": 0
  },
  {
    "link_thumb": "https://live.staticflickr.com/65535/50039624218_9538c05077_n.jpg",
    "id_album": "376235057",
    "description": "Planetscape_528299",
    "title": "Planetscape_528299",
    "link_img": "https://live.staticflickr.com/65535/50039624218_6605030852_o.jpg",
    "id_image": "Planetscape_528299",
    "count_view": 0
  },
  {
    "link_thumb": "https://live.staticflickr.com/65535/50039127048_381594a8e5_n.jpg",
    "id_album": "1402713104",
    "description": "Landscape_324147",
    "title": "Landscape_324147",
    "link_img": "https://live.staticflickr.com/65535/50039127048_be6ae469d2_o.jpg",
    "id_image": "Landscape_324147",
    "count_view": 0
  },
  {
    "link_thumb": "https://live.staticflickr.com/65535/50040502442_4441c6e5ff_n.jpg",
    "id_album": "-839602625",
    "description": "Predator_196972",
    "title": "Predator_196972",
    "link_img": "https://live.staticflickr.com/65535/50040502442_50004744d3_o.jpg",
    "id_image": "Predator_196972",
    "count_view": 0
  },
  {
    "link_thumb": "https://live.staticflickr.com/65535/50039037173_450d73660f_n.jpg",
    "id_album": "829169633",
    "description": "Cyborg_319696",
    "title": "Cyborg_319696",
    "link_img": "https://live.staticflickr.com/65535/50039037173_a9c5d4bf8d_o.jpg",
    "id_image": "Cyborg_319696",
    "count_view": 0
  },
  {
    "link_thumb": "https://live.staticflickr.com/65535/50038812548_0bc4ea5655_n.jpg",
    "id_album": "869545341",
    "description": "Astronaut_602157",
    "title": "Astronaut_602157",
    "link_img": "https://live.staticflickr.com/65535/50038812548_e353cb0c45_o.jpg",
    "id_image": "Astronaut_602157",
    "count_view": 0
  },
  {
    "link_thumb": "https://live.staticflickr.com/65535/50041031763_067fe49795_n.jpg",
    "id_album": "-1675918237",
    "description": "WomenWarrior_616398",
    "title": "WomenWarrior_616398",
    "link_img": "https://live.staticflickr.com/65535/50041031763_fb7673a37f_o.jpg",
    "id_image": "WomenWarrior_616398",
    "count_view": 0
  },
  {
    "link_thumb": "https://live.staticflickr.com/65535/50040709978_395eb955ce_n.jpg",
    "id_album": "-1587696329",
    "description": "Stars_373654",
    "title": "Stars_373654",
    "link_img": "https://live.staticflickr.com/65535/50040709978_99cf24e204_o.jpg",
    "id_image": "Stars_373654",
    "count_view": 0
  },
  {
    "link_thumb": "https://live.staticflickr.com/65535/50039772998_64e2eaa24c_n.jpg",
    "id_album": "779690680",
    "description": "Robot_497238",
    "title": "Robot_497238",
    "link_img": "https://live.staticflickr.com/65535/50039772998_ff1b156713_o.jpg",
    "id_image": "Robot_497238",
    "count_view": 0
  },
  {
    "link_thumb": "https://live.staticflickr.com/65535/50039834361_3f8ea82b2e_n.jpg",
    "id_album": "-1610342324",
    "description": "Nebula_772695",
    "title": "Nebula_772695",
    "link_img": "https://live.staticflickr.com/65535/50039834361_b2a6855abc_o.jpg",
    "id_image": "Nebula_772695",
    "count_view": 0
  },
  {
    "link_thumb": "https://live.staticflickr.com/65535/50041610242_78be89bf9e_n.jpg",
    "id_album": "-221671103",
    "description": "Sun_373740",
    "title": "Sun_373740",
    "link_img": "https://live.staticflickr.com/65535/50041610242_504537e91e_o.jpg",
    "id_image": "Sun_373740",
    "count_view": 0
  },
  {
    "link_thumb": "https://live.staticflickr.com/65535/50039884741_c0004ac8a9_n.jpg",
    "id_album": "-1862561193",
    "description": "Other_284563",
    "title": "Other_284563",
    "link_img": "https://live.staticflickr.com/65535/50039884741_0e9af12d73_o.jpg",
    "id_image": "Other_284563",
    "count_view": 0
  },
  {
    "link_thumb": "https://live.staticflickr.com/65535/50040647622_3d183ac359_n.jpg",
    "id_album": "779690680",
    "description": "Robot_872979",
    "title": "Robot_872979",
    "link_img": "https://live.staticflickr.com/65535/50040647622_a3697da5c4_o.jpg",
    "id_image": "Robot_872979",
    "count_view": 0
  },
  {
    "link_thumb": "https://live.staticflickr.com/65535/50039438521_f0a21fe11c_n.jpg",
    "id_album": "-1964113117",
    "description": "City_166153",
    "title": "City_166153",
    "link_img": "https://live.staticflickr.com/65535/50039438521_bd7e9d9f14_o.jpg",
    "id_image": "City_166153",
    "count_view": 0
  },
  {
    "link_thumb": "https://live.staticflickr.com/65535/50039013068_cb7bd8177e_n.jpg",
    "id_album": "-1372247677",
    "description": "Cyberpunk_722630",
    "title": "Cyberpunk_722630",
    "link_img": "https://live.staticflickr.com/65535/50039013068_488cf85e76_o.jpg",
    "id_image": "Cyberpunk_722630",
    "count_view": 0
  },
  {
    "link_thumb": "https://live.staticflickr.com/65535/50040831358_ec312762f9_n.jpg",
    "id_album": "2020068132",
    "description": "Vehicle_308637",
    "title": "Vehicle_308637",
    "link_img": "https://live.staticflickr.com/65535/50040831358_aeb4b6ebdf_o.jpg",
    "id_image": "Vehicle_308637",
    "count_view": 0
  },
  {
    "link_thumb": "https://live.staticflickr.com/65535/50040241347_45d2abb4c8_n.jpg",
    "id_album": "395161030",
    "description": "Planet_80642",
    "title": "Planet_80642",
    "link_img": "https://live.staticflickr.com/65535/50040241347_54eb22809a_o.jpg",
    "id_image": "Planet_80642",
    "count_view": 0
  },
  {
    "link_thumb": "https://live.staticflickr.com/65535/50040743628_fefefee7d3_n.jpg",
    "id_album": "1267121215",
    "description": "Steampunk_199575",
    "title": "Steampunk_199575",
    "link_img": "https://live.staticflickr.com/65535/50040743628_3fb4bcb757_o.jpg",
    "id_image": "Steampunk_199575",
    "count_view": 0
  },
  {
    "link_thumb": "https://live.staticflickr.com/65535/50039305461_62da245ab9_n.jpg",
    "id_album": "523598895",
    "description": "Artistic_179637",
    "title": "Artistic_179637",
    "link_img": "https://live.staticflickr.com/65535/50039305461_269aa6c6cd_o.jpg",
    "id_image": "Artistic_179637",
    "count_view": 0
  },
  {
    "link_thumb": "https://live.staticflickr.com/65535/50040102282_68f9649e9e_n.jpg",
    "id_album": "-1610342324",
    "description": "Nebula_8015",
    "title": "Nebula_8015",
    "link_img": "https://live.staticflickr.com/65535/50040102282_f3d11909ca_o.jpg",
    "id_image": "Nebula_8015",
    "count_view": 0
  },
  {
    "link_thumb": "https://live.staticflickr.com/65535/50040401752_8615630afb_n.jpg",
    "id_album": "-1102314093",
    "description": "Planets_807193",
    "title": "Planets_807193",
    "link_img": "https://live.staticflickr.com/65535/50040401752_43083a9949_o.jpg",
    "id_image": "Planets_807193",
    "count_view": 0
  },
  {
    "link_thumb": "https://live.staticflickr.com/65535/50040517371_57f6ec1a72_n.jpg",
    "id_album": "1613540653",
    "description": "Space_608291",
    "title": "Space_608291",
    "link_img": "https://live.staticflickr.com/65535/50040517371_ef16e7cba1_o.jpg",
    "id_image": "Space_608291",
    "count_view": 0
  },
  {
    "link_thumb": "https://live.staticflickr.com/65535/50039893182_e636ba3c38_n.jpg",
    "id_album": "1204249541",
    "description": "Galaxy_305308",
    "title": "Galaxy_305308",
    "link_img": "https://live.staticflickr.com/65535/50039893182_89dfddf850_o.jpg",
    "id_image": "Galaxy_305308",
    "count_view": 0
  },
  {
    "link_thumb": "https://live.staticflickr.com/65535/50039247551_d5747ed89a_n.jpg",
    "id_album": "849020728",
    "description": "Alien_162746",
    "title": "Alien_162746",
    "link_img": "https://live.staticflickr.com/65535/50039247551_da70d35a99_o.jpg",
    "id_image": "Alien_162746",
    "count_view": 0
  },
  {
    "link_thumb": "https://live.staticflickr.com/65535/50039511931_f535633b22_n.jpg",
    "id_album": "-1964113117",
    "description": "City_881451",
    "title": "City_881451",
    "link_img": "https://live.staticflickr.com/65535/50039511931_1ecfa77a4e_o.jpg",
    "id_image": "City_881451",
    "count_view": 0
  },
  {
    "link_thumb": "https://live.staticflickr.com/65535/50041851042_dceabd01d8_n.jpg",
    "id_album": "-1675918237",
    "description": "WomenWarrior_895543",
    "title": "WomenWarrior_895543",
    "link_img": "https://live.staticflickr.com/65535/50041851042_a37c26372d_o.jpg",
    "id_image": "WomenWarrior_895543",
    "count_view": 0
  },
  {
    "link_thumb": "https://live.staticflickr.com/65535/50041031973_7344e121cd_n.jpg",
    "id_album": "-1675918237",
    "description": "WomenWarrior_629981",
    "title": "WomenWarrior_629981",
    "link_img": "https://live.staticflickr.com/65535/50041031973_2416a8cc27_o.jpg",
    "id_image": "WomenWarrior_629981",
    "count_view": 0
  },
  {
    "link_thumb": "https://live.staticflickr.com/65535/50040988738_6187f99009_n.jpg",
    "id_album": "-1126835654",
    "description": "Women_608896",
    "title": "Women_608896",
    "link_img": "https://live.staticflickr.com/65535/50040988738_36af47bdfd_o.jpg",
    "id_image": "Women_608896",
    "count_view": 0
  },
  {
    "link_thumb": "https://live.staticflickr.com/65535/50041649147_3bef187dfa_n.jpg",
    "id_album": "2020068132",
    "description": "Vehicle_313375",
    "title": "Vehicle_313375",
    "link_img": "https://live.staticflickr.com/65535/50041649147_dfda84b47a_o.jpg",
    "id_image": "Vehicle_313375",
    "count_view": 0
  },
  {
    "link_thumb": "https://live.staticflickr.com/65535/50039982847_e61ddaaba2_n.jpg",
    "id_album": "1402713104",
    "description": "Landscape_888573",
    "title": "Landscape_888573",
    "link_img": "https://live.staticflickr.com/65535/50039982847_3b6fc24e78_o.jpg",
    "id_image": "Landscape_888573",
    "count_view": 0
  },
  {
    "link_thumb": "https://live.staticflickr.com/65535/50041427246_f3ecd8dfef_n.jpg",
    "id_album": "2020068132",
    "description": "Vehicle_979673",
    "title": "Vehicle_979673",
    "link_img": "https://live.staticflickr.com/65535/50041427246_1eba495f16_o.jpg",
    "id_image": "Vehicle_979673",
    "count_view": 0
  },
  {
    "link_thumb": "https://live.staticflickr.com/65535/50039331911_14a80797da_n.jpg",
    "id_album": "523598895",
    "description": "Artistic_370813",
    "title": "Artistic_370813",
    "link_img": "https://live.staticflickr.com/65535/50039331911_0fe14b2ecd_o.jpg",
    "id_image": "Artistic_370813",
    "count_view": 0
  }
]