[
  {
    "link_thumb": "https://live.staticflickr.com/65535/50040510142_8b46392e08_n.jpg",
    "id_album": "-839602625",
    "description": "Predator_599866",
    "title": "Predator_599866",
    "link_img": "https://live.staticflickr.com/65535/50040510142_ff45d0b257_o.jpg",
    "id_image": "Predator_599866",
    "count_view": 0
  },
  {
    "link_thumb": "https://live.staticflickr.com/65535/50040799636_740e1e55a9_n.jpg",
    "id_album": "-1449720967",
    "description": "StarTrek_182728",
    "title": "StarTrek_182728",
    "link_img": "https://live.staticflickr.com/65535/50040799636_e5e3eaca61_o.jpg",
    "id_image": "StarTrek_182728",
    "count_view": 0
  },
  {
    "link_thumb": "https://live.staticflickr.com/65535/50040111671_bc230fd998_n.jpg",
    "id_album": "-1102314093",
    "description": "Planets_419627",
    "title": "Planets_419627",
    "link_img": "https://live.staticflickr.com/65535/50040111671_7c2e24e899_o.jpg",
    "id_image": "Planets_419627",
    "count_view": 0
  },
  {
    "link_thumb": "https://live.staticflickr.com/65535/50041248306_c0bf6a9867_n.jpg",
    "id_album": "-1863373220",
    "description": "StarWars_980508",
    "title": "StarWars_980508",
    "link_img": "https://live.staticflickr.com/65535/50041248306_c52a7cd2ce_o.jpg",
    "id_image": "StarWars_980508",
    "count_view": 0
  },
  {
    "link_thumb": "https://live.staticflickr.com/65535/50038985098_519a1e87a1_n.jpg",
    "id_album": "-1964113117",
    "description": "City_995644",
    "title": "City_995644",
    "link_img": "https://live.staticflickr.com/65535/50038985098_b720a48bda_o.jpg",
    "id_image": "City_995644",
    "count_view": 0
  },
  {
    "link_thumb": "https://live.staticflickr.com/65535/50038871783_6598792974_n.jpg",
    "id_album": "406431601",
    "description": "Building_1010654",
    "title": "Building_1010654",
    "link_img": "https://live.staticflickr.com/65535/50038871783_3822167de1_o.jpg",
    "id_image": "Building_1010654",
    "count_view": 0
  },
  {
    "link_thumb": "https://live.staticflickr.com/65535/50040195113_8891717a55_n.jpg",
    "id_album": "2130067313",
    "description": "Spaceship_78514",
    "title": "Spaceship_78514",
    "link_img": "https://live.staticflickr.com/65535/50040195113_610d9ed276_o.jpg",
    "id_image": "Spaceship_78514",
    "count_view": 0
  },
  {
    "link_thumb": "https://live.staticflickr.com/65535/50041436532_5fa4366a71_n.jpg",
    "id_album": "-1863373220",
    "description": "StarWars_382008",
    "title": "StarWars_382008",
    "link_img": "https://live.staticflickr.com/65535/50041436532_f0db220b66_o.jpg",
    "id_image": "StarWars_382008",
    "count_view": 0
  },
  {
    "link_thumb": "https://live.staticflickr.com/65535/50041337956_70af0d0485_n.jpg",
    "id_album": "-221671103",
    "description": "Sun_106487",
    "title": "Sun_106487",
    "link_img": "https://live.staticflickr.com/65535/50041337956_eb1a541b99_o.jpg",
    "id_image": "Sun_106487",
    "count_view": 0
  },
  {
    "link_thumb": "https://live.staticflickr.com/65535/50038808458_81bb64571e_n.jpg",
    "id_album": "869545341",
    "description": "Astronaut_534555",
    "title": "Astronaut_534555",
    "link_img": "https://live.staticflickr.com/65535/50038808458_01433161c0_o.jpg",
    "id_image": "Astronaut_534555",
    "count_view": 0
  },
  {
    "link_thumb": "https://live.staticflickr.com/65535/50039663302_ce573d826a_n.jpg",
    "id_album": "1187037014",
    "description": "Battle_309436",
    "title": "Battle_309436",
    "link_img": "https://live.staticflickr.com/65535/50039663302_30d73b62f1_o.jpg",
    "id_image": "Battle_309436",
    "count_view": 0
  },
  {
    "link_thumb": "https://live.staticflickr.com/65535/50039850246_b8404210aa_n.jpg",
    "id_album": "-1610342324",
    "description": "Nebula_891193",
    "title": "Nebula_891193",
    "link_img": "https://live.staticflickr.com/65535/50039850246_b42f41ebeb_o.jpg",
    "id_image": "Nebula_891193",
    "count_view": 0
  },
  {
    "link_thumb": "https://live.staticflickr.com/65535/50040061682_57eeed42ef_n.jpg",
    "id_album": "-1610342324",
    "description": "Nebula_441069",
    "title": "Nebula_441069",
    "link_img": "https://live.staticflickr.com/65535/50040061682_f61573f9c9_o.jpg",
    "id_image": "Nebula_441069",
    "count_view": 0
  },
  {
    "link_thumb": "https://live.staticflickr.com/65535/50039037173_450d73660f_n.jpg",
    "id_album": "829169633",
    "description": "Cyborg_319696",
    "title": "Cyborg_319696",
    "link_img": "https://live.staticflickr.com/65535/50039037173_a9c5d4bf8d_o.jpg",
    "id_image": "Cyborg_319696",
    "count_view": 0
  },
  {
    "link_thumb": "https://live.staticflickr.com/65535/50041040197_8c235f9455_n.jpg",
    "id_album": "2130067313",
    "description": "Spaceship_972167",
    "title": "Spaceship_972167",
    "link_img": "https://live.staticflickr.com/65535/50041040197_0e87f2bd5e_o.jpg",
    "id_image": "Spaceship_972167",
    "count_view": 0
  },
  {
    "link_thumb": "https://live.staticflickr.com/65535/50041265006_8ac801e027_n.jpg",
    "id_album": "-1587696329",
    "description": "Stars_3979",
    "title": "Stars_3979",
    "link_img": "https://live.staticflickr.com/65535/50041265006_a69ab06147_o.jpg",
    "id_image": "Stars_3979",
    "count_view": 0
  },
  {
    "link_thumb": "https://live.staticflickr.com/65535/50039216778_35378fba6f_n.jpg",
    "id_album": "-1610342324",
    "description": "Nebula_1855",
    "title": "Nebula_1855",
    "link_img": "https://live.staticflickr.com/65535/50039216778_80cc127954_o.jpg",
    "id_image": "Nebula_1855",
    "count_view": 0
  },
  {
    "link_thumb": "https://live.staticflickr.com/65535/50040858078_1e16ea58c6_n.jpg",
    "id_album": "2020068132",
    "description": "Vehicle_712523",
    "title": "Vehicle_712523",
    "link_img": "https://live.staticflickr.com/65535/50040858078_b6ed348ef0_o.jpg",
    "id_image": "Vehicle_712523",
    "count_view": 0
  },
  {
    "link_thumb": "https://live.staticflickr.com/65535/50041687137_4ca9be2055_n.jpg",
    "id_album": "2020068132",
    "description": "Vehicle_959156",
    "title": "Vehicle_959156",
    "link_img": "https://live.staticflickr.com/65535/50041687137_662ab85afd_o.jpg",
    "id_image": "Vehicle_959156",
    "count_view": 0
  },
  {
    "link_thumb": "https://live.staticflickr.com/65535/50040920482_84fcda11e9_n.jpg",
    "id_album": "2130067313",
    "description": "Spaceship_333365",
    "title": "Spaceship_333365",
    "link_img": "https://live.staticflickr.com/65535/50040920482_f19e1ed2f9_o.jpg",
    "id_image": "Spaceship_333365",
    "count_view": 0
  },
  {
    "link_thumb": "https://live.staticflickr.com/65535/50039445931_f75b6cf13f_n.jpg",
    "id_album": "-1964113117",
    "description": "City_2113",
    "title": "City_2113",
    "link_img": "https://live.staticflickr.com/65535/50039445931_07414065c5_o.jpg",
    "id_image": "City_2113",
    "count_view": 0
  },
  {
    "link_thumb": "https://live.staticflickr.com/65535/50039892317_c3bfd4ffa4_n.jpg",
    "id_album": "1204249541",
    "description": "Galaxy_286761",
    "title": "Galaxy_286761",
    "link_img": "https://live.staticflickr.com/65535/50039892317_6277409baa_o.jpg",
    "id_image": "Galaxy_286761",
    "count_view": 0
  },
  {
    "link_thumb": "https://live.staticflickr.com/65535/50038796868_4796caea78_n.jpg",
    "id_album": "523598895",
    "description": "Artistic_833487",
    "title": "Artistic_833487",
    "link_img": "https://live.staticflickr.com/65535/50038796868_8bd4d10825_o.jpg",
    "id_image": "Artistic_833487",
    "count_view": 0
  },
  {
    "link_thumb": "https://live.staticflickr.com/65535/50039380568_0764078c39_n.jpg",
    "id_album": "395161030",
    "description": "Planet_330317",
    "title": "Planet_330317",
    "link_img": "https://live.staticflickr.com/65535/50039380568_cb40dd214f_o.jpg",
    "id_image": "Planet_330317",
    "count_view": 0
  },
  {
    "link_thumb": "https://live.staticflickr.com/65535/50039163738_a609013566_n.jpg",
    "id_album": "1402713104",
    "description": "Landscape_864098",
    "title": "Landscape_864098",
    "link_img": "https://live.staticflickr.com/65535/50039163738_11f1a72378_o.jpg",
    "id_image": "Landscape_864098",
    "count_view": 0
  },
  {
    "link_thumb": "https://live.staticflickr.com/65535/50040058042_0d6d2d0b1a_n.jpg",
    "id_album": "-1610342324",
    "description": "Nebula_41630",
    "title": "Nebula_41630",
    "link_img": "https://live.staticflickr.com/65535/50040058042_2fafcaeaaa_o.jpg",
    "id_image": "Nebula_41630",
    "count_view": 0
  },
  {
    "link_thumb": "https://live.staticflickr.com/65535/50040756772_965242bc6a_n.jpg",
    "id_album": "1613540653",
    "description": "Space_324430",
    "title": "Space_324430",
    "link_img": "https://live.staticflickr.com/65535/50040756772_ce857cb463_o.jpg",
    "id_image": "Space_324430",
    "count_view": 0
  },
  {
    "link_thumb": "https://live.staticflickr.com/65535/50039997752_3510230570_n.jpg",
    "id_album": "-1388385651",
    "description": "MilkyWay_560780",
    "title": "MilkyWay_560780",
    "link_img": "https://live.staticflickr.com/65535/50039997752_558646d62d_o.jpg",
    "id_image": "MilkyWay_560780",
    "count_view": 0
  },
  {
    "link_thumb": "https://live.staticflickr.com/65535/50039651961_23e1ec78f4_n.jpg",
    "id_album": "1204249541",
    "description": "Galaxy_735604",
    "title": "Galaxy_735604",
    "link_img": "https://live.staticflickr.com/65535/50039651961_7d0b803d53_o.jpg",
    "id_image": "Galaxy_735604",
    "count_view": 0
  },
  {
    "link_thumb": "https://live.staticflickr.com/65535/50040452092_49cd281973_n.jpg",
    "id_album": "-482547208",
    "description": "PostApocalyptic_1008081",
    "title": "PostApocalyptic_1008081",
    "link_img": "https://live.staticflickr.com/65535/50040452092_0681413991_o.jpg",
    "id_image": "PostApocalyptic_1008081",
    "count_view": 0
  },
  {
    "link_thumb": "https://live.staticflickr.com/65535/50040543766_122e399caa_n.jpg",
    "id_album": "1613540653",
    "description": "Space_822474",
    "title": "Space_822474",
    "link_img": "https://live.staticflickr.com/65535/50040543766_04bfdc74f0_o.jpg",
    "id_image": "Space_822474",
    "count_view": 0
  },
  {
    "link_thumb": "https://live.staticflickr.com/65535/50039031083_5877f7fcfe_n.jpg",
    "id_album": "829169633",
    "description": "Cyborg_189584",
    "title": "Cyborg_189584",
    "link_img": "https://live.staticflickr.com/65535/50039031083_9df39660fd_o.jpg",
    "id_image": "Cyborg_189584",
    "count_view": 0
  },
  {
    "link_thumb": "https://live.staticflickr.com/65535/50038873063_76496d0ef3_n.jpg",
    "id_album": "406431601",
    "description": "Building_405546",
    "title": "Building_405546",
    "link_img": "https://live.staticflickr.com/65535/50038873063_605146dc18_o.jpg",
    "id_image": "Building_405546",
    "count_view": 0
  },
  {
    "link_thumb": "https://live.staticflickr.com/65535/50039924767_8931af4167_n.jpg",
    "id_album": "1402713104",
    "description": "Landscape_159470",
    "title": "Landscape_159470",
    "link_img": "https://live.staticflickr.com/65535/50039924767_8a9d95535a_o.jpg",
    "id_image": "Landscape_159470",
    "count_view": 0
  },
  {
    "link_thumb": "https://live.staticflickr.com/65535/50040246336_5b475a8f53_n.jpg",
    "id_album": "-839602625",
    "description": "Predator_665921",
    "title": "Predator_665921",
    "link_img": "https://live.staticflickr.com/65535/50040246336_5d9e83f850_o.jpg",
    "id_image": "Predator_665921",
    "count_view": 0
  },
  {
    "link_thumb": "https://live.staticflickr.com/65535/50038767988_280f8ac4dc_n.jpg",
    "id_album": "523598895",
    "description": "Artistic_218934",
    "title": "Artistic_218934",
    "link_img": "https://live.staticflickr.com/65535/50038767988_0e6ea7f4f9_o.jpg",
    "id_image": "Artistic_218934",
    "count_view": 0
  },
  {
    "link_thumb": "https://live.staticflickr.com/65535/50039531506_dc9eec3491_n.jpg",
    "id_album": "-1964113117",
    "description": "City_980248",
    "title": "City_980248",
    "link_img": "https://live.staticflickr.com/65535/50039531506_e5269efd41_o.jpg",
    "id_image": "City_980248",
    "count_view": 0
  },
  {
    "link_thumb": "https://live.staticflickr.com/65535/50041563377_7cee198df0_n.jpg",
    "id_album": "1267121215",
    "description": "Steampunk_21623",
    "title": "Steampunk_21623",
    "link_img": "https://live.staticflickr.com/65535/50041563377_5e8fd5d829_o.jpg",
    "id_image": "Steampunk_21623",
    "count_view": 0
  },
  {
    "link_thumb": "https://live.staticflickr.com/65535/50039120743_9b78dc3e50_n.jpg",
    "id_album": "1402713104",
    "description": "Landscape_282105",
    "title": "Landscape_282105",
    "link_img": "https://live.staticflickr.com/65535/50039120743_8f603d0e39_o.jpg",
    "id_image": "Landscape_282105",
    "count_view": 0
  },
  {
    "link_thumb": "https://live.staticflickr.com/65535/50039280993_d17fbee84d_n.jpg",
    "id_album": "-1610342324",
    "description": "Nebula_749071",
    "title": "Nebula_749071",
    "link_img": "https://live.staticflickr.com/65535/50039280993_a95ae914cb_o.jpg",
    "id_image": "Nebula_749071",
    "count_view": 0
  },
  {
    "link_thumb": "https://live.staticflickr.com/65535/50038766898_954e4ff850_n.jpg",
    "id_album": "523598895",
    "description": "Artistic_212012",
    "title": "Artistic_212012",
    "link_img": "https://live.staticflickr.com/65535/50038766898_5fa7ab2ca4_o.jpg",
    "id_image": "Artistic_212012",
    "count_view": 0
  },
  {
    "link_thumb": "https://live.staticflickr.com/65535/50039516732_b85e06fdee_n.jpg",
    "id_album": "849020728",
    "description": "Alien_213653",
    "title": "Alien_213653",
    "link_img": "https://live.staticflickr.com/65535/50039516732_07513ccacb_o.jpg",
    "id_image": "Alien_213653",
    "count_view": 0
  },
  {
    "link_thumb": "https://live.staticflickr.com/65535/50039574892_deb2403a2b_n.jpg",
    "id_album": "523598895",
    "description": "Artistic_207555",
    "title": "Artistic_207555",
    "link_img": "https://live.staticflickr.com/65535/50039574892_03b4a16e78_o.jpg",
    "id_image": "Artistic_207555",
    "count_view": 0
  },
  {
    "link_thumb": "https://live.staticflickr.com/65535/50039527303_142051c6f5_n.jpg",
    "id_album": "-1102314093",
    "description": "Planets_287037",
    "title": "Planets_287037",
    "link_img": "https://live.staticflickr.com/65535/50039527303_04c276833e_o.jpg",
    "id_image": "Planets_287037",
    "count_view": 0
  },
  {
    "link_thumb": "https://live.staticflickr.com/65535/50041467746_b81b9d16cf_n.jpg",
    "id_album": "-1261420436",
    "description": "Warrior_540054",
    "title": "Warrior_540054",
    "link_img": "https://live.staticflickr.com/65535/50041467746_2a1d929b13_o.jpg",
    "id_image": "Warrior_540054",
    "count_view": 0
  },
  {
    "link_thumb": "https://live.staticflickr.com/65535/50040530022_137929244a_n.jpg",
    "id_album": "779690680",
    "description": "Robot_215032",
    "title": "Robot_215032",
    "link_img": "https://live.staticflickr.com/65535/50040530022_4df1cac402_o.jpg",
    "id_image": "Robot_215032",
    "count_view": 0
  },
  {
    "link_thumb": "https://live.staticflickr.com/65535/50039939046_99834d90b9_n.jpg",
    "id_album": "395161030",
    "description": "Planet_374641",
    "title": "Planet_374641",
    "link_img": "https://live.staticflickr.com/65535/50039939046_18e6a69cd3_o.jpg",
    "id_image": "Planet_374641",
    "count_view": 0
  },
  {
    "link_thumb": "https://live.staticflickr.com/65535/50040372547_93e902a3a6_n.jpg",
    "id_album": "-1102314093",
    "description": "Planets_408838",
    "title": "Planets_408838",
    "link_img": "https://live.staticflickr.com/65535/50040372547_ef7d3427ba_o.jpg",
    "id_image": "Planets_408838",
    "count_view": 0
  },
  {
    "link_thumb": "https://live.staticflickr.com/65535/50040751692_7dae9f6ebb_n.jpg",
    "id_album": "1613540653",
    "description": "Space_286970",
    "title": "Space_286970",
    "link_img": "https://live.staticflickr.com/65535/50040751692_2520a66db9_o.jpg",
    "id_image": "Space_286970",
    "count_view": 0
  },
  {
    "link_thumb": "https://live.staticflickr.com/65535/50039288728_5b3e526fcc_n.jpg",
    "id_album": "-1610342324",
    "description": "Nebula_792977",
    "title": "Nebula_792977",
    "link_img": "https://live.staticflickr.com/65535/50039288728_bc52857de5_o.jpg",
    "id_image": "Nebula_792977",
    "count_view": 0
  },
  {
    "link_thumb": "https://live.staticflickr.com/65535/50039744892_5d5b2226cb_n.jpg",
    "id_album": "-1964113117",
    "description": "City_64029",
    "title": "City_64029",
    "link_img": "https://live.staticflickr.com/65535/50039744892_853a84e044_o.jpg",
    "id_image": "City_64029",
    "count_view": 0
  },
  {
    "link_thumb": "https://live.staticflickr.com/65535/50039138783_ae7bc6b10a_n.jpg",
    "id_album": "1402713104",
    "description": "Landscape_421187",
    "title": "Landscape_421187",
    "link_img": "https://live.staticflickr.com/65535/50039138783_dd1a4cf43c_o.jpg",
    "id_image": "Landscape_421187",
    "count_view": 0
  },
  {
    "link_thumb": "https://live.staticflickr.com/65535/50041491906_5ce2d1787c_n.jpg",
    "id_album": "-1261420436",
    "description": "Warrior_892330",
    "title": "Warrior_892330",
    "link_img": "https://live.staticflickr.com/65535/50041491906_b672539d5d_o.jpg",
    "id_image": "Warrior_892330",
    "count_view": 0
  },
  {
    "link_thumb": "https://live.staticflickr.com/65535/50039258488_d839decf0a_n.jpg",
    "id_album": "-1610342324",
    "description": "Nebula_550544",
    "title": "Nebula_550544",
    "link_img": "https://live.staticflickr.com/65535/50039258488_967900c28c_o.jpg",
    "id_image": "Nebula_550544",
    "count_view": 0
  },
  {
    "link_thumb": "https://live.staticflickr.com/65535/50040450521_4f362f9f4d_n.jpg",
    "id_album": "779690680",
    "description": "Robot_959320",
    "title": "Robot_959320",
    "link_img": "https://live.staticflickr.com/65535/50040450521_15b9474e7d_o.jpg",
    "id_image": "Robot_959320",
    "count_view": 0
  },
  {
    "link_thumb": "https://live.staticflickr.com/65535/50039425723_aa2d70cd32_n.jpg",
    "id_album": "395161030",
    "description": "Planet_751394",
    "title": "Planet_751394",
    "link_img": "https://live.staticflickr.com/65535/50039425723_1e03a5a539_o.jpg",
    "id_image": "Planet_751394",
    "count_view": 0
  },
  {
    "link_thumb": "https://live.staticflickr.com/65535/50040285201_b73cea8852_n.jpg",
    "id_album": "779690680",
    "description": "Robot_307433",
    "title": "Robot_307433",
    "link_img": "https://live.staticflickr.com/65535/50040285201_f1a22664cc_o.jpg",
    "id_image": "Robot_307433",
    "count_view": 0
  },
  {
    "link_thumb": "https://live.staticflickr.com/65535/50040072037_8b9d7d5048_n.jpg",
    "id_album": "-1610342324",
    "description": "Nebula_555187",
    "title": "Nebula_555187",
    "link_img": "https://live.staticflickr.com/65535/50040072037_04ff30503a_o.jpg",
    "id_image": "Nebula_555187",
    "count_view": 0
  },
  {
    "link_thumb": "https://live.staticflickr.com/65535/50040742373_33519262c6_n.jpg",
    "id_album": "1267121215",
    "description": "Steampunk_190420",
    "title": "Steampunk_190420",
    "link_img": "https://live.staticflickr.com/65535/50040742373_bf849cc205_o.jpg",
    "id_image": "Steampunk_190420",
    "count_view": 0
  },
  {
    "link_thumb": "https://live.staticflickr.com/65535/50040442962_4ca930429e_n.jpg",
    "id_album": "376235057",
    "description": "Planetscape_614568",
    "title": "Planetscape_614568",
    "link_img": "https://live.staticflickr.com/65535/50040442962_27d9521b03_o.jpg",
    "id_image": "Planetscape_614568",
    "count_view": 0
  },
  {
    "link_thumb": "https://live.staticflickr.com/65535/50039827953_a4a481d507_n.jpg",
    "id_album": "779690680",
    "description": "Robot_871701",
    "title": "Robot_871701",
    "link_img": "https://live.staticflickr.com/65535/50039827953_7ee7bce919_o.jpg",
    "id_image": "Robot_871701",
    "count_view": 0
  },
  {
    "link_thumb": "https://live.staticflickr.com/65535/50038747563_76de728ec4_n.jpg",
    "id_album": "523598895",
    "description": "Artistic_118645",
    "title": "Artistic_118645",
    "link_img": "https://live.staticflickr.com/65535/50038747563_8cf9d03f4f_o.jpg",
    "id_image": "Artistic_118645",
    "count_view": 0
  },
  {
    "link_thumb": "https://live.staticflickr.com/65535/50041724472_e13e83775e_n.jpg",
    "id_album": "-1261420436",
    "description": "Warrior_430464",
    "title": "Warrior_430464",
    "link_img": "https://live.staticflickr.com/65535/50041724472_1d19a44ed1_o.jpg",
    "id_image": "Warrior_430464",
    "count_view": 0
  },
  {
    "link_thumb": "https://live.staticflickr.com/65535/50041525222_5680399726_n.jpg",
    "id_album": "-1587696329",
    "description": "Stars_291491",
    "title": "Stars_291491",
    "link_img": "https://live.staticflickr.com/65535/50041525222_f977e6a673_o.jpg",
    "id_image": "Stars_291491",
    "count_view": 0
  },
  {
    "link_thumb": "https://live.staticflickr.com/65535/50039853432_bb2969ab30_n.jpg",
    "id_album": "829169633",
    "description": "Cyborg_488050",
    "title": "Cyborg_488050",
    "link_img": "https://live.staticflickr.com/65535/50039853432_311cc64368_o.jpg",
    "id_image": "Cyborg_488050",
    "count_view": 0
  },
  {
    "link_thumb": "https://live.staticflickr.com/65535/50040014458_23bb36e9b4_n.jpg",
    "id_album": "2130067313",
    "description": "Spaceship_1004213",
    "title": "Spaceship_1004213",
    "link_img": "https://live.staticflickr.com/65535/50040014458_45e6f89b09_o.jpg",
    "id_image": "Spaceship_1004213",
    "count_view": 0
  },
  {
    "link_thumb": "https://live.staticflickr.com/65535/50039660942_c2b0ccb530_n.jpg",
    "id_album": "1187037014",
    "description": "Battle_262558",
    "title": "Battle_262558",
    "link_img": "https://live.staticflickr.com/65535/50039660942_c68fcff771_o.jpg",
    "id_image": "Battle_262558",
    "count_view": 0
  },
  {
    "link_thumb": "https://live.staticflickr.com/65535/50039773782_16684e4535_n.jpg",
    "id_album": "-1964113117",
    "description": "City_881696",
    "title": "City_881696",
    "link_img": "https://live.staticflickr.com/65535/50039773782_f27cd6ea94_o.jpg",
    "id_image": "City_881696",
    "count_view": 0
  },
  {
    "link_thumb": "https://live.staticflickr.com/65535/50039136608_811a56867d_n.jpg",
    "id_album": "1402713104",
    "description": "Landscape_390838",
    "title": "Landscape_390838",
    "link_img": "https://live.staticflickr.com/65535/50039136608_46b3b34040_o.jpg",
    "id_image": "Landscape_390838",
    "count_view": 0
  },
  {
    "link_thumb": "https://live.staticflickr.com/65535/50039673032_0832781dba_n.jpg",
    "id_album": "1187037014",
    "description": "Battle_991376",
    "title": "Battle_991376",
    "link_img": "https://live.staticflickr.com/65535/50039673032_cc9bddf7b4_o.jpg",
    "id_image": "Battle_991376",
    "count_view": 0
  },
  {
    "link_thumb": "https://live.staticflickr.com/65535/50040298986_7b139c2379_n.jpg",
    "id_album": "779690680",
    "description": "Robot_384097",
    "title": "Robot_384097",
    "link_img": "https://live.staticflickr.com/65535/50040298986_483d221453_o.jpg",
    "id_image": "Robot_384097",
    "count_view": 0
  },
  {
    "link_thumb": "https://live.staticflickr.com/65535/50039574392_e4fc3ba142_n.jpg",
    "id_album": "523598895",
    "description": "Artistic_206615",
    "title": "Artistic_206615",
    "link_img": "https://live.staticflickr.com/65535/50039574392_2d302246b6_o.jpg",
    "id_image": "Artistic_206615",
    "count_view": 0
  },
  {
    "link_thumb": "https://live.staticflickr.com/65535/50039463936_b6df08e8c9_n.jpg",
    "id_album": "-1964113117",
    "description": "City_332525",
    "title": "City_332525",
    "link_img": "https://live.staticflickr.com/65535/50039463936_fe05499c4e_o.jpg",
    "id_image": "City_332525",
    "count_view": 0
  },
  {
    "link_thumb": "https://live.staticflickr.com/65535/50041636532_47ed2b6811_n.jpg",
    "id_album": "2020068132",
    "description": "Vehicle_171696",
    "title": "Vehicle_171696",
    "link_img": "https://live.staticflickr.com/65535/50041636532_abf96cca8b_o.jpg",
    "id_image": "Vehicle_171696",
    "count_view": 0
  },
  {
    "link_thumb": "https://live.staticflickr.com/65535/50040545156_7a666c73b0_n.jpg",
    "id_album": "1613540653",
    "description": "Space_83512",
    "title": "Space_83512",
    "link_img": "https://live.staticflickr.com/65535/50040545156_1c8a888b3c_o.jpg",
    "id_image": "Space_83512",
    "count_view": 0
  },
  {
    "link_thumb": "https://live.staticflickr.com/65535/50040324547_a93326b843_n.jpg",
    "id_album": "-1102314093",
    "description": "Planets_220569",
    "title": "Planets_220569",
    "link_img": "https://live.staticflickr.com/65535/50040324547_535c81d5e8_o.jpg",
    "id_image": "Planets_220569",
    "count_view": 0
  },
  {
    "link_thumb": "https://live.staticflickr.com/65535/50039782861_e874991a2d_n.jpg",
    "id_album": "-1610342324",
    "description": "Nebula_286825",
    "title": "Nebula_286825",
    "link_img": "https://live.staticflickr.com/65535/50039782861_22931596a8_o.jpg",
    "id_image": "Nebula_286825",
    "count_view": 0
  },
  {
    "link_thumb": "https://live.staticflickr.com/65535/50039558572_001c6c0ab1_n.jpg",
    "id_album": "523598895",
    "description": "Artistic_151695",
    "title": "Artistic_151695",
    "link_img": "https://live.staticflickr.com/65535/50039558572_6bee2933de_o.jpg",
    "id_image": "Artistic_151695",
    "count_view": 0
  },
  {
    "link_thumb": "https://live.staticflickr.com/65535/50039507517_20a0405bd1_n.jpg",
    "id_album": "849020728",
    "description": "Alien_145527",
    "title": "Alien_145527",
    "link_img": "https://live.staticflickr.com/65535/50039507517_e178cebb7c_o.jpg",
    "id_image": "Alien_145527",
    "count_view": 0
  },
  {
    "link_thumb": "https://live.staticflickr.com/65535/50040028042_bb80715ccb_n.jpg",
    "id_album": "-1610342324",
    "description": "Nebula_175209",
    "title": "Nebula_175209",
    "link_img": "https://live.staticflickr.com/65535/50040028042_edb5533ddc_o.jpg",
    "id_image": "Nebula_175209",
    "count_view": 0
  },
  {
    "link_thumb": "https://live.staticflickr.com/65535/50040620673_b5e78741f2_n.jpg",
    "id_album": "-1863373220",
    "description": "StarWars_386934",
    "title": "StarWars_386934",
    "link_img": "https://live.staticflickr.com/65535/50040620673_a896c1b5b4_o.jpg",
    "id_image": "StarWars_386934",
    "count_view": 0
  },
  {
    "link_thumb": "https://live.staticflickr.com/65535/50040445577_41a17e16db_n.jpg",
    "id_album": "376235057",
    "description": "Planetscape_778700",
    "title": "Planetscape_778700",
    "link_img": "https://live.staticflickr.com/65535/50040445577_a8f9ac3462_o.jpg",
    "id_image": "Planetscape_778700",
    "count_view": 0
  },
  {
    "link_thumb": "https://live.staticflickr.com/65535/50039630892_d86c9eb4cb_n.jpg",
    "id_album": "869545341",
    "description": "Astronaut_816998",
    "title": "Astronaut_816998",
    "link_img": "https://live.staticflickr.com/65535/50039630892_4d5c17998f_o.jpg",
    "id_image": "Astronaut_816998",
    "count_view": 0
  },
  {
    "link_thumb": "https://live.staticflickr.com/65535/50039502312_900975e3cf_n.jpg",
    "id_album": "-406145265",
    "description": "Aircraft_403620",
    "title": "Aircraft_403620",
    "link_img": "https://live.staticflickr.com/65535/50039502312_a3c1c51f0c_o.jpg",
    "id_image": "Aircraft_403620",
    "count_view": 0
  },
  {
    "link_thumb": "https://live.staticflickr.com/65535/50039081008_b6bd6fdcc2_n.jpg",
    "id_album": "1204249541",
    "description": "Galaxy_298926",
    "title": "Galaxy_298926",
    "link_img": "https://live.staticflickr.com/65535/50039081008_e8778a0803_o.jpg",
    "id_image": "Galaxy_298926",
    "count_view": 0
  },
  {
    "link_thumb": "https://live.staticflickr.com/65535/50039526043_d613c0b922_n.jpg",
    "id_album": "-1102314093",
    "description": "Planets_286914",
    "title": "Planets_286914",
    "link_img": "https://live.staticflickr.com/65535/50039526043_059fcdae91_o.jpg",
    "id_image": "Planets_286914",
    "count_view": 0
  },
  {
    "link_thumb": "https://live.staticflickr.com/65535/50038758403_4cca055f60_n.jpg",
    "id_album": "523598895",
    "description": "Artistic_182528",
    "title": "Artistic_182528",
    "link_img": "https://live.staticflickr.com/65535/50038758403_4b630cc9a5_o.jpg",
    "id_image": "Artistic_182528",
    "count_view": 0
  },
  {
    "link_thumb": "https://live.staticflickr.com/65535/50039071458_838c6c6eef_n.jpg",
    "id_album": "2104507156",
    "description": "Fantasy_367508",
    "title": "Fantasy_367508",
    "link_img": "https://live.staticflickr.com/65535/50039071458_492fef8905_o.jpg",
    "id_image": "Fantasy_367508",
    "count_view": 0
  },
  {
    "link_thumb": "https://live.staticflickr.com/65535/50039624952_f138dee3a4_n.jpg",
    "id_album": "869545341",
    "description": "Astronaut_676268",
    "title": "Astronaut_676268",
    "link_img": "https://live.staticflickr.com/65535/50039624952_2082d1a5be_o.jpg",
    "id_image": "Astronaut_676268",
    "count_view": 0
  },
  {
    "link_thumb": "https://live.staticflickr.com/65535/50039468168_be22fd8e7f_n.jpg",
    "id_album": "814701616",
    "description": "PlanetaryRing_121703",
    "title": "PlanetaryRing_121703",
    "link_img": "https://live.staticflickr.com/65535/50039468168_bccb9559d8_o.jpg",
    "id_image": "PlanetaryRing_121703",
    "count_view": 0
  },
  {
    "link_thumb": "https://live.staticflickr.com/65535/50040671552_fc32a4d7ae_n.jpg",
    "id_album": "779690680",
    "description": "Robot_910945",
    "title": "Robot_910945",
    "link_img": "https://live.staticflickr.com/65535/50040671552_c78188c8d7_o.jpg",
    "id_image": "Robot_910945",
    "count_view": 0
  },
  {
    "link_thumb": "https://live.staticflickr.com/65535/50039955071_9f1e037d60_n.jpg",
    "id_album": "395161030",
    "description": "Planet_516168",
    "title": "Planet_516168",
    "link_img": "https://live.staticflickr.com/65535/50039955071_6baab262b5_o.jpg",
    "id_image": "Planet_516168",
    "count_view": 0
  },
  {
    "link_thumb": "https://live.staticflickr.com/65535/50040929168_4febe23135_n.jpg",
    "id_album": "-1261420436",
    "description": "Warrior_678949",
    "title": "Warrior_678949",
    "link_img": "https://live.staticflickr.com/65535/50040929168_2f97d8cb3e_o.jpg",
    "id_image": "Warrior_678949",
    "count_view": 0
  },
  {
    "link_thumb": "https://live.staticflickr.com/65535/50039614657_35e030acf9_n.jpg",
    "id_album": "869545341",
    "description": "Astronaut_268425",
    "title": "Astronaut_268425",
    "link_img": "https://live.staticflickr.com/65535/50039614657_ea213d1714_o.jpg",
    "id_image": "Astronaut_268425",
    "count_view": 0
  },
  {
    "link_thumb": "https://live.staticflickr.com/65535/50039732931_34ab32f9dc_n.jpg",
    "id_album": "-1388385651",
    "description": "MilkyWay_555448",
    "title": "MilkyWay_555448",
    "link_img": "https://live.staticflickr.com/65535/50039732931_9b03219476_o.jpg",
    "id_image": "MilkyWay_555448",
    "count_view": 0
  },
  {
    "link_thumb": "https://live.staticflickr.com/65535/50040155801_ff4dba981a_n.jpg",
    "id_album": "376235057",
    "description": "Planetscape_286376",
    "title": "Planetscape_286376",
    "link_img": "https://live.staticflickr.com/65535/50040155801_a2f21a4e10_o.jpg",
    "id_image": "Planetscape_286376",
    "count_view": 0
  },
  {
    "link_thumb": "https://live.staticflickr.com/65535/50038789938_2891a2abb2_n.jpg",
    "id_album": "523598895",
    "description": "Artistic_527049",
    "title": "Artistic_527049",
    "link_img": "https://live.staticflickr.com/65535/50038789938_36c9b91c61_o.jpg",
    "id_image": "Artistic_527049",
    "count_view": 0
  },
  {
    "link_thumb": "https://live.staticflickr.com/65535/50039975382_d66746c13b_n.jpg",
    "id_album": "1402713104",
    "description": "Landscape_857267",
    "title": "Landscape_857267",
    "link_img": "https://live.staticflickr.com/65535/50039975382_f0d29e450d_o.jpg",
    "id_image": "Landscape_857267",
    "count_view": 0
  },
  {
    "link_thumb": "https://live.staticflickr.com/65535/50038727493_5af9d06ca1_n.jpg",
    "id_album": "849020728",
    "description": "Alien_864723",
    "title": "Alien_864723",
    "link_img": "https://live.staticflickr.com/65535/50038727493_f0976ddcbc_o.jpg",
    "id_image": "Alien_864723",
    "count_view": 0
  },
  {
    "link_thumb": "https://live.staticflickr.com/65535/50040299966_0a77a3091b_n.jpg",
    "id_album": "779690680",
    "description": "Robot_390499",
    "title": "Robot_390499",
    "link_img": "https://live.staticflickr.com/65535/50040299966_688ba03aee_o.jpg",
    "id_image": "Robot_390499",
    "count_view": 0
  },
  {
    "link_thumb": "https://live.staticflickr.com/65535/50039950331_1b09dc433a_n.jpg",
    "id_album": "395161030",
    "description": "Planet_457932",
    "title": "Planet_457932",
    "link_img": "https://live.staticflickr.com/65535/50039950331_a0048944cf_o.jpg",
    "id_image": "Planet_457932",
    "count_view": 0
  },
  {
    "link_thumb": "https://live.staticflickr.com/65535/50040722702_14f0348a21_n.jpg",
    "id_album": "779690680",
    "description": "Robot_995805",
    "title": "Robot_995805",
    "link_img": "https://live.staticflickr.com/65535/50040722702_70f878643c_o.jpg",
    "id_image": "Robot_995805",
    "count_view": 0
  },
  {
    "link_thumb": "https://live.staticflickr.com/65535/50039772903_b864d98bef_n.jpg",
    "id_album": "779690680",
    "description": "Robot_497237",
    "title": "Robot_497237",
    "link_img": "https://live.staticflickr.com/65535/50039772903_b4f5c2e84f_o.jpg",
    "id_image": "Robot_497237",
    "count_view": 0
  },
  {
    "link_thumb": "https://live.staticflickr.com/65535/50039308383_9453ddbb75_n.jpg",
    "id_album": "-1610342324",
    "description": "Nebula_957881",
    "title": "Nebula_957881",
    "link_img": "https://live.staticflickr.com/65535/50039308383_6cba99f4e0_o.jpg",
    "id_image": "Nebula_957881",
    "count_view": 0
  },
  {
    "link_thumb": "https://live.staticflickr.com/65535/50040033432_c0ed04d06f_n.jpg",
    "id_album": "-1610342324",
    "description": "Nebula_208618",
    "title": "Nebula_208618",
    "link_img": "https://live.staticflickr.com/65535/50040033432_83a35d9377_o.jpg",
    "id_image": "Nebula_208618",
    "count_view": 0
  },
  {
    "link_thumb": "https://live.staticflickr.com/65535/50040071132_666fe7eafe_n.jpg",
    "id_album": "-1610342324",
    "description": "Nebula_550540",
    "title": "Nebula_550540",
    "link_img": "https://live.staticflickr.com/65535/50040071132_3ef9b8e0ca_o.jpg",
    "id_image": "Nebula_550540",
    "count_view": 0
  },
  {
    "link_thumb": "https://live.staticflickr.com/65535/50040777626_7a2c0206d1_n.jpg",
    "id_album": "2130067313",
    "description": "Spaceship_972703",
    "title": "Spaceship_972703",
    "link_img": "https://live.staticflickr.com/65535/50040777626_8c39ee6428_o.jpg",
    "id_image": "Spaceship_972703",
    "count_view": 0
  },
  {
    "link_thumb": "https://live.staticflickr.com/65535/50039683013_5db81b9238_n.jpg",
    "id_album": "-482547208",
    "description": "PostApocalyptic_971388",
    "title": "PostApocalyptic_971388",
    "link_img": "https://live.staticflickr.com/65535/50039683013_7292c81f04_o.jpg",
    "id_image": "PostApocalyptic_971388",
    "count_view": 0
  },
  {
    "link_thumb": "https://live.staticflickr.com/65535/50040441521_c8ffec83d8_n.jpg",
    "id_album": "779690680",
    "description": "Robot_949791",
    "title": "Robot_949791",
    "link_img": "https://live.staticflickr.com/65535/50040441521_4290648c0d_o.jpg",
    "id_image": "Robot_949791",
    "count_view": 0
  },
  {
    "link_thumb": "https://live.staticflickr.com/65535/50039757821_c0060d6c17_n.jpg",
    "id_album": "416351698",
    "description": "Moon_665843",
    "title": "Moon_665843",
    "link_img": "https://live.staticflickr.com/65535/50039757821_60130df15c_o.jpg",
    "id_image": "Moon_665843",
    "count_view": 0
  },
  {
    "link_thumb": "https://live.staticflickr.com/65535/50039293158_e6e0ed76b8_n.jpg",
    "id_album": "-1610342324",
    "description": "Nebula_835408",
    "title": "Nebula_835408",
    "link_img": "https://live.staticflickr.com/65535/50039293158_789777a19c_o.jpg",
    "id_image": "Nebula_835408",
    "count_view": 0
  },
  {
    "link_thumb": "https://live.staticflickr.com/65535/50038776493_0d4722567a_n.jpg",
    "id_album": "523598895",
    "description": "Artistic_250290",
    "title": "Artistic_250290",
    "link_img": "https://live.staticflickr.com/65535/50038776493_c00ab2e99b_o.jpg",
    "id_image": "Artistic_250290",
    "count_view": 0
  },
  {
    "link_thumb": "https://live.staticflickr.com/65535/50039318701_92fe2ba90d_n.jpg",
    "id_album": "523598895",
    "description": "Artistic_222730",
    "title": "Artistic_222730",
    "link_img": "https://live.staticflickr.com/65535/50039318701_df9f7e0c4a_o.jpg",
    "id_image": "Artistic_222730",
    "count_view": 0
  },
  {
    "link_thumb": "https://live.staticflickr.com/65535/50039312771_6a99268c6a_n.jpg",
    "id_album": "523598895",
    "description": "Artistic_206654",
    "title": "Artistic_206654",
    "link_img": "https://live.staticflickr.com/65535/50039312771_7319b79880_o.jpg",
    "id_image": "Artistic_206654",
    "count_view": 0
  },
  {
    "link_thumb": "https://live.staticflickr.com/65535/50039118238_7ffba91d1c_n.jpg",
    "id_album": "1402713104",
    "description": "Landscape_252924",
    "title": "Landscape_252924",
    "link_img": "https://live.staticflickr.com/65535/50039118238_d5c269d636_o.jpg",
    "id_image": "Landscape_252924",
    "count_view": 0
  },
  {
    "link_thumb": "https://live.staticflickr.com/65535/50039542846_e0226a4ac6_n.jpg",
    "id_album": "894679094",
    "description": "Collision_681631",
    "title": "Collision_681631",
    "link_img": "https://live.staticflickr.com/65535/50039542846_58d7a93684_o.jpg",
    "id_image": "Collision_681631",
    "count_view": 0
  },
  {
    "link_thumb": "https://live.staticflickr.com/65535/50039474601_d3e534b062_n.jpg",
    "id_album": "-1964113117",
    "description": "City_51459",
    "title": "City_51459",
    "link_img": "https://live.staticflickr.com/65535/50039474601_b2083b5ba7_o.jpg",
    "id_image": "City_51459",
    "count_view": 0
  },
  {
    "link_thumb": "https://live.staticflickr.com/65535/50039805502_27d3f0f491_n.jpg",
    "id_album": "894679094",
    "description": "Collision_72061",
    "title": "Collision_72061",
    "link_img": "https://live.staticflickr.com/65535/50039805502_18299093eb_o.jpg",
    "id_image": "Collision_72061",
    "count_view": 0
  },
  {
    "link_thumb": "https://live.staticflickr.com/65535/50040348862_f9e5e6c9d4_n.jpg",
    "id_album": "-1102314093",
    "description": "Planets_332255",
    "title": "Planets_332255",
    "link_img": "https://live.staticflickr.com/65535/50040348862_50231145a5_o.jpg",
    "id_image": "Planets_332255",
    "count_view": 0
  },
  {
    "link_thumb": "https://live.staticflickr.com/65535/50040695813_e1599a89ea_n.jpg",
    "id_album": "-1863373220",
    "description": "StarWars_980537",
    "title": "StarWars_980537",
    "link_img": "https://live.staticflickr.com/65535/50040695813_a239505197_o.jpg",
    "id_image": "StarWars_980537",
    "count_view": 0
  },
  {
    "link_thumb": "https://live.staticflickr.com/65535/50040912373_73670ffd7d_n.jpg",
    "id_album": "-1261420436",
    "description": "Warrior_514705",
    "title": "Warrior_514705",
    "link_img": "https://live.staticflickr.com/65535/50040912373_a92c420ab1_o.jpg",
    "id_image": "Warrior_514705",
    "count_view": 0
  },
  {
    "link_thumb": "https://live.staticflickr.com/65535/50039908518_83af7ff6da_n.jpg",
    "id_album": "1613540653",
    "description": "Space_110332",
    "title": "Space_110332",
    "link_img": "https://live.staticflickr.com/65535/50039908518_45e9e28a8a_o.jpg",
    "id_image": "Space_110332",
    "count_view": 0
  },
  {
    "link_thumb": "https://live.staticflickr.com/65535/50040194251_bc3bac2981_n.jpg",
    "id_album": "-482547208",
    "description": "PostApocalyptic_201817",
    "title": "PostApocalyptic_201817",
    "link_img": "https://live.staticflickr.com/65535/50040194251_dfb4110be5_o.jpg",
    "id_image": "PostApocalyptic_201817",
    "count_view": 0
  },
  {
    "link_thumb": "https://live.staticflickr.com/65535/50039535842_b777cc8dc1_n.jpg",
    "id_album": "849020728",
    "description": "Alien_715693",
    "title": "Alien_715693",
    "link_img": "https://live.staticflickr.com/65535/50039535842_547c8ee14f_o.jpg",
    "id_image": "Alien_715693",
    "count_view": 0
  },
  {
    "link_thumb": "https://live.staticflickr.com/65535/50040541077_47865b2419_n.jpg",
    "id_album": "779690680",
    "description": "Robot_264068",
    "title": "Robot_264068",
    "link_img": "https://live.staticflickr.com/65535/50040541077_e0e51772f3_o.jpg",
    "id_image": "Robot_264068",
    "count_view": 0
  },
  {
    "link_thumb": "https://live.staticflickr.com/65535/50041524277_c24b229d14_n.jpg",
    "id_album": "-1587696329",
    "description": "Stars_268324",
    "title": "Stars_268324",
    "link_img": "https://live.staticflickr.com/65535/50041524277_40af40c21a_o.jpg",
    "id_image": "Stars_268324",
    "count_view": 0
  },
  {
    "link_thumb": "https://live.staticflickr.com/65535/50040280222_bdfb188618_n.jpg",
    "id_album": "1443611160",
    "description": "PlanetRise_951499",
    "title": "PlanetRise_951499",
    "link_img": "https://live.staticflickr.com/65535/50040280222_9c74659fb6_o.jpg",
    "id_image": "PlanetRise_951499",
    "count_view": 0
  },
  {
    "link_thumb": "https://live.staticflickr.com/65535/50039546666_af87071235_n.jpg",
    "id_album": "-437872736",
    "description": "Creature_200027",
    "title": "Creature_200027",
    "link_img": "https://live.staticflickr.com/65535/50039546666_d28201c7ae_o.jpg",
    "id_image": "Creature_200027",
    "count_view": 0
  },
  {
    "link_thumb": "https://live.staticflickr.com/65535/50039721601_2c072325d4_n.jpg",
    "id_album": "1402713104",
    "description": "Landscape_911493",
    "title": "Landscape_911493",
    "link_img": "https://live.staticflickr.com/65535/50039721601_7b87aa289a_o.jpg",
    "id_image": "Landscape_911493",
    "count_view": 0
  },
  {
    "link_thumb": "https://live.staticflickr.com/65535/50041012657_a6ac3d1f1c_n.jpg",
    "id_album": "2130067313",
    "description": "Spaceship_785328",
    "title": "Spaceship_785328",
    "link_img": "https://live.staticflickr.com/65535/50041012657_85fee80942_o.jpg",
    "id_image": "Spaceship_785328",
    "count_view": 0
  },
  {
    "link_thumb": "https://live.staticflickr.com/65535/50040049127_e0c4c8fe9a_n.jpg",
    "id_album": "-1610342324",
    "description": "Nebula_307831",
    "title": "Nebula_307831",
    "link_img": "https://live.staticflickr.com/65535/50040049127_30d96a593c_o.jpg",
    "id_image": "Nebula_307831",
    "count_view": 0
  },
  {
    "link_thumb": "https://live.staticflickr.com/65535/50039913597_74a71203a1_n.jpg",
    "id_album": "1204249541",
    "description": "Galaxy_685054",
    "title": "Galaxy_685054",
    "link_img": "https://live.staticflickr.com/65535/50039913597_27abd9c2c6_o.jpg",
    "id_image": "Galaxy_685054",
    "count_view": 0
  },
  {
    "link_thumb": "https://live.staticflickr.com/65535/50041341631_575724bd7e_n.jpg",
    "id_album": "-221671103",
    "description": "Sun_204328",
    "title": "Sun_204328",
    "link_img": "https://live.staticflickr.com/65535/50041341631_5584fdbddf_o.jpg",
    "id_image": "Sun_204328",
    "count_view": 0
  },
  {
    "link_thumb": "https://live.staticflickr.com/65535/50039554577_86d4f10bdc_n.jpg",
    "id_album": "523598895",
    "description": "Artistic_111731",
    "title": "Artistic_111731",
    "link_img": "https://live.staticflickr.com/65535/50039554577_1b6e563795_o.jpg",
    "id_image": "Artistic_111731",
    "count_view": 0
  },
  {
    "link_thumb": "https://live.staticflickr.com/65535/50039893182_e636ba3c38_n.jpg",
    "id_album": "1204249541",
    "description": "Galaxy_305308",
    "title": "Galaxy_305308",
    "link_img": "https://live.staticflickr.com/65535/50039893182_89dfddf850_o.jpg",
    "id_image": "Galaxy_305308",
    "count_view": 0
  },
  {
    "link_thumb": "https://live.staticflickr.com/65535/50040057617_c1c34d0aaf_n.jpg",
    "id_album": "-1610342324",
    "description": "Nebula_414621",
    "title": "Nebula_414621",
    "link_img": "https://live.staticflickr.com/65535/50040057617_9024850e5a_o.jpg",
    "id_image": "Nebula_414621",
    "count_view": 0
  },
  {
    "link_thumb": "https://live.staticflickr.com/65535/50039737848_44ce0baedf_n.jpg",
    "id_album": "779690680",
    "description": "Robot_328769",
    "title": "Robot_328769",
    "link_img": "https://live.staticflickr.com/65535/50039737848_6562fbf735_o.jpg",
    "id_image": "Robot_328769",
    "count_view": 0
  },
  {
    "link_thumb": "https://live.staticflickr.com/65535/50039964506_639755913f_n.jpg",
    "id_album": "395161030",
    "description": "Planet_56300",
    "title": "Planet_56300",
    "link_img": "https://live.staticflickr.com/65535/50039964506_55bbb38065_o.jpg",
    "id_image": "Planet_56300",
    "count_view": 0
  },
  {
    "link_thumb": "https://live.staticflickr.com/65535/50038679073_dfa488d1dd_n.jpg",
    "id_album": "280884763",
    "description": "Abstract_120530",
    "title": "Abstract_120530",
    "link_img": "https://live.staticflickr.com/65535/50038679073_ccbb4a6b20_o.jpg",
    "id_image": "Abstract_120530",
    "count_view": 0
  },
  {
    "link_thumb": "https://live.staticflickr.com/65535/50038827993_9f5bea2caa_n.jpg",
    "id_album": "869545341",
    "description": "Astronaut_888313",
    "title": "Astronaut_888313",
    "link_img": "https://live.staticflickr.com/65535/50038827993_6145767e51_o.jpg",
    "id_image": "Astronaut_888313",
    "count_view": 0
  },
  {
    "link_thumb": "https://live.staticflickr.com/65535/50040260837_b8f8f574e4_n.jpg",
    "id_album": "1443611160",
    "description": "PlanetRise_19473",
    "title": "PlanetRise_19473",
    "link_img": "https://live.staticflickr.com/65535/50040260837_70a392ed04_o.jpg",
    "id_image": "PlanetRise_19473",
    "count_view": 0
  },
  {
    "link_thumb": "https://live.staticflickr.com/65535/50038852258_d441592f54_n.jpg",
    "id_album": "1187037014",
    "description": "Battle_301484",
    "title": "Battle_301484",
    "link_img": "https://live.staticflickr.com/65535/50038852258_46c34183d5_o.jpg",
    "id_image": "Battle_301484",
    "count_view": 0
  },
  {
    "link_thumb": "https://live.staticflickr.com/65535/50038863058_74f234ff1d_n.jpg",
    "id_album": "-1780971522",
    "description": "Biohazard_274059",
    "title": "Biohazard_274059",
    "link_img": "https://live.staticflickr.com/65535/50038863058_08c7c56404_o.jpg",
    "id_image": "Biohazard_274059",
    "count_view": 0
  },
  {
    "link_thumb": "https://live.staticflickr.com/65535/50039077233_7f974a1ffb_n.jpg",
    "id_album": "1204249541",
    "description": "Galaxy_204494",
    "title": "Galaxy_204494",
    "link_img": "https://live.staticflickr.com/65535/50039077233_e9870de79e_o.jpg",
    "id_image": "Galaxy_204494",
    "count_view": 0
  },
  {
    "link_thumb": "https://live.staticflickr.com/65535/50038862473_af7469c83a_n.jpg",
    "id_album": "-1780971522",
    "description": "Biohazard_1099",
    "title": "Biohazard_1099",
    "link_img": "https://live.staticflickr.com/65535/50038862473_2f8cdc35af_o.jpg",
    "id_image": "Biohazard_1099",
    "count_view": 0
  },
  {
    "link_thumb": "https://live.staticflickr.com/65535/50040981523_c6703e20b7_n.jpg",
    "id_album": "-1126835654",
    "description": "Women_545307",
    "title": "Women_545307",
    "link_img": "https://live.staticflickr.com/65535/50040981523_a2d3a50b47_o.jpg",
    "id_image": "Women_545307",
    "count_view": 0
  },
  {
    "link_thumb": "https://live.staticflickr.com/65535/50039210383_6a98fb4159_n.jpg",
    "id_album": "-1610342324",
    "description": "Nebula_1007640",
    "title": "Nebula_1007640",
    "link_img": "https://live.staticflickr.com/65535/50039210383_7f9ab4942d_o.jpg",
    "id_image": "Nebula_1007640",
    "count_view": 0
  },
  {
    "link_thumb": "https://live.staticflickr.com/65535/50040505482_4a1466bac0_n.jpg",
    "id_album": "-839602625",
    "description": "Predator_340249",
    "title": "Predator_340249",
    "link_img": "https://live.staticflickr.com/65535/50040505482_1225656af3_o.jpg",
    "id_image": "Predator_340249",
    "count_view": 0
  },
  {
    "link_thumb": "https://live.staticflickr.com/65535/50040183342_531383033e_n.jpg",
    "id_album": "395161030",
    "description": "Planet_206133",
    "title": "Planet_206133",
    "link_img": "https://live.staticflickr.com/65535/50040183342_6aa94bbffa_o.jpg",
    "id_image": "Planet_206133",
    "count_view": 0
  },
  {
    "link_thumb": "https://live.staticflickr.com/65535/50039582048_f3f4fe5375_n.jpg",
    "id_album": "-1102314093",
    "description": "Planets_75642",
    "title": "Planets_75642",
    "link_img": "https://live.staticflickr.com/65535/50039582048_9a9eb641c9_o.jpg",
    "id_image": "Planets_75642",
    "count_view": 0
  },
  {
    "link_thumb": "https://live.staticflickr.com/65535/50039817831_6b11ebfbc7_n.jpg",
    "id_album": "-1610342324",
    "description": "Nebula_608330",
    "title": "Nebula_608330",
    "link_img": "https://live.staticflickr.com/65535/50039817831_999bc1dc5a_o.jpg",
    "id_image": "Nebula_608330",
    "count_view": 0
  },
  {
    "link_thumb": "https://live.staticflickr.com/65535/50040671337_a5ebc1ea95_n.jpg",
    "id_album": "779690680",
    "description": "Robot_910943",
    "title": "Robot_910943",
    "link_img": "https://live.staticflickr.com/65535/50040671337_66f3616f26_o.jpg",
    "id_image": "Robot_910943",
    "count_view": 0
  },
  {
    "link_thumb": "https://live.staticflickr.com/65535/50039922358_016f2ae0c6_n.jpg",
    "id_album": "1613540653",
    "description": "Space_192895",
    "title": "Space_192895",
    "link_img": "https://live.staticflickr.com/65535/50039922358_3107c8dc11_o.jpg",
    "id_image": "Space_192895",
    "count_view": 0
  },
  {
    "link_thumb": "https://live.staticflickr.com/65535/50040887198_94cb7abe86_n.jpg",
    "id_album": "-1261420436",
    "description": "Warrior_278843",
    "title": "Warrior_278843",
    "link_img": "https://live.staticflickr.com/65535/50040887198_1a28445d71_o.jpg",
    "id_image": "Warrior_278843",
    "count_view": 0
  },
  {
    "link_thumb": "https://live.staticflickr.com/65535/50039330641_743f9fd095_n.jpg",
    "id_album": "523598895",
    "description": "Artistic_345408",
    "title": "Artistic_345408",
    "link_img": "https://live.staticflickr.com/65535/50039330641_ff790dcd78_o.jpg",
    "id_image": "Artistic_345408",
    "count_view": 0
  },
  {
    "link_thumb": "https://live.staticflickr.com/65535/50040937178_e924d8bab6_n.jpg",
    "id_album": "-1261420436",
    "description": "Warrior_872545",
    "title": "Warrior_872545",
    "link_img": "https://live.staticflickr.com/65535/50040937178_f5ea70514d_o.jpg",
    "id_image": "Warrior_872545",
    "count_view": 0
  },
  {
    "link_thumb": "https://live.staticflickr.com/65535/50039507062_e422f401e9_n.jpg",
    "id_album": "849020728",
    "description": "Alien_120337",
    "title": "Alien_120337",
    "link_img": "https://live.staticflickr.com/65535/50039507062_2051e8b2b5_o.jpg",
    "id_image": "Alien_120337",
    "count_view": 0
  },
  {
    "link_thumb": "https://live.staticflickr.com/65535/50039666147_e2bd0a9e87_n.jpg",
    "id_album": "1187037014",
    "description": "Battle_581300",
    "title": "Battle_581300",
    "link_img": "https://live.staticflickr.com/65535/50039666147_203e3c4d01_o.jpg",
    "id_image": "Battle_581300",
    "count_view": 0
  },
  {
    "link_thumb": "https://live.staticflickr.com/65535/50038681068_4227c26570_n.jpg",
    "id_album": "280884763",
    "description": "Abstract_229063",
    "title": "Abstract_229063",
    "link_img": "https://live.staticflickr.com/65535/50038681068_4141d04e60_o.jpg",
    "id_image": "Abstract_229063",
    "count_view": 0
  },
  {
    "link_thumb": "https://live.staticflickr.com/65535/50039480781_32f0014621_n.jpg",
    "id_album": "-1964113117",
    "description": "City_609844",
    "title": "City_609844",
    "link_img": "https://live.staticflickr.com/65535/50039480781_f3123c7a7c_o.jpg",
    "id_image": "City_609844",
    "count_view": 0
  },
  {
    "link_thumb": "https://live.staticflickr.com/65535/50039372913_d5ae4fa902_n.jpg",
    "id_album": "395161030",
    "description": "Planet_286757",
    "title": "Planet_286757",
    "link_img": "https://live.staticflickr.com/65535/50039372913_81e525ec23_o.jpg",
    "id_image": "Planet_286757",
    "count_view": 0
  },
  {
    "link_thumb": "https://live.staticflickr.com/65535/50040616113_4eb7c4ee0a_n.jpg",
    "id_album": "-1863373220",
    "description": "StarWars_344859",
    "title": "StarWars_344859",
    "link_img": "https://live.staticflickr.com/65535/50040616113_01ff22cc2e_o.jpg",
    "id_image": "StarWars_344859",
    "count_view": 0
  },
  {
    "link_thumb": "https://live.staticflickr.com/65535/50041552641_4fe4c5682e_n.jpg",
    "id_album": "-1126835654",
    "description": "Women_981418",
    "title": "Women_981418",
    "link_img": "https://live.staticflickr.com/65535/50041552641_28700dc9a7_o.jpg",
    "id_image": "Women_981418",
    "count_view": 0
  },
  {
    "link_thumb": "https://live.staticflickr.com/65535/50038690088_c41372dba0_n.jpg",
    "id_album": "-406145265",
    "description": "Aircraft_331760",
    "title": "Aircraft_331760",
    "link_img": "https://live.staticflickr.com/65535/50038690088_4fc091eb58_o.jpg",
    "id_image": "Aircraft_331760",
    "count_view": 0
  },
  {
    "link_thumb": "https://live.staticflickr.com/65535/50039414756_f0fcc16be6_n.jpg",
    "id_album": "-1780971522",
    "description": "Biohazard_484912",
    "title": "Biohazard_484912",
    "link_img": "https://live.staticflickr.com/65535/50039414756_ba99d5da45_o.jpg",
    "id_image": "Biohazard_484912",
    "count_view": 0
  },
  {
    "link_thumb": "https://live.staticflickr.com/65535/50040886897_3dc03c6811_n.jpg",
    "id_album": "2130067313",
    "description": "Spaceship_280885",
    "title": "Spaceship_280885",
    "link_img": "https://live.staticflickr.com/65535/50040886897_3a3d7be410_o.jpg",
    "id_image": "Spaceship_280885",
    "count_view": 0
  },
  {
    "link_thumb": "https://live.staticflickr.com/65535/50038895223_30abec8f0d_n.jpg",
    "id_album": "-1964113117",
    "description": "City_206125",
    "title": "City_206125",
    "link_img": "https://live.staticflickr.com/65535/50038895223_037e147f21_o.jpg",
    "id_image": "City_206125",
    "count_view": 0
  },
  {
    "link_thumb": "https://live.staticflickr.com/65535/50040043727_8535dd6ed4_n.jpg",
    "id_album": "-1610342324",
    "description": "Nebula_268280",
    "title": "Nebula_268280",
    "link_img": "https://live.staticflickr.com/65535/50040043727_729e31699c_o.jpg",
    "id_image": "Nebula_268280",
    "count_view": 0
  },
  {
    "link_thumb": "https://live.staticflickr.com/65535/50040814188_07b1399204_n.jpg",
    "id_album": "-1177476763",
    "description": "Sunrise_674912",
    "title": "Sunrise_674912",
    "link_img": "https://live.staticflickr.com/65535/50040814188_552d0a2dbb_o.jpg",
    "id_image": "Sunrise_674912",
    "count_view": 0
  },
  {
    "link_thumb": "https://live.staticflickr.com/65535/50040298541_78d692c97e_n.jpg",
    "id_album": "779690680",
    "description": "Robot_381710",
    "title": "Robot_381710",
    "link_img": "https://live.staticflickr.com/65535/50040298541_224a981dba_o.jpg",
    "id_image": "Robot_381710",
    "count_view": 0
  },
  {
    "link_thumb": "https://live.staticflickr.com/65535/50040963932_d0eeddfd5b_n.jpg",
    "id_album": "2130067313",
    "description": "Spaceship_453661",
    "title": "Spaceship_453661",
    "link_img": "https://live.staticflickr.com/65535/50040963932_cfb41737d5_o.jpg",
    "id_image": "Spaceship_453661",
    "count_view": 0
  },
  {
    "link_thumb": "https://live.staticflickr.com/65535/50040525713_a008b1745a_n.jpg",
    "id_album": "-1863373220",
    "description": "StarWars_107098",
    "title": "StarWars_107098",
    "link_img": "https://live.staticflickr.com/65535/50040525713_cd1ff158da_o.jpg",
    "id_image": "StarWars_107098",
    "count_view": 0
  },
  {
    "link_thumb": "https://live.staticflickr.com/65535/50041562462_3cb99428ce_n.jpg",
    "id_album": "1267121215",
    "description": "Steampunk_202247",
    "title": "Steampunk_202247",
    "link_img": "https://live.staticflickr.com/65535/50041562462_250822101d_o.jpg",
    "id_image": "Steampunk_202247",
    "count_view": 0
  },
  {
    "link_thumb": "https://live.staticflickr.com/65535/50040023862_8a0dde825f_n.jpg",
    "id_album": "-1610342324",
    "description": "Nebula_1009890",
    "title": "Nebula_1009890",
    "link_img": "https://live.staticflickr.com/65535/50040023862_70e21ca365_o.jpg",
    "id_image": "Nebula_1009890",
    "count_view": 0
  },
  {
    "link_thumb": "https://live.staticflickr.com/65535/50038767768_2cd6176e17_n.jpg",
    "id_album": "523598895",
    "description": "Artistic_218245",
    "title": "Artistic_218245",
    "link_img": "https://live.staticflickr.com/65535/50038767768_88ca3d5f31_o.jpg",
    "id_image": "Artistic_218245",
    "count_view": 0
  },
  {
    "link_thumb": "https://live.staticflickr.com/65535/50040682602_0e8e359e62_n.jpg",
    "id_album": "779690680",
    "description": "Robot_922856",
    "title": "Robot_922856",
    "link_img": "https://live.staticflickr.com/65535/50040682602_28f52e3680_o.jpg",
    "id_image": "Robot_922856",
    "count_view": 0
  },
  {
    "link_thumb": "https://live.staticflickr.com/65535/50039143343_a256e1b61d_n.jpg",
    "id_album": "1402713104",
    "description": "Landscape_532402",
    "title": "Landscape_532402",
    "link_img": "https://live.staticflickr.com/65535/50039143343_a16f96d433_o.jpg",
    "id_image": "Landscape_532402",
    "count_view": 0
  },
  {
    "link_thumb": "https://live.staticflickr.com/65535/50041513637_cc3af829fa_n.jpg",
    "id_album": "-1863373220",
    "description": "StarWars_981428",
    "title": "StarWars_981428",
    "link_img": "https://live.staticflickr.com/65535/50041513637_d01076b0c0_o.jpg",
    "id_image": "StarWars_981428",
    "count_view": 0
  },
  {
    "link_thumb": "https://live.staticflickr.com/65535/50039714231_5c4c6d32b6_n.jpg",
    "id_album": "1402713104",
    "description": "Landscape_866888",
    "title": "Landscape_866888",
    "link_img": "https://live.staticflickr.com/65535/50039714231_bafd99829a_o.jpg",
    "id_image": "Landscape_866888",
    "count_view": 0
  },
  {
    "link_thumb": "https://live.staticflickr.com/65535/50039073203_8fb920ac07_n.jpg",
    "id_album": "2104507156",
    "description": "Fantasy_848977",
    "title": "Fantasy_848977",
    "link_img": "https://live.staticflickr.com/65535/50039073203_6d52c23114_o.jpg",
    "id_image": "Fantasy_848977",
    "count_view": 0
  },
  {
    "link_thumb": "https://live.staticflickr.com/65535/50039925416_1a4186db20_n.jpg",
    "id_album": "395161030",
    "description": "Planet_294959",
    "title": "Planet_294959",
    "link_img": "https://live.staticflickr.com/65535/50039925416_29ec6781ce_o.jpg",
    "id_image": "Planet_294959",
    "count_view": 0
  },
  {
    "link_thumb": "https://live.staticflickr.com/65535/50040227387_60721d45f7_n.jpg",
    "id_album": "395161030",
    "description": "Planet_559142",
    "title": "Planet_559142",
    "link_img": "https://live.staticflickr.com/65535/50040227387_c4fd0eb29b_o.jpg",
    "id_image": "Planet_559142",
    "count_view": 0
  },
  {
    "link_thumb": "https://live.staticflickr.com/65535/50040727772_3c026f59f0_n.jpg",
    "id_album": "1613540653",
    "description": "Space_110229",
    "title": "Space_110229",
    "link_img": "https://live.staticflickr.com/65535/50040727772_dc3a4d2bec_o.jpg",
    "id_image": "Space_110229",
    "count_view": 0
  },
  {
    "link_thumb": "https://live.staticflickr.com/65535/50041458342_d93641a522_n.jpg",
    "id_album": "-1863373220",
    "description": "StarWars_584605",
    "title": "StarWars_584605",
    "link_img": "https://live.staticflickr.com/65535/50041458342_57d3676311_o.jpg",
    "id_image": "StarWars_584605",
    "count_view": 0
  },
  {
    "link_thumb": "https://live.staticflickr.com/65535/50038875888_c437bcd8c0_n.jpg",
    "id_album": "406431601",
    "description": "Building_871355",
    "title": "Building_871355",
    "link_img": "https://live.staticflickr.com/65535/50038875888_d00452b8db_o.jpg",
    "id_image": "Building_871355",
    "count_view": 0
  },
  {
    "link_thumb": "https://live.staticflickr.com/65535/50039916463_2aa1e99a1c_n.jpg",
    "id_album": "1613540653",
    "description": "Space_167492",
    "title": "Space_167492",
    "link_img": "https://live.staticflickr.com/65535/50039916463_e555283725_o.jpg",
    "id_image": "Space_167492",
    "count_view": 0
  },
  {
    "link_thumb": "https://live.staticflickr.com/65535/50040476091_070d951d74_n.jpg",
    "id_album": "1613540653",
    "description": "Space_188882",
    "title": "Space_188882",
    "link_img": "https://live.staticflickr.com/65535/50040476091_d41fd1c8cd_o.jpg",
    "id_image": "Space_188882",
    "count_view": 0
  },
  {
    "link_thumb": "https://live.staticflickr.com/65535/50041421582_fd902eb28e_n.jpg",
    "id_album": "-1863373220",
    "description": "StarWars_276422",
    "title": "StarWars_276422",
    "link_img": "https://live.staticflickr.com/65535/50041421582_7793e604cb_o.jpg",
    "id_image": "StarWars_276422",
    "count_view": 0
  },
  {
    "link_thumb": "https://live.staticflickr.com/65535/50040405056_03e2a945b6_n.jpg",
    "id_album": "779690680",
    "description": "Robot_907942",
    "title": "Robot_907942",
    "link_img": "https://live.staticflickr.com/65535/50040405056_9b7591b133_o.jpg",
    "id_image": "Robot_907942",
    "count_view": 0
  },
  {
    "link_thumb": "https://live.staticflickr.com/65535/50040427351_3b93c2a17c_n.jpg",
    "id_album": "779690680",
    "description": "Robot_930300",
    "title": "Robot_930300",
    "link_img": "https://live.staticflickr.com/65535/50040427351_c3951669d5_o.jpg",
    "id_image": "Robot_930300",
    "count_view": 0
  },
  {
    "link_thumb": "https://live.staticflickr.com/65535/50040706148_73ae3064af_n.jpg",
    "id_album": "-1587696329",
    "description": "Stars_216544",
    "title": "Stars_216544",
    "link_img": "https://live.staticflickr.com/65535/50040706148_fcaa84ffa5_o.jpg",
    "id_image": "Stars_216544",
    "count_view": 0
  },
  {
    "link_thumb": "https://live.staticflickr.com/65535/50040432261_e60d0b39ec_n.jpg",
    "id_album": "779690680",
    "description": "Robot_936220",
    "title": "Robot_936220",
    "link_img": "https://live.staticflickr.com/65535/50040432261_f51f96eaa7_o.jpg",
    "id_image": "Robot_936220",
    "count_view": 0
  },
  {
    "link_thumb": "https://live.staticflickr.com/65535/50040662547_b8028a9da8_n.jpg",
    "id_album": "779690680",
    "description": "Robot_898625",
    "title": "Robot_898625",
    "link_img": "https://live.staticflickr.com/65535/50040662547_7af1ffa7c2_o.jpg",
    "id_image": "Robot_898625",
    "count_view": 0
  },
  {
    "link_thumb": "https://live.staticflickr.com/65535/50039250181_66e483f09a_n.jpg",
    "id_album": "849020728",
    "description": "Alien_181504",
    "title": "Alien_181504",
    "link_img": "https://live.staticflickr.com/65535/50039250181_d1c59bd2bd_o.jpg",
    "id_image": "Alien_181504",
    "count_view": 0
  },
  {
    "link_thumb": "https://live.staticflickr.com/65535/50038873573_8708fde1eb_n.jpg",
    "id_album": "406431601",
    "description": "Building_591891",
    "title": "Building_591891",
    "link_img": "https://live.staticflickr.com/65535/50038873573_8c13991aa6_o.jpg",
    "id_image": "Building_591891",
    "count_view": 0
  },
  {
    "link_thumb": "https://live.staticflickr.com/65535/50040556351_14a6b22076_n.jpg",
    "id_album": "-1532370292",
    "description": "SpaceStation_1007078",
    "title": "SpaceStation_1007078",
    "link_img": "https://live.staticflickr.com/65535/50040556351_241aec1500_o.jpg",
    "id_image": "SpaceStation_1007078",
    "count_view": 0
  },
  {
    "link_thumb": "https://live.staticflickr.com/65535/50038726128_e1127a8668_n.jpg",
    "id_album": "849020728",
    "description": "Alien_720709",
    "title": "Alien_720709",
    "link_img": "https://live.staticflickr.com/65535/50038726128_fd73132873_o.jpg",
    "id_image": "Alien_720709",
    "count_view": 0
  },
  {
    "link_thumb": "https://live.staticflickr.com/65535/50039663627_806fd64a21_n.jpg",
    "id_album": "1187037014",
    "description": "Battle_312630",
    "title": "Battle_312630",
    "link_img": "https://live.staticflickr.com/65535/50039663627_23d2cffc73_o.jpg",
    "id_image": "Battle_312630",
    "count_view": 0
  },
  {
    "link_thumb": "https://live.staticflickr.com/65535/50039918763_1ff1294900_n.jpg",
    "id_album": "1613540653",
    "description": "Space_178405",
    "title": "Space_178405",
    "link_img": "https://live.staticflickr.com/65535/50039918763_92637d8e00_o.jpg",
    "id_image": "Space_178405",
    "count_view": 0
  },
  {
    "link_thumb": "https://live.staticflickr.com/65535/50040670432_0c49129124_n.jpg",
    "id_album": "779690680",
    "description": "Robot_909551",
    "title": "Robot_909551",
    "link_img": "https://live.staticflickr.com/65535/50040670432_194e593d58_o.jpg",
    "id_image": "Robot_909551",
    "count_view": 0
  },
  {
    "link_thumb": "https://live.staticflickr.com/65535/50039364388_d81cb484f3_n.jpg",
    "id_album": "395161030",
    "description": "Planet_186828",
    "title": "Planet_186828",
    "link_img": "https://live.staticflickr.com/65535/50039364388_5676e870a3_o.jpg",
    "id_image": "Planet_186828",
    "count_view": 0
  },
  {
    "link_thumb": "https://live.staticflickr.com/65535/50040068433_a58dbb5bfe_n.jpg",
    "id_album": "2130067313",
    "description": "Spaceship_279992",
    "title": "Spaceship_279992",
    "link_img": "https://live.staticflickr.com/65535/50040068433_84d6b82683_o.jpg",
    "id_image": "Spaceship_279992",
    "count_view": 0
  },
  {
    "link_thumb": "https://live.staticflickr.com/65535/50039859741_041770b567_n.jpg",
    "id_album": "-1862561193",
    "description": "Other_102563",
    "title": "Other_102563",
    "link_img": "https://live.staticflickr.com/65535/50039859741_219f454284_o.jpg",
    "id_image": "Other_102563",
    "count_view": 0
  },
  {
    "link_thumb": "https://live.staticflickr.com/65535/50039350968_95fbe45329_n.jpg",
    "id_album": "395161030",
    "description": "Planet_1003035",
    "title": "Planet_1003035",
    "link_img": "https://live.staticflickr.com/65535/50039350968_064a32d958_o.jpg",
    "id_image": "Planet_1003035",
    "count_view": 0
  },
  {
    "link_thumb": "https://live.staticflickr.com/65535/50040435672_5d1a6f989a_n.jpg",
    "id_album": "376235057",
    "description": "Planetscape_387291",
    "title": "Planetscape_387291",
    "link_img": "https://live.staticflickr.com/65535/50040435672_d8a17dd3cb_o.jpg",
    "id_image": "Planetscape_387291",
    "count_view": 0
  },
  {
    "link_thumb": "https://live.staticflickr.com/65535/50040452362_bb04f41912_n.jpg",
    "id_album": "-482547208",
    "description": "PostApocalyptic_102020",
    "title": "PostApocalyptic_102020",
    "link_img": "https://live.staticflickr.com/65535/50040452362_7433585247_o.jpg",
    "id_image": "PostApocalyptic_102020",
    "count_view": 0
  },
  {
    "link_thumb": "https://live.staticflickr.com/65535/50039631107_c829d9e8f5_n.jpg",
    "id_album": "869545341",
    "description": "Astronaut_829193",
    "title": "Astronaut_829193",
    "link_img": "https://live.staticflickr.com/65535/50039631107_b1f19c731f_o.jpg",
    "id_image": "Astronaut_829193",
    "count_view": 0
  },
  {
    "link_thumb": "https://live.staticflickr.com/65535/50039123408_4ea5a1a8e2_n.jpg",
    "id_album": "1402713104",
    "description": "Landscape_290156",
    "title": "Landscape_290156",
    "link_img": "https://live.staticflickr.com/65535/50039123408_0da2b11afc_o.jpg",
    "id_image": "Landscape_290156",
    "count_view": 0
  },
  {
    "link_thumb": "https://live.staticflickr.com/65535/50039287176_19abcdd680_n.jpg",
    "id_album": "-419633230",
    "description": "Apocalyptic_716245",
    "title": "Apocalyptic_716245",
    "link_img": "https://live.staticflickr.com/65535/50039287176_15c40e686d_o.jpg",
    "id_image": "Apocalyptic_716245",
    "count_view": 0
  },
  {
    "link_thumb": "https://live.staticflickr.com/65535/50041624142_3c2eae8338_n.jpg",
    "id_album": "-1177476763",
    "description": "Sunrise_352786",
    "title": "Sunrise_352786",
    "link_img": "https://live.staticflickr.com/65535/50041624142_224a809cf7_o.jpg",
    "id_image": "Sunrise_352786",
    "count_view": 0
  },
  {
    "link_thumb": "https://live.staticflickr.com/65535/50040705506_1a46707f66_n.jpg",
    "id_album": "2130067313",
    "description": "Spaceship_518888",
    "title": "Spaceship_518888",
    "link_img": "https://live.staticflickr.com/65535/50040705506_dfb8026692_o.jpg",
    "id_image": "Spaceship_518888",
    "count_view": 0
  },
  {
    "link_thumb": "https://live.staticflickr.com/65535/50039879332_677638388d_n.jpg",
    "id_album": "2104507156",
    "description": "Fantasy_162713",
    "title": "Fantasy_162713",
    "link_img": "https://live.staticflickr.com/65535/50039879332_9441f0ff7b_o.jpg",
    "id_image": "Fantasy_162713",
    "count_view": 0
  },
  {
    "link_thumb": "https://live.staticflickr.com/65535/50039959196_19724fcec3_n.jpg",
    "id_album": "395161030",
    "description": "Planet_555279",
    "title": "Planet_555279",
    "link_img": "https://live.staticflickr.com/65535/50039959196_1ab9881f87_o.jpg",
    "id_image": "Planet_555279",
    "count_view": 0
  },
  {
    "link_thumb": "https://live.staticflickr.com/65535/50040408916_08f1c5070b_n.jpg",
    "id_album": "779690680",
    "description": "Robot_911878",
    "title": "Robot_911878",
    "link_img": "https://live.staticflickr.com/65535/50040408916_3924bc84be_o.jpg",
    "id_image": "Robot_911878",
    "count_view": 0
  },
  {
    "link_thumb": "https://live.staticflickr.com/65535/50039997771_e73e656db3_n.jpg",
    "id_album": "1443611160",
    "description": "PlanetRise_209993",
    "title": "PlanetRise_209993",
    "link_img": "https://live.staticflickr.com/65535/50039997771_92b6f906e9_o.jpg",
    "id_image": "PlanetRise_209993",
    "count_view": 0
  },
  {
    "link_thumb": "https://live.staticflickr.com/65535/50040182446_203b375be2_n.jpg",
    "id_album": "376235057",
    "description": "Planetscape_860677",
    "title": "Planetscape_860677",
    "link_img": "https://live.staticflickr.com/65535/50040182446_564dbe4e4f_o.jpg",
    "id_image": "Planetscape_860677",
    "count_view": 0
  },
  {
    "link_thumb": "https://live.staticflickr.com/65535/50038972038_1ae4180a64_n.jpg",
    "id_album": "-1964113117",
    "description": "City_915616",
    "title": "City_915616",
    "link_img": "https://live.staticflickr.com/65535/50038972038_f63fa86209_o.jpg",
    "id_image": "City_915616",
    "count_view": 0
  },
  {
    "link_thumb": "https://live.staticflickr.com/65535/50038898223_aced839c06_n.jpg",
    "id_album": "-1964113117",
    "description": "City_214293",
    "title": "City_214293",
    "link_img": "https://live.staticflickr.com/65535/50038898223_5699db0fa4_o.jpg",
    "id_image": "City_214293",
    "count_view": 0
  },
  {
    "link_thumb": "https://live.staticflickr.com/65535/50039724921_71c48ed24f_n.jpg",
    "id_album": "1402713104",
    "description": "Landscape_930907",
    "title": "Landscape_930907",
    "link_img": "https://live.staticflickr.com/65535/50039724921_9babfbfb7c_o.jpg",
    "id_image": "Landscape_930907",
    "count_view": 0
  },
  {
    "link_thumb": "https://live.staticflickr.com/65535/50039606456_e04a839e10_n.jpg",
    "id_album": "829169633",
    "description": "Cyborg_964102",
    "title": "Cyborg_964102",
    "link_img": "https://live.staticflickr.com/65535/50039606456_c8c59d4ff1_o.jpg",
    "id_image": "Cyborg_964102",
    "count_view": 0
  },
  {
    "link_thumb": "https://live.staticflickr.com/65535/50039624488_49b12f31ef_n.jpg",
    "id_album": "376235057",
    "description": "Planetscape_529573",
    "title": "Planetscape_529573",
    "link_img": "https://live.staticflickr.com/65535/50039624488_28c27b2856_o.jpg",
    "id_image": "Planetscape_529573",
    "count_view": 0
  },
  {
    "link_thumb": "https://live.staticflickr.com/65535/50039679863_66a41b60e9_n.jpg",
    "id_album": "-482547208",
    "description": "PostApocalyptic_941238",
    "title": "PostApocalyptic_941238",
    "link_img": "https://live.staticflickr.com/65535/50039679863_62529091e1_o.jpg",
    "id_image": "PostApocalyptic_941238",
    "count_view": 0
  },
  {
    "link_thumb": "https://live.staticflickr.com/65535/50039856321_83befceb7b_n.jpg",
    "id_album": "-1610342324",
    "description": "Nebula_935315",
    "title": "Nebula_935315",
    "link_img": "https://live.staticflickr.com/65535/50039856321_4f0853045d_o.jpg",
    "id_image": "Nebula_935315",
    "count_view": 0
  },
  {
    "link_thumb": "https://live.staticflickr.com/65535/50039491722_0280f80ffa_n.jpg",
    "id_album": "280884763",
    "description": "Abstract_286931",
    "title": "Abstract_286931",
    "link_img": "https://live.staticflickr.com/65535/50039491722_f271d3820b_o.jpg",
    "id_image": "Abstract_286931",
    "count_view": 0
  },
  {
    "link_thumb": "https://live.staticflickr.com/65535/50040089972_493bf6190b_n.jpg",
    "id_album": "-1610342324",
    "description": "Nebula_726872",
    "title": "Nebula_726872",
    "link_img": "https://live.staticflickr.com/65535/50040089972_3e56455a2f_o.jpg",
    "id_image": "Nebula_726872",
    "count_view": 0
  },
  {
    "link_thumb": "https://live.staticflickr.com/65535/50039625166_a8df5ea624_n.jpg",
    "id_album": "1204249541",
    "description": "Galaxy_165217",
    "title": "Galaxy_165217",
    "link_img": "https://live.staticflickr.com/65535/50039625166_20c71e67d0_o.jpg",
    "id_image": "Galaxy_165217",
    "count_view": 0
  },
  {
    "link_thumb": "https://live.staticflickr.com/65535/50039431076_5031fda00a_n.jpg",
    "id_album": "-1964113117",
    "description": "City_103430",
    "title": "City_103430",
    "link_img": "https://live.staticflickr.com/65535/50039431076_5cf036a562_o.jpg",
    "id_image": "City_103430",
    "count_view": 0
  },
  {
    "link_thumb": "https://live.staticflickr.com/65535/50039794921_e1cf4b8d38_n.jpg",
    "id_album": "-1610342324",
    "description": "Nebula_422149",
    "title": "Nebula_422149",
    "link_img": "https://live.staticflickr.com/65535/50039794921_14429d19e1_o.jpg",
    "id_image": "Nebula_422149",
    "count_view": 0
  },
  {
    "link_thumb": "https://live.staticflickr.com/65535/50040466151_108a787aa8_n.jpg",
    "id_album": "1613540653",
    "description": "Space_121052",
    "title": "Space_121052",
    "link_img": "https://live.staticflickr.com/65535/50040466151_deabf30a8c_o.jpg",
    "id_image": "Space_121052",
    "count_view": 0
  },
  {
    "link_thumb": "https://live.staticflickr.com/65535/50039818227_a672b8016f_n.jpg",
    "id_album": "-437872736",
    "description": "Creature_410085",
    "title": "Creature_410085",
    "link_img": "https://live.staticflickr.com/65535/50039818227_6867bf3aaa_o.jpg",
    "id_image": "Creature_410085",
    "count_view": 0
  },
  {
    "link_thumb": "https://live.staticflickr.com/65535/50039657762_2d4ea6c4e3_n.jpg",
    "id_album": "1187037014",
    "description": "Battle_163940",
    "title": "Battle_163940",
    "link_img": "https://live.staticflickr.com/65535/50039657762_7c0b8fea0a_o.jpg",
    "id_image": "Battle_163940",
    "count_view": 0
  },
  {
    "link_thumb": "https://live.staticflickr.com/65535/50039559651_8694a307e2_n.jpg",
    "id_album": "-437872736",
    "description": "Creature_911871",
    "title": "Creature_911871",
    "link_img": "https://live.staticflickr.com/65535/50039559651_5116c383ed_o.jpg",
    "id_image": "Creature_911871",
    "count_view": 0
  },
  {
    "link_thumb": "https://live.staticflickr.com/65535/50039970022_51f08f1ac5_n.jpg",
    "id_album": "1402713104",
    "description": "Landscape_782626",
    "title": "Landscape_782626",
    "link_img": "https://live.staticflickr.com/65535/50039970022_ee5b71364e_o.jpg",
    "id_image": "Landscape_782626",
    "count_view": 0
  },
  {
    "link_thumb": "https://live.staticflickr.com/65535/50041851467_ef55904c29_n.jpg",
    "id_album": "-1675918237",
    "description": "WomenWarrior_910966",
    "title": "WomenWarrior_910966",
    "link_img": "https://live.staticflickr.com/65535/50041851467_4d823122f2_o.jpg",
    "id_image": "WomenWarrior_910966",
    "count_view": 0
  },
  {
    "link_thumb": "https://live.staticflickr.com/65535/50039891422_3084d764d6_n.jpg",
    "id_album": "1204249541",
    "description": "Galaxy_264726",
    "title": "Galaxy_264726",
    "link_img": "https://live.staticflickr.com/65535/50039891422_649b75c755_o.jpg",
    "id_image": "Galaxy_264726",
    "count_view": 0
  },
  {
    "link_thumb": "https://live.staticflickr.com/65535/50039893642_34837cf893_n.jpg",
    "id_album": "1204249541",
    "description": "Galaxy_324635",
    "title": "Galaxy_324635",
    "link_img": "https://live.staticflickr.com/65535/50039893642_0d48fa95d8_o.jpg",
    "id_image": "Galaxy_324635",
    "count_view": 0
  },
  {
    "link_thumb": "https://live.staticflickr.com/65535/50040551891_34f478f43c_n.jpg",
    "id_album": "1613540653",
    "description": "Space_934840",
    "title": "Space_934840",
    "link_img": "https://live.staticflickr.com/65535/50040551891_670cf42ecf_o.jpg",
    "id_image": "Space_934840",
    "count_view": 0
  },
  {
    "link_thumb": "https://live.staticflickr.com/65535/50040034042_5e8a2e72a3_n.jpg",
    "id_album": "-1610342324",
    "description": "Nebula_214557",
    "title": "Nebula_214557",
    "link_img": "https://live.staticflickr.com/65535/50040034042_a101ce50ee_o.jpg",
    "id_image": "Nebula_214557",
    "count_view": 0
  },
  {
    "link_thumb": "https://live.staticflickr.com/65535/50039501902_a9f33f29ef_n.jpg",
    "id_album": "-406145265",
    "description": "Aircraft_399888",
    "title": "Aircraft_399888",
    "link_img": "https://live.staticflickr.com/65535/50039501902_a59e50c0ff_o.jpg",
    "id_image": "Aircraft_399888",
    "count_view": 0
  },
  {
    "link_thumb": "https://live.staticflickr.com/65535/50039217468_86f8c91f7e_n.jpg",
    "id_album": "-1610342324",
    "description": "Nebula_196124",
    "title": "Nebula_196124",
    "link_img": "https://live.staticflickr.com/65535/50039217468_cf31812484_o.jpg",
    "id_image": "Nebula_196124",
    "count_view": 0
  },
  {
    "link_thumb": "https://live.staticflickr.com/65535/50039646867_fd5082eae5_n.jpg",
    "id_album": "869545341",
    "description": "Astronaut_957347",
    "title": "Astronaut_957347",
    "link_img": "https://live.staticflickr.com/65535/50039646867_27999c2455_o.jpg",
    "id_image": "Astronaut_957347",
    "count_view": 0
  },
  {
    "link_thumb": "https://live.staticflickr.com/65535/50039834361_3f8ea82b2e_n.jpg",
    "id_album": "-1610342324",
    "description": "Nebula_772695",
    "title": "Nebula_772695",
    "link_img": "https://live.staticflickr.com/65535/50039834361_b2a6855abc_o.jpg",
    "id_image": "Nebula_772695",
    "count_view": 0
  },
  {
    "link_thumb": "https://live.staticflickr.com/65535/50039418846_027f0ede4d_n.jpg",
    "id_album": "-1780971522",
    "description": "Biohazard_577355",
    "title": "Biohazard_577355",
    "link_img": "https://live.staticflickr.com/65535/50039418846_70e4483469_o.jpg",
    "id_image": "Biohazard_577355",
    "count_view": 0
  },
  {
    "link_thumb": "https://live.staticflickr.com/65535/50039609386_c1f1bb0132_n.jpg",
    "id_album": "651930207",
    "description": "Explosion_346591",
    "title": "Explosion_346591",
    "link_img": "https://live.staticflickr.com/65535/50039609386_5e1a46bf28_o.jpg",
    "id_image": "Explosion_346591",
    "count_view": 0
  },
  {
    "link_thumb": "https://live.staticflickr.com/65535/50039870548_5a38cfcf28_n.jpg",
    "id_album": "779690680",
    "description": "Robot_928592",
    "title": "Robot_928592",
    "link_img": "https://live.staticflickr.com/65535/50039870548_fa55d0ceac_o.jpg",
    "id_image": "Robot_928592",
    "count_view": 0
  },
  {
    "link_thumb": "https://live.staticflickr.com/65535/50039972468_bba2ea8015_n.jpg",
    "id_album": "1613540653",
    "description": "Space_692166",
    "title": "Space_692166",
    "link_img": "https://live.staticflickr.com/65535/50039972468_88f28c82fb_o.jpg",
    "id_image": "Space_692166",
    "count_view": 0
  },
  {
    "link_thumb": "https://live.staticflickr.com/65535/50041545407_c0b8ee00a6_n.jpg",
    "id_album": "-1587696329",
    "description": "Stars_805197",
    "title": "Stars_805197",
    "link_img": "https://live.staticflickr.com/65535/50041545407_a8a36a22e5_o.jpg",
    "id_image": "Stars_805197",
    "count_view": 0
  },
  {
    "link_thumb": "https://live.staticflickr.com/65535/50040848632_57937af14f_n.jpg",
    "id_album": "2130067313",
    "description": "Spaceship_169701",
    "title": "Spaceship_169701",
    "link_img": "https://live.staticflickr.com/65535/50040848632_ab79790e0f_o.jpg",
    "id_image": "Spaceship_169701",
    "count_view": 0
  },
  {
    "link_thumb": "https://live.staticflickr.com/65535/50040042503_6e2433f607_n.jpg",
    "id_album": "2130067313",
    "description": "Spaceship_195156",
    "title": "Spaceship_195156",
    "link_img": "https://live.staticflickr.com/65535/50040042503_dc4f3bf7d9_o.jpg",
    "id_image": "Spaceship_195156",
    "count_view": 0
  },
  {
    "link_thumb": "https://live.staticflickr.com/65535/50039857373_f86542642e_n.jpg",
    "id_album": "779690680",
    "description": "Robot_914390",
    "title": "Robot_914390",
    "link_img": "https://live.staticflickr.com/65535/50039857373_c8669ec296_o.jpg",
    "id_image": "Robot_914390",
    "count_view": 0
  }
]