[
  {
    "link_thumb": "https://live.staticflickr.com/65535/50040058142_eef760f430_n.jpg",
    "id_album": "-1610342324",
    "description": "Nebula_418579",
    "title": "Nebula_418579",
    "link_img": "https://live.staticflickr.com/65535/50040058142_1b611c0cf2_o.jpg",
    "id_image": "Nebula_418579",
    "count_view": 0
  },
  {
    "link_thumb": "https://live.staticflickr.com/65535/50041013032_4e88baa5d5_n.jpg",
    "id_album": "2130067313",
    "description": "Spaceship_79162",
    "title": "Spaceship_79162",
    "link_img": "https://live.staticflickr.com/65535/50041013032_88dbcf7208_o.jpg",
    "id_image": "Spaceship_79162",
    "count_view": 0
  },
  {
    "link_thumb": "https://live.staticflickr.com/65535/50039821407_e9155de75d_n.jpg",
    "id_album": "-437872736",
    "description": "Creature_920307",
    "title": "Creature_920307",
    "link_img": "https://live.staticflickr.com/65535/50039821407_ac3b13feac_o.jpg",
    "id_image": "Creature_920307",
    "count_view": 0
  },
  {
    "link_thumb": "https://live.staticflickr.com/65535/50038900308_502e7e5aa5_n.jpg",
    "id_album": "-1964113117",
    "description": "City_220203",
    "title": "City_220203",
    "link_img": "https://live.staticflickr.com/65535/50038900308_367e43586b_o.jpg",
    "id_image": "City_220203",
    "count_view": 0
  },
  {
    "link_thumb": "https://live.staticflickr.com/65535/50039894427_6be3b42800_n.jpg",
    "id_album": "1204249541",
    "description": "Galaxy_355062",
    "title": "Galaxy_355062",
    "link_img": "https://live.staticflickr.com/65535/50039894427_6f7a217fb5_o.jpg",
    "id_image": "Galaxy_355062",
    "count_view": 0
  },
  {
    "link_thumb": "https://live.staticflickr.com/65535/50039691527_bbfc1ffb59_n.jpg",
    "id_album": "406431601",
    "description": "Building_967915",
    "title": "Building_967915",
    "link_img": "https://live.staticflickr.com/65535/50039691527_e9fa28c863_o.jpg",
    "id_image": "Building_967915",
    "count_view": 0
  },
  {
    "link_thumb": "https://live.staticflickr.com/65535/50041269281_d02eac25a0_n.jpg",
    "id_album": "-1587696329",
    "description": "Stars_442533",
    "title": "Stars_442533",
    "link_img": "https://live.staticflickr.com/65535/50041269281_b3ab716c7d_o.jpg",
    "id_image": "Stars_442533",
    "count_view": 0
  },
  {
    "link_thumb": "https://live.staticflickr.com/65535/50039130268_08d946947b_n.jpg",
    "id_album": "1402713104",
    "description": "Landscape_335535",
    "title": "Landscape_335535",
    "link_img": "https://live.staticflickr.com/65535/50039130268_32b0b07567_o.jpg",
    "id_image": "Landscape_335535",
    "count_view": 0
  },
  {
    "link_thumb": "https://live.staticflickr.com/65535/50038942293_42cc92de8b_n.jpg",
    "id_album": "-1964113117",
    "description": "City_709709",
    "title": "City_709709",
    "link_img": "https://live.staticflickr.com/65535/50038942293_38b5794570_o.jpg",
    "id_image": "City_709709",
    "count_view": 0
  },
  {
    "link_thumb": "https://live.staticflickr.com/65535/50039752501_3d0c3d7511_n.jpg",
    "id_album": "-1388385651",
    "description": "MilkyWay_925655",
    "title": "MilkyWay_925655",
    "link_img": "https://live.staticflickr.com/65535/50039752501_104bf3edf9_o.jpg",
    "id_image": "MilkyWay_925655",
    "count_view": 0
  },
  {
    "link_thumb": "https://live.staticflickr.com/65535/50039635746_eafc1c1558_n.jpg",
    "id_album": "1204249541",
    "description": "Galaxy_441064",
    "title": "Galaxy_441064",
    "link_img": "https://live.staticflickr.com/65535/50039635746_c28c226a6a_o.jpg",
    "id_image": "Galaxy_441064",
    "count_view": 0
  },
  {
    "link_thumb": "https://live.staticflickr.com/65535/50040287446_f2327c5e8d_n.jpg",
    "id_album": "779690680",
    "description": "Robot_314998",
    "title": "Robot_314998",
    "link_img": "https://live.staticflickr.com/65535/50040287446_9f11c3aa50_o.jpg",
    "id_image": "Robot_314998",
    "count_view": 0
  },
  {
    "link_thumb": "https://live.staticflickr.com/65535/50040082572_951d0cd5d2_n.jpg",
    "id_album": "-1610342324",
    "description": "Nebula_658853",
    "title": "Nebula_658853",
    "link_img": "https://live.staticflickr.com/65535/50040082572_6de689239f_o.jpg",
    "id_image": "Nebula_658853",
    "count_view": 0
  },
  {
    "link_thumb": "https://live.staticflickr.com/65535/50039248631_0a44ee89c8_n.jpg",
    "id_album": "849020728",
    "description": "Alien_178699",
    "title": "Alien_178699",
    "link_img": "https://live.staticflickr.com/65535/50039248631_3a977aa1b6_o.jpg",
    "id_image": "Alien_178699",
    "count_view": 0
  },
  {
    "link_thumb": "https://live.staticflickr.com/65535/50039259513_472e8e6af0_n.jpg",
    "id_album": "-1610342324",
    "description": "Nebula_555596",
    "title": "Nebula_555596",
    "link_img": "https://live.staticflickr.com/65535/50039259513_2a671824c3_o.jpg",
    "id_image": "Nebula_555596",
    "count_view": 0
  },
  {
    "link_thumb": "https://live.staticflickr.com/65535/50041155591_4a670fc97a_n.jpg",
    "id_album": "-1863373220",
    "description": "StarWars_254395",
    "title": "StarWars_254395",
    "link_img": "https://live.staticflickr.com/65535/50041155591_190bcdb23b_o.jpg",
    "id_image": "StarWars_254395",
    "count_view": 0
  },
  {
    "link_thumb": "https://live.staticflickr.com/65535/50041826152_07fc3e5b03_n.jpg",
    "id_album": "-1675918237",
    "description": "WomenWarrior_288656",
    "title": "WomenWarrior_288656",
    "link_img": "https://live.staticflickr.com/65535/50041826152_4f22fa40b3_o.jpg",
    "id_image": "WomenWarrior_288656",
    "count_view": 0
  },
  {
    "link_thumb": "https://live.staticflickr.com/65535/50039774087_6f2d66117d_n.jpg",
    "id_album": "-1964113117",
    "description": "City_883152",
    "title": "City_883152",
    "link_img": "https://live.staticflickr.com/65535/50039774087_7c905d4156_o.jpg",
    "id_image": "City_883152",
    "count_view": 0
  },
  {
    "link_thumb": "https://live.staticflickr.com/65535/50038882418_20d7831f9a_n.jpg",
    "id_album": "-1964113117",
    "description": "City_103373",
    "title": "City_103373",
    "link_img": "https://live.staticflickr.com/65535/50038882418_cabcfc696b_o.jpg",
    "id_image": "City_103373",
    "count_view": 0
  },
  {
    "link_thumb": "https://live.staticflickr.com/65535/50039700858_1c1e12f69a_n.jpg",
    "id_album": "779690680",
    "description": "Robot_11985",
    "title": "Robot_11985",
    "link_img": "https://live.staticflickr.com/65535/50039700858_6df23dc55a_o.jpg",
    "id_image": "Robot_11985",
    "count_view": 0
  },
  {
    "link_thumb": "https://live.staticflickr.com/65535/50039463936_b6df08e8c9_n.jpg",
    "id_album": "-1964113117",
    "description": "City_332525",
    "title": "City_332525",
    "link_img": "https://live.staticflickr.com/65535/50039463936_fe05499c4e_o.jpg",
    "id_image": "City_332525",
    "count_view": 0
  },
  {
    "link_thumb": "https://live.staticflickr.com/65535/50040452092_49cd281973_n.jpg",
    "id_album": "-482547208",
    "description": "PostApocalyptic_1008081",
    "title": "PostApocalyptic_1008081",
    "link_img": "https://live.staticflickr.com/65535/50040452092_0681413991_o.jpg",
    "id_image": "PostApocalyptic_1008081",
    "count_view": 0
  },
  {
    "link_thumb": "https://live.staticflickr.com/65535/50039163738_a609013566_n.jpg",
    "id_album": "1402713104",
    "description": "Landscape_864098",
    "title": "Landscape_864098",
    "link_img": "https://live.staticflickr.com/65535/50039163738_11f1a72378_o.jpg",
    "id_image": "Landscape_864098",
    "count_view": 0
  },
  {
    "link_thumb": "https://live.staticflickr.com/65535/50040901358_e448d610d9_n.jpg",
    "id_album": "-1261420436",
    "description": "Warrior_388236",
    "title": "Warrior_388236",
    "link_img": "https://live.staticflickr.com/65535/50040901358_096f50c890_o.jpg",
    "id_image": "Warrior_388236",
    "count_view": 0
  },
  {
    "link_thumb": "https://live.staticflickr.com/65535/50040828848_83378202cc_n.jpg",
    "id_album": "2020068132",
    "description": "Vehicle_271142",
    "title": "Vehicle_271142",
    "link_img": "https://live.staticflickr.com/65535/50040828848_0755b1ed6b_o.jpg",
    "id_image": "Vehicle_271142",
    "count_view": 0
  },
  {
    "link_thumb": "https://live.staticflickr.com/65535/50039889627_8e5be759d9_n.jpg",
    "id_album": "1204249541",
    "description": "Galaxy_220976",
    "title": "Galaxy_220976",
    "link_img": "https://live.staticflickr.com/65535/50039889627_09867d1699_o.jpg",
    "id_image": "Galaxy_220976",
    "count_view": 0
  },
  {
    "link_thumb": "https://live.staticflickr.com/65535/50040810976_88bacb8e2e_n.jpg",
    "id_album": "-1449720967",
    "description": "StarTrek_244068",
    "title": "StarTrek_244068",
    "link_img": "https://live.staticflickr.com/65535/50040810976_8128660180_o.jpg",
    "id_image": "StarTrek_244068",
    "count_view": 0
  },
  {
    "link_thumb": "https://live.staticflickr.com/65535/50039629456_451cf5a193_n.jpg",
    "id_album": "1204249541",
    "description": "Galaxy_280759",
    "title": "Galaxy_280759",
    "link_img": "https://live.staticflickr.com/65535/50039629456_c83a47b6c5_o.jpg",
    "id_image": "Galaxy_280759",
    "count_view": 0
  },
  {
    "link_thumb": "https://live.staticflickr.com/65535/50039255418_5e7e9a4c31_n.jpg",
    "id_album": "-1610342324",
    "description": "Nebula_533759",
    "title": "Nebula_533759",
    "link_img": "https://live.staticflickr.com/65535/50039255418_a9ed149704_o.jpg",
    "id_image": "Nebula_533759",
    "count_view": 0
  },
  {
    "link_thumb": "https://live.staticflickr.com/65535/50039571827_ffd30f86c3_n.jpg",
    "id_album": "523598895",
    "description": "Artistic_193500",
    "title": "Artistic_193500",
    "link_img": "https://live.staticflickr.com/65535/50039571827_d6c716f8de_o.jpg",
    "id_image": "Artistic_193500",
    "count_view": 0
  },
  {
    "link_thumb": "https://live.staticflickr.com/65535/50038726128_e1127a8668_n.jpg",
    "id_album": "849020728",
    "description": "Alien_720709",
    "title": "Alien_720709",
    "link_img": "https://live.staticflickr.com/65535/50038726128_fd73132873_o.jpg",
    "id_image": "Alien_720709",
    "count_view": 0
  },
  {
    "link_thumb": "https://live.staticflickr.com/65535/50039463353_168faa7bf1_n.jpg",
    "id_album": "1443611160",
    "description": "PlanetRise_77627",
    "title": "PlanetRise_77627",
    "link_img": "https://live.staticflickr.com/65535/50039463353_0a768379b6_o.jpg",
    "id_image": "PlanetRise_77627",
    "count_view": 0
  },
  {
    "link_thumb": "https://live.staticflickr.com/65535/50039763116_fa90be45fc_n.jpg",
    "id_album": "-1610342324",
    "description": "Nebula_133363",
    "title": "Nebula_133363",
    "link_img": "https://live.staticflickr.com/65535/50039763116_4b3926f55d_o.jpg",
    "id_image": "Nebula_133363",
    "count_view": 0
  },
  {
    "link_thumb": "https://live.staticflickr.com/65535/50039780046_ce81319363_n.jpg",
    "id_album": "-1610342324",
    "description": "Nebula_269799",
    "title": "Nebula_269799",
    "link_img": "https://live.staticflickr.com/65535/50039780046_0ba0bc53f2_o.jpg",
    "id_image": "Nebula_269799",
    "count_view": 0
  },
  {
    "link_thumb": "https://live.staticflickr.com/65535/50040042111_19b90b28a9_n.jpg",
    "id_album": "814701616",
    "description": "PlanetaryRing_717756",
    "title": "PlanetaryRing_717756",
    "link_img": "https://live.staticflickr.com/65535/50040042111_a7f8d5312d_o.jpg",
    "id_image": "PlanetaryRing_717756",
    "count_view": 0
  },
  {
    "link_thumb": "https://live.staticflickr.com/65535/50038917188_1870a05359_n.jpg",
    "id_album": "-1964113117",
    "description": "City_356713",
    "title": "City_356713",
    "link_img": "https://live.staticflickr.com/65535/50038917188_a9dba55148_o.jpg",
    "id_image": "City_356713",
    "count_view": 0
  },
  {
    "link_thumb": "https://live.staticflickr.com/65535/50039726346_48ffe3dcb9_n.jpg",
    "id_album": "1402713104",
    "description": "Landscape_949072",
    "title": "Landscape_949072",
    "link_img": "https://live.staticflickr.com/65535/50039726346_0bc7cc9bd3_o.jpg",
    "id_image": "Landscape_949072",
    "count_view": 0
  },
  {
    "link_thumb": "https://live.staticflickr.com/65535/50039651632_f012d80a13_n.jpg",
    "id_album": "869545341",
    "description": "Astronaut_977917",
    "title": "Astronaut_977917",
    "link_img": "https://live.staticflickr.com/65535/50039651632_0c0b3727ec_o.jpg",
    "id_image": "Astronaut_977917",
    "count_view": 0
  },
  {
    "link_thumb": "https://live.staticflickr.com/65535/50039938007_5dbff39c0f_n.jpg",
    "id_album": "1402713104",
    "description": "Landscape_314143",
    "title": "Landscape_314143",
    "link_img": "https://live.staticflickr.com/65535/50039938007_46857b28db_o.jpg",
    "id_image": "Landscape_314143",
    "count_view": 0
  },
  {
    "link_thumb": "https://live.staticflickr.com/65535/50038986788_e1099c1f34_n.jpg",
    "id_album": "-1964113117",
    "description": "City_999423",
    "title": "City_999423",
    "link_img": "https://live.staticflickr.com/65535/50038986788_172392eb08_o.jpg",
    "id_image": "City_999423",
    "count_view": 0
  },
  {
    "link_thumb": "https://live.staticflickr.com/65535/50039988887_942389e290_n.jpg",
    "id_album": "1402713104",
    "description": "Landscape_935869",
    "title": "Landscape_935869",
    "link_img": "https://live.staticflickr.com/65535/50039988887_e2f3ba5910_o.jpg",
    "id_image": "Landscape_935869",
    "count_view": 0
  },
  {
    "link_thumb": "https://live.staticflickr.com/65535/50039371826_8b8a1a0d4a_n.jpg",
    "id_album": "869545341",
    "description": "Astronaut_857743",
    "title": "Astronaut_857743",
    "link_img": "https://live.staticflickr.com/65535/50039371826_6204000759_o.jpg",
    "id_image": "Astronaut_857743",
    "count_view": 0
  },
  {
    "link_thumb": "https://live.staticflickr.com/65535/50039684993_d792f9bb07_n.jpg",
    "id_album": "-839602625",
    "description": "Predator_174171",
    "title": "Predator_174171",
    "link_img": "https://live.staticflickr.com/65535/50039684993_fd7659e34f_o.jpg",
    "id_image": "Predator_174171",
    "count_view": 0
  },
  {
    "link_thumb": "https://live.staticflickr.com/65535/50039762517_57ff47b490_n.jpg",
    "id_album": "-1964113117",
    "description": "City_840846",
    "title": "City_840846",
    "link_img": "https://live.staticflickr.com/65535/50039762517_ca6f79ff07_o.jpg",
    "id_image": "City_840846",
    "count_view": 0
  },
  {
    "link_thumb": "https://live.staticflickr.com/65535/50039451431_e5cca83cab_n.jpg",
    "id_album": "-1964113117",
    "description": "City_233924",
    "title": "City_233924",
    "link_img": "https://live.staticflickr.com/65535/50039451431_7c57f7ac06_o.jpg",
    "id_image": "City_233924",
    "count_view": 0
  },
  {
    "link_thumb": "https://live.staticflickr.com/65535/50039644811_fce9ecfe0f_n.jpg",
    "id_album": "1204249541",
    "description": "Galaxy_585163",
    "title": "Galaxy_585163",
    "link_img": "https://live.staticflickr.com/65535/50039644811_3b740e6923_o.jpg",
    "id_image": "Galaxy_585163",
    "count_view": 0
  },
  {
    "link_thumb": "https://live.staticflickr.com/65535/50039658381_d620995a69_n.jpg",
    "id_album": "1402713104",
    "description": "Landscape_1008538",
    "title": "Landscape_1008538",
    "link_img": "https://live.staticflickr.com/65535/50039658381_edb23b8838_o.jpg",
    "id_image": "Landscape_1008538",
    "count_view": 0
  },
  {
    "link_thumb": "https://live.staticflickr.com/65535/50040496476_018e06bbe5_n.jpg",
    "id_album": "1613540653",
    "description": "Space_335520",
    "title": "Space_335520",
    "link_img": "https://live.staticflickr.com/65535/50040496476_267a13fe41_o.jpg",
    "id_image": "Space_335520",
    "count_view": 0
  },
  {
    "link_thumb": "https://live.staticflickr.com/65535/50039407316_9083c4cf32_n.jpg",
    "id_album": "1187037014",
    "description": "Battle_833535",
    "title": "Battle_833535",
    "link_img": "https://live.staticflickr.com/65535/50039407316_0736676ef1_o.jpg",
    "id_image": "Battle_833535",
    "count_view": 0
  },
  {
    "link_thumb": "https://live.staticflickr.com/65535/50040421021_78e93f2fbe_n.jpg",
    "id_album": "779690680",
    "description": "Robot_926854",
    "title": "Robot_926854",
    "link_img": "https://live.staticflickr.com/65535/50040421021_1179190ce8_o.jpg",
    "id_image": "Robot_926854",
    "count_view": 0
  },
  {
    "link_thumb": "https://live.staticflickr.com/65535/50038941428_1faa528998_n.jpg",
    "id_album": "-1964113117",
    "description": "City_701622",
    "title": "City_701622",
    "link_img": "https://live.staticflickr.com/65535/50038941428_cc4afa5e1f_o.jpg",
    "id_image": "City_701622",
    "count_view": 0
  },
  {
    "link_thumb": "https://live.staticflickr.com/65535/50039901521_e925523748_n.jpg",
    "id_album": "395161030",
    "description": "Planet_1006077",
    "title": "Planet_1006077",
    "link_img": "https://live.staticflickr.com/65535/50039901521_89c5abce31_o.jpg",
    "id_image": "Planet_1006077",
    "count_view": 0
  },
  {
    "link_thumb": "https://live.staticflickr.com/65535/50040805137_367b5238df_n.jpg",
    "id_album": "1613540653",
    "description": "Space_79500",
    "title": "Space_79500",
    "link_img": "https://live.staticflickr.com/65535/50040805137_c9463e66bb_o.jpg",
    "id_image": "Space_79500",
    "count_view": 0
  },
  {
    "link_thumb": "https://live.staticflickr.com/65535/50039603483_25505e4d24_n.jpg",
    "id_album": "376235057",
    "description": "Planetscape_264508",
    "title": "Planetscape_264508",
    "link_img": "https://live.staticflickr.com/65535/50039603483_d6218be7bb_o.jpg",
    "id_image": "Planetscape_264508",
    "count_view": 0
  },
  {
    "link_thumb": "https://live.staticflickr.com/65535/50039171278_e8e0d8385d_n.jpg",
    "id_album": "1402713104",
    "description": "Landscape_905372",
    "title": "Landscape_905372",
    "link_img": "https://live.staticflickr.com/65535/50039171278_f656ea3b75_o.jpg",
    "id_image": "Landscape_905372",
    "count_view": 0
  },
  {
    "link_thumb": "https://live.staticflickr.com/65535/50040673622_aff2f5d5e9_n.jpg",
    "id_album": "779690680",
    "description": "Robot_911890",
    "title": "Robot_911890",
    "link_img": "https://live.staticflickr.com/65535/50040673622_f5c93820e7_o.jpg",
    "id_image": "Robot_911890",
    "count_view": 0
  },
  {
    "link_thumb": "https://live.staticflickr.com/65535/50039328951_a6f01f1616_n.jpg",
    "id_album": "523598895",
    "description": "Artistic_317312",
    "title": "Artistic_317312",
    "link_img": "https://live.staticflickr.com/65535/50039328951_8b75a191ea_o.jpg",
    "id_image": "Artistic_317312",
    "count_view": 0
  },
  {
    "link_thumb": "https://live.staticflickr.com/65535/50039734816_a1fe96429c_n.jpg",
    "id_album": "-1388385651",
    "description": "MilkyWay_592441",
    "title": "MilkyWay_592441",
    "link_img": "https://live.staticflickr.com/65535/50039734816_d3986cb655_o.jpg",
    "id_image": "MilkyWay_592441",
    "count_view": 0
  },
  {
    "link_thumb": "https://live.staticflickr.com/65535/50038745618_2ca7baf052_n.jpg",
    "id_album": "523598895",
    "description": "Artistic_112792",
    "title": "Artistic_112792",
    "link_img": "https://live.staticflickr.com/65535/50038745618_a88bd00852_o.jpg",
    "id_image": "Artistic_112792",
    "count_view": 0
  },
  {
    "link_thumb": "https://live.staticflickr.com/65535/50039774951_b1cd3a0c28_n.jpg",
    "id_album": "-1610342324",
    "description": "Nebula_242651",
    "title": "Nebula_242651",
    "link_img": "https://live.staticflickr.com/65535/50039774951_7913d0af32_o.jpg",
    "id_image": "Nebula_242651",
    "count_view": 0
  },
  {
    "link_thumb": "https://live.staticflickr.com/65535/50040013952_02a0535b2e_n.jpg",
    "id_album": "-1388385651",
    "description": "MilkyWay_827413",
    "title": "MilkyWay_827413",
    "link_img": "https://live.staticflickr.com/65535/50040013952_1c21068520_o.jpg",
    "id_image": "MilkyWay_827413",
    "count_view": 0
  },
  {
    "link_thumb": "https://live.staticflickr.com/65535/50041649862_527b2df2ce_n.jpg",
    "id_album": "2020068132",
    "description": "Vehicle_318705",
    "title": "Vehicle_318705",
    "link_img": "https://live.staticflickr.com/65535/50041649862_20534cd3fd_o.jpg",
    "id_image": "Vehicle_318705",
    "count_view": 0
  },
  {
    "link_thumb": "https://live.staticflickr.com/65535/50040514812_71fe5b86c1_n.jpg",
    "id_album": "779690680",
    "description": "Robot_107012",
    "title": "Robot_107012",
    "link_img": "https://live.staticflickr.com/65535/50040514812_9ac6b5a993_o.jpg",
    "id_image": "Robot_107012",
    "count_view": 0
  },
  {
    "link_thumb": "https://live.staticflickr.com/65535/50039138173_602145e5e1_n.jpg",
    "id_album": "1402713104",
    "description": "Landscape_410040",
    "title": "Landscape_410040",
    "link_img": "https://live.staticflickr.com/65535/50039138173_5db34f6d14_o.jpg",
    "id_image": "Landscape_410040",
    "count_view": 0
  },
  {
    "link_thumb": "https://live.staticflickr.com/65535/50038940478_3db020d6dc_n.jpg",
    "id_album": "-1964113117",
    "description": "City_694107",
    "title": "City_694107",
    "link_img": "https://live.staticflickr.com/65535/50038940478_28f04d2dd3_o.jpg",
    "id_image": "City_694107",
    "count_view": 0
  },
  {
    "link_thumb": "https://live.staticflickr.com/65535/50040123396_fc122e5cb3_n.jpg",
    "id_album": "-1102314093",
    "description": "Planets_533841",
    "title": "Planets_533841",
    "link_img": "https://live.staticflickr.com/65535/50040123396_e8f6a33330_o.jpg",
    "id_image": "Planets_533841",
    "count_view": 0
  },
  {
    "link_thumb": "https://live.staticflickr.com/65535/50039631376_96a6491327_n.jpg",
    "id_album": "1204249541",
    "description": "Galaxy_331048",
    "title": "Galaxy_331048",
    "link_img": "https://live.staticflickr.com/65535/50039631376_f4a1449fbd_o.jpg",
    "id_image": "Galaxy_331048",
    "count_view": 0
  },
  {
    "link_thumb": "https://live.staticflickr.com/65535/50039437311_e30a7eea65_n.jpg",
    "id_album": "-1964113117",
    "description": "City_156954",
    "title": "City_156954",
    "link_img": "https://live.staticflickr.com/65535/50039437311_e30cb41114_o.jpg",
    "id_image": "City_156954",
    "count_view": 0
  },
  {
    "link_thumb": "https://live.staticflickr.com/65535/50039557841_f5c74496ef_n.jpg",
    "id_album": "-437872736",
    "description": "Creature_540785",
    "title": "Creature_540785",
    "link_img": "https://live.staticflickr.com/65535/50039557841_277aaa92e1_o.jpg",
    "id_image": "Creature_540785",
    "count_view": 0
  },
  {
    "link_thumb": "https://live.staticflickr.com/65535/50039877977_1e51ab50fd_n.jpg",
    "id_album": "2104507156",
    "description": "Fantasy_154341",
    "title": "Fantasy_154341",
    "link_img": "https://live.staticflickr.com/65535/50039877977_193f3b4166_o.jpg",
    "id_image": "Fantasy_154341",
    "count_view": 0
  },
  {
    "link_thumb": "https://live.staticflickr.com/65535/50040232757_1ea87d82cb_n.jpg",
    "id_album": "395161030",
    "description": "Planet_63318",
    "title": "Planet_63318",
    "link_img": "https://live.staticflickr.com/65535/50040232757_c736f8e528_o.jpg",
    "id_image": "Planet_63318",
    "count_view": 0
  },
  {
    "link_thumb": "https://live.staticflickr.com/65535/50039857373_f86542642e_n.jpg",
    "id_album": "779690680",
    "description": "Robot_914390",
    "title": "Robot_914390",
    "link_img": "https://live.staticflickr.com/65535/50039857373_c8669ec296_o.jpg",
    "id_image": "Robot_914390",
    "count_view": 0
  },
  {
    "link_thumb": "https://live.staticflickr.com/65535/50040150928_df080c3e8e_n.jpg",
    "id_album": "2130067313",
    "description": "Spaceship_503821",
    "title": "Spaceship_503821",
    "link_img": "https://live.staticflickr.com/65535/50040150928_49bc027681_o.jpg",
    "id_image": "Spaceship_503821",
    "count_view": 0
  },
  {
    "link_thumb": "https://live.staticflickr.com/65535/50039843308_6041443b89_n.jpg",
    "id_album": "779690680",
    "description": "Robot_889659",
    "title": "Robot_889659",
    "link_img": "https://live.staticflickr.com/65535/50039843308_647797432a_o.jpg",
    "id_image": "Robot_889659",
    "count_view": 0
  },
  {
    "link_thumb": "https://live.staticflickr.com/65535/50039583331_06522fb2f4_n.jpg",
    "id_album": "829169633",
    "description": "Cyborg_265063",
    "title": "Cyborg_265063",
    "link_img": "https://live.staticflickr.com/65535/50039583331_bea7fb02ed_o.jpg",
    "id_image": "Cyborg_265063",
    "count_view": 0
  },
  {
    "link_thumb": "https://live.staticflickr.com/65535/50039229671_d90c60133b_n.jpg",
    "id_album": "280884763",
    "description": "Abstract_324581",
    "title": "Abstract_324581",
    "link_img": "https://live.staticflickr.com/65535/50039229671_720e128555_o.jpg",
    "id_image": "Abstract_324581",
    "count_view": 0
  },
  {
    "link_thumb": "https://live.staticflickr.com/65535/50039011638_1b34a7dd4e_n.jpg",
    "id_album": "-437872736",
    "description": "Creature_967850",
    "title": "Creature_967850",
    "link_img": "https://live.staticflickr.com/65535/50039011638_14695bba44_o.jpg",
    "id_image": "Creature_967850",
    "count_view": 0
  },
  {
    "link_thumb": "https://live.staticflickr.com/65535/50039489681_9ee772883f_n.jpg",
    "id_album": "-1964113117",
    "description": "City_697302",
    "title": "City_697302",
    "link_img": "https://live.staticflickr.com/65535/50039489681_cd5f3f95b0_o.jpg",
    "id_image": "City_697302",
    "count_view": 0
  },
  {
    "link_thumb": "https://live.staticflickr.com/65535/50039687278_0a9264b25a_n.jpg",
    "id_album": "-839602625",
    "description": "Predator_315715",
    "title": "Predator_315715",
    "link_img": "https://live.staticflickr.com/65535/50039687278_b9b3cb0df6_o.jpg",
    "id_image": "Predator_315715",
    "count_view": 0
  },
  {
    "link_thumb": "https://live.staticflickr.com/65535/50041458696_5c1c2a66a4_n.jpg",
    "id_album": "-1261420436",
    "description": "Warrior_403236",
    "title": "Warrior_403236",
    "link_img": "https://live.staticflickr.com/65535/50041458696_3b9c0de3bb_o.jpg",
    "id_image": "Warrior_403236",
    "count_view": 0
  },
  {
    "link_thumb": "https://live.staticflickr.com/65535/50039930596_336c7b308f_n.jpg",
    "id_album": "395161030",
    "description": "Planet_343743",
    "title": "Planet_343743",
    "link_img": "https://live.staticflickr.com/65535/50039930596_e683d4a767_o.jpg",
    "id_image": "Planet_343743",
    "count_view": 0
  },
  {
    "link_thumb": "https://live.staticflickr.com/65535/50039230623_6bd6db2b48_n.jpg",
    "id_album": "-1610342324",
    "description": "Nebula_271792",
    "title": "Nebula_271792",
    "link_img": "https://live.staticflickr.com/65535/50039230623_451ffda269_o.jpg",
    "id_image": "Nebula_271792",
    "count_view": 0
  },
  {
    "link_thumb": "https://live.staticflickr.com/65535/50038768593_50cdf47331_n.jpg",
    "id_album": "523598895",
    "description": "Artistic_220877",
    "title": "Artistic_220877",
    "link_img": "https://live.staticflickr.com/65535/50038768593_6a0c574f2f_o.jpg",
    "id_image": "Artistic_220877",
    "count_view": 0
  },
  {
    "link_thumb": "https://live.staticflickr.com/65535/50040037952_745fa71ea1_n.jpg",
    "id_album": "-1610342324",
    "description": "Nebula_241043",
    "title": "Nebula_241043",
    "link_img": "https://live.staticflickr.com/65535/50040037952_1f3c7b1c07_o.jpg",
    "id_image": "Nebula_241043",
    "count_view": 0
  },
  {
    "link_thumb": "https://live.staticflickr.com/65535/50039806957_c1295cb92f_n.jpg",
    "id_album": "894679094",
    "description": "Collision_957395",
    "title": "Collision_957395",
    "link_img": "https://live.staticflickr.com/65535/50039806957_88f5dee92e_o.jpg",
    "id_image": "Collision_957395",
    "count_view": 0
  },
  {
    "link_thumb": "https://live.staticflickr.com/65535/50039378366_ac1d1b1f91_n.jpg",
    "id_album": "869545341",
    "description": "Astronaut_923960",
    "title": "Astronaut_923960",
    "link_img": "https://live.staticflickr.com/65535/50039378366_e12d4744d3_o.jpg",
    "id_image": "Astronaut_923960",
    "count_view": 0
  },
  {
    "link_thumb": "https://live.staticflickr.com/65535/50041611297_c9605d289a_n.jpg",
    "id_album": "-221671103",
    "description": "Sun_438129",
    "title": "Sun_438129",
    "link_img": "https://live.staticflickr.com/65535/50041611297_e5abefb881_o.jpg",
    "id_image": "Sun_438129",
    "count_view": 0
  },
  {
    "link_thumb": "https://live.staticflickr.com/65535/50039303811_cdac9eb026_n.jpg",
    "id_album": "523598895",
    "description": "Artistic_174223",
    "title": "Artistic_174223",
    "link_img": "https://live.staticflickr.com/65535/50039303811_294df40208_o.jpg",
    "id_image": "Artistic_174223",
    "count_view": 0
  },
  {
    "link_thumb": "https://live.staticflickr.com/65535/50039392953_045bf2e03c_n.jpg",
    "id_album": "395161030",
    "description": "Planet_376459",
    "title": "Planet_376459",
    "link_img": "https://live.staticflickr.com/65535/50039392953_6e32d139b9_o.jpg",
    "id_image": "Planet_376459",
    "count_view": 0
  },
  {
    "link_thumb": "https://live.staticflickr.com/65535/50039614997_66ccd9aa39_n.jpg",
    "id_album": "869545341",
    "description": "Astronaut_280634",
    "title": "Astronaut_280634",
    "link_img": "https://live.staticflickr.com/65535/50039614997_4621cac05c_o.jpg",
    "id_image": "Astronaut_280634",
    "count_view": 0
  },
  {
    "link_thumb": "https://live.staticflickr.com/65535/50039110883_410946231c_n.jpg",
    "id_album": "1402713104",
    "description": "Landscape_118644",
    "title": "Landscape_118644",
    "link_img": "https://live.staticflickr.com/65535/50039110883_541803e44c_o.jpg",
    "id_image": "Landscape_118644",
    "count_view": 0
  },
  {
    "link_thumb": "https://live.staticflickr.com/65535/50039358126_f4f3b47977_n.jpg",
    "id_album": "869545341",
    "description": "Astronaut_567012",
    "title": "Astronaut_567012",
    "link_img": "https://live.staticflickr.com/65535/50039358126_1d9aa996f4_o.jpg",
    "id_image": "Astronaut_567012",
    "count_view": 0
  },
  {
    "link_thumb": "https://live.staticflickr.com/65535/50040687773_ab5a280dee_n.jpg",
    "id_album": "-1863373220",
    "description": "StarWars_919884",
    "title": "StarWars_919884",
    "link_img": "https://live.staticflickr.com/65535/50040687773_12b86310b6_o.jpg",
    "id_image": "StarWars_919884",
    "count_view": 0
  },
  {
    "link_thumb": "https://live.staticflickr.com/65535/50039217153_8a1c5e902f_n.jpg",
    "id_album": "-1610342324",
    "description": "Nebula_195749",
    "title": "Nebula_195749",
    "link_img": "https://live.staticflickr.com/65535/50039217153_0721670324_o.jpg",
    "id_image": "Nebula_195749",
    "count_view": 0
  },
  {
    "link_thumb": "https://live.staticflickr.com/65535/50040462237_eab648c418_n.jpg",
    "id_album": "-482547208",
    "description": "PostApocalyptic_231176",
    "title": "PostApocalyptic_231176",
    "link_img": "https://live.staticflickr.com/65535/50040462237_78e22231ac_o.jpg",
    "id_image": "PostApocalyptic_231176",
    "count_view": 0
  },
  {
    "link_thumb": "https://live.staticflickr.com/65535/50039447036_f2c0c2c122_n.jpg",
    "id_album": "-1964113117",
    "description": "City_213563",
    "title": "City_213563",
    "link_img": "https://live.staticflickr.com/65535/50039447036_61a03a201e_o.jpg",
    "id_image": "City_213563",
    "count_view": 0
  },
  {
    "link_thumb": "https://live.staticflickr.com/65535/50040167367_7a61cd4f5e_n.jpg",
    "id_album": "395161030",
    "description": "Planet_105256",
    "title": "Planet_105256",
    "link_img": "https://live.staticflickr.com/65535/50040167367_4581d3d8d4_o.jpg",
    "id_image": "Planet_105256",
    "count_view": 0
  },
  {
    "link_thumb": "https://live.staticflickr.com/65535/50039549957_7dbc76ba19_n.jpg",
    "id_album": "-419633230",
    "description": "Apocalyptic_938299",
    "title": "Apocalyptic_938299",
    "link_img": "https://live.staticflickr.com/65535/50039549957_8a3488035a_o.jpg",
    "id_image": "Apocalyptic_938299",
    "count_view": 0
  },
  {
    "link_thumb": "https://live.staticflickr.com/65535/50040502342_faeb0d4da3_n.jpg",
    "id_album": "-839602625",
    "description": "Predator_180678",
    "title": "Predator_180678",
    "link_img": "https://live.staticflickr.com/65535/50040502342_d7d478f487_o.jpg",
    "id_image": "Predator_180678",
    "count_view": 0
  },
  {
    "link_thumb": "https://live.staticflickr.com/65535/50039120158_2d8c61157d_n.jpg",
    "id_album": "1402713104",
    "description": "Landscape_273938",
    "title": "Landscape_273938",
    "link_img": "https://live.staticflickr.com/65535/50039120158_1e1a068bde_o.jpg",
    "id_image": "Landscape_273938",
    "count_view": 0
  },
  {
    "link_thumb": "https://live.staticflickr.com/65535/50040633753_3021baf2ce_n.jpg",
    "id_album": "-1863373220",
    "description": "StarWars_497635",
    "title": "StarWars_497635",
    "link_img": "https://live.staticflickr.com/65535/50040633753_2cece27c5c_o.jpg",
    "id_image": "StarWars_497635",
    "count_view": 0
  },
  {
    "link_thumb": "https://live.staticflickr.com/65535/50040033432_c0ed04d06f_n.jpg",
    "id_album": "-1610342324",
    "description": "Nebula_208618",
    "title": "Nebula_208618",
    "link_img": "https://live.staticflickr.com/65535/50040033432_83a35d9377_o.jpg",
    "id_image": "Nebula_208618",
    "count_view": 0
  },
  {
    "link_thumb": "https://live.staticflickr.com/65535/50039661526_f2f08a4e81_n.jpg",
    "id_album": "1402713104",
    "description": "Landscape_163727",
    "title": "Landscape_163727",
    "link_img": "https://live.staticflickr.com/65535/50039661526_8f50f206e1_o.jpg",
    "id_image": "Landscape_163727",
    "count_view": 0
  },
  {
    "link_thumb": "https://live.staticflickr.com/65535/50039496322_c99c2540f5_n.jpg",
    "id_album": "-406145265",
    "description": "Aircraft_146659",
    "title": "Aircraft_146659",
    "link_img": "https://live.staticflickr.com/65535/50039496322_0652f561e7_o.jpg",
    "id_image": "Aircraft_146659",
    "count_view": 0
  },
  {
    "link_thumb": "https://live.staticflickr.com/65535/50041392096_280a64d11c_n.jpg",
    "id_album": "2020068132",
    "description": "Vehicle_345581",
    "title": "Vehicle_345581",
    "link_img": "https://live.staticflickr.com/65535/50041392096_5fcd387f0f_o.jpg",
    "id_image": "Vehicle_345581",
    "count_view": 0
  },
  {
    "link_thumb": "https://live.staticflickr.com/65535/50040921928_4bf384bb00_n.jpg",
    "id_album": "-1261420436",
    "description": "Warrior_595979",
    "title": "Warrior_595979",
    "link_img": "https://live.staticflickr.com/65535/50040921928_c6b513af09_o.jpg",
    "id_image": "Warrior_595979",
    "count_view": 0
  },
  {
    "link_thumb": "https://live.staticflickr.com/65535/50039638048_309138607b_n.jpg",
    "id_album": "-482547208",
    "description": "PostApocalyptic_118740",
    "title": "PostApocalyptic_118740",
    "link_img": "https://live.staticflickr.com/65535/50039638048_c031c8827b_o.jpg",
    "id_image": "PostApocalyptic_118740",
    "count_view": 0
  },
  {
    "link_thumb": "https://live.staticflickr.com/65535/50040105371_f38edf25d6_n.jpg",
    "id_album": "-1102314093",
    "description": "Planets_393895",
    "title": "Planets_393895",
    "link_img": "https://live.staticflickr.com/65535/50040105371_c922fa9262_o.jpg",
    "id_image": "Planets_393895",
    "count_view": 0
  },
  {
    "link_thumb": "https://live.staticflickr.com/65535/50040878168_45bbf5ee61_n.jpg",
    "id_album": "-1261420436",
    "description": "Warrior_162261",
    "title": "Warrior_162261",
    "link_img": "https://live.staticflickr.com/65535/50040878168_ffe1d1f576_o.jpg",
    "id_image": "Warrior_162261",
    "count_view": 0
  },
  {
    "link_thumb": "https://live.staticflickr.com/65535/50040853703_2c1c906ace_n.jpg",
    "id_album": "2020068132",
    "description": "Vehicle_616889",
    "title": "Vehicle_616889",
    "link_img": "https://live.staticflickr.com/65535/50040853703_3e3b17d993_o.jpg",
    "id_image": "Vehicle_616889",
    "count_view": 0
  },
  {
    "link_thumb": "https://live.staticflickr.com/65535/50041337956_70af0d0485_n.jpg",
    "id_album": "-221671103",
    "description": "Sun_106487",
    "title": "Sun_106487",
    "link_img": "https://live.staticflickr.com/65535/50041337956_eb1a541b99_o.jpg",
    "id_image": "Sun_106487",
    "count_view": 0
  },
  {
    "link_thumb": "https://live.staticflickr.com/65535/50040702207_b039b704bd_n.jpg",
    "id_album": "779690680",
    "description": "Robot_9444",
    "title": "Robot_9444",
    "link_img": "https://live.staticflickr.com/65535/50040702207_9d6facde04_o.jpg",
    "id_image": "Robot_9444",
    "count_view": 0
  },
  {
    "link_thumb": "https://live.staticflickr.com/65535/50039732496_51e3b6f7bb_n.jpg",
    "id_album": "-1388385651",
    "description": "MilkyWay_550058",
    "title": "MilkyWay_550058",
    "link_img": "https://live.staticflickr.com/65535/50039732496_7bacbfc362_o.jpg",
    "id_image": "MilkyWay_550058",
    "count_view": 0
  },
  {
    "link_thumb": "https://live.staticflickr.com/65535/50040466151_108a787aa8_n.jpg",
    "id_album": "1613540653",
    "description": "Space_121052",
    "title": "Space_121052",
    "link_img": "https://live.staticflickr.com/65535/50040466151_deabf30a8c_o.jpg",
    "id_image": "Space_121052",
    "count_view": 0
  },
  {
    "link_thumb": "https://live.staticflickr.com/65535/50039748948_e1835f14fe_n.jpg",
    "id_album": "779690680",
    "description": "Robot_397668",
    "title": "Robot_397668",
    "link_img": "https://live.staticflickr.com/65535/50039748948_ca09111e48_o.jpg",
    "id_image": "Robot_397668",
    "count_view": 0
  },
  {
    "link_thumb": "https://live.staticflickr.com/65535/50039445931_f75b6cf13f_n.jpg",
    "id_album": "-1964113117",
    "description": "City_2113",
    "title": "City_2113",
    "link_img": "https://live.staticflickr.com/65535/50039445931_07414065c5_o.jpg",
    "id_image": "City_2113",
    "count_view": 0
  },
  {
    "link_thumb": "https://live.staticflickr.com/65535/50041263421_118371238b_n.jpg",
    "id_album": "-1587696329",
    "description": "Stars_346525",
    "title": "Stars_346525",
    "link_img": "https://live.staticflickr.com/65535/50041263421_c2cd6e7fb7_o.jpg",
    "id_image": "Stars_346525",
    "count_view": 0
  },
  {
    "link_thumb": "https://live.staticflickr.com/65535/50041591326_3b263aeaa9_n.jpg",
    "id_album": "-1675918237",
    "description": "WomenWarrior_932181",
    "title": "WomenWarrior_932181",
    "link_img": "https://live.staticflickr.com/65535/50041591326_68a2ce4cae_o.jpg",
    "id_image": "WomenWarrior_932181",
    "count_view": 0
  },
  {
    "link_thumb": "https://live.staticflickr.com/65535/50039885123_acd2480b65_n.jpg",
    "id_album": "779690680",
    "description": "Robot_944760",
    "title": "Robot_944760",
    "link_img": "https://live.staticflickr.com/65535/50039885123_8a17f70c9e_o.jpg",
    "id_image": "Robot_944760",
    "count_view": 0
  },
  {
    "link_thumb": "https://live.staticflickr.com/65535/50038745888_1a00421379_n.jpg",
    "id_album": "523598895",
    "description": "Artistic_113784",
    "title": "Artistic_113784",
    "link_img": "https://live.staticflickr.com/65535/50038745888_f01f12b306_o.jpg",
    "id_image": "Artistic_113784",
    "count_view": 0
  },
  {
    "link_thumb": "https://live.staticflickr.com/65535/50040912373_73670ffd7d_n.jpg",
    "id_album": "-1261420436",
    "description": "Warrior_514705",
    "title": "Warrior_514705",
    "link_img": "https://live.staticflickr.com/65535/50040912373_a92c420ab1_o.jpg",
    "id_image": "Warrior_514705",
    "count_view": 0
  },
  {
    "link_thumb": "https://live.staticflickr.com/65535/50039574312_ab925016de_n.jpg",
    "id_album": "523598895",
    "description": "Artistic_206213",
    "title": "Artistic_206213",
    "link_img": "https://live.staticflickr.com/65535/50039574312_b68c5c4c7f_o.jpg",
    "id_image": "Artistic_206213",
    "count_view": 0
  },
  {
    "link_thumb": "https://live.staticflickr.com/65535/50040086812_4acf9d7252_n.jpg",
    "id_album": "-1610342324",
    "description": "Nebula_699333",
    "title": "Nebula_699333",
    "link_img": "https://live.staticflickr.com/65535/50040086812_34008ed8f8_o.jpg",
    "id_image": "Nebula_699333",
    "count_view": 0
  },
  {
    "link_thumb": "https://live.staticflickr.com/65535/50038699178_11ec2631bc_n.jpg",
    "id_album": "849020728",
    "description": "Alien_152631",
    "title": "Alien_152631",
    "link_img": "https://live.staticflickr.com/65535/50038699178_a8eedc5aa9_o.jpg",
    "id_image": "Alien_152631",
    "count_view": 0
  },
  {
    "link_thumb": "https://live.staticflickr.com/65535/50039233878_0bf6f13ce6_n.jpg",
    "id_album": "-1610342324",
    "description": "Nebula_289232",
    "title": "Nebula_289232",
    "link_img": "https://live.staticflickr.com/65535/50039233878_26d3cb40d8_o.jpg",
    "id_image": "Nebula_289232",
    "count_view": 0
  },
  {
    "link_thumb": "https://live.staticflickr.com/65535/50038731898_98db688388_n.jpg",
    "id_album": "-419633230",
    "description": "Apocalyptic_175390",
    "title": "Apocalyptic_175390",
    "link_img": "https://live.staticflickr.com/65535/50038731898_8bd51d7488_o.jpg",
    "id_image": "Apocalyptic_175390",
    "count_view": 0
  },
  {
    "link_thumb": "https://live.staticflickr.com/65535/50040563196_02acc03050_n.jpg",
    "id_album": "-1532370292",
    "description": "SpaceStation_776575",
    "title": "SpaceStation_776575",
    "link_img": "https://live.staticflickr.com/65535/50040563196_1e2168327e_o.jpg",
    "id_image": "SpaceStation_776575",
    "count_view": 0
  },
  {
    "link_thumb": "https://live.staticflickr.com/65535/50041572327_7791a5c289_n.jpg",
    "id_album": "1267121215",
    "description": "Steampunk_264131",
    "title": "Steampunk_264131",
    "link_img": "https://live.staticflickr.com/65535/50041572327_b1f3491341_o.jpg",
    "id_image": "Steampunk_264131",
    "count_view": 0
  },
  {
    "link_thumb": "https://live.staticflickr.com/65535/50039262271_12f17ee40f_n.jpg",
    "id_album": "849020728",
    "description": "Alien_393637",
    "title": "Alien_393637",
    "link_img": "https://live.staticflickr.com/65535/50039262271_698be4ef09_o.jpg",
    "id_image": "Alien_393637",
    "count_view": 0
  },
  {
    "link_thumb": "https://live.staticflickr.com/65535/50039614182_ecbb5986d6_n.jpg",
    "id_album": "869545341",
    "description": "Astronaut_238542",
    "title": "Astronaut_238542",
    "link_img": "https://live.staticflickr.com/65535/50039614182_5f480e4b5a_o.jpg",
    "id_image": "Astronaut_238542",
    "count_view": 0
  },
  {
    "link_thumb": "https://live.staticflickr.com/65535/50040412641_b2a3ef2789_n.jpg",
    "id_album": "779690680",
    "description": "Robot_915573",
    "title": "Robot_915573",
    "link_img": "https://live.staticflickr.com/65535/50040412641_d9b5769d04_o.jpg",
    "id_image": "Robot_915573",
    "count_view": 0
  },
  {
    "link_thumb": "https://live.staticflickr.com/65535/50038857428_b704cdbe9a_n.jpg",
    "id_album": "1187037014",
    "description": "Battle_658752",
    "title": "Battle_658752",
    "link_img": "https://live.staticflickr.com/65535/50038857428_1f0f689db0_o.jpg",
    "id_image": "Battle_658752",
    "count_view": 0
  },
  {
    "link_thumb": "https://live.staticflickr.com/65535/50040499521_7c6569d350_n.jpg",
    "id_album": "1613540653",
    "description": "Space_354746",
    "title": "Space_354746",
    "link_img": "https://live.staticflickr.com/65535/50040499521_9189d61480_o.jpg",
    "id_image": "Space_354746",
    "count_view": 0
  },
  {
    "link_thumb": "https://live.staticflickr.com/65535/50039530871_6354d8ddaf_n.jpg",
    "id_album": "-1964113117",
    "description": "City_977581",
    "title": "City_977581",
    "link_img": "https://live.staticflickr.com/65535/50039530871_3cfa61ce23_o.jpg",
    "id_image": "City_977581",
    "count_view": 0
  },
  {
    "link_thumb": "https://live.staticflickr.com/65535/50039511598_cb80b055ee_n.jpg",
    "id_album": "-1102314093",
    "description": "Planets_221961",
    "title": "Planets_221961",
    "link_img": "https://live.staticflickr.com/65535/50039511598_b7bb8b3c80_o.jpg",
    "id_image": "Planets_221961",
    "count_view": 0
  },
  {
    "link_thumb": "https://live.staticflickr.com/65535/50041386516_184b52f8c3_n.jpg",
    "id_album": "2020068132",
    "description": "Vehicle_311985",
    "title": "Vehicle_311985",
    "link_img": "https://live.staticflickr.com/65535/50041386516_45c9812985_o.jpg",
    "id_image": "Vehicle_311985",
    "count_view": 0
  },
  {
    "link_thumb": "https://live.staticflickr.com/65535/50039727131_a5596e3193_n.jpg",
    "id_album": "1402713104",
    "description": "Landscape_955684",
    "title": "Landscape_955684",
    "link_img": "https://live.staticflickr.com/65535/50039727131_ef23286909_o.jpg",
    "id_image": "Landscape_955684",
    "count_view": 0
  },
  {
    "link_thumb": "https://live.staticflickr.com/65535/50041444602_5e97cfb088_n.jpg",
    "id_album": "-1863373220",
    "description": "StarWars_446626",
    "title": "StarWars_446626",
    "link_img": "https://live.staticflickr.com/65535/50041444602_039c2ff221_o.jpg",
    "id_image": "StarWars_446626",
    "count_view": 0
  },
  {
    "link_thumb": "https://live.staticflickr.com/65535/50040116002_eace02ddda_n.jpg",
    "id_album": "-1610342324",
    "description": "Nebula_916210",
    "title": "Nebula_916210",
    "link_img": "https://live.staticflickr.com/65535/50040116002_c0e18612c0_o.jpg",
    "id_image": "Nebula_916210",
    "count_view": 0
  },
  {
    "link_thumb": "https://live.staticflickr.com/65535/50039900597_77ef833d80_n.jpg",
    "id_album": "1204249541",
    "description": "Galaxy_485802",
    "title": "Galaxy_485802",
    "link_img": "https://live.staticflickr.com/65535/50039900597_68bb6aa4cd_o.jpg",
    "id_image": "Galaxy_485802",
    "count_view": 0
  },
  {
    "link_thumb": "https://live.staticflickr.com/65535/50040416802_b19915cb50_n.jpg",
    "id_album": "376235057",
    "description": "Planetscape_1009887",
    "title": "Planetscape_1009887",
    "link_img": "https://live.staticflickr.com/65535/50040416802_48018e620b_o.jpg",
    "id_image": "Planetscape_1009887",
    "count_view": 0
  },
  {
    "link_thumb": "https://live.staticflickr.com/65535/50039747461_1208242de3_n.jpg",
    "id_album": "-1388385651",
    "description": "MilkyWay_794921",
    "title": "MilkyWay_794921",
    "link_img": "https://live.staticflickr.com/65535/50039747461_320a1aeeae_o.jpg",
    "id_image": "MilkyWay_794921",
    "count_view": 0
  },
  {
    "link_thumb": "https://live.staticflickr.com/65535/50039438831_64ab853387_n.jpg",
    "id_album": "-1964113117",
    "description": "City_167027",
    "title": "City_167027",
    "link_img": "https://live.staticflickr.com/65535/50039438831_6aed274eb4_o.jpg",
    "id_image": "City_167027",
    "count_view": 0
  },
  {
    "link_thumb": "https://live.staticflickr.com/65535/50039205778_22a5a0db2d_n.jpg",
    "id_album": "416351698",
    "description": "Moon_264721",
    "title": "Moon_264721",
    "link_img": "https://live.staticflickr.com/65535/50039205778_6be7e019cc_o.jpg",
    "id_image": "Moon_264721",
    "count_view": 0
  },
  {
    "link_thumb": "https://live.staticflickr.com/65535/50039777501_8c1ec506f1_n.jpg",
    "id_album": "-1610342324",
    "description": "Nebula_2541",
    "title": "Nebula_2541",
    "link_img": "https://live.staticflickr.com/65535/50039777501_e1218d1ef7_o.jpg",
    "id_image": "Nebula_2541",
    "count_view": 0
  },
  {
    "link_thumb": "https://live.staticflickr.com/65535/50039546797_2b033a7704_n.jpg",
    "id_album": "-419633230",
    "description": "Apocalyptic_529576",
    "title": "Apocalyptic_529576",
    "link_img": "https://live.staticflickr.com/65535/50039546797_7d83bc8789_o.jpg",
    "id_image": "Apocalyptic_529576",
    "count_view": 0
  },
  {
    "link_thumb": "https://live.staticflickr.com/65535/50038730103_caa66ab71a_n.jpg",
    "id_album": "849020728",
    "description": "Alien_967936",
    "title": "Alien_967936",
    "link_img": "https://live.staticflickr.com/65535/50038730103_f29ba7cd68_o.jpg",
    "id_image": "Alien_967936",
    "count_view": 0
  },
  {
    "link_thumb": "https://live.staticflickr.com/65535/50041257241_4247cfe1ca_n.jpg",
    "id_album": "-1587696329",
    "description": "Stars_173368",
    "title": "Stars_173368",
    "link_img": "https://live.staticflickr.com/65535/50041257241_fe13e4bef0_o.jpg",
    "id_image": "Stars_173368",
    "count_view": 0
  },
  {
    "link_thumb": "https://live.staticflickr.com/65535/50039558572_001c6c0ab1_n.jpg",
    "id_album": "523598895",
    "description": "Artistic_151695",
    "title": "Artistic_151695",
    "link_img": "https://live.staticflickr.com/65535/50039558572_6bee2933de_o.jpg",
    "id_image": "Artistic_151695",
    "count_view": 0
  },
  {
    "link_thumb": "https://live.staticflickr.com/65535/50041469441_d2bdd42cc6_n.jpg",
    "id_album": "-1261420436",
    "description": "Warrior_551686",
    "title": "Warrior_551686",
    "link_img": "https://live.staticflickr.com/65535/50041469441_f8cece0a9d_o.jpg",
    "id_image": "Warrior_551686",
    "count_view": 0
  },
  {
    "link_thumb": "https://live.staticflickr.com/65535/50040901073_523786290e_n.jpg",
    "id_album": "-1261420436",
    "description": "Warrior_386012",
    "title": "Warrior_386012",
    "link_img": "https://live.staticflickr.com/65535/50040901073_8deffe721a_o.jpg",
    "id_image": "Warrior_386012",
    "count_view": 0
  },
  {
    "link_thumb": "https://live.staticflickr.com/65535/50038858448_d37aab7c2c_n.jpg",
    "id_album": "1187037014",
    "description": "Battle_697549",
    "title": "Battle_697549",
    "link_img": "https://live.staticflickr.com/65535/50038858448_abd3b6c281_o.jpg",
    "id_image": "Battle_697549",
    "count_view": 0
  },
  {
    "link_thumb": "https://live.staticflickr.com/65535/50038972998_63d96a61aa_n.jpg",
    "id_album": "-1964113117",
    "description": "City_920075",
    "title": "City_920075",
    "link_img": "https://live.staticflickr.com/65535/50038972998_6e5b7028c5_o.jpg",
    "id_image": "City_920075",
    "count_view": 0
  },
  {
    "link_thumb": "https://live.staticflickr.com/65535/50039833848_a9eb76e709_n.jpg",
    "id_album": "779690680",
    "description": "Robot_876312",
    "title": "Robot_876312",
    "link_img": "https://live.staticflickr.com/65535/50039833848_5ba1e2d400_o.jpg",
    "id_image": "Robot_876312",
    "count_view": 0
  },
  {
    "link_thumb": "https://live.staticflickr.com/65535/50039772466_0a396e6944_n.jpg",
    "id_album": "-1610342324",
    "description": "Nebula_221006",
    "title": "Nebula_221006",
    "link_img": "https://live.staticflickr.com/65535/50039772466_8d7d15ec75_o.jpg",
    "id_image": "Nebula_221006",
    "count_view": 0
  },
  {
    "link_thumb": "https://live.staticflickr.com/65535/50040068752_b699793469_n.jpg",
    "id_album": "-1610342324",
    "description": "Nebula_533828",
    "title": "Nebula_533828",
    "link_img": "https://live.staticflickr.com/65535/50040068752_711f3c64e3_o.jpg",
    "id_image": "Nebula_533828",
    "count_view": 0
  },
  {
    "link_thumb": "https://live.staticflickr.com/65535/50039270578_c4fec1ccd0_n.jpg",
    "id_album": "-1610342324",
    "description": "Nebula_666176",
    "title": "Nebula_666176",
    "link_img": "https://live.staticflickr.com/65535/50039270578_d4f3b76157_o.jpg",
    "id_image": "Nebula_666176",
    "count_view": 0
  },
  {
    "link_thumb": "https://live.staticflickr.com/65535/50039875973_79dafde3ef_n.jpg",
    "id_album": "779690680",
    "description": "Robot_933178",
    "title": "Robot_933178",
    "link_img": "https://live.staticflickr.com/65535/50039875973_fc444683de_o.jpg",
    "id_image": "Robot_933178",
    "count_view": 0
  },
  {
    "link_thumb": "https://live.staticflickr.com/65535/50040995088_a64fb3aefb_n.jpg",
    "id_album": "-1126835654",
    "description": "Women_865727",
    "title": "Women_865727",
    "link_img": "https://live.staticflickr.com/65535/50040995088_552687054a_o.jpg",
    "id_image": "Women_865727",
    "count_view": 0
  },
  {
    "link_thumb": "https://live.staticflickr.com/65535/50039029418_9bbdbd50da_n.jpg",
    "id_album": "829169633",
    "description": "Cyborg_176741",
    "title": "Cyborg_176741",
    "link_img": "https://live.staticflickr.com/65535/50039029418_19d35a5942_o.jpg",
    "id_image": "Cyborg_176741",
    "count_view": 0
  },
  {
    "link_thumb": "https://live.staticflickr.com/65535/50040465951_f31854b5e1_n.jpg",
    "id_album": "1613540653",
    "description": "Space_121041",
    "title": "Space_121041",
    "link_img": "https://live.staticflickr.com/65535/50040465951_3fb47c76dc_o.jpg",
    "id_image": "Space_121041",
    "count_view": 0
  },
  {
    "link_thumb": "https://live.staticflickr.com/65535/50040265906_aeee3252f2_n.jpg",
    "id_album": "779690680",
    "description": "Robot_217185",
    "title": "Robot_217185",
    "link_img": "https://live.staticflickr.com/65535/50040265906_740b924553_o.jpg",
    "id_image": "Robot_217185",
    "count_view": 0
  },
  {
    "link_thumb": "https://live.staticflickr.com/65535/50039837506_b04f773966_n.jpg",
    "id_album": "-1610342324",
    "description": "Nebula_792646",
    "title": "Nebula_792646",
    "link_img": "https://live.staticflickr.com/65535/50039837506_63d4131d9d_o.jpg",
    "id_image": "Nebula_792646",
    "count_view": 0
  },
  {
    "link_thumb": "https://live.staticflickr.com/65535/50039933897_c49bdddd1e_n.jpg",
    "id_album": "1402713104",
    "description": "Landscape_282801",
    "title": "Landscape_282801",
    "link_img": "https://live.staticflickr.com/65535/50039933897_3895b5cd45_o.jpg",
    "id_image": "Landscape_282801",
    "count_view": 0
  },
  {
    "link_thumb": "https://live.staticflickr.com/65535/50039853527_ae9a1f888f_n.jpg",
    "id_album": "829169633",
    "description": "Cyborg_488054",
    "title": "Cyborg_488054",
    "link_img": "https://live.staticflickr.com/65535/50039853527_b2c571966e_o.jpg",
    "id_image": "Cyborg_488054",
    "count_view": 0
  },
  {
    "link_thumb": "https://live.staticflickr.com/65535/50039508566_356204ceb5_n.jpg",
    "id_album": "-1964113117",
    "description": "City_869607",
    "title": "City_869607",
    "link_img": "https://live.staticflickr.com/65535/50039508566_7fff4f6010_o.jpg",
    "id_image": "City_869607",
    "count_view": 0
  },
  {
    "link_thumb": "https://live.staticflickr.com/65535/50041283401_4a87f0645a_n.jpg",
    "id_album": "-1587696329",
    "description": "Stars_846724",
    "title": "Stars_846724",
    "link_img": "https://live.staticflickr.com/65535/50041283401_4fe8faeca7_o.jpg",
    "id_image": "Stars_846724",
    "count_view": 0
  },
  {
    "link_thumb": "https://live.staticflickr.com/65535/50040292421_2cfc663d38_n.jpg",
    "id_album": "779690680",
    "description": "Robot_336756",
    "title": "Robot_336756",
    "link_img": "https://live.staticflickr.com/65535/50040292421_f1ab7f6f0c_o.jpg",
    "id_image": "Robot_336756",
    "count_view": 0
  },
  {
    "link_thumb": "https://live.staticflickr.com/65535/50039287128_d5e4f3bb44_n.jpg",
    "id_album": "-1610342324",
    "description": "Nebula_785842",
    "title": "Nebula_785842",
    "link_img": "https://live.staticflickr.com/65535/50039287128_83cb6bf809_o.jpg",
    "id_image": "Nebula_785842",
    "count_view": 0
  },
  {
    "link_thumb": "https://live.staticflickr.com/65535/50039004458_9cb173b3bf_n.jpg",
    "id_album": "-437872736",
    "description": "Creature_333323",
    "title": "Creature_333323",
    "link_img": "https://live.staticflickr.com/65535/50039004458_32602a5cff_o.jpg",
    "id_image": "Creature_333323",
    "count_view": 0
  },
  {
    "link_thumb": "https://live.staticflickr.com/65535/50039963001_39e6a4c9d7_n.jpg",
    "id_album": "395161030",
    "description": "Planet_559146",
    "title": "Planet_559146",
    "link_img": "https://live.staticflickr.com/65535/50039963001_90f54857e2_o.jpg",
    "id_image": "Planet_559146",
    "count_view": 0
  },
  {
    "link_thumb": "https://live.staticflickr.com/65535/50040148836_5fe3c3e59d_n.jpg",
    "id_album": "-1102314093",
    "description": "Planets_957404",
    "title": "Planets_957404",
    "link_img": "https://live.staticflickr.com/65535/50040148836_f55cbc2e49_o.jpg",
    "id_image": "Planets_957404",
    "count_view": 0
  },
  {
    "link_thumb": "https://live.staticflickr.com/65535/50039832542_c3d4aef425_n.jpg",
    "id_album": "-1372247677",
    "description": "Cyberpunk_962035",
    "title": "Cyberpunk_962035",
    "link_img": "https://live.staticflickr.com/65535/50039832542_d372a00d36_o.jpg",
    "id_image": "Cyberpunk_962035",
    "count_view": 0
  },
  {
    "link_thumb": "https://live.staticflickr.com/65535/50039341081_dcfb74aea1_n.jpg",
    "id_album": "523598895",
    "description": "Artistic_653391",
    "title": "Artistic_653391",
    "link_img": "https://live.staticflickr.com/65535/50039341081_a1caa306a8_o.jpg",
    "id_image": "Artistic_653391",
    "count_view": 0
  },
  {
    "link_thumb": "https://live.staticflickr.com/65535/50039624488_49b12f31ef_n.jpg",
    "id_album": "376235057",
    "description": "Planetscape_529573",
    "title": "Planetscape_529573",
    "link_img": "https://live.staticflickr.com/65535/50039624488_28c27b2856_o.jpg",
    "id_image": "Planetscape_529573",
    "count_view": 0
  },
  {
    "link_thumb": "https://live.staticflickr.com/65535/50039940037_bc2cb98495_n.jpg",
    "id_album": "1402713104",
    "description": "Landscape_324659",
    "title": "Landscape_324659",
    "link_img": "https://live.staticflickr.com/65535/50039940037_b08fb9e0d8_o.jpg",
    "id_image": "Landscape_324659",
    "count_view": 0
  },
  {
    "link_thumb": "https://live.staticflickr.com/65535/50039921052_2acecd1b82_n.jpg",
    "id_album": "1204249541",
    "description": "Galaxy_996255",
    "title": "Galaxy_996255",
    "link_img": "https://live.staticflickr.com/65535/50039921052_a0b3f83fca_o.jpg",
    "id_image": "Galaxy_996255",
    "count_view": 0
  },
  {
    "link_thumb": "https://live.staticflickr.com/65535/50040700597_664f8a56dd_n.jpg",
    "id_album": "779690680",
    "description": "Robot_940961",
    "title": "Robot_940961",
    "link_img": "https://live.staticflickr.com/65535/50040700597_35a416c973_o.jpg",
    "id_image": "Robot_940961",
    "count_view": 0
  },
  {
    "link_thumb": "https://live.staticflickr.com/65535/50040260837_b8f8f574e4_n.jpg",
    "id_album": "1443611160",
    "description": "PlanetRise_19473",
    "title": "PlanetRise_19473",
    "link_img": "https://live.staticflickr.com/65535/50040260837_70a392ed04_o.jpg",
    "id_image": "PlanetRise_19473",
    "count_view": 0
  },
  {
    "link_thumb": "https://live.staticflickr.com/65535/50039869392_11dafa62f8_n.jpg",
    "id_album": "651930207",
    "description": "Explosion_108113",
    "title": "Explosion_108113",
    "link_img": "https://live.staticflickr.com/65535/50039869392_32bb8a8c4a_o.jpg",
    "id_image": "Explosion_108113",
    "count_view": 0
  },
  {
    "link_thumb": "https://live.staticflickr.com/65535/50039412556_8366115f5f_n.jpg",
    "id_album": "-1780971522",
    "description": "Biohazard_313814",
    "title": "Biohazard_313814",
    "link_img": "https://live.staticflickr.com/65535/50039412556_4539fa6ac0_o.jpg",
    "id_image": "Biohazard_313814",
    "count_view": 0
  },
  {
    "link_thumb": "https://live.staticflickr.com/65535/50041273821_2326b25e60_n.jpg",
    "id_album": "-1587696329",
    "description": "Stars_547703",
    "title": "Stars_547703",
    "link_img": "https://live.staticflickr.com/65535/50041273821_bca88e8b62_o.jpg",
    "id_image": "Stars_547703",
    "count_view": 0
  },
  {
    "link_thumb": "https://live.staticflickr.com/65535/50039917627_ebefd915f2_n.jpg",
    "id_album": "1204249541",
    "description": "Galaxy_858367",
    "title": "Galaxy_858367",
    "link_img": "https://live.staticflickr.com/65535/50039917627_8b2cc81698_o.jpg",
    "id_image": "Galaxy_858367",
    "count_view": 0
  },
  {
    "link_thumb": "https://live.staticflickr.com/65535/50040547731_53733b58b4_n.jpg",
    "id_album": "1613540653",
    "description": "Space_853378",
    "title": "Space_853378",
    "link_img": "https://live.staticflickr.com/65535/50040547731_b33d114e6f_o.jpg",
    "id_image": "Space_853378",
    "count_view": 0
  },
  {
    "link_thumb": "https://live.staticflickr.com/65535/50038996693_2132cb67a1_n.jpg",
    "id_album": "894679094",
    "description": "Collision_956722",
    "title": "Collision_956722",
    "link_img": "https://live.staticflickr.com/65535/50038996693_bc0e78b175_o.jpg",
    "id_image": "Collision_956722",
    "count_view": 0
  },
  {
    "link_thumb": "https://live.staticflickr.com/65535/50039931887_6e442258e0_n.jpg",
    "id_album": "1402713104",
    "description": "Landscape_267868",
    "title": "Landscape_267868",
    "link_img": "https://live.staticflickr.com/65535/50039931887_aa415ab7b6_o.jpg",
    "id_image": "Landscape_267868",
    "count_view": 0
  },
  {
    "link_thumb": "https://live.staticflickr.com/65535/50041217851_3fea386a18_n.jpg",
    "id_album": "-1863373220",
    "description": "StarWars_711018",
    "title": "StarWars_711018",
    "link_img": "https://live.staticflickr.com/65535/50041217851_af92c3eef6_o.jpg",
    "id_image": "StarWars_711018",
    "count_view": 0
  },
  {
    "link_thumb": "https://live.staticflickr.com/65535/50039461011_e01bf1c217_n.jpg",
    "id_album": "-1964113117",
    "description": "City_301681",
    "title": "City_301681",
    "link_img": "https://live.staticflickr.com/65535/50039461011_a64ced3f84_o.jpg",
    "id_image": "City_301681",
    "count_view": 0
  },
  {
    "link_thumb": "https://live.staticflickr.com/65535/50039636721_ec42bbcdbc_n.jpg",
    "id_album": "1204249541",
    "description": "Galaxy_453079",
    "title": "Galaxy_453079",
    "link_img": "https://live.staticflickr.com/65535/50039636721_4fed737b75_o.jpg",
    "id_image": "Galaxy_453079",
    "count_view": 0
  },
  {
    "link_thumb": "https://live.staticflickr.com/65535/50039613546_b5881d1dac_n.jpg",
    "id_album": "651930207",
    "description": "Explosion_927648",
    "title": "Explosion_927648",
    "link_img": "https://live.staticflickr.com/65535/50039613546_3b3b9b4665_o.jpg",
    "id_image": "Explosion_927648",
    "count_view": 0
  },
  {
    "link_thumb": "https://live.staticflickr.com/65535/50039397961_6936991385_n.jpg",
    "id_album": "1187037014",
    "description": "Battle_262003",
    "title": "Battle_262003",
    "link_img": "https://live.staticflickr.com/65535/50039397961_da15c59c10_o.jpg",
    "id_image": "Battle_262003",
    "count_view": 0
  },
  {
    "link_thumb": "https://live.staticflickr.com/65535/50038697928_b85387b8ea_n.jpg",
    "id_album": "849020728",
    "description": "Alien_120345",
    "title": "Alien_120345",
    "link_img": "https://live.staticflickr.com/65535/50038697928_b6f3400ca3_o.jpg",
    "id_image": "Alien_120345",
    "count_view": 0
  },
  {
    "link_thumb": "https://live.staticflickr.com/65535/50038747338_06160ef0c9_n.jpg",
    "id_album": "523598895",
    "description": "Artistic_117138",
    "title": "Artistic_117138",
    "link_img": "https://live.staticflickr.com/65535/50038747338_45748feee7_o.jpg",
    "id_image": "Artistic_117138",
    "count_view": 0
  },
  {
    "link_thumb": "https://live.staticflickr.com/65535/50041689947_4cbcd929e9_n.jpg",
    "id_album": "2020068132",
    "description": "Vehicle_973760",
    "title": "Vehicle_973760",
    "link_img": "https://live.staticflickr.com/65535/50041689947_f2b3fd76aa_o.jpg",
    "id_image": "Vehicle_973760",
    "count_view": 0
  },
  {
    "link_thumb": "https://live.staticflickr.com/65535/50039641278_38554aeb1c_n.jpg",
    "id_album": "-482547208",
    "description": "PostApocalyptic_17680",
    "title": "PostApocalyptic_17680",
    "link_img": "https://live.staticflickr.com/65535/50039641278_944245bc1e_o.jpg",
    "id_image": "PostApocalyptic_17680",
    "count_view": 0
  },
  {
    "link_thumb": "https://live.staticflickr.com/65535/50039437436_453617a0d2_n.jpg",
    "id_album": "-1964113117",
    "description": "City_157265",
    "title": "City_157265",
    "link_img": "https://live.staticflickr.com/65535/50039437436_d85b4ab25e_o.jpg",
    "id_image": "City_157265",
    "count_view": 0
  },
  {
    "link_thumb": "https://live.staticflickr.com/65535/50040542526_3f2f565e2c_n.jpg",
    "id_album": "1613540653",
    "description": "Space_822450",
    "title": "Space_822450",
    "link_img": "https://live.staticflickr.com/65535/50040542526_fb7acf4825_o.jpg",
    "id_image": "Space_822450",
    "count_view": 0
  },
  {
    "link_thumb": "https://live.staticflickr.com/65535/50038953483_e9bd090140_n.jpg",
    "id_album": "-1964113117",
    "description": "City_854794",
    "title": "City_854794",
    "link_img": "https://live.staticflickr.com/65535/50038953483_afca357b5e_o.jpg",
    "id_image": "City_854794",
    "count_view": 0
  },
  {
    "link_thumb": "https://live.staticflickr.com/65535/50040208736_360dafac14_n.jpg",
    "id_album": "-482547208",
    "description": "PostApocalyptic_366242",
    "title": "PostApocalyptic_366242",
    "link_img": "https://live.staticflickr.com/65535/50040208736_03545d8e92_o.jpg",
    "id_image": "PostApocalyptic_366242",
    "count_view": 0
  },
  {
    "link_thumb": "https://live.staticflickr.com/65535/50039547106_bb98946138_n.jpg",
    "id_album": "-437872736",
    "description": "Creature_218508",
    "title": "Creature_218508",
    "link_img": "https://live.staticflickr.com/65535/50039547106_111fe677cf_o.jpg",
    "id_image": "Creature_218508",
    "count_view": 0
  },
  {
    "link_thumb": "https://live.staticflickr.com/65535/50041012427_cdbd33bdc7_n.jpg",
    "id_album": "2130067313",
    "description": "Spaceship_778587",
    "title": "Spaceship_778587",
    "link_img": "https://live.staticflickr.com/65535/50041012427_42733f353f_o.jpg",
    "id_image": "Spaceship_778587",
    "count_view": 0
  },
  {
    "link_thumb": "https://live.staticflickr.com/65535/50038753598_d37929b860_n.jpg",
    "id_album": "523598895",
    "description": "Artistic_169308",
    "title": "Artistic_169308",
    "link_img": "https://live.staticflickr.com/65535/50038753598_ca8ac3547c_o.jpg",
    "id_image": "Artistic_169308",
    "count_view": 0
  },
  {
    "link_thumb": "https://live.staticflickr.com/65535/50040670323_7fa6c7931c_n.jpg",
    "id_album": "-1863373220",
    "description": "StarWars_786615",
    "title": "StarWars_786615",
    "link_img": "https://live.staticflickr.com/65535/50040670323_b0ec1ba968_o.jpg",
    "id_image": "StarWars_786615",
    "count_view": 0
  },
  {
    "link_thumb": "https://live.staticflickr.com/65535/50040107722_d7e8c4ccfa_n.jpg",
    "id_album": "-1610342324",
    "description": "Nebula_84362",
    "title": "Nebula_84362",
    "link_img": "https://live.staticflickr.com/65535/50040107722_ca8c9fdff4_o.jpg",
    "id_image": "Nebula_84362",
    "count_view": 0
  },
  {
    "link_thumb": "https://live.staticflickr.com/65535/50040009792_5266c9b18d_n.jpg",
    "id_album": "-1388385651",
    "description": "MilkyWay_740492",
    "title": "MilkyWay_740492",
    "link_img": "https://live.staticflickr.com/65535/50040009792_88e655f688_o.jpg",
    "id_image": "MilkyWay_740492",
    "count_view": 0
  },
  {
    "link_thumb": "https://live.staticflickr.com/65535/50039916463_2aa1e99a1c_n.jpg",
    "id_album": "1613540653",
    "description": "Space_167492",
    "title": "Space_167492",
    "link_img": "https://live.staticflickr.com/65535/50039916463_e555283725_o.jpg",
    "id_image": "Space_167492",
    "count_view": 0
  },
  {
    "link_thumb": "https://live.staticflickr.com/65535/50040452672_fd861f117a_n.jpg",
    "id_album": "-482547208",
    "description": "PostApocalyptic_103035",
    "title": "PostApocalyptic_103035",
    "link_img": "https://live.staticflickr.com/65535/50040452672_0ef2490ebb_o.jpg",
    "id_image": "PostApocalyptic_103035",
    "count_view": 0
  },
  {
    "link_thumb": "https://live.staticflickr.com/65535/50039995402_e84a8eeff5_n.jpg",
    "id_album": "-1388385651",
    "description": "MilkyWay_528668",
    "title": "MilkyWay_528668",
    "link_img": "https://live.staticflickr.com/65535/50039995402_fd41a38416_o.jpg",
    "id_image": "MilkyWay_528668",
    "count_view": 0
  },
  {
    "link_thumb": "https://live.staticflickr.com/65535/50039803456_4c3d1233fd_n.jpg",
    "id_album": "-1610342324",
    "description": "Nebula_525901",
    "title": "Nebula_525901",
    "link_img": "https://live.staticflickr.com/65535/50039803456_996460d13b_o.jpg",
    "id_image": "Nebula_525901",
    "count_view": 0
  },
  {
    "link_thumb": "https://live.staticflickr.com/65535/50040664352_808e15eeaa_n.jpg",
    "id_album": "779690680",
    "description": "Robot_900265",
    "title": "Robot_900265",
    "link_img": "https://live.staticflickr.com/65535/50040664352_81e6238eb9_o.jpg",
    "id_image": "Robot_900265",
    "count_view": 0
  },
  {
    "link_thumb": "https://live.staticflickr.com/65535/50039704647_7284850ac3_n.jpg",
    "id_album": "-1964113117",
    "description": "City_201194",
    "title": "City_201194",
    "link_img": "https://live.staticflickr.com/65535/50039704647_30f82b793c_o.jpg",
    "id_image": "City_201194",
    "count_view": 0
  },
  {
    "link_thumb": "https://live.staticflickr.com/65535/50041270096_78037a6b61_n.jpg",
    "id_album": "-1587696329",
    "description": "Stars_459115",
    "title": "Stars_459115",
    "link_img": "https://live.staticflickr.com/65535/50041270096_bf4d53272b_o.jpg",
    "id_image": "Stars_459115",
    "count_view": 0
  },
  {
    "link_thumb": "https://live.staticflickr.com/65535/50039994677_0af103918c_n.jpg",
    "id_album": "-1388385651",
    "description": "MilkyWay_308365",
    "title": "MilkyWay_308365",
    "link_img": "https://live.staticflickr.com/65535/50039994677_4912721877_o.jpg",
    "id_image": "MilkyWay_308365",
    "count_view": 0
  },
  {
    "link_thumb": "https://live.staticflickr.com/65535/50039751536_c9eabe8953_n.jpg",
    "id_album": "-1388385651",
    "description": "MilkyWay_870610",
    "title": "MilkyWay_870610",
    "link_img": "https://live.staticflickr.com/65535/50039751536_3c8c2807f4_o.jpg",
    "id_image": "MilkyWay_870610",
    "count_view": 0
  },
  {
    "link_thumb": "https://live.staticflickr.com/65535/50040396191_7289506732_n.jpg",
    "id_album": "779690680",
    "description": "Robot_889657",
    "title": "Robot_889657",
    "link_img": "https://live.staticflickr.com/65535/50040396191_aa0860cd5c_o.jpg",
    "id_image": "Robot_889657",
    "count_view": 0
  },
  {
    "link_thumb": "https://live.staticflickr.com/65535/50040710741_9a5b9ea642_n.jpg",
    "id_album": "2130067313",
    "description": "Spaceship_532547",
    "title": "Spaceship_532547",
    "link_img": "https://live.staticflickr.com/65535/50040710741_a1ba32cc25_o.jpg",
    "id_image": "Spaceship_532547",
    "count_view": 0
  },
  {
    "link_thumb": "https://live.staticflickr.com/65535/50039779211_c1dfb67f93_n.jpg",
    "id_album": "-1610342324",
    "description": "Nebula_264729",
    "title": "Nebula_264729",
    "link_img": "https://live.staticflickr.com/65535/50039779211_7c23e60091_o.jpg",
    "id_image": "Nebula_264729",
    "count_view": 0
  },
  {
    "link_thumb": "https://live.staticflickr.com/65535/50041495037_4ed78b72d5_n.jpg",
    "id_album": "-1863373220",
    "description": "StarWars_879747",
    "title": "StarWars_879747",
    "link_img": "https://live.staticflickr.com/65535/50041495037_2a81a3030f_o.jpg",
    "id_image": "StarWars_879747",
    "count_view": 0
  },
  {
    "link_thumb": "https://live.staticflickr.com/65535/50040034217_f533d1d8c9_n.jpg",
    "id_album": "-1610342324",
    "description": "Nebula_214571",
    "title": "Nebula_214571",
    "link_img": "https://live.staticflickr.com/65535/50040034217_d24bc33c3e_o.jpg",
    "id_image": "Nebula_214571",
    "count_view": 0
  },
  {
    "link_thumb": "https://live.staticflickr.com/65535/50039215313_3eba38ec0f_n.jpg",
    "id_album": "-1610342324",
    "description": "Nebula_179721",
    "title": "Nebula_179721",
    "link_img": "https://live.staticflickr.com/65535/50039215313_1bb7253b20_o.jpg",
    "id_image": "Nebula_179721",
    "count_view": 0
  },
  {
    "link_thumb": "https://live.staticflickr.com/65535/50039858683_8d3dc5fe65_n.jpg",
    "id_album": "779690680",
    "description": "Robot_915571",
    "title": "Robot_915571",
    "link_img": "https://live.staticflickr.com/65535/50039858683_5e470e33f9_o.jpg",
    "id_image": "Robot_915571",
    "count_view": 0
  },
  {
    "link_thumb": "https://live.staticflickr.com/65535/50039873708_e9ded4b9c6_n.jpg",
    "id_album": "779690680",
    "description": "Robot_930303",
    "title": "Robot_930303",
    "link_img": "https://live.staticflickr.com/65535/50039873708_f1d4ba1866_o.jpg",
    "id_image": "Robot_930303",
    "count_view": 0
  },
  {
    "link_thumb": "https://live.staticflickr.com/65535/50040611483_7b5761554a_n.jpg",
    "id_album": "-1863373220",
    "description": "StarWars_320291",
    "title": "StarWars_320291",
    "link_img": "https://live.staticflickr.com/65535/50040611483_1ed0a76c7c_o.jpg",
    "id_image": "StarWars_320291",
    "count_view": 0
  },
  {
    "link_thumb": "https://live.staticflickr.com/65535/50039603287_5fc069ae44_n.jpg",
    "id_album": "523598895",
    "description": "Artistic_665847",
    "title": "Artistic_665847",
    "link_img": "https://live.staticflickr.com/65535/50039603287_cb667343e3_o.jpg",
    "id_image": "Artistic_665847",
    "count_view": 0
  },
  {
    "link_thumb": "https://live.staticflickr.com/65535/50039226723_2e135bbcdc_n.jpg",
    "id_album": "-1610342324",
    "description": "Nebula_250434",
    "title": "Nebula_250434",
    "link_img": "https://live.staticflickr.com/65535/50039226723_62fb5b4cb1_o.jpg",
    "id_image": "Nebula_250434",
    "count_view": 0
  },
  {
    "link_thumb": "https://live.staticflickr.com/65535/50039140633_0d2b479920_n.jpg",
    "id_album": "1402713104",
    "description": "Landscape_448946",
    "title": "Landscape_448946",
    "link_img": "https://live.staticflickr.com/65535/50039140633_03cf59fd5d_o.jpg",
    "id_image": "Landscape_448946",
    "count_view": 0
  },
  {
    "link_thumb": "https://live.staticflickr.com/65535/50038751178_ebf3327305_n.jpg",
    "id_album": "523598895",
    "description": "Artistic_157865",
    "title": "Artistic_157865",
    "link_img": "https://live.staticflickr.com/65535/50038751178_7e95787cc6_o.jpg",
    "id_image": "Artistic_157865",
    "count_view": 0
  },
  {
    "link_thumb": "https://live.staticflickr.com/65535/50040916123_d33d046d32_n.jpg",
    "id_album": "-1261420436",
    "description": "Warrior_551720",
    "title": "Warrior_551720",
    "link_img": "https://live.staticflickr.com/65535/50040916123_866f2feba0_o.jpg",
    "id_image": "Warrior_551720",
    "count_view": 0
  },
  {
    "link_thumb": "https://live.staticflickr.com/65535/50039744968_66b4f38d46_n.jpg",
    "id_album": "779690680",
    "description": "Robot_375699",
    "title": "Robot_375699",
    "link_img": "https://live.staticflickr.com/65535/50039744968_b05895d3f0_o.jpg",
    "id_image": "Robot_375699",
    "count_view": 0
  },
  {
    "link_thumb": "https://live.staticflickr.com/65535/50040562717_13a48edb0f_n.jpg",
    "id_album": "779690680",
    "description": "Robot_379829",
    "title": "Robot_379829",
    "link_img": "https://live.staticflickr.com/65535/50040562717_ef2b2db8d1_o.jpg",
    "id_image": "Robot_379829",
    "count_view": 0
  },
  {
    "link_thumb": "https://live.staticflickr.com/65535/50040541077_47865b2419_n.jpg",
    "id_album": "779690680",
    "description": "Robot_264068",
    "title": "Robot_264068",
    "link_img": "https://live.staticflickr.com/65535/50040541077_e0e51772f3_o.jpg",
    "id_image": "Robot_264068",
    "count_view": 0
  },
  {
    "link_thumb": "https://live.staticflickr.com/65535/50041340956_5a8c43dcc8_n.jpg",
    "id_album": "-221671103",
    "description": "Sun_192970",
    "title": "Sun_192970",
    "link_img": "https://live.staticflickr.com/65535/50041340956_b6248f00e1_o.jpg",
    "id_image": "Sun_192970",
    "count_view": 0
  },
  {
    "link_thumb": "https://live.staticflickr.com/65535/50040597596_e6ea8a20c9_n.jpg",
    "id_album": "2130067313",
    "description": "Spaceship_205565",
    "title": "Spaceship_205565",
    "link_img": "https://live.staticflickr.com/65535/50040597596_42d0eb2a73_o.jpg",
    "id_image": "Spaceship_205565",
    "count_view": 0
  },
  {
    "link_thumb": "https://live.staticflickr.com/65535/50039873473_e81f33c478_n.jpg",
    "id_album": "779690680",
    "description": "Robot_930302",
    "title": "Robot_930302",
    "link_img": "https://live.staticflickr.com/65535/50039873473_61c054da38_o.jpg",
    "id_image": "Robot_930302",
    "count_view": 0
  },
  {
    "link_thumb": "https://live.staticflickr.com/65535/50039997752_3510230570_n.jpg",
    "id_album": "-1388385651",
    "description": "MilkyWay_560780",
    "title": "MilkyWay_560780",
    "link_img": "https://live.staticflickr.com/65535/50039997752_558646d62d_o.jpg",
    "id_image": "MilkyWay_560780",
    "count_view": 0
  },
  {
    "link_thumb": "https://live.staticflickr.com/65535/50040440972_5fd7f89036_n.jpg",
    "id_album": "376235057",
    "description": "Planetscape_533765",
    "title": "Planetscape_533765",
    "link_img": "https://live.staticflickr.com/65535/50040440972_9ee5d9cb79_o.jpg",
    "id_image": "Planetscape_533765",
    "count_view": 0
  },
  {
    "link_thumb": "https://live.staticflickr.com/65535/50039876968_18a57cd24a_n.jpg",
    "id_album": "779690680",
    "description": "Robot_934612",
    "title": "Robot_934612",
    "link_img": "https://live.staticflickr.com/65535/50039876968_d1bcfbda2c_o.jpg",
    "id_image": "Robot_934612",
    "count_view": 0
  },
  {
    "link_thumb": "https://live.staticflickr.com/65535/50038841103_dec797d436_n.jpg",
    "id_album": "869545341",
    "description": "Astronaut_980244",
    "title": "Astronaut_980244",
    "link_img": "https://live.staticflickr.com/65535/50038841103_10acbedbc7_o.jpg",
    "id_image": "Astronaut_980244",
    "count_view": 0
  },
  {
    "link_thumb": "https://live.staticflickr.com/65535/50039479186_56842b61a6_n.jpg",
    "id_album": "-1964113117",
    "description": "City_564460",
    "title": "City_564460",
    "link_img": "https://live.staticflickr.com/65535/50039479186_1b6ba7bfd1_o.jpg",
    "id_image": "City_564460",
    "count_view": 0
  },
  {
    "link_thumb": "https://live.staticflickr.com/65535/50040017913_35a9e5e9d8_n.jpg",
    "id_album": "2130067313",
    "description": "Spaceship_111950",
    "title": "Spaceship_111950",
    "link_img": "https://live.staticflickr.com/65535/50040017913_3cb71d422f_o.jpg",
    "id_image": "Spaceship_111950",
    "count_view": 0
  },
  {
    "link_thumb": "https://live.staticflickr.com/65535/50039674541_d4394fb89c_n.jpg",
    "id_album": "1402713104",
    "description": "Landscape_314776",
    "title": "Landscape_314776",
    "link_img": "https://live.staticflickr.com/65535/50039674541_0c2bebe44d_o.jpg",
    "id_image": "Landscape_314776",
    "count_view": 0
  },
  {
    "link_thumb": "https://live.staticflickr.com/65535/50039236076_435d2d1de9_n.jpg",
    "id_album": "-406145265",
    "description": "Aircraft_269540",
    "title": "Aircraft_269540",
    "link_img": "https://live.staticflickr.com/65535/50039236076_377f9f5640_o.jpg",
    "id_image": "Aircraft_269540",
    "count_view": 0
  },
  {
    "link_thumb": "https://live.staticflickr.com/65535/50039340623_d136006509_n.jpg",
    "id_album": "-1862561193",
    "description": "Other_318732",
    "title": "Other_318732",
    "link_img": "https://live.staticflickr.com/65535/50039340623_238ae849f7_o.jpg",
    "id_image": "Other_318732",
    "count_view": 0
  },
  {
    "link_thumb": "https://live.staticflickr.com/65535/50039433301_24b6aaedc2_n.jpg",
    "id_album": "-1964113117",
    "description": "City_115838",
    "title": "City_115838",
    "link_img": "https://live.staticflickr.com/65535/50039433301_376300abe1_o.jpg",
    "id_image": "City_115838",
    "count_view": 0
  },
  {
    "link_thumb": "https://live.staticflickr.com/65535/50039088798_b22976553c_n.jpg",
    "id_album": "1204249541",
    "description": "Galaxy_502935",
    "title": "Galaxy_502935",
    "link_img": "https://live.staticflickr.com/65535/50039088798_a0eb0fa0cb_o.jpg",
    "id_image": "Galaxy_502935",
    "count_view": 0
  },
  {
    "link_thumb": "https://live.staticflickr.com/65535/50040027082_2b1cf932b9_n.jpg",
    "id_album": "-1610342324",
    "description": "Nebula_15778",
    "title": "Nebula_15778",
    "link_img": "https://live.staticflickr.com/65535/50040027082_4a33495875_o.jpg",
    "id_image": "Nebula_15778",
    "count_view": 0
  },
  {
    "link_thumb": "https://live.staticflickr.com/65535/50039093978_66d1edf96c_n.jpg",
    "id_album": "1204249541",
    "description": "Galaxy_558954",
    "title": "Galaxy_558954",
    "link_img": "https://live.staticflickr.com/65535/50039093978_b096ae0cb4_o.jpg",
    "id_image": "Galaxy_558954",
    "count_view": 0
  },
  {
    "link_thumb": "https://live.staticflickr.com/65535/50040146337_df9a7a2c97_n.jpg",
    "id_album": "-1862561193",
    "description": "Other_269524",
    "title": "Other_269524",
    "link_img": "https://live.staticflickr.com/65535/50040146337_c0d8d588f8_o.jpg",
    "id_image": "Other_269524",
    "count_view": 0
  },
  {
    "link_thumb": "https://live.staticflickr.com/65535/50040372547_93e902a3a6_n.jpg",
    "id_album": "-1102314093",
    "description": "Planets_408838",
    "title": "Planets_408838",
    "link_img": "https://live.staticflickr.com/65535/50040372547_ef7d3427ba_o.jpg",
    "id_image": "Planets_408838",
    "count_view": 0
  },
  {
    "link_thumb": "https://live.staticflickr.com/65535/50039071458_838c6c6eef_n.jpg",
    "id_album": "2104507156",
    "description": "Fantasy_367508",
    "title": "Fantasy_367508",
    "link_img": "https://live.staticflickr.com/65535/50039071458_492fef8905_o.jpg",
    "id_image": "Fantasy_367508",
    "count_view": 0
  }
]