[
  {
    "link_thumb": "https://live.staticflickr.com/65535/50039122123_e661813880_n.jpg",
    "id_album": "1402713104",
    "description": "Landscape_285845",
    "title": "Landscape_285845",
    "link_img": "https://live.staticflickr.com/65535/50039122123_10f62b998e_o.jpg",
    "id_image": "Landscape_285845",
    "count_view": 0
  },
  {
    "link_thumb": "https://live.staticflickr.com/65535/50039899282_eb0001c8d6_n.jpg",
    "id_album": "1204249541",
    "description": "Galaxy_453085",
    "title": "Galaxy_453085",
    "link_img": "https://live.staticflickr.com/65535/50039899282_5fae9f7c38_o.jpg",
    "id_image": "Galaxy_453085",
    "count_view": 0
  },
  {
    "link_thumb": "https://live.staticflickr.com/65535/50038970663_2a63b832fa_n.jpg",
    "id_album": "-1964113117",
    "description": "City_909402",
    "title": "City_909402",
    "link_img": "https://live.staticflickr.com/65535/50038970663_0810f915ed_o.jpg",
    "id_image": "City_909402",
    "count_view": 0
  },
  {
    "link_thumb": "https://live.staticflickr.com/65535/50040226026_0fb72d179d_n.jpg",
    "id_album": "-482547208",
    "description": "PostApocalyptic_852641",
    "title": "PostApocalyptic_852641",
    "link_img": "https://live.staticflickr.com/65535/50040226026_8f614b5681_o.jpg",
    "id_image": "PostApocalyptic_852641",
    "count_view": 0
  },
  {
    "link_thumb": "https://live.staticflickr.com/65535/50039691091_0268d9a0ea_n.jpg",
    "id_album": "1402713104",
    "description": "Landscape_517927",
    "title": "Landscape_517927",
    "link_img": "https://live.staticflickr.com/65535/50039691091_e622bcac59_o.jpg",
    "id_image": "Landscape_517927",
    "count_view": 0
  },
  {
    "link_thumb": "https://live.staticflickr.com/65535/50040968782_f413c1ddf5_n.jpg",
    "id_album": "2130067313",
    "description": "Spaceship_514676",
    "title": "Spaceship_514676",
    "link_img": "https://live.staticflickr.com/65535/50040968782_c65ba232da_o.jpg",
    "id_image": "Spaceship_514676",
    "count_view": 0
  },
  {
    "link_thumb": "https://live.staticflickr.com/65535/50041415572_6b11c3120d_n.jpg",
    "id_album": "-1863373220",
    "description": "StarWars_241448",
    "title": "StarWars_241448",
    "link_img": "https://live.staticflickr.com/65535/50041415572_37e2132737_o.jpg",
    "id_image": "StarWars_241448",
    "count_view": 0
  },
  {
    "link_thumb": "https://live.staticflickr.com/65535/50039012128_9d92b4ba4c_n.jpg",
    "id_album": "-1372247677",
    "description": "Cyberpunk_373917",
    "title": "Cyberpunk_373917",
    "link_img": "https://live.staticflickr.com/65535/50039012128_2fb372241c_o.jpg",
    "id_image": "Cyberpunk_373917",
    "count_view": 0
  },
  {
    "link_thumb": "https://live.staticflickr.com/65535/50040806457_f59819fd43_n.jpg",
    "id_album": "1613540653",
    "description": "Space_805180",
    "title": "Space_805180",
    "link_img": "https://live.staticflickr.com/65535/50040806457_2b2647860e_o.jpg",
    "id_image": "Space_805180",
    "count_view": 0
  },
  {
    "link_thumb": "https://live.staticflickr.com/65535/50040866708_436a52379e_n.jpg",
    "id_album": "2020068132",
    "description": "Vehicle_929323",
    "title": "Vehicle_929323",
    "link_img": "https://live.staticflickr.com/65535/50040866708_844cc89aeb_o.jpg",
    "id_image": "Vehicle_929323",
    "count_view": 0
  },
  {
    "link_thumb": "https://live.staticflickr.com/65535/50039372793_78dd178761_n.jpg",
    "id_album": "395161030",
    "description": "Planet_282797",
    "title": "Planet_282797",
    "link_img": "https://live.staticflickr.com/65535/50039372793_1f8fd63ab4_o.jpg",
    "id_image": "Planet_282797",
    "count_view": 0
  },
  {
    "link_thumb": "https://live.staticflickr.com/65535/50041181281_6a892ee6af_n.jpg",
    "id_album": "-1863373220",
    "description": "StarWars_476360",
    "title": "StarWars_476360",
    "link_img": "https://live.staticflickr.com/65535/50041181281_9a3af2a9b5_o.jpg",
    "id_image": "StarWars_476360",
    "count_view": 0
  },
  {
    "link_thumb": "https://live.staticflickr.com/65535/50038994998_1390e41f90_n.jpg",
    "id_album": "894679094",
    "description": "Collision_719901",
    "title": "Collision_719901",
    "link_img": "https://live.staticflickr.com/65535/50038994998_7048f29474_o.jpg",
    "id_image": "Collision_719901",
    "count_view": 0
  },
  {
    "link_thumb": "https://live.staticflickr.com/65535/50040765827_28be60d811_n.jpg",
    "id_album": "1613540653",
    "description": "Space_368171",
    "title": "Space_368171",
    "link_img": "https://live.staticflickr.com/65535/50040765827_1cab973550_o.jpg",
    "id_image": "Space_368171",
    "count_view": 0
  },
  {
    "link_thumb": "https://live.staticflickr.com/65535/50039911086_1e6ccd3e17_n.jpg",
    "id_album": "395161030",
    "description": "Planet_179462",
    "title": "Planet_179462",
    "link_img": "https://live.staticflickr.com/65535/50039911086_03cd72273b_o.jpg",
    "id_image": "Planet_179462",
    "count_view": 0
  },
  {
    "link_thumb": "https://live.staticflickr.com/65535/50039791156_d96350b474_n.jpg",
    "id_album": "-1610342324",
    "description": "Nebula_396533",
    "title": "Nebula_396533",
    "link_img": "https://live.staticflickr.com/65535/50039791156_7742a3d843_o.jpg",
    "id_image": "Nebula_396533",
    "count_view": 0
  },
  {
    "link_thumb": "https://live.staticflickr.com/65535/50038744983_ab7bb8c314_n.jpg",
    "id_album": "523598895",
    "description": "Artistic_108619",
    "title": "Artistic_108619",
    "link_img": "https://live.staticflickr.com/65535/50038744983_78600e8574_o.jpg",
    "id_image": "Artistic_108619",
    "count_view": 0
  },
  {
    "link_thumb": "https://live.staticflickr.com/65535/50039563683_227420d3b4_n.jpg",
    "id_album": "-1102314093",
    "description": "Planets_426318",
    "title": "Planets_426318",
    "link_img": "https://live.staticflickr.com/65535/50039563683_a671e38d82_o.jpg",
    "id_image": "Planets_426318",
    "count_view": 0
  },
  {
    "link_thumb": "https://live.staticflickr.com/65535/50039278481_4fec0bf99b_n.jpg",
    "id_album": "849020728",
    "description": "Alien_996736",
    "title": "Alien_996736",
    "link_img": "https://live.staticflickr.com/65535/50039278481_8a1ee6cc84_o.jpg",
    "id_image": "Alien_996736",
    "count_view": 0
  },
  {
    "link_thumb": "https://live.staticflickr.com/65535/50038825478_6a765c4d40_n.jpg",
    "id_album": "869545341",
    "description": "Astronaut_857750",
    "title": "Astronaut_857750",
    "link_img": "https://live.staticflickr.com/65535/50038825478_7514389747_o.jpg",
    "id_image": "Astronaut_857750",
    "count_view": 0
  },
  {
    "link_thumb": "https://live.staticflickr.com/65535/50040307717_573766253a_n.jpg",
    "id_album": "-1102314093",
    "description": "Planets_106277",
    "title": "Planets_106277",
    "link_img": "https://live.staticflickr.com/65535/50040307717_6dbe18efbb_o.jpg",
    "id_image": "Planets_106277",
    "count_view": 0
  },
  {
    "link_thumb": "https://live.staticflickr.com/65535/50038780198_c5f9640107_n.jpg",
    "id_album": "523598895",
    "description": "Artistic_313695",
    "title": "Artistic_313695",
    "link_img": "https://live.staticflickr.com/65535/50038780198_f91216b76e_o.jpg",
    "id_image": "Artistic_313695",
    "count_view": 0
  },
  {
    "link_thumb": "https://live.staticflickr.com/65535/50038865443_d471118668_n.jpg",
    "id_album": "-1780971522",
    "description": "Biohazard_384718",
    "title": "Biohazard_384718",
    "link_img": "https://live.staticflickr.com/65535/50038865443_e418c449a0_o.jpg",
    "id_image": "Biohazard_384718",
    "count_view": 0
  },
  {
    "link_thumb": "https://live.staticflickr.com/65535/50039504597_020a21d5f3_n.jpg",
    "id_album": "-406145265",
    "description": "Aircraft_955661",
    "title": "Aircraft_955661",
    "link_img": "https://live.staticflickr.com/65535/50039504597_7de6acf814_o.jpg",
    "id_image": "Aircraft_955661",
    "count_view": 0
  },
  {
    "link_thumb": "https://live.staticflickr.com/65535/50039852108_1205a9463a_n.jpg",
    "id_album": "779690680",
    "description": "Robot_909548",
    "title": "Robot_909548",
    "link_img": "https://live.staticflickr.com/65535/50039852108_430164f33d_o.jpg",
    "id_image": "Robot_909548",
    "count_view": 0
  },
  {
    "link_thumb": "https://live.staticflickr.com/65535/50039755787_04ce990403_n.jpg",
    "id_album": "-1964113117",
    "description": "City_726447",
    "title": "City_726447",
    "link_img": "https://live.staticflickr.com/65535/50039755787_4a56d216d2_o.jpg",
    "id_image": "City_726447",
    "count_view": 0
  },
  {
    "link_thumb": "https://live.staticflickr.com/65535/50038909273_8c0820a258_n.jpg",
    "id_album": "-1964113117",
    "description": "City_282520",
    "title": "City_282520",
    "link_img": "https://live.staticflickr.com/65535/50038909273_c411ece272_o.jpg",
    "id_image": "City_282520",
    "count_view": 0
  },
  {
    "link_thumb": "https://live.staticflickr.com/65535/50040105516_1fb5a107ff_n.jpg",
    "id_album": "-1102314093",
    "description": "Planets_393901",
    "title": "Planets_393901",
    "link_img": "https://live.staticflickr.com/65535/50040105516_193a6732ee_o.jpg",
    "id_image": "Planets_393901",
    "count_view": 0
  },
  {
    "link_thumb": "https://live.staticflickr.com/65535/50039327911_a98834509e_n.jpg",
    "id_album": "523598895",
    "description": "Artistic_286161",
    "title": "Artistic_286161",
    "link_img": "https://live.staticflickr.com/65535/50039327911_614a32591b_o.jpg",
    "id_image": "Artistic_286161",
    "count_view": 0
  },
  {
    "link_thumb": "https://live.staticflickr.com/65535/50040067441_2929c7e767_n.jpg",
    "id_album": "-1102314093",
    "description": "Planets_25111",
    "title": "Planets_25111",
    "link_img": "https://live.staticflickr.com/65535/50040067441_6c39951352_o.jpg",
    "id_image": "Planets_25111",
    "count_view": 0
  },
  {
    "link_thumb": "https://live.staticflickr.com/65535/50039939046_99834d90b9_n.jpg",
    "id_album": "395161030",
    "description": "Planet_374641",
    "title": "Planet_374641",
    "link_img": "https://live.staticflickr.com/65535/50039939046_18e6a69cd3_o.jpg",
    "id_image": "Planet_374641",
    "count_view": 0
  },
  {
    "link_thumb": "https://live.staticflickr.com/65535/50039772998_64e2eaa24c_n.jpg",
    "id_album": "779690680",
    "description": "Robot_497238",
    "title": "Robot_497238",
    "link_img": "https://live.staticflickr.com/65535/50039772998_ff1b156713_o.jpg",
    "id_image": "Robot_497238",
    "count_view": 0
  },
  {
    "link_thumb": "https://live.staticflickr.com/65535/50039606531_60bee97d87_n.jpg",
    "id_album": "829169633",
    "description": "Cyborg_967367",
    "title": "Cyborg_967367",
    "link_img": "https://live.staticflickr.com/65535/50039606531_a4f85b1a50_o.jpg",
    "id_image": "Cyborg_967367",
    "count_view": 0
  },
  {
    "link_thumb": "https://live.staticflickr.com/65535/50040513677_3d95247660_n.jpg",
    "id_album": "779690680",
    "description": "Robot_1010868",
    "title": "Robot_1010868",
    "link_img": "https://live.staticflickr.com/65535/50040513677_0984748e1a_o.jpg",
    "id_image": "Robot_1010868",
    "count_view": 0
  },
  {
    "link_thumb": "https://live.staticflickr.com/65535/50039659017_143e3feec8_n.jpg",
    "id_album": "1187037014",
    "description": "Battle_221914",
    "title": "Battle_221914",
    "link_img": "https://live.staticflickr.com/65535/50039659017_98ab5f27d2_o.jpg",
    "id_image": "Battle_221914",
    "count_view": 0
  },
  {
    "link_thumb": "https://live.staticflickr.com/65535/50039431521_4bd0e47844_n.jpg",
    "id_album": "-1964113117",
    "description": "City_103887",
    "title": "City_103887",
    "link_img": "https://live.staticflickr.com/65535/50039431521_77f311dd00_o.jpg",
    "id_image": "City_103887",
    "count_view": 0
  },
  {
    "link_thumb": "https://live.staticflickr.com/65535/50039188413_44f658698c_n.jpg",
    "id_album": "-1388385651",
    "description": "MilkyWay_670536",
    "title": "MilkyWay_670536",
    "link_img": "https://live.staticflickr.com/65535/50039188413_f6d585c4e9_o.jpg",
    "id_image": "MilkyWay_670536",
    "count_view": 0
  },
  {
    "link_thumb": "https://live.staticflickr.com/65535/50041556152_221162b4ed_n.jpg",
    "id_album": "1267121215",
    "description": "Steampunk_190384",
    "title": "Steampunk_190384",
    "link_img": "https://live.staticflickr.com/65535/50041556152_a781d96863_o.jpg",
    "id_image": "Steampunk_190384",
    "count_view": 0
  },
  {
    "link_thumb": "https://live.staticflickr.com/65535/50039946152_c7a8c87e0d_n.jpg",
    "id_album": "1402713104",
    "description": "Landscape_367852",
    "title": "Landscape_367852",
    "link_img": "https://live.staticflickr.com/65535/50039946152_d9a117144b_o.jpg",
    "id_image": "Landscape_367852",
    "count_view": 0
  },
  {
    "link_thumb": "https://live.staticflickr.com/65535/50040375926_53f8ece7fe_n.jpg",
    "id_album": "779690680",
    "description": "Robot_857300",
    "title": "Robot_857300",
    "link_img": "https://live.staticflickr.com/65535/50040375926_93d5d88c7d_o.jpg",
    "id_image": "Robot_857300",
    "count_view": 0
  },
  {
    "link_thumb": "https://live.staticflickr.com/65535/50039404106_102959b8f9_n.jpg",
    "id_album": "1187037014",
    "description": "Battle_602070",
    "title": "Battle_602070",
    "link_img": "https://live.staticflickr.com/65535/50039404106_14c51a5dd0_o.jpg",
    "id_image": "Battle_602070",
    "count_view": 0
  },
  {
    "link_thumb": "https://live.staticflickr.com/65535/50040717536_46e8d5bc09_n.jpg",
    "id_album": "2130067313",
    "description": "Spaceship_563565",
    "title": "Spaceship_563565",
    "link_img": "https://live.staticflickr.com/65535/50040717536_d32ba9ea86_o.jpg",
    "id_image": "Spaceship_563565",
    "count_view": 0
  },
  {
    "link_thumb": "https://live.staticflickr.com/65535/50041547042_495c6001bf_n.jpg",
    "id_album": "-1587696329",
    "description": "Stars_947554",
    "title": "Stars_947554",
    "link_img": "https://live.staticflickr.com/65535/50041547042_b1822768e8_o.jpg",
    "id_image": "Stars_947554",
    "count_view": 0
  },
  {
    "link_thumb": "https://live.staticflickr.com/65535/50038706073_949baedc3b_n.jpg",
    "id_album": "849020728",
    "description": "Alien_206856",
    "title": "Alien_206856",
    "link_img": "https://live.staticflickr.com/65535/50038706073_fc37f45c1d_o.jpg",
    "id_image": "Alien_206856",
    "count_view": 0
  },
  {
    "link_thumb": "https://live.staticflickr.com/65535/50039498177_7d9f7f86fc_n.jpg",
    "id_album": "-406145265",
    "description": "Aircraft_269371",
    "title": "Aircraft_269371",
    "link_img": "https://live.staticflickr.com/65535/50039498177_a432629343_o.jpg",
    "id_image": "Aircraft_269371",
    "count_view": 0
  },
  {
    "link_thumb": "https://live.staticflickr.com/65535/50041851862_c00a68e778_n.jpg",
    "id_album": "-1675918237",
    "description": "WomenWarrior_921471",
    "title": "WomenWarrior_921471",
    "link_img": "https://live.staticflickr.com/65535/50041851862_cfc6e4f113_o.jpg",
    "id_image": "WomenWarrior_921471",
    "count_view": 0
  },
  {
    "link_thumb": "https://live.staticflickr.com/65535/50039733351_70c32044d6_n.jpg",
    "id_album": "-1388385651",
    "description": "MilkyWay_555679",
    "title": "MilkyWay_555679",
    "link_img": "https://live.staticflickr.com/65535/50039733351_c7deceebc4_o.jpg",
    "id_image": "MilkyWay_555679",
    "count_view": 0
  },
  {
    "link_thumb": "https://live.staticflickr.com/65535/50039751563_23fdd8bc5e_n.jpg",
    "id_album": "779690680",
    "description": "Robot_409697",
    "title": "Robot_409697",
    "link_img": "https://live.staticflickr.com/65535/50039751563_e294763da8_o.jpg",
    "id_image": "Robot_409697",
    "count_view": 0
  },
  {
    "link_thumb": "https://live.staticflickr.com/65535/50039884928_98c57e91df_n.jpg",
    "id_album": "779690680",
    "description": "Robot_944759",
    "title": "Robot_944759",
    "link_img": "https://live.staticflickr.com/65535/50039884928_15f846d98a_o.jpg",
    "id_image": "Robot_944759",
    "count_view": 0
  },
  {
    "link_thumb": "https://live.staticflickr.com/65535/50041624142_3c2eae8338_n.jpg",
    "id_album": "-1177476763",
    "description": "Sunrise_352786",
    "title": "Sunrise_352786",
    "link_img": "https://live.staticflickr.com/65535/50041624142_224a809cf7_o.jpg",
    "id_image": "Sunrise_352786",
    "count_view": 0
  },
  {
    "link_thumb": "https://live.staticflickr.com/65535/50041206966_9d06676b2e_n.jpg",
    "id_album": "-1863373220",
    "description": "StarWars_662920",
    "title": "StarWars_662920",
    "link_img": "https://live.staticflickr.com/65535/50041206966_162206a8d3_o.jpg",
    "id_image": "StarWars_662920",
    "count_view": 0
  },
  {
    "link_thumb": "https://live.staticflickr.com/65535/50039693523_d30101c986_n.jpg",
    "id_album": "-839602625",
    "description": "Predator_658861",
    "title": "Predator_658861",
    "link_img": "https://live.staticflickr.com/65535/50039693523_06d26dd64a_o.jpg",
    "id_image": "Predator_658861",
    "count_view": 0
  },
  {
    "link_thumb": "https://live.staticflickr.com/65535/50041739942_25fd76083f_n.jpg",
    "id_album": "-1261420436",
    "description": "Warrior_599815",
    "title": "Warrior_599815",
    "link_img": "https://live.staticflickr.com/65535/50041739942_e4b3b1bfc0_o.jpg",
    "id_image": "Warrior_599815",
    "count_view": 0
  },
  {
    "link_thumb": "https://live.staticflickr.com/65535/50041154141_fe68c417e0_n.jpg",
    "id_album": "-1863373220",
    "description": "StarWars_248869",
    "title": "StarWars_248869",
    "link_img": "https://live.staticflickr.com/65535/50041154141_997845326d_o.jpg",
    "id_image": "StarWars_248869",
    "count_view": 0
  },
  {
    "link_thumb": "https://live.staticflickr.com/65535/50039654676_8927c9f1e6_n.jpg",
    "id_album": "1204249541",
    "description": "Galaxy_868969",
    "title": "Galaxy_868969",
    "link_img": "https://live.staticflickr.com/65535/50039654676_bb99960356_o.jpg",
    "id_image": "Galaxy_868969",
    "count_view": 0
  },
  {
    "link_thumb": "https://live.staticflickr.com/65535/50039187998_bef0e94e3a_n.jpg",
    "id_album": "-1388385651",
    "description": "MilkyWay_650777",
    "title": "MilkyWay_650777",
    "link_img": "https://live.staticflickr.com/65535/50039187998_2d2dcdbc08_o.jpg",
    "id_image": "MilkyWay_650777",
    "count_view": 0
  },
  {
    "link_thumb": "https://live.staticflickr.com/65535/50040465737_d02ba43512_n.jpg",
    "id_album": "-482547208",
    "description": "PostApocalyptic_242352",
    "title": "PostApocalyptic_242352",
    "link_img": "https://live.staticflickr.com/65535/50040465737_4dbae4cc91_o.jpg",
    "id_image": "PostApocalyptic_242352",
    "count_view": 0
  },
  {
    "link_thumb": "https://live.staticflickr.com/65535/50038847928_7d385237e4_n.jpg",
    "id_album": "1187037014",
    "description": "Battle_189558",
    "title": "Battle_189558",
    "link_img": "https://live.staticflickr.com/65535/50038847928_43e3d95a89_o.jpg",
    "id_image": "Battle_189558",
    "count_view": 0
  },
  {
    "link_thumb": "https://live.staticflickr.com/65535/50039414153_4ed3569a1e_n.jpg",
    "id_album": "395161030",
    "description": "Planet_559151",
    "title": "Planet_559151",
    "link_img": "https://live.staticflickr.com/65535/50039414153_94141061ff_o.jpg",
    "id_image": "Planet_559151",
    "count_view": 0
  },
  {
    "link_thumb": "https://live.staticflickr.com/65535/50039611016_a56b48f96b_n.jpg",
    "id_album": "651930207",
    "description": "Explosion_430157",
    "title": "Explosion_430157",
    "link_img": "https://live.staticflickr.com/65535/50039611016_a884ba8d14_o.jpg",
    "id_image": "Explosion_430157",
    "count_view": 0
  },
  {
    "link_thumb": "https://live.staticflickr.com/65535/50039079073_a86ba633c4_n.jpg",
    "id_album": "1204249541",
    "description": "Galaxy_2543",
    "title": "Galaxy_2543",
    "link_img": "https://live.staticflickr.com/65535/50039079073_edf786bf99_o.jpg",
    "id_image": "Galaxy_2543",
    "count_view": 0
  },
  {
    "link_thumb": "https://live.staticflickr.com/65535/50041392096_280a64d11c_n.jpg",
    "id_album": "2020068132",
    "description": "Vehicle_345581",
    "title": "Vehicle_345581",
    "link_img": "https://live.staticflickr.com/65535/50041392096_5fcd387f0f_o.jpg",
    "id_image": "Vehicle_345581",
    "count_view": 0
  },
  {
    "link_thumb": "https://live.staticflickr.com/65535/50039909922_d4ef749581_n.jpg",
    "id_album": "1204249541",
    "description": "Galaxy_596378",
    "title": "Galaxy_596378",
    "link_img": "https://live.staticflickr.com/65535/50039909922_bea47c14ba_o.jpg",
    "id_image": "Galaxy_596378",
    "count_view": 0
  },
  {
    "link_thumb": "https://live.staticflickr.com/65535/50039978463_9a2c17c7e7_n.jpg",
    "id_album": "1613540653",
    "description": "Space_719904",
    "title": "Space_719904",
    "link_img": "https://live.staticflickr.com/65535/50039978463_384812a457_o.jpg",
    "id_image": "Space_719904",
    "count_view": 0
  },
  {
    "link_thumb": "https://live.staticflickr.com/65535/50041521887_87b3a99770_n.jpg",
    "id_album": "-1587696329",
    "description": "Stars_192660",
    "title": "Stars_192660",
    "link_img": "https://live.staticflickr.com/65535/50041521887_92274e4066_o.jpg",
    "id_image": "Stars_192660",
    "count_view": 0
  },
  {
    "link_thumb": "https://live.staticflickr.com/65535/50040111712_1587038f2a_n.jpg",
    "id_album": "-1610342324",
    "description": "Nebula_876164",
    "title": "Nebula_876164",
    "link_img": "https://live.staticflickr.com/65535/50040111712_9f090f12fc_o.jpg",
    "id_image": "Nebula_876164",
    "count_view": 0
  },
  {
    "link_thumb": "https://live.staticflickr.com/65535/50039690756_f035c2ac55_n.jpg",
    "id_album": "1402713104",
    "description": "Landscape_505517",
    "title": "Landscape_505517",
    "link_img": "https://live.staticflickr.com/65535/50039690756_988595c684_o.jpg",
    "id_image": "Landscape_505517",
    "count_view": 0
  },
  {
    "link_thumb": "https://live.staticflickr.com/65535/50040417371_26aa15bd51_n.jpg",
    "id_album": "779690680",
    "description": "Robot_921708",
    "title": "Robot_921708",
    "link_img": "https://live.staticflickr.com/65535/50040417371_dfa7a8b4d4_o.jpg",
    "id_image": "Robot_921708",
    "count_view": 0
  },
  {
    "link_thumb": "https://live.staticflickr.com/65535/50041148306_8e0d2c8a96_n.jpg",
    "id_album": "-1863373220",
    "description": "StarWars_234730",
    "title": "StarWars_234730",
    "link_img": "https://live.staticflickr.com/65535/50041148306_cb4b94929b_o.jpg",
    "id_image": "StarWars_234730",
    "count_view": 0
  },
  {
    "link_thumb": "https://live.staticflickr.com/65535/50039678816_0500f846a2_n.jpg",
    "id_album": "1402713104",
    "description": "Landscape_334805",
    "title": "Landscape_334805",
    "link_img": "https://live.staticflickr.com/65535/50039678816_478e9fcfde_o.jpg",
    "id_image": "Landscape_334805",
    "count_view": 0
  },
  {
    "link_thumb": "https://live.staticflickr.com/65535/50040611002_c52f79cb0d_n.jpg",
    "id_album": "779690680",
    "description": "Robot_616678",
    "title": "Robot_616678",
    "link_img": "https://live.staticflickr.com/65535/50040611002_7b230e409b_o.jpg",
    "id_image": "Robot_616678",
    "count_view": 0
  },
  {
    "link_thumb": "https://live.staticflickr.com/65535/50040549872_eea889a3d7_n.jpg",
    "id_album": "779690680",
    "description": "Robot_309455",
    "title": "Robot_309455",
    "link_img": "https://live.staticflickr.com/65535/50040549872_152c55883b_o.jpg",
    "id_image": "Robot_309455",
    "count_view": 0
  },
  {
    "link_thumb": "https://live.staticflickr.com/65535/50039225278_731871693b_n.jpg",
    "id_album": "-1610342324",
    "description": "Nebula_243345",
    "title": "Nebula_243345",
    "link_img": "https://live.staticflickr.com/65535/50039225278_c350d065a8_o.jpg",
    "id_image": "Nebula_243345",
    "count_view": 0
  },
  {
    "link_thumb": "https://live.staticflickr.com/65535/50040520286_bfe730115c_n.jpg",
    "id_album": "1613540653",
    "description": "Space_659465",
    "title": "Space_659465",
    "link_img": "https://live.staticflickr.com/65535/50040520286_491d92e827_o.jpg",
    "id_image": "Space_659465",
    "count_view": 0
  },
  {
    "link_thumb": "https://live.staticflickr.com/65535/50040535081_ae863e2c45_n.jpg",
    "id_album": "1613540653",
    "description": "Space_74229",
    "title": "Space_74229",
    "link_img": "https://live.staticflickr.com/65535/50040535081_c9514ec550_o.jpg",
    "id_image": "Space_74229",
    "count_view": 0
  },
  {
    "link_thumb": "https://live.staticflickr.com/65535/50040423231_e0cce4fc3a_n.jpg",
    "id_album": "779690680",
    "description": "Robot_928580",
    "title": "Robot_928580",
    "link_img": "https://live.staticflickr.com/65535/50040423231_85c217f39e_o.jpg",
    "id_image": "Robot_928580",
    "count_view": 0
  },
  {
    "link_thumb": "https://live.staticflickr.com/65535/50039364861_71cb004e4b_n.jpg",
    "id_album": "869545341",
    "description": "Astronaut_720121",
    "title": "Astronaut_720121",
    "link_img": "https://live.staticflickr.com/65535/50039364861_71ba57c24c_o.jpg",
    "id_image": "Astronaut_720121",
    "count_view": 0
  },
  {
    "link_thumb": "https://live.staticflickr.com/65535/50039480086_31e9629592_n.jpg",
    "id_album": "-1964113117",
    "description": "City_587290",
    "title": "City_587290",
    "link_img": "https://live.staticflickr.com/65535/50039480086_c1b58184fc_o.jpg",
    "id_image": "City_587290",
    "count_view": 0
  },
  {
    "link_thumb": "https://live.staticflickr.com/65535/50040395511_931bce6f91_n.jpg",
    "id_album": "779690680",
    "description": "Robot_887987",
    "title": "Robot_887987",
    "link_img": "https://live.staticflickr.com/65535/50040395511_0dc88fa65f_o.jpg",
    "id_image": "Robot_887987",
    "count_view": 0
  },
  {
    "link_thumb": "https://live.staticflickr.com/65535/50041450807_85d70ee999_n.jpg",
    "id_album": "-1863373220",
    "description": "StarWars_497639",
    "title": "StarWars_497639",
    "link_img": "https://live.staticflickr.com/65535/50041450807_53b0d23841_o.jpg",
    "id_image": "StarWars_497639",
    "count_view": 0
  },
  {
    "link_thumb": "https://live.staticflickr.com/65535/50039303811_cdac9eb026_n.jpg",
    "id_album": "523598895",
    "description": "Artistic_174223",
    "title": "Artistic_174223",
    "link_img": "https://live.staticflickr.com/65535/50039303811_294df40208_o.jpg",
    "id_image": "Artistic_174223",
    "count_view": 0
  },
  {
    "link_thumb": "https://live.staticflickr.com/65535/50039310958_1c77f5c3c5_n.jpg",
    "id_album": "-1862561193",
    "description": "Other_1304",
    "title": "Other_1304",
    "link_img": "https://live.staticflickr.com/65535/50039310958_814f2b0880_o.jpg",
    "id_image": "Other_1304",
    "count_view": 0
  },
  {
    "link_thumb": "https://live.staticflickr.com/65535/50041665037_9431a73e04_n.jpg",
    "id_album": "2020068132",
    "description": "Vehicle_542589",
    "title": "Vehicle_542589",
    "link_img": "https://live.staticflickr.com/65535/50041665037_d8b46f41f1_o.jpg",
    "id_image": "Vehicle_542589",
    "count_view": 0
  },
  {
    "link_thumb": "https://live.staticflickr.com/65535/50040655997_737e3286e7_n.jpg",
    "id_album": "779690680",
    "description": "Robot_883159",
    "title": "Robot_883159",
    "link_img": "https://live.staticflickr.com/65535/50040655997_6f73399a42_o.jpg",
    "id_image": "Robot_883159",
    "count_view": 0
  },
  {
    "link_thumb": "https://live.staticflickr.com/65535/50039912652_4c511c8038_n.jpg",
    "id_album": "1204249541",
    "description": "Galaxy_608333",
    "title": "Galaxy_608333",
    "link_img": "https://live.staticflickr.com/65535/50039912652_3a9405acc2_o.jpg",
    "id_image": "Galaxy_608333",
    "count_view": 0
  },
  {
    "link_thumb": "https://live.staticflickr.com/65535/50040597361_204ae7faab_n.jpg",
    "id_album": "2130067313",
    "description": "Spaceship_204513",
    "title": "Spaceship_204513",
    "link_img": "https://live.staticflickr.com/65535/50040597361_14dc183c05_o.jpg",
    "id_image": "Spaceship_204513",
    "count_view": 0
  },
  {
    "link_thumb": "https://live.staticflickr.com/65535/50041585831_5322891d38_n.jpg",
    "id_album": "-1675918237",
    "description": "WomenWarrior_631671",
    "title": "WomenWarrior_631671",
    "link_img": "https://live.staticflickr.com/65535/50041585831_da1f46a1be_o.jpg",
    "id_image": "WomenWarrior_631671",
    "count_view": 0
  },
  {
    "link_thumb": "https://live.staticflickr.com/65535/50039745552_01e899bbd5_n.jpg",
    "id_album": "-1964113117",
    "description": "City_649147",
    "title": "City_649147",
    "link_img": "https://live.staticflickr.com/65535/50039745552_a5b8801e3e_o.jpg",
    "id_image": "City_649147",
    "count_view": 0
  },
  {
    "link_thumb": "https://live.staticflickr.com/65535/50039607266_0b28ca3ebe_n.jpg",
    "id_album": "651930207",
    "description": "Explosion_127961",
    "title": "Explosion_127961",
    "link_img": "https://live.staticflickr.com/65535/50039607266_1b25afd6d5_o.jpg",
    "id_image": "Explosion_127961",
    "count_view": 0
  },
  {
    "link_thumb": "https://live.staticflickr.com/65535/50041746492_ac30d452cd_n.jpg",
    "id_album": "-1261420436",
    "description": "Warrior_681982",
    "title": "Warrior_681982",
    "link_img": "https://live.staticflickr.com/65535/50041746492_860a28f875_o.jpg",
    "id_image": "Warrior_681982",
    "count_view": 0
  },
  {
    "link_thumb": "https://live.staticflickr.com/65535/50038806403_74d4b4bdea_n.jpg",
    "id_album": "869545341",
    "description": "Astronaut_388069",
    "title": "Astronaut_388069",
    "link_img": "https://live.staticflickr.com/65535/50038806403_bbcbc258f4_o.jpg",
    "id_image": "Astronaut_388069",
    "count_view": 0
  },
  {
    "link_thumb": "https://live.staticflickr.com/65535/50039668867_278a3233e3_n.jpg",
    "id_album": "1187037014",
    "description": "Battle_687274",
    "title": "Battle_687274",
    "link_img": "https://live.staticflickr.com/65535/50039668867_ef7a2d62f5_o.jpg",
    "id_image": "Battle_687274",
    "count_view": 0
  },
  {
    "link_thumb": "https://live.staticflickr.com/65535/50040804652_1075eafd4f_n.jpg",
    "id_album": "1613540653",
    "description": "Space_78677",
    "title": "Space_78677",
    "link_img": "https://live.staticflickr.com/65535/50040804652_2c1509f663_o.jpg",
    "id_image": "Space_78677",
    "count_view": 0
  },
  {
    "link_thumb": "https://live.staticflickr.com/65535/50040226186_700a564fd2_n.jpg",
    "id_album": "-482547208",
    "description": "PostApocalyptic_857259",
    "title": "PostApocalyptic_857259",
    "link_img": "https://live.staticflickr.com/65535/50040226186_434a029de4_o.jpg",
    "id_image": "PostApocalyptic_857259",
    "count_view": 0
  },
  {
    "link_thumb": "https://live.staticflickr.com/65535/50041530941_08e3ec261c_n.jpg",
    "id_album": "-1126835654",
    "description": "Women_421665",
    "title": "Women_421665",
    "link_img": "https://live.staticflickr.com/65535/50041530941_373fbbc196_o.jpg",
    "id_image": "Women_421665",
    "count_view": 0
  },
  {
    "link_thumb": "https://live.staticflickr.com/65535/50039610306_bc740fd64d_n.jpg",
    "id_album": "651930207",
    "description": "Explosion_370815",
    "title": "Explosion_370815",
    "link_img": "https://live.staticflickr.com/65535/50039610306_e6bce1a3ce_o.jpg",
    "id_image": "Explosion_370815",
    "count_view": 0
  },
  {
    "link_thumb": "https://live.staticflickr.com/65535/50039532848_a1a77e918a_n.jpg",
    "id_album": "-1102314093",
    "description": "Planets_328726",
    "title": "Planets_328726",
    "link_img": "https://live.staticflickr.com/65535/50039532848_cd53a14aca_o.jpg",
    "id_image": "Planets_328726",
    "count_view": 0
  },
  {
    "link_thumb": "https://live.staticflickr.com/65535/50039746893_dcedcf3e20_n.jpg",
    "id_album": "779690680",
    "description": "Robot_389488",
    "title": "Robot_389488",
    "link_img": "https://live.staticflickr.com/65535/50039746893_62a923e9cf_o.jpg",
    "id_image": "Robot_389488",
    "count_view": 0
  },
  {
    "link_thumb": "https://live.staticflickr.com/65535/50040433697_13c391efd5_n.jpg",
    "id_album": "376235057",
    "description": "Planetscape_376297",
    "title": "Planetscape_376297",
    "link_img": "https://live.staticflickr.com/65535/50040433697_ef3b9f2ea2_o.jpg",
    "id_image": "Planetscape_376297",
    "count_view": 0
  },
  {
    "link_thumb": "https://live.staticflickr.com/65535/50041848252_5e08623c96_n.jpg",
    "id_album": "-1675918237",
    "description": "WomenWarrior_715632",
    "title": "WomenWarrior_715632",
    "link_img": "https://live.staticflickr.com/65535/50041848252_97e118d151_o.jpg",
    "id_image": "WomenWarrior_715632",
    "count_view": 0
  },
  {
    "link_thumb": "https://live.staticflickr.com/65535/50039773871_01c646869e_n.jpg",
    "id_album": "-1610342324",
    "description": "Nebula_229485",
    "title": "Nebula_229485",
    "link_img": "https://live.staticflickr.com/65535/50039773871_3dc3c81495_o.jpg",
    "id_image": "Nebula_229485",
    "count_view": 0
  },
  {
    "link_thumb": "https://live.staticflickr.com/65535/50039278903_1ede999b3e_n.jpg",
    "id_album": "-1610342324",
    "description": "Nebula_747001",
    "title": "Nebula_747001",
    "link_img": "https://live.staticflickr.com/65535/50039278903_356300dfa1_o.jpg",
    "id_image": "Nebula_747001",
    "count_view": 0
  },
  {
    "link_thumb": "https://live.staticflickr.com/65535/50039898426_d4ce1d2dfd_n.jpg",
    "id_album": "1896531081",
    "description": "People_864729",
    "title": "People_864729",
    "link_img": "https://live.staticflickr.com/65535/50039898426_8f89a21dd6_o.jpg",
    "id_image": "People_864729",
    "count_view": 0
  },
  {
    "link_thumb": "https://live.staticflickr.com/65535/50038974028_5fb216dc33_n.jpg",
    "id_album": "-1964113117",
    "description": "City_922968",
    "title": "City_922968",
    "link_img": "https://live.staticflickr.com/65535/50038974028_9aed3b7587_o.jpg",
    "id_image": "City_922968",
    "count_view": 0
  },
  {
    "link_thumb": "https://live.staticflickr.com/65535/50039828293_577d6ef6aa_n.jpg",
    "id_album": "779690680",
    "description": "Robot_871703",
    "title": "Robot_871703",
    "link_img": "https://live.staticflickr.com/65535/50039828293_c46163a98b_o.jpg",
    "id_image": "Robot_871703",
    "count_view": 0
  },
  {
    "link_thumb": "https://live.staticflickr.com/65535/50039249343_4ffa6bdb29_n.jpg",
    "id_album": "-1610342324",
    "description": "Nebula_442752",
    "title": "Nebula_442752",
    "link_img": "https://live.staticflickr.com/65535/50039249343_a921f1f54c_o.jpg",
    "id_image": "Nebula_442752",
    "count_view": 0
  },
  {
    "link_thumb": "https://live.staticflickr.com/65535/50039386546_929cdece6f_n.jpg",
    "id_album": "869545341",
    "description": "Astronaut_965900",
    "title": "Astronaut_965900",
    "link_img": "https://live.staticflickr.com/65535/50039386546_f848d53bc1_o.jpg",
    "id_image": "Astronaut_965900",
    "count_view": 0
  },
  {
    "link_thumb": "https://live.staticflickr.com/65535/50038863058_74f234ff1d_n.jpg",
    "id_album": "-1780971522",
    "description": "Biohazard_274059",
    "title": "Biohazard_274059",
    "link_img": "https://live.staticflickr.com/65535/50038863058_08c7c56404_o.jpg",
    "id_image": "Biohazard_274059",
    "count_view": 0
  },
  {
    "link_thumb": "https://live.staticflickr.com/65535/50039288566_5b92aac151_n.jpg",
    "id_album": "-419633230",
    "description": "Apocalyptic_957374",
    "title": "Apocalyptic_957374",
    "link_img": "https://live.staticflickr.com/65535/50039288566_82b7f565a6_o.jpg",
    "id_image": "Apocalyptic_957374",
    "count_view": 0
  },
  {
    "link_thumb": "https://live.staticflickr.com/65535/50040227822_f4bef014f4_n.jpg",
    "id_album": "395161030",
    "description": "Planet_559154",
    "title": "Planet_559154",
    "link_img": "https://live.staticflickr.com/65535/50040227822_2e47cdec46_o.jpg",
    "id_image": "Planet_559154",
    "count_view": 0
  },
  {
    "link_thumb": "https://live.staticflickr.com/65535/50040117033_4f9cae898b_n.jpg",
    "id_album": "2130067313",
    "description": "Spaceship_377029",
    "title": "Spaceship_377029",
    "link_img": "https://live.staticflickr.com/65535/50040117033_d37dee069b_o.jpg",
    "id_image": "Spaceship_377029",
    "count_view": 0
  },
  {
    "link_thumb": "https://live.staticflickr.com/65535/50040609072_4335143572_n.jpg",
    "id_album": "779690680",
    "description": "Robot_616406",
    "title": "Robot_616406",
    "link_img": "https://live.staticflickr.com/65535/50040609072_d5aeda4327_o.jpg",
    "id_image": "Robot_616406",
    "count_view": 0
  },
  {
    "link_thumb": "https://live.staticflickr.com/65535/50040131291_f78c11e276_n.jpg",
    "id_album": "-1102314093",
    "description": "Planets_73592",
    "title": "Planets_73592",
    "link_img": "https://live.staticflickr.com/65535/50040131291_29aa76070a_o.jpg",
    "id_image": "Planets_73592",
    "count_view": 0
  },
  {
    "link_thumb": "https://live.staticflickr.com/65535/50040762247_05992692fd_n.jpg",
    "id_album": "1613540653",
    "description": "Space_345414",
    "title": "Space_345414",
    "link_img": "https://live.staticflickr.com/65535/50040762247_6999ffbb5b_o.jpg",
    "id_image": "Space_345414",
    "count_view": 0
  },
  {
    "link_thumb": "https://live.staticflickr.com/65535/50039286723_f99b3a9bbc_n.jpg",
    "id_album": "-1610342324",
    "description": "Nebula_783901",
    "title": "Nebula_783901",
    "link_img": "https://live.staticflickr.com/65535/50039286723_7846b9c3d1_o.jpg",
    "id_image": "Nebula_783901",
    "count_view": 0
  },
  {
    "link_thumb": "https://live.staticflickr.com/65535/50041427437_96371fdb94_n.jpg",
    "id_album": "-1863373220",
    "description": "StarWars_315718",
    "title": "StarWars_315718",
    "link_img": "https://live.staticflickr.com/65535/50041427437_a4e3ebb551_o.jpg",
    "id_image": "StarWars_315718",
    "count_view": 0
  },
  {
    "link_thumb": "https://live.staticflickr.com/65535/50040620673_b5e78741f2_n.jpg",
    "id_album": "-1863373220",
    "description": "StarWars_386934",
    "title": "StarWars_386934",
    "link_img": "https://live.staticflickr.com/65535/50040620673_a896c1b5b4_o.jpg",
    "id_image": "StarWars_386934",
    "count_view": 0
  },
  {
    "link_thumb": "https://live.staticflickr.com/65535/50040453317_c91a88cb6c_n.jpg",
    "id_album": "-482547208",
    "description": "PostApocalyptic_112258",
    "title": "PostApocalyptic_112258",
    "link_img": "https://live.staticflickr.com/65535/50040453317_587d1fc75b_o.jpg",
    "id_image": "PostApocalyptic_112258",
    "count_view": 0
  },
  {
    "link_thumb": "https://live.staticflickr.com/65535/50039231423_4e65eae5a3_n.jpg",
    "id_album": "-1610342324",
    "description": "Nebula_283572",
    "title": "Nebula_283572",
    "link_img": "https://live.staticflickr.com/65535/50039231423_e07fb06a7e_o.jpg",
    "id_image": "Nebula_283572",
    "count_view": 0
  },
  {
    "link_thumb": "https://live.staticflickr.com/65535/50039101608_b5143f06e2_n.jpg",
    "id_album": "1204249541",
    "description": "Galaxy_689587",
    "title": "Galaxy_689587",
    "link_img": "https://live.staticflickr.com/65535/50039101608_27d7800ab1_o.jpg",
    "id_image": "Galaxy_689587",
    "count_view": 0
  },
  {
    "link_thumb": "https://live.staticflickr.com/65535/50040741263_d8646df342_n.jpg",
    "id_album": "1267121215",
    "description": "Steampunk_190409",
    "title": "Steampunk_190409",
    "link_img": "https://live.staticflickr.com/65535/50040741263_28ae8581ff_o.jpg",
    "id_image": "Steampunk_190409",
    "count_view": 0
  },
  {
    "link_thumb": "https://live.staticflickr.com/65535/50040089096_cc2de463a6_n.jpg",
    "id_album": "-1102314093",
    "description": "Planets_346529",
    "title": "Planets_346529",
    "link_img": "https://live.staticflickr.com/65535/50040089096_77848d2598_o.jpg",
    "id_image": "Planets_346529",
    "count_view": 0
  },
  {
    "link_thumb": "https://live.staticflickr.com/65535/50039411896_e5e13509a1_n.jpg",
    "id_album": "-1780971522",
    "description": "Biohazard_300091",
    "title": "Biohazard_300091",
    "link_img": "https://live.staticflickr.com/65535/50039411896_c3d62e307d_o.jpg",
    "id_image": "Biohazard_300091",
    "count_view": 0
  },
  {
    "link_thumb": "https://live.staticflickr.com/65535/50039683917_bd3a02ee5d_n.jpg",
    "id_album": "406431601",
    "description": "Building_344266",
    "title": "Building_344266",
    "link_img": "https://live.staticflickr.com/65535/50039683917_9bb148289b_o.jpg",
    "id_image": "Building_344266",
    "count_view": 0
  },
  {
    "link_thumb": "https://live.staticflickr.com/65535/50041039553_ee9b101bd9_n.jpg",
    "id_album": "-1675918237",
    "description": "WomenWarrior_981259",
    "title": "WomenWarrior_981259",
    "link_img": "https://live.staticflickr.com/65535/50041039553_ae7634a53f_o.jpg",
    "id_image": "WomenWarrior_981259",
    "count_view": 0
  },
  {
    "link_thumb": "https://live.staticflickr.com/65535/50039010773_f5450cb403_n.jpg",
    "id_album": "-437872736",
    "description": "Creature_881685",
    "title": "Creature_881685",
    "link_img": "https://live.staticflickr.com/65535/50039010773_0d120dcbd3_o.jpg",
    "id_image": "Creature_881685",
    "count_view": 0
  },
  {
    "link_thumb": "https://live.staticflickr.com/65535/50039534017_60df2db1a2_n.jpg",
    "id_album": "849020728",
    "description": "Alien_608897",
    "title": "Alien_608897",
    "link_img": "https://live.staticflickr.com/65535/50039534017_90e6c43eea_o.jpg",
    "id_image": "Alien_608897",
    "count_view": 0
  },
  {
    "link_thumb": "https://live.staticflickr.com/65535/50040561461_aa2a10c7ae_n.jpg",
    "id_album": "-1532370292",
    "description": "SpaceStation_669418",
    "title": "SpaceStation_669418",
    "link_img": "https://live.staticflickr.com/65535/50040561461_4d68259b2e_o.jpg",
    "id_image": "SpaceStation_669418",
    "count_view": 0
  },
  {
    "link_thumb": "https://live.staticflickr.com/65535/50039230623_6bd6db2b48_n.jpg",
    "id_album": "-1610342324",
    "description": "Nebula_271792",
    "title": "Nebula_271792",
    "link_img": "https://live.staticflickr.com/65535/50039230623_451ffda269_o.jpg",
    "id_image": "Nebula_271792",
    "count_view": 0
  },
  {
    "link_thumb": "https://live.staticflickr.com/65535/50038856968_21718abd15_n.jpg",
    "id_album": "1187037014",
    "description": "Battle_631687",
    "title": "Battle_631687",
    "link_img": "https://live.staticflickr.com/65535/50038856968_1b20f3c410_o.jpg",
    "id_image": "Battle_631687",
    "count_view": 0
  },
  {
    "link_thumb": "https://live.staticflickr.com/65535/50039789022_985ec29e20_n.jpg",
    "id_album": "-1964113117",
    "description": "City_956725",
    "title": "City_956725",
    "link_img": "https://live.staticflickr.com/65535/50039789022_dd6a5919e4_o.jpg",
    "id_image": "City_956725",
    "count_view": 0
  },
  {
    "link_thumb": "https://live.staticflickr.com/65535/50039858077_57d3924ec5_n.jpg",
    "id_album": "829169633",
    "description": "Cyborg_602349",
    "title": "Cyborg_602349",
    "link_img": "https://live.staticflickr.com/65535/50039858077_db7b2818ae_o.jpg",
    "id_image": "Cyborg_602349",
    "count_view": 0
  },
  {
    "link_thumb": "https://live.staticflickr.com/65535/50038831068_49718945d0_n.jpg",
    "id_album": "869545341",
    "description": "Astronaut_923964",
    "title": "Astronaut_923964",
    "link_img": "https://live.staticflickr.com/65535/50038831068_862b9fc374_o.jpg",
    "id_image": "Astronaut_923964",
    "count_view": 0
  },
  {
    "link_thumb": "https://live.staticflickr.com/65535/50039351748_e229d0d649_n.jpg",
    "id_album": "395161030",
    "description": "Planet_1005774",
    "title": "Planet_1005774",
    "link_img": "https://live.staticflickr.com/65535/50039351748_322371f792_o.jpg",
    "id_image": "Planet_1005774",
    "count_view": 0
  },
  {
    "link_thumb": "https://live.staticflickr.com/65535/50040000447_1f65d8d437_n.jpg",
    "id_album": "-1388385651",
    "description": "MilkyWay_607471",
    "title": "MilkyWay_607471",
    "link_img": "https://live.staticflickr.com/65535/50040000447_136c71e355_o.jpg",
    "id_image": "MilkyWay_607471",
    "count_view": 0
  },
  {
    "link_thumb": "https://live.staticflickr.com/65535/50039676836_4b8161656d_n.jpg",
    "id_album": "1402713104",
    "description": "Landscape_325448",
    "title": "Landscape_325448",
    "link_img": "https://live.staticflickr.com/65535/50039676836_0caa866741_o.jpg",
    "id_image": "Landscape_325448",
    "count_view": 0
  },
  {
    "link_thumb": "https://live.staticflickr.com/65535/50038873063_76496d0ef3_n.jpg",
    "id_album": "406431601",
    "description": "Building_405546",
    "title": "Building_405546",
    "link_img": "https://live.staticflickr.com/65535/50038873063_605146dc18_o.jpg",
    "id_image": "Building_405546",
    "count_view": 0
  },
  {
    "link_thumb": "https://live.staticflickr.com/65535/50039862678_7ac97282ac_n.jpg",
    "id_album": "779690680",
    "description": "Robot_920331",
    "title": "Robot_920331",
    "link_img": "https://live.staticflickr.com/65535/50039862678_b51d783106_o.jpg",
    "id_image": "Robot_920331",
    "count_view": 0
  },
  {
    "link_thumb": "https://live.staticflickr.com/65535/50039699848_2ca234fcd0_n.jpg",
    "id_album": "779690680",
    "description": "Robot_114142",
    "title": "Robot_114142",
    "link_img": "https://live.staticflickr.com/65535/50039699848_ca654009a2_o.jpg",
    "id_image": "Robot_114142",
    "count_view": 0
  },
  {
    "link_thumb": "https://live.staticflickr.com/65535/50039474601_d3e534b062_n.jpg",
    "id_album": "-1964113117",
    "description": "City_51459",
    "title": "City_51459",
    "link_img": "https://live.staticflickr.com/65535/50039474601_b2083b5ba7_o.jpg",
    "id_image": "City_51459",
    "count_view": 0
  },
  {
    "link_thumb": "https://live.staticflickr.com/65535/50040010152_a7b9f8183c_n.jpg",
    "id_album": "-1388385651",
    "description": "MilkyWay_750417",
    "title": "MilkyWay_750417",
    "link_img": "https://live.staticflickr.com/65535/50040010152_f3bd1fa40d_o.jpg",
    "id_image": "MilkyWay_750417",
    "count_view": 0
  },
  {
    "link_thumb": "https://live.staticflickr.com/65535/50039268228_c9cc405199_n.jpg",
    "id_album": "-1610342324",
    "description": "Nebula_607459",
    "title": "Nebula_607459",
    "link_img": "https://live.staticflickr.com/65535/50039268228_63d44a5718_o.jpg",
    "id_image": "Nebula_607459",
    "count_view": 0
  },
  {
    "link_thumb": "https://live.staticflickr.com/65535/50038794068_ba8c496e60_n.jpg",
    "id_album": "523598895",
    "description": "Artistic_677074",
    "title": "Artistic_677074",
    "link_img": "https://live.staticflickr.com/65535/50038794068_eb52b9bb1c_o.jpg",
    "id_image": "Artistic_677074",
    "count_view": 0
  },
  {
    "link_thumb": "https://live.staticflickr.com/65535/50041560802_3bb2dff9f7_n.jpg",
    "id_album": "1267121215",
    "description": "Steampunk_191453",
    "title": "Steampunk_191453",
    "link_img": "https://live.staticflickr.com/65535/50041560802_b24a4d44b4_o.jpg",
    "id_image": "Steampunk_191453",
    "count_view": 0
  },
  {
    "link_thumb": "https://live.staticflickr.com/65535/50040213412_3028329437_n.jpg",
    "id_album": "395161030",
    "description": "Planet_423493",
    "title": "Planet_423493",
    "link_img": "https://live.staticflickr.com/65535/50040213412_7b03128819_o.jpg",
    "id_image": "Planet_423493",
    "count_view": 0
  },
  {
    "link_thumb": "https://live.staticflickr.com/65535/50040399677_b89af3f3cf_n.jpg",
    "id_album": "-1102314093",
    "description": "Planets_78685",
    "title": "Planets_78685",
    "link_img": "https://live.staticflickr.com/65535/50040399677_09316be076_o.jpg",
    "id_image": "Planets_78685",
    "count_view": 0
  },
  {
    "link_thumb": "https://live.staticflickr.com/65535/50041612757_f7e2d01b80_n.jpg",
    "id_album": "-221671103",
    "description": "Sun_523523",
    "title": "Sun_523523",
    "link_img": "https://live.staticflickr.com/65535/50041612757_24858ba6f1_o.jpg",
    "id_image": "Sun_523523",
    "count_view": 0
  },
  {
    "link_thumb": "https://live.staticflickr.com/65535/50039929676_8423bc13ea_n.jpg",
    "id_album": "395161030",
    "description": "Planet_334272",
    "title": "Planet_334272",
    "link_img": "https://live.staticflickr.com/65535/50039929676_91c6fab8e0_o.jpg",
    "id_image": "Planet_334272",
    "count_view": 0
  },
  {
    "link_thumb": "https://live.staticflickr.com/65535/50039132288_cf74ef1a78_n.jpg",
    "id_album": "1402713104",
    "description": "Landscape_351024",
    "title": "Landscape_351024",
    "link_img": "https://live.staticflickr.com/65535/50039132288_ca44187ea8_o.jpg",
    "id_image": "Landscape_351024",
    "count_view": 0
  },
  {
    "link_thumb": "https://live.staticflickr.com/65535/50038985263_fb9a017570_n.jpg",
    "id_album": "-1964113117",
    "description": "City_996545",
    "title": "City_996545",
    "link_img": "https://live.staticflickr.com/65535/50038985263_7a1f2cdfd0_o.jpg",
    "id_image": "City_996545",
    "count_view": 0
  },
  {
    "link_thumb": "https://live.staticflickr.com/65535/50039890458_1c62e80082_n.jpg",
    "id_album": "779690680",
    "description": "Robot_958229",
    "title": "Robot_958229",
    "link_img": "https://live.staticflickr.com/65535/50039890458_cf4383612a_o.jpg",
    "id_image": "Robot_958229",
    "count_view": 0
  },
  {
    "link_thumb": "https://live.staticflickr.com/65535/50040555171_de96ed0263_n.jpg",
    "id_album": "1613540653",
    "description": "Space_975730",
    "title": "Space_975730",
    "link_img": "https://live.staticflickr.com/65535/50040555171_b51304f3a1_o.jpg",
    "id_image": "Space_975730",
    "count_view": 0
  },
  {
    "link_thumb": "https://live.staticflickr.com/65535/50040501532_e119287726_n.jpg",
    "id_album": "-839602625",
    "description": "Predator_113128",
    "title": "Predator_113128",
    "link_img": "https://live.staticflickr.com/65535/50040501532_dc6b3cd073_o.jpg",
    "id_image": "Predator_113128",
    "count_view": 0
  },
  {
    "link_thumb": "https://live.staticflickr.com/65535/50039675871_6c68d89b52_n.jpg",
    "id_album": "1402713104",
    "description": "Landscape_323795",
    "title": "Landscape_323795",
    "link_img": "https://live.staticflickr.com/65535/50039675871_96e5113680_o.jpg",
    "id_image": "Landscape_323795",
    "count_view": 0
  },
  {
    "link_thumb": "https://live.staticflickr.com/65535/50038994603_e6f70e88ef_n.jpg",
    "id_album": "894679094",
    "description": "Collision_706877",
    "title": "Collision_706877",
    "link_img": "https://live.staticflickr.com/65535/50038994603_0447c6e540_o.jpg",
    "id_image": "Collision_706877",
    "count_view": 0
  },
  {
    "link_thumb": "https://live.staticflickr.com/65535/50039397386_cd492264e9_n.jpg",
    "id_album": "1187037014",
    "description": "Battle_248326",
    "title": "Battle_248326",
    "link_img": "https://live.staticflickr.com/65535/50039397386_baf57e87b5_o.jpg",
    "id_image": "Battle_248326",
    "count_view": 0
  },
  {
    "link_thumb": "https://live.staticflickr.com/65535/50039804392_253815970c_n.jpg",
    "id_album": "894679094",
    "description": "Collision_674915",
    "title": "Collision_674915",
    "link_img": "https://live.staticflickr.com/65535/50039804392_6e520631b6_o.jpg",
    "id_image": "Collision_674915",
    "count_view": 0
  },
  {
    "link_thumb": "https://live.staticflickr.com/65535/50040163812_52eb398483_n.jpg",
    "id_album": "1896531081",
    "description": "People_957850",
    "title": "People_957850",
    "link_img": "https://live.staticflickr.com/65535/50040163812_a344719112_o.jpg",
    "id_image": "People_957850",
    "count_view": 0
  },
  {
    "link_thumb": "https://live.staticflickr.com/65535/50039316101_f254138103_n.jpg",
    "id_album": "523598895",
    "description": "Artistic_220349",
    "title": "Artistic_220349",
    "link_img": "https://live.staticflickr.com/65535/50039316101_4c923e41ac_o.jpg",
    "id_image": "Artistic_220349",
    "count_view": 0
  },
  {
    "link_thumb": "https://live.staticflickr.com/65535/50040846273_4d3319749f_n.jpg",
    "id_album": "2020068132",
    "description": "Vehicle_427318",
    "title": "Vehicle_427318",
    "link_img": "https://live.staticflickr.com/65535/50040846273_4ddc264315_o.jpg",
    "id_image": "Vehicle_427318",
    "count_view": 0
  },
  {
    "link_thumb": "https://live.staticflickr.com/65535/50038924853_19ceb0b08a_n.jpg",
    "id_album": "-1964113117",
    "description": "City_498283",
    "title": "City_498283",
    "link_img": "https://live.staticflickr.com/65535/50038924853_b2c7b2e46f_o.jpg",
    "id_image": "City_498283",
    "count_view": 0
  },
  {
    "link_thumb": "https://live.staticflickr.com/65535/50039843246_9ece353449_n.jpg",
    "id_album": "-1610342324",
    "description": "Nebula_842164",
    "title": "Nebula_842164",
    "link_img": "https://live.staticflickr.com/65535/50039843246_cac8c9c0c9_o.jpg",
    "id_image": "Nebula_842164",
    "count_view": 0
  },
  {
    "link_thumb": "https://live.staticflickr.com/65535/50039634148_a287af4c50_n.jpg",
    "id_album": "376235057",
    "description": "Planetscape_957486",
    "title": "Planetscape_957486",
    "link_img": "https://live.staticflickr.com/65535/50039634148_1426fe4568_o.jpg",
    "id_image": "Planetscape_957486",
    "count_view": 0
  },
  {
    "link_thumb": "https://live.staticflickr.com/65535/50039885228_8d381eb2c1_n.jpg",
    "id_album": "779690680",
    "description": "Robot_944761",
    "title": "Robot_944761",
    "link_img": "https://live.staticflickr.com/65535/50039885228_26d6978df8_o.jpg",
    "id_image": "Robot_944761",
    "count_view": 0
  },
  {
    "link_thumb": "https://live.staticflickr.com/65535/50039880203_1b1d3e64d3_n.jpg",
    "id_album": "779690680",
    "description": "Robot_938441",
    "title": "Robot_938441",
    "link_img": "https://live.staticflickr.com/65535/50039880203_8ff511f3bc_o.jpg",
    "id_image": "Robot_938441",
    "count_view": 0
  },
  {
    "link_thumb": "https://live.staticflickr.com/65535/50039911526_09810bb1de_n.jpg",
    "id_album": "395161030",
    "description": "Planet_18033",
    "title": "Planet_18033",
    "link_img": "https://live.staticflickr.com/65535/50039911526_1034241a39_o.jpg",
    "id_image": "Planet_18033",
    "count_view": 0
  },
  {
    "link_thumb": "https://live.staticflickr.com/65535/50040817888_2639998c75_n.jpg",
    "id_album": "2020068132",
    "description": "Vehicle_118042",
    "title": "Vehicle_118042",
    "link_img": "https://live.staticflickr.com/65535/50040817888_4454d8f6ae_o.jpg",
    "id_image": "Vehicle_118042",
    "count_view": 0
  },
  {
    "link_thumb": "https://live.staticflickr.com/65535/50040509771_a78a1a99fd_n.jpg",
    "id_album": "1613540653",
    "description": "Space_505515",
    "title": "Space_505515",
    "link_img": "https://live.staticflickr.com/65535/50040509771_3c88f45a57_o.jpg",
    "id_image": "Space_505515",
    "count_view": 0
  },
  {
    "link_thumb": "https://live.staticflickr.com/65535/50040504382_6cf0537cf0_n.jpg",
    "id_album": "-839602625",
    "description": "Predator_321210",
    "title": "Predator_321210",
    "link_img": "https://live.staticflickr.com/65535/50040504382_cbc08bcc1a_o.jpg",
    "id_image": "Predator_321210",
    "count_view": 0
  },
  {
    "link_thumb": "https://live.staticflickr.com/65535/50041457522_346240b871_n.jpg",
    "id_album": "-1863373220",
    "description": "StarWars_58118",
    "title": "StarWars_58118",
    "link_img": "https://live.staticflickr.com/65535/50041457522_bc3e4faebe_o.jpg",
    "id_image": "StarWars_58118",
    "count_view": 0
  },
  {
    "link_thumb": "https://live.staticflickr.com/65535/50039773782_16684e4535_n.jpg",
    "id_album": "-1964113117",
    "description": "City_881696",
    "title": "City_881696",
    "link_img": "https://live.staticflickr.com/65535/50039773782_f27cd6ea94_o.jpg",
    "id_image": "City_881696",
    "count_view": 0
  },
  {
    "link_thumb": "https://live.staticflickr.com/65535/50039881938_c3300d6fe0_n.jpg",
    "id_album": "779690680",
    "description": "Robot_940962",
    "title": "Robot_940962",
    "link_img": "https://live.staticflickr.com/65535/50039881938_de3db2b8a3_o.jpg",
    "id_image": "Robot_940962",
    "count_view": 0
  },
  {
    "link_thumb": "https://live.staticflickr.com/65535/50040929168_4febe23135_n.jpg",
    "id_album": "-1261420436",
    "description": "Warrior_678949",
    "title": "Warrior_678949",
    "link_img": "https://live.staticflickr.com/65535/50040929168_2f97d8cb3e_o.jpg",
    "id_image": "Warrior_678949",
    "count_view": 0
  },
  {
    "link_thumb": "https://live.staticflickr.com/65535/50040672807_b3ce28c4f5_n.jpg",
    "id_album": "779690680",
    "description": "Robot_911875",
    "title": "Robot_911875",
    "link_img": "https://live.staticflickr.com/65535/50040672807_71e3974c6d_o.jpg",
    "id_image": "Robot_911875",
    "count_view": 0
  },
  {
    "link_thumb": "https://live.staticflickr.com/65535/50038839698_e9e8baf7b0_n.jpg",
    "id_album": "869545341",
    "description": "Astronaut_970438",
    "title": "Astronaut_970438",
    "link_img": "https://live.staticflickr.com/65535/50038839698_2e2d92be6b_o.jpg",
    "id_image": "Astronaut_970438",
    "count_view": 0
  },
  {
    "link_thumb": "https://live.staticflickr.com/65535/50040062066_ff378f4c09_n.jpg",
    "id_album": "-1102314093",
    "description": "Planets_221903",
    "title": "Planets_221903",
    "link_img": "https://live.staticflickr.com/65535/50040062066_6edbbf9fb4_o.jpg",
    "id_image": "Planets_221903",
    "count_view": 0
  },
  {
    "link_thumb": "https://live.staticflickr.com/65535/50041191626_0db83cdd74_n.jpg",
    "id_album": "-1863373220",
    "description": "StarWars_559762",
    "title": "StarWars_559762",
    "link_img": "https://live.staticflickr.com/65535/50041191626_eb40939082_o.jpg",
    "id_image": "StarWars_559762",
    "count_view": 0
  },
  {
    "link_thumb": "https://live.staticflickr.com/65535/50041513637_cc3af829fa_n.jpg",
    "id_album": "-1863373220",
    "description": "StarWars_981428",
    "title": "StarWars_981428",
    "link_img": "https://live.staticflickr.com/65535/50041513637_d01076b0c0_o.jpg",
    "id_image": "StarWars_981428",
    "count_view": 0
  },
  {
    "link_thumb": "https://live.staticflickr.com/65535/50039684223_9cbb4a32db_n.jpg",
    "id_album": "-482547208",
    "description": "PostApocalyptic_991003",
    "title": "PostApocalyptic_991003",
    "link_img": "https://live.staticflickr.com/65535/50039684223_30739a70d5_o.jpg",
    "id_image": "PostApocalyptic_991003",
    "count_view": 0
  },
  {
    "link_thumb": "https://live.staticflickr.com/65535/50041118426_915e9c0b22_n.jpg",
    "id_album": "-1863373220",
    "description": "StarWars_107771",
    "title": "StarWars_107771",
    "link_img": "https://live.staticflickr.com/65535/50041118426_4a01191b05_o.jpg",
    "id_image": "StarWars_107771",
    "count_view": 0
  },
  {
    "link_thumb": "https://live.staticflickr.com/65535/50040406412_49c5b8f6c9_n.jpg",
    "id_album": "-1102314093",
    "description": "Planets_858026",
    "title": "Planets_858026",
    "link_img": "https://live.staticflickr.com/65535/50040406412_76efc3efe8_o.jpg",
    "id_image": "Planets_858026",
    "count_view": 0
  },
  {
    "link_thumb": "https://live.staticflickr.com/65535/50039918763_1ff1294900_n.jpg",
    "id_album": "1613540653",
    "description": "Space_178405",
    "title": "Space_178405",
    "link_img": "https://live.staticflickr.com/65535/50039918763_92637d8e00_o.jpg",
    "id_image": "Space_178405",
    "count_view": 0
  },
  {
    "link_thumb": "https://live.staticflickr.com/65535/50040218071_7571b0c5f5_n.jpg",
    "id_album": "-482547208",
    "description": "PostApocalyptic_676803",
    "title": "PostApocalyptic_676803",
    "link_img": "https://live.staticflickr.com/65535/50040218071_27d329b9ea_o.jpg",
    "id_image": "PostApocalyptic_676803",
    "count_view": 0
  },
  {
    "link_thumb": "https://live.staticflickr.com/65535/50039257273_585ecc3012_n.jpg",
    "id_album": "-1610342324",
    "description": "Nebula_548005",
    "title": "Nebula_548005",
    "link_img": "https://live.staticflickr.com/65535/50039257273_39d11deea9_o.jpg",
    "id_image": "Nebula_548005",
    "count_view": 0
  },
  {
    "link_thumb": "https://live.staticflickr.com/65535/50040212217_df1ab03381_n.jpg",
    "id_album": "395161030",
    "description": "Planet_407729",
    "title": "Planet_407729",
    "link_img": "https://live.staticflickr.com/65535/50040212217_34cf53186c_o.jpg",
    "id_image": "Planet_407729",
    "count_view": 0
  },
  {
    "link_thumb": "https://live.staticflickr.com/65535/50039883788_f6a607cb32_n.jpg",
    "id_album": "779690680",
    "description": "Robot_944753",
    "title": "Robot_944753",
    "link_img": "https://live.staticflickr.com/65535/50039883788_c185283332_o.jpg",
    "id_image": "Robot_944753",
    "count_view": 0
  },
  {
    "link_thumb": "https://live.staticflickr.com/65535/50039599707_768438fbcd_n.jpg",
    "id_album": "523598895",
    "description": "Artistic_498545",
    "title": "Artistic_498545",
    "link_img": "https://live.staticflickr.com/65535/50039599707_7ff6aa8759_o.jpg",
    "id_image": "Artistic_498545",
    "count_view": 0
  },
  {
    "link_thumb": "https://live.staticflickr.com/65535/50038903323_f024fc7659_n.jpg",
    "id_album": "-1964113117",
    "description": "City_236462",
    "title": "City_236462",
    "link_img": "https://live.staticflickr.com/65535/50038903323_ba61a6cda5_o.jpg",
    "id_image": "City_236462",
    "count_view": 0
  },
  {
    "link_thumb": "https://live.staticflickr.com/65535/50040111671_bc230fd998_n.jpg",
    "id_album": "-1102314093",
    "description": "Planets_419627",
    "title": "Planets_419627",
    "link_img": "https://live.staticflickr.com/65535/50040111671_7c2e24e899_o.jpg",
    "id_image": "Planets_419627",
    "count_view": 0
  },
  {
    "link_thumb": "https://live.staticflickr.com/65535/50038860613_de03b53aa4_n.jpg",
    "id_album": "1187037014",
    "description": "Battle_941456",
    "title": "Battle_941456",
    "link_img": "https://live.staticflickr.com/65535/50038860613_16b0b70de0_o.jpg",
    "id_image": "Battle_941456",
    "count_view": 0
  },
  {
    "link_thumb": "https://live.staticflickr.com/65535/50040474096_5d880af27a_n.jpg",
    "id_album": "1613540653",
    "description": "Space_180281",
    "title": "Space_180281",
    "link_img": "https://live.staticflickr.com/65535/50040474096_441681528a_o.jpg",
    "id_image": "Space_180281",
    "count_view": 0
  },
  {
    "link_thumb": "https://live.staticflickr.com/65535/50040209106_07fc87bde5_n.jpg",
    "id_album": "-482547208",
    "description": "PostApocalyptic_373107",
    "title": "PostApocalyptic_373107",
    "link_img": "https://live.staticflickr.com/65535/50040209106_be423b5919_o.jpg",
    "id_image": "PostApocalyptic_373107",
    "count_view": 0
  },
  {
    "link_thumb": "https://live.staticflickr.com/65535/50038765733_eb5a3c3982_n.jpg",
    "id_album": "523598895",
    "description": "Artistic_209957",
    "title": "Artistic_209957",
    "link_img": "https://live.staticflickr.com/65535/50038765733_43ef1e2484_o.jpg",
    "id_image": "Artistic_209957",
    "count_view": 0
  },
  {
    "link_thumb": "https://live.staticflickr.com/65535/50040523623_57474da787_n.jpg",
    "id_album": "-1863373220",
    "description": "StarWars_1005773",
    "title": "StarWars_1005773",
    "link_img": "https://live.staticflickr.com/65535/50040523623_a4a24c2909_o.jpg",
    "id_image": "StarWars_1005773",
    "count_view": 0
  },
  {
    "link_thumb": "https://live.staticflickr.com/65535/50039219878_bed946ffee_n.jpg",
    "id_album": "-1610342324",
    "description": "Nebula_206199",
    "title": "Nebula_206199",
    "link_img": "https://live.staticflickr.com/65535/50039219878_8e85aea120_o.jpg",
    "id_image": "Nebula_206199",
    "count_view": 0
  },
  {
    "link_thumb": "https://live.staticflickr.com/65535/50040522102_f0e12d1788_n.jpg",
    "id_album": "779690680",
    "description": "Robot_171435",
    "title": "Robot_171435",
    "link_img": "https://live.staticflickr.com/65535/50040522102_8369554555_o.jpg",
    "id_image": "Robot_171435",
    "count_view": 0
  },
  {
    "link_thumb": "https://live.staticflickr.com/65535/50039495186_6c612f2636_n.jpg",
    "id_album": "-1964113117",
    "description": "City_750010",
    "title": "City_750010",
    "link_img": "https://live.staticflickr.com/65535/50039495186_d25d19e942_o.jpg",
    "id_image": "City_750010",
    "count_view": 0
  },
  {
    "link_thumb": "https://live.staticflickr.com/65535/50039229671_d90c60133b_n.jpg",
    "id_album": "280884763",
    "description": "Abstract_324581",
    "title": "Abstract_324581",
    "link_img": "https://live.staticflickr.com/65535/50039229671_720e128555_o.jpg",
    "id_image": "Abstract_324581",
    "count_view": 0
  },
  {
    "link_thumb": "https://live.staticflickr.com/65535/50039599041_f4c7def22f_n.jpg",
    "id_album": "829169633",
    "description": "Cyborg_602369",
    "title": "Cyborg_602369",
    "link_img": "https://live.staticflickr.com/65535/50039599041_106fd64832_o.jpg",
    "id_image": "Cyborg_602369",
    "count_view": 0
  },
  {
    "link_thumb": "https://live.staticflickr.com/65535/50041257541_26aa6da120_n.jpg",
    "id_album": "-1587696329",
    "description": "Stars_176772",
    "title": "Stars_176772",
    "link_img": "https://live.staticflickr.com/65535/50041257541_770f90fb68_o.jpg",
    "id_image": "Stars_176772",
    "count_view": 0
  },
  {
    "link_thumb": "https://live.staticflickr.com/65535/50039359331_e461c03691_n.jpg",
    "id_album": "869545341",
    "description": "Astronaut_588608",
    "title": "Astronaut_588608",
    "link_img": "https://live.staticflickr.com/65535/50039359331_d54715e632_o.jpg",
    "id_image": "Astronaut_588608",
    "count_view": 0
  },
  {
    "link_thumb": "https://live.staticflickr.com/65535/50039502432_bda6dfd791_n.jpg",
    "id_album": "-406145265",
    "description": "Aircraft_405087",
    "title": "Aircraft_405087",
    "link_img": "https://live.staticflickr.com/65535/50039502432_6131cef8fb_o.jpg",
    "id_image": "Aircraft_405087",
    "count_view": 0
  },
  {
    "link_thumb": "https://live.staticflickr.com/65535/50041838027_44f3f76b19_n.jpg",
    "id_album": "-1675918237",
    "description": "WomenWarrior_480237",
    "title": "WomenWarrior_480237",
    "link_img": "https://live.staticflickr.com/65535/50041838027_d7f8126285_o.jpg",
    "id_image": "WomenWarrior_480237",
    "count_view": 0
  },
  {
    "link_thumb": "https://live.staticflickr.com/65535/50041478901_45a19d0907_n.jpg",
    "id_album": "-1261420436",
    "description": "Warrior_616940",
    "title": "Warrior_616940",
    "link_img": "https://live.staticflickr.com/65535/50041478901_036e5a5a11_o.jpg",
    "id_image": "Warrior_616940",
    "count_view": 0
  },
  {
    "link_thumb": "https://live.staticflickr.com/65535/50039854023_58566d8048_n.jpg",
    "id_album": "779690680",
    "description": "Robot_910947",
    "title": "Robot_910947",
    "link_img": "https://live.staticflickr.com/65535/50039854023_ce17a48a4e_o.jpg",
    "id_image": "Robot_910947",
    "count_view": 0
  },
  {
    "link_thumb": "https://live.staticflickr.com/65535/50038842008_b22ccc7928_n.jpg",
    "id_album": "869545341",
    "description": "Astronaut_985948",
    "title": "Astronaut_985948",
    "link_img": "https://live.staticflickr.com/65535/50038842008_47ee383acf_o.jpg",
    "id_image": "Astronaut_985948",
    "count_view": 0
  },
  {
    "link_thumb": "https://live.staticflickr.com/65535/50041442072_e3393faabe_n.jpg",
    "id_album": "-1863373220",
    "description": "StarWars_420414",
    "title": "StarWars_420414",
    "link_img": "https://live.staticflickr.com/65535/50041442072_bd5fde368a_o.jpg",
    "id_image": "StarWars_420414",
    "count_view": 0
  },
  {
    "link_thumb": "https://live.staticflickr.com/65535/50040685842_10878fcac6_n.jpg",
    "id_album": "779690680",
    "description": "Robot_928550",
    "title": "Robot_928550",
    "link_img": "https://live.staticflickr.com/65535/50040685842_558bc1b795_o.jpg",
    "id_image": "Robot_928550",
    "count_view": 0
  },
  {
    "link_thumb": "https://live.staticflickr.com/65535/50040739347_f9bd62e2ce_n.jpg",
    "id_album": "1613540653",
    "description": "Space_183976",
    "title": "Space_183976",
    "link_img": "https://live.staticflickr.com/65535/50040739347_ea399de8de_o.jpg",
    "id_image": "Space_183976",
    "count_view": 0
  },
  {
    "link_thumb": "https://live.staticflickr.com/65535/50038879778_018990a8ea_n.jpg",
    "id_album": "406431601",
    "description": "Building_958301",
    "title": "Building_958301",
    "link_img": "https://live.staticflickr.com/65535/50038879778_8ca1f51139_o.jpg",
    "id_image": "Building_958301",
    "count_view": 0
  },
  {
    "link_thumb": "https://live.staticflickr.com/65535/50040164682_9dca1140b1_n.jpg",
    "id_album": "395161030",
    "description": "Planet_1004882",
    "title": "Planet_1004882",
    "link_img": "https://live.staticflickr.com/65535/50040164682_ec080948b9_o.jpg",
    "id_image": "Planet_1004882",
    "count_view": 0
  },
  {
    "link_thumb": "https://live.staticflickr.com/65535/50039910811_ac258729c4_n.jpg",
    "id_album": "395161030",
    "description": "Planet_178915",
    "title": "Planet_178915",
    "link_img": "https://live.staticflickr.com/65535/50039910811_a3f42cf87d_o.jpg",
    "id_image": "Planet_178915",
    "count_view": 0
  },
  {
    "link_thumb": "https://live.staticflickr.com/65535/50039660976_09abfcef3a_n.jpg",
    "id_album": "1402713104",
    "description": "Landscape_151181",
    "title": "Landscape_151181",
    "link_img": "https://live.staticflickr.com/65535/50039660976_fe25dbff0c_o.jpg",
    "id_image": "Landscape_151181",
    "count_view": 0
  },
  {
    "link_thumb": "https://live.staticflickr.com/65535/50040004552_88aea9aa9e_n.jpg",
    "id_album": "-1388385651",
    "description": "MilkyWay_706097",
    "title": "MilkyWay_706097",
    "link_img": "https://live.staticflickr.com/65535/50040004552_cd84934463_o.jpg",
    "id_image": "MilkyWay_706097",
    "count_view": 0
  },
  {
    "link_thumb": "https://live.staticflickr.com/65535/50041826152_07fc3e5b03_n.jpg",
    "id_album": "-1675918237",
    "description": "WomenWarrior_288656",
    "title": "WomenWarrior_288656",
    "link_img": "https://live.staticflickr.com/65535/50041826152_4f22fa40b3_o.jpg",
    "id_image": "WomenWarrior_288656",
    "count_view": 0
  },
  {
    "link_thumb": "https://live.staticflickr.com/65535/50039566187_bb0cae0cfc_n.jpg",
    "id_album": "523598895",
    "description": "Artistic_175695",
    "title": "Artistic_175695",
    "link_img": "https://live.staticflickr.com/65535/50039566187_1d6a0962af_o.jpg",
    "id_image": "Artistic_175695",
    "count_view": 0
  },
  {
    "link_thumb": "https://live.staticflickr.com/65535/50039792532_5e14c7c190_n.jpg",
    "id_album": "-1964113117",
    "description": "City_977919",
    "title": "City_977919",
    "link_img": "https://live.staticflickr.com/65535/50039792532_5b4889096f_o.jpg",
    "id_image": "City_977919",
    "count_view": 0
  },
  {
    "link_thumb": "https://live.staticflickr.com/65535/50041387377_6d8963a344_n.jpg",
    "id_album": "-1863373220",
    "description": "StarWars_190485",
    "title": "StarWars_190485",
    "link_img": "https://live.staticflickr.com/65535/50041387377_068ff47f4f_o.jpg",
    "id_image": "StarWars_190485",
    "count_view": 0
  },
  {
    "link_thumb": "https://live.staticflickr.com/65535/50039517117_d046b0f615_n.jpg",
    "id_album": "849020728",
    "description": "Alien_217350",
    "title": "Alien_217350",
    "link_img": "https://live.staticflickr.com/65535/50039517117_c5f40b4cd4_o.jpg",
    "id_image": "Alien_217350",
    "count_view": 0
  },
  {
    "link_thumb": "https://live.staticflickr.com/65535/50040867048_2e9290dc4e_n.jpg",
    "id_album": "2020068132",
    "description": "Vehicle_937790",
    "title": "Vehicle_937790",
    "link_img": "https://live.staticflickr.com/65535/50040867048_df299a208b_o.jpg",
    "id_image": "Vehicle_937790",
    "count_view": 0
  },
  {
    "link_thumb": "https://live.staticflickr.com/65535/50040033052_51d89bd09a_n.jpg",
    "id_album": "-1610342324",
    "description": "Nebula_206533",
    "title": "Nebula_206533",
    "link_img": "https://live.staticflickr.com/65535/50040033052_7236fd1d92_o.jpg",
    "id_image": "Nebula_206533",
    "count_view": 0
  },
  {
    "link_thumb": "https://live.staticflickr.com/65535/50039839253_7740ed4ae6_n.jpg",
    "id_album": "779690680",
    "description": "Robot_883173",
    "title": "Robot_883173",
    "link_img": "https://live.staticflickr.com/65535/50039839253_6a061fdf51_o.jpg",
    "id_image": "Robot_883173",
    "count_view": 0
  },
  {
    "link_thumb": "https://live.staticflickr.com/65535/50039371826_8b8a1a0d4a_n.jpg",
    "id_album": "869545341",
    "description": "Astronaut_857743",
    "title": "Astronaut_857743",
    "link_img": "https://live.staticflickr.com/65535/50039371826_6204000759_o.jpg",
    "id_image": "Astronaut_857743",
    "count_view": 0
  },
  {
    "link_thumb": "https://live.staticflickr.com/65535/50040212446_e621a0d5d1_n.jpg",
    "id_album": "-482547208",
    "description": "PostApocalyptic_529242",
    "title": "PostApocalyptic_529242",
    "link_img": "https://live.staticflickr.com/65535/50040212446_2534266c57_o.jpg",
    "id_image": "PostApocalyptic_529242",
    "count_view": 0
  },
  {
    "link_thumb": "https://live.staticflickr.com/65535/50039667638_90340d3309_n.jpg",
    "id_album": "-482547208",
    "description": "PostApocalyptic_703348",
    "title": "PostApocalyptic_703348",
    "link_img": "https://live.staticflickr.com/65535/50039667638_24d651bbeb_o.jpg",
    "id_image": "PostApocalyptic_703348",
    "count_view": 0
  },
  {
    "link_thumb": "https://live.staticflickr.com/65535/50039680013_996d9bbb9a_n.jpg",
    "id_album": "-482547208",
    "description": "PostApocalyptic_948245",
    "title": "PostApocalyptic_948245",
    "link_img": "https://live.staticflickr.com/65535/50039680013_65f255246e_o.jpg",
    "id_image": "PostApocalyptic_948245",
    "count_view": 0
  },
  {
    "link_thumb": "https://live.staticflickr.com/65535/50039892822_b593f6a04e_n.jpg",
    "id_album": "1204249541",
    "description": "Galaxy_293560",
    "title": "Galaxy_293560",
    "link_img": "https://live.staticflickr.com/65535/50039892822_8f8f8e5c32_o.jpg",
    "id_image": "Galaxy_293560",
    "count_view": 0
  },
  {
    "link_thumb": "https://live.staticflickr.com/65535/50040682502_63b9193612_n.jpg",
    "id_album": "779690680",
    "description": "Robot_922855",
    "title": "Robot_922855",
    "link_img": "https://live.staticflickr.com/65535/50040682502_45ecf0230f_o.jpg",
    "id_image": "Robot_922855",
    "count_view": 0
  },
  {
    "link_thumb": "https://live.staticflickr.com/65535/50038906793_44291829a3_n.jpg",
    "id_album": "-1964113117",
    "description": "City_265068",
    "title": "City_265068",
    "link_img": "https://live.staticflickr.com/65535/50038906793_43b369d428_o.jpg",
    "id_image": "City_265068",
    "count_view": 0
  },
  {
    "link_thumb": "https://live.staticflickr.com/65535/50041843997_2ab33b713c_n.jpg",
    "id_album": "-1675918237",
    "description": "WomenWarrior_592959",
    "title": "WomenWarrior_592959",
    "link_img": "https://live.staticflickr.com/65535/50041843997_3f8e36ae06_o.jpg",
    "id_image": "WomenWarrior_592959",
    "count_view": 0
  },
  {
    "link_thumb": "https://live.staticflickr.com/65535/50039878627_a5f7fc4285_n.jpg",
    "id_album": "2104507156",
    "description": "Fantasy_160387",
    "title": "Fantasy_160387",
    "link_img": "https://live.staticflickr.com/65535/50039878627_03ef2a0ac8_o.jpg",
    "id_image": "Fantasy_160387",
    "count_view": 0
  },
  {
    "link_thumb": "https://live.staticflickr.com/65535/50040670542_5e6d63da17_n.jpg",
    "id_album": "779690680",
    "description": "Robot_909552",
    "title": "Robot_909552",
    "link_img": "https://live.staticflickr.com/65535/50040670542_016b0643c4_o.jpg",
    "id_image": "Robot_909552",
    "count_view": 0
  },
  {
    "link_thumb": "https://live.staticflickr.com/65535/50039594553_d8996e1eff_n.jpg",
    "id_album": "-1102314093",
    "description": "Planets_924505",
    "title": "Planets_924505",
    "link_img": "https://live.staticflickr.com/65535/50039594553_647da04600_o.jpg",
    "id_image": "Planets_924505",
    "count_view": 0
  },
  {
    "link_thumb": "https://live.staticflickr.com/65535/50040297296_fcee85bda0_n.jpg",
    "id_album": "779690680",
    "description": "Robot_372399",
    "title": "Robot_372399",
    "link_img": "https://live.staticflickr.com/65535/50040297296_7b642ddd1e_o.jpg",
    "id_image": "Robot_372399",
    "count_view": 0
  },
  {
    "link_thumb": "https://live.staticflickr.com/65535/50039615427_fa433ee923_n.jpg",
    "id_album": "869545341",
    "description": "Astronaut_314713",
    "title": "Astronaut_314713",
    "link_img": "https://live.staticflickr.com/65535/50039615427_fbb6417f9a_o.jpg",
    "id_image": "Astronaut_314713",
    "count_view": 0
  },
  {
    "link_thumb": "https://live.staticflickr.com/65535/50038692368_3674ceda3a_n.jpg",
    "id_album": "-406145265",
    "description": "Aircraft_393220",
    "title": "Aircraft_393220",
    "link_img": "https://live.staticflickr.com/65535/50038692368_15bf957361_o.jpg",
    "id_image": "Aircraft_393220",
    "count_view": 0
  },
  {
    "link_thumb": "https://live.staticflickr.com/65535/50040446742_4e7b59a017_n.jpg",
    "id_album": "376235057",
    "description": "Planetscape_805173",
    "title": "Planetscape_805173",
    "link_img": "https://live.staticflickr.com/65535/50040446742_4df8e14153_o.jpg",
    "id_image": "Planetscape_805173",
    "count_view": 0
  },
  {
    "link_thumb": "https://live.staticflickr.com/65535/50040666047_4dc4fff5ec_n.jpg",
    "id_album": "779690680",
    "description": "Robot_903931",
    "title": "Robot_903931",
    "link_img": "https://live.staticflickr.com/65535/50040666047_c0c1187224_o.jpg",
    "id_image": "Robot_903931",
    "count_view": 0
  },
  {
    "link_thumb": "https://live.staticflickr.com/65535/50040752627_cb29271ba3_n.jpg",
    "id_album": "1613540653",
    "description": "Space_286996",
    "title": "Space_286996",
    "link_img": "https://live.staticflickr.com/65535/50040752627_8fc35aefd0_o.jpg",
    "id_image": "Space_286996",
    "count_view": 0
  },
  {
    "link_thumb": "https://live.staticflickr.com/65535/50039818227_a672b8016f_n.jpg",
    "id_album": "-437872736",
    "description": "Creature_410085",
    "title": "Creature_410085",
    "link_img": "https://live.staticflickr.com/65535/50039818227_6867bf3aaa_o.jpg",
    "id_image": "Creature_410085",
    "count_view": 0
  },
  {
    "link_thumb": "https://live.staticflickr.com/65535/50039451773_92f5d9ef5b_n.jpg",
    "id_album": "1443611160",
    "description": "PlanetRise_352904",
    "title": "PlanetRise_352904",
    "link_img": "https://live.staticflickr.com/65535/50039451773_f18de5d5db_o.jpg",
    "id_image": "PlanetRise_352904",
    "count_view": 0
  },
  {
    "link_thumb": "https://live.staticflickr.com/65535/50041421582_fd902eb28e_n.jpg",
    "id_album": "-1863373220",
    "description": "StarWars_276422",
    "title": "StarWars_276422",
    "link_img": "https://live.staticflickr.com/65535/50041421582_7793e604cb_o.jpg",
    "id_image": "StarWars_276422",
    "count_view": 0
  },
  {
    "link_thumb": "https://live.staticflickr.com/65535/50039357811_24ac0eac84_n.jpg",
    "id_album": "869545341",
    "description": "Astronaut_565172",
    "title": "Astronaut_565172",
    "link_img": "https://live.staticflickr.com/65535/50039357811_049dcdd072_o.jpg",
    "id_image": "Astronaut_565172",
    "count_view": 0
  },
  {
    "link_thumb": "https://live.staticflickr.com/65535/50039031083_5877f7fcfe_n.jpg",
    "id_album": "829169633",
    "description": "Cyborg_189584",
    "title": "Cyborg_189584",
    "link_img": "https://live.staticflickr.com/65535/50039031083_9df39660fd_o.jpg",
    "id_image": "Cyborg_189584",
    "count_view": 0
  },
  {
    "link_thumb": "https://live.staticflickr.com/65535/50041754642_3e91db6a1f_n.jpg",
    "id_album": "-1261420436",
    "description": "Warrior_885743",
    "title": "Warrior_885743",
    "link_img": "https://live.staticflickr.com/65535/50041754642_71b55c8998_o.jpg",
    "id_image": "Warrior_885743",
    "count_view": 0
  },
  {
    "link_thumb": "https://live.staticflickr.com/65535/50039302568_b3c802d585_n.jpg",
    "id_album": "-1610342324",
    "description": "Nebula_919603",
    "title": "Nebula_919603",
    "link_img": "https://live.staticflickr.com/65535/50039302568_002269799d_o.jpg",
    "id_image": "Nebula_919603",
    "count_view": 0
  },
  {
    "link_thumb": "https://live.staticflickr.com/65535/50040095917_f2c31ddbca_n.jpg",
    "id_album": "-1610342324",
    "description": "Nebula_75951",
    "title": "Nebula_75951",
    "link_img": "https://live.staticflickr.com/65535/50040095917_a0b97bbc85_o.jpg",
    "id_image": "Nebula_75951",
    "count_view": 0
  },
  {
    "link_thumb": "https://live.staticflickr.com/65535/50040141242_b78363f3c9_n.jpg",
    "id_album": "1402713104",
    "description": "Landscape_319082",
    "title": "Landscape_319082",
    "link_img": "https://live.staticflickr.com/65535/50040141242_54783b3160_o.jpg",
    "id_image": "Landscape_319082",
    "count_view": 0
  },
  {
    "link_thumb": "https://live.staticflickr.com/65535/50039581763_6da0e9b4da_n.jpg",
    "id_album": "-1102314093",
    "description": "Planets_74041",
    "title": "Planets_74041",
    "link_img": "https://live.staticflickr.com/65535/50039581763_9bbfbbce39_o.jpg",
    "id_image": "Planets_74041",
    "count_view": 0
  },
  {
    "link_thumb": "https://live.staticflickr.com/65535/50040477481_0f64201905_n.jpg",
    "id_album": "1613540653",
    "description": "Space_193",
    "title": "Space_193",
    "link_img": "https://live.staticflickr.com/65535/50040477481_5162ab3ddf_o.jpg",
    "id_image": "Space_193",
    "count_view": 0
  }
]