[
  {
    "link_thumb": "https://live.staticflickr.com/65535/50041563741_5b21c625f9_n.jpg",
    "id_album": "-1675918237",
    "description": "WomenWarrior_283334",
    "title": "WomenWarrior_283334",
    "link_img": "https://live.staticflickr.com/65535/50041563741_5a8b211ee1_o.jpg",
    "id_image": "WomenWarrior_283334",
    "count_view": 0
  },
  {
    "link_thumb": "https://live.staticflickr.com/65535/50038934333_b245296864_n.jpg",
    "id_album": "-1964113117",
    "description": "City_649131",
    "title": "City_649131",
    "link_img": "https://live.staticflickr.com/65535/50038934333_16c5d3c7c4_o.jpg",
    "id_image": "City_649131",
    "count_view": 0
  },
  {
    "link_thumb": "https://live.staticflickr.com/65535/50038800258_c15c95bc3f_n.jpg",
    "id_album": "869545341",
    "description": "Astronaut_1009318",
    "title": "Astronaut_1009318",
    "link_img": "https://live.staticflickr.com/65535/50038800258_450d7089d2_o.jpg",
    "id_image": "Astronaut_1009318",
    "count_view": 0
  },
  {
    "link_thumb": "https://live.staticflickr.com/65535/50039599707_768438fbcd_n.jpg",
    "id_album": "523598895",
    "description": "Artistic_498545",
    "title": "Artistic_498545",
    "link_img": "https://live.staticflickr.com/65535/50039599707_7ff6aa8759_o.jpg",
    "id_image": "Artistic_498545",
    "count_view": 0
  },
  {
    "link_thumb": "https://live.staticflickr.com/65535/50039744892_5d5b2226cb_n.jpg",
    "id_album": "-1964113117",
    "description": "City_64029",
    "title": "City_64029",
    "link_img": "https://live.staticflickr.com/65535/50039744892_853a84e044_o.jpg",
    "id_image": "City_64029",
    "count_view": 0
  },
  {
    "link_thumb": "https://live.staticflickr.com/65535/50039647438_fc7f3a1f02_n.jpg",
    "id_album": "-482547208",
    "description": "PostApocalyptic_239848",
    "title": "PostApocalyptic_239848",
    "link_img": "https://live.staticflickr.com/65535/50039647438_817d5f98aa_o.jpg",
    "id_image": "PostApocalyptic_239848",
    "count_view": 0
  },
  {
    "link_thumb": "https://live.staticflickr.com/65535/50040307717_573766253a_n.jpg",
    "id_album": "-1102314093",
    "description": "Planets_106277",
    "title": "Planets_106277",
    "link_img": "https://live.staticflickr.com/65535/50040307717_6dbe18efbb_o.jpg",
    "id_image": "Planets_106277",
    "count_view": 0
  },
  {
    "link_thumb": "https://live.staticflickr.com/65535/50039405271_93bfbba597_n.jpg",
    "id_album": "1187037014",
    "description": "Battle_635655",
    "title": "Battle_635655",
    "link_img": "https://live.staticflickr.com/65535/50039405271_90ec578759_o.jpg",
    "id_image": "Battle_635655",
    "count_view": 0
  },
  {
    "link_thumb": "https://live.staticflickr.com/65535/50039270578_c4fec1ccd0_n.jpg",
    "id_album": "-1610342324",
    "description": "Nebula_666176",
    "title": "Nebula_666176",
    "link_img": "https://live.staticflickr.com/65535/50039270578_d4f3b76157_o.jpg",
    "id_image": "Nebula_666176",
    "count_view": 0
  },
  {
    "link_thumb": "https://live.staticflickr.com/65535/50038972998_63d96a61aa_n.jpg",
    "id_album": "-1964113117",
    "description": "City_920075",
    "title": "City_920075",
    "link_img": "https://live.staticflickr.com/65535/50038972998_6e5b7028c5_o.jpg",
    "id_image": "City_920075",
    "count_view": 0
  },
  {
    "link_thumb": "https://live.staticflickr.com/65535/50038974028_5fb216dc33_n.jpg",
    "id_album": "-1964113117",
    "description": "City_922968",
    "title": "City_922968",
    "link_img": "https://live.staticflickr.com/65535/50038974028_9aed3b7587_o.jpg",
    "id_image": "City_922968",
    "count_view": 0
  },
  {
    "link_thumb": "https://live.staticflickr.com/65535/50041851862_c00a68e778_n.jpg",
    "id_album": "-1675918237",
    "description": "WomenWarrior_921471",
    "title": "WomenWarrior_921471",
    "link_img": "https://live.staticflickr.com/65535/50041851862_cfc6e4f113_o.jpg",
    "id_image": "WomenWarrior_921471",
    "count_view": 0
  },
  {
    "link_thumb": "https://live.staticflickr.com/65535/50039345746_b4ef96a822_n.jpg",
    "id_album": "523598895",
    "description": "Artistic_876188",
    "title": "Artistic_876188",
    "link_img": "https://live.staticflickr.com/65535/50039345746_dbdd7ae338_o.jpg",
    "id_image": "Artistic_876188",
    "count_view": 0
  },
  {
    "link_thumb": "https://live.staticflickr.com/65535/50039130993_b7ab52f2cb_n.jpg",
    "id_album": "1402713104",
    "description": "Landscape_339504",
    "title": "Landscape_339504",
    "link_img": "https://live.staticflickr.com/65535/50039130993_63752e72ee_o.jpg",
    "id_image": "Landscape_339504",
    "count_view": 0
  },
  {
    "link_thumb": "https://live.staticflickr.com/65535/50038929668_3d7cb27948_n.jpg",
    "id_album": "-1964113117",
    "description": "City_558457",
    "title": "City_558457",
    "link_img": "https://live.staticflickr.com/65535/50038929668_9fce85c600_o.jpg",
    "id_image": "City_558457",
    "count_view": 0
  },
  {
    "link_thumb": "https://live.staticflickr.com/65535/50040029187_2c81f6e6b1_n.jpg",
    "id_album": "-1610342324",
    "description": "Nebula_179730",
    "title": "Nebula_179730",
    "link_img": "https://live.staticflickr.com/65535/50040029187_f207fdc38f_o.jpg",
    "id_image": "Nebula_179730",
    "count_view": 0
  },
  {
    "link_thumb": "https://live.staticflickr.com/65535/50041381302_728e3edbce_n.jpg",
    "id_album": "-1863373220",
    "description": "StarWars_107769",
    "title": "StarWars_107769",
    "link_img": "https://live.staticflickr.com/65535/50041381302_be1802073c_o.jpg",
    "id_image": "StarWars_107769",
    "count_view": 0
  },
  {
    "link_thumb": "https://live.staticflickr.com/65535/50039641882_90e92013b7_n.jpg",
    "id_album": "869545341",
    "description": "Astronaut_923963",
    "title": "Astronaut_923963",
    "link_img": "https://live.staticflickr.com/65535/50039641882_c7a78e4be5_o.jpg",
    "id_image": "Astronaut_923963",
    "count_view": 0
  },
  {
    "link_thumb": "https://live.staticflickr.com/65535/50039612017_84dcc037a7_n.jpg",
    "id_album": "869545341",
    "description": "Astronaut_211959",
    "title": "Astronaut_211959",
    "link_img": "https://live.staticflickr.com/65535/50039612017_d13ce00ffb_o.jpg",
    "id_image": "Astronaut_211959",
    "count_view": 0
  },
  {
    "link_thumb": "https://live.staticflickr.com/65535/50039947261_762afe8259_n.jpg",
    "id_album": "395161030",
    "description": "Planet_413994",
    "title": "Planet_413994",
    "link_img": "https://live.staticflickr.com/65535/50039947261_7e4deae1ec_o.jpg",
    "id_image": "Planet_413994",
    "count_view": 0
  },
  {
    "link_thumb": "https://live.staticflickr.com/65535/50039789616_2402f552e0_n.jpg",
    "id_album": "-1610342324",
    "description": "Nebula_390795",
    "title": "Nebula_390795",
    "link_img": "https://live.staticflickr.com/65535/50039789616_78af2489e0_o.jpg",
    "id_image": "Nebula_390795",
    "count_view": 0
  },
  {
    "link_thumb": "https://live.staticflickr.com/65535/50039000358_25b3337d7e_n.jpg",
    "id_album": "-437872736",
    "description": "Creature_282527",
    "title": "Creature_282527",
    "link_img": "https://live.staticflickr.com/65535/50039000358_d1205a310f_o.jpg",
    "id_image": "Creature_282527",
    "count_view": 0
  },
  {
    "link_thumb": "https://live.staticflickr.com/65535/50039937467_5d6c5e7808_n.jpg",
    "id_album": "1402713104",
    "description": "Landscape_309993",
    "title": "Landscape_309993",
    "link_img": "https://live.staticflickr.com/65535/50039937467_e28dc996e1_o.jpg",
    "id_image": "Landscape_309993",
    "count_view": 0
  },
  {
    "link_thumb": "https://live.staticflickr.com/65535/50039564948_13493836fc_n.jpg",
    "id_album": "-1102314093",
    "description": "Planets_433687",
    "title": "Planets_433687",
    "link_img": "https://live.staticflickr.com/65535/50039564948_d486e48f1e_o.jpg",
    "id_image": "Planets_433687",
    "count_view": 0
  },
  {
    "link_thumb": "https://live.staticflickr.com/65535/50039620713_ba9dfaa817_n.jpg",
    "id_album": "376235057",
    "description": "Planetscape_394009",
    "title": "Planetscape_394009",
    "link_img": "https://live.staticflickr.com/65535/50039620713_ae50a28fe3_o.jpg",
    "id_image": "Planetscape_394009",
    "count_view": 0
  },
  {
    "link_thumb": "https://live.staticflickr.com/65535/50039253493_ee4134c08c_n.jpg",
    "id_album": "-1610342324",
    "description": "Nebula_507384",
    "title": "Nebula_507384",
    "link_img": "https://live.staticflickr.com/65535/50039253493_aa6fc09bc0_o.jpg",
    "id_image": "Nebula_507384",
    "count_view": 0
  },
  {
    "link_thumb": "https://live.staticflickr.com/65535/50039551007_400da181ac_n.jpg",
    "id_album": "-419633230",
    "description": "Apocalyptic_957443",
    "title": "Apocalyptic_957443",
    "link_img": "https://live.staticflickr.com/65535/50039551007_3d5f11a74a_o.jpg",
    "id_image": "Apocalyptic_957443",
    "count_view": 0
  },
  {
    "link_thumb": "https://live.staticflickr.com/65535/50041486361_0f5c32f121_n.jpg",
    "id_album": "-1261420436",
    "description": "Warrior_778589",
    "title": "Warrior_778589",
    "link_img": "https://live.staticflickr.com/65535/50041486361_04c0a9b187_o.jpg",
    "id_image": "Warrior_778589",
    "count_view": 0
  },
  {
    "link_thumb": "https://live.staticflickr.com/65535/50040432261_e60d0b39ec_n.jpg",
    "id_album": "779690680",
    "description": "Robot_936220",
    "title": "Robot_936220",
    "link_img": "https://live.staticflickr.com/65535/50040432261_f51f96eaa7_o.jpg",
    "id_image": "Robot_936220",
    "count_view": 0
  },
  {
    "link_thumb": "https://live.staticflickr.com/65535/50039552067_069bb29163_n.jpg",
    "id_album": "-419633230",
    "description": "Apocalyptic_957532",
    "title": "Apocalyptic_957532",
    "link_img": "https://live.staticflickr.com/65535/50039552067_df90acfd75_o.jpg",
    "id_image": "Apocalyptic_957532",
    "count_view": 0
  },
  {
    "link_thumb": "https://live.staticflickr.com/65535/50039699773_9350666857_n.jpg",
    "id_album": "779690680",
    "description": "Robot_114063",
    "title": "Robot_114063",
    "link_img": "https://live.staticflickr.com/65535/50039699773_7b3cff72f9_o.jpg",
    "id_image": "Robot_114063",
    "count_view": 0
  },
  {
    "link_thumb": "https://live.staticflickr.com/65535/50038839448_af80f761ef_n.jpg",
    "id_album": "869545341",
    "description": "Astronaut_970134",
    "title": "Astronaut_970134",
    "link_img": "https://live.staticflickr.com/65535/50038839448_a68e8fed00_o.jpg",
    "id_image": "Astronaut_970134",
    "count_view": 0
  },
  {
    "link_thumb": "https://live.staticflickr.com/65535/50039368811_0ba717d319_n.jpg",
    "id_album": "869545341",
    "description": "Astronaut_852644",
    "title": "Astronaut_852644",
    "link_img": "https://live.staticflickr.com/65535/50039368811_51b7958fff_o.jpg",
    "id_image": "Astronaut_852644",
    "count_view": 0
  },
  {
    "link_thumb": "https://live.staticflickr.com/65535/50039780136_538a8d09af_n.jpg",
    "id_album": "-1610342324",
    "description": "Nebula_271590",
    "title": "Nebula_271590",
    "link_img": "https://live.staticflickr.com/65535/50039780136_7425de8c45_o.jpg",
    "id_image": "Nebula_271590",
    "count_view": 0
  },
  {
    "link_thumb": "https://live.staticflickr.com/65535/50041718477_98d2279614_n.jpg",
    "id_album": "-1261420436",
    "description": "Warrior_386973",
    "title": "Warrior_386973",
    "link_img": "https://live.staticflickr.com/65535/50041718477_9f3a1fc707_o.jpg",
    "id_image": "Warrior_386973",
    "count_view": 0
  },
  {
    "link_thumb": "https://live.staticflickr.com/65535/50039275396_c75fe84ae1_n.jpg",
    "id_album": "849020728",
    "description": "Alien_871692",
    "title": "Alien_871692",
    "link_img": "https://live.staticflickr.com/65535/50039275396_0fdb2bbd62_o.jpg",
    "id_image": "Alien_871692",
    "count_view": 0
  },
  {
    "link_thumb": "https://live.staticflickr.com/65535/50038994603_e6f70e88ef_n.jpg",
    "id_album": "894679094",
    "description": "Collision_706877",
    "title": "Collision_706877",
    "link_img": "https://live.staticflickr.com/65535/50038994603_0447c6e540_o.jpg",
    "id_image": "Collision_706877",
    "count_view": 0
  },
  {
    "link_thumb": "https://live.staticflickr.com/65535/50039842023_9fd3c7ded1_n.jpg",
    "id_album": "779690680",
    "description": "Robot_887979",
    "title": "Robot_887979",
    "link_img": "https://live.staticflickr.com/65535/50039842023_01efc1a9c3_o.jpg",
    "id_image": "Robot_887979",
    "count_view": 0
  },
  {
    "link_thumb": "https://live.staticflickr.com/65535/50041797317_8683349f0a_n.jpg",
    "id_album": "-1126835654",
    "description": "Women_530822",
    "title": "Women_530822",
    "link_img": "https://live.staticflickr.com/65535/50041797317_a00641bf4b_o.jpg",
    "id_image": "Women_530822",
    "count_view": 0
  },
  {
    "link_thumb": "https://live.staticflickr.com/65535/50040465737_d02ba43512_n.jpg",
    "id_album": "-482547208",
    "description": "PostApocalyptic_242352",
    "title": "PostApocalyptic_242352",
    "link_img": "https://live.staticflickr.com/65535/50040465737_4dbae4cc91_o.jpg",
    "id_image": "PostApocalyptic_242352",
    "count_view": 0
  },
  {
    "link_thumb": "https://live.staticflickr.com/65535/50039894847_27fed53a9d_n.jpg",
    "id_album": "1204249541",
    "description": "Galaxy_382553",
    "title": "Galaxy_382553",
    "link_img": "https://live.staticflickr.com/65535/50039894847_3febf18752_o.jpg",
    "id_image": "Galaxy_382553",
    "count_view": 0
  },
  {
    "link_thumb": "https://live.staticflickr.com/65535/50040529783_7d356bc534_n.jpg",
    "id_album": "-1863373220",
    "description": "StarWars_107444",
    "title": "StarWars_107444",
    "link_img": "https://live.staticflickr.com/65535/50040529783_4c8901f064_o.jpg",
    "id_image": "StarWars_107444",
    "count_view": 0
  },
  {
    "link_thumb": "https://live.staticflickr.com/65535/50038753888_baba6f0565_n.jpg",
    "id_album": "523598895",
    "description": "Artistic_170992",
    "title": "Artistic_170992",
    "link_img": "https://live.staticflickr.com/65535/50038753888_4229e5987e_o.jpg",
    "id_image": "Artistic_170992",
    "count_view": 0
  },
  {
    "link_thumb": "https://live.staticflickr.com/65535/50039687722_bf96a1ddfb_n.jpg",
    "id_album": "406431601",
    "description": "Building_877121",
    "title": "Building_877121",
    "link_img": "https://live.staticflickr.com/65535/50039687722_ebe9e3bcf8_o.jpg",
    "id_image": "Building_877121",
    "count_view": 0
  },
  {
    "link_thumb": "https://live.staticflickr.com/65535/50039634896_296cfa6956_n.jpg",
    "id_album": "1204249541",
    "description": "Galaxy_441051",
    "title": "Galaxy_441051",
    "link_img": "https://live.staticflickr.com/65535/50039634896_860781df0c_o.jpg",
    "id_image": "Galaxy_441051",
    "count_view": 0
  },
  {
    "link_thumb": "https://live.staticflickr.com/65535/50039256968_c69ba70e40_n.jpg",
    "id_album": "-1610342324",
    "description": "Nebula_546083",
    "title": "Nebula_546083",
    "link_img": "https://live.staticflickr.com/65535/50039256968_714f141a92_o.jpg",
    "id_image": "Nebula_546083",
    "count_view": 0
  },
  {
    "link_thumb": "https://live.staticflickr.com/65535/50040756872_a3ddda2857_n.jpg",
    "id_album": "1613540653",
    "description": "Space_324437",
    "title": "Space_324437",
    "link_img": "https://live.staticflickr.com/65535/50040756872_626022ae5e_o.jpg",
    "id_image": "Space_324437",
    "count_view": 0
  },
  {
    "link_thumb": "https://live.staticflickr.com/65535/50039923867_bc2146f891_n.jpg",
    "id_album": "1402713104",
    "description": "Landscape_132007",
    "title": "Landscape_132007",
    "link_img": "https://live.staticflickr.com/65535/50039923867_13cb47b147_o.jpg",
    "id_image": "Landscape_132007",
    "count_view": 0
  },
  {
    "link_thumb": "https://live.staticflickr.com/65535/50039713468_9d04894b89_n.jpg",
    "id_album": "779690680",
    "description": "Robot_218101",
    "title": "Robot_218101",
    "link_img": "https://live.staticflickr.com/65535/50039713468_930c04b2a8_o.jpg",
    "id_image": "Robot_218101",
    "count_view": 0
  },
  {
    "link_thumb": "https://live.staticflickr.com/65535/50039290251_e2fecbde54_n.jpg",
    "id_album": "-419633230",
    "description": "Apocalyptic_959087",
    "title": "Apocalyptic_959087",
    "link_img": "https://live.staticflickr.com/65535/50039290251_71fffb9a87_o.jpg",
    "id_image": "Apocalyptic_959087",
    "count_view": 0
  },
  {
    "link_thumb": "https://live.staticflickr.com/65535/50039965086_de9272243d_n.jpg",
    "id_album": "395161030",
    "description": "Planet_573212",
    "title": "Planet_573212",
    "link_img": "https://live.staticflickr.com/65535/50039965086_38217af4c0_o.jpg",
    "id_image": "Planet_573212",
    "count_view": 0
  },
  {
    "link_thumb": "https://live.staticflickr.com/65535/50038809273_e0356d2078_n.jpg",
    "id_album": "869545341",
    "description": "Astronaut_556061",
    "title": "Astronaut_556061",
    "link_img": "https://live.staticflickr.com/65535/50038809273_a79f4f303f_o.jpg",
    "id_image": "Astronaut_556061",
    "count_view": 0
  },
  {
    "link_thumb": "https://live.staticflickr.com/65535/50039588532_d410bc1a28_n.jpg",
    "id_album": "523598895",
    "description": "Artistic_278716",
    "title": "Artistic_278716",
    "link_img": "https://live.staticflickr.com/65535/50039588532_899ded1d12_o.jpg",
    "id_image": "Artistic_278716",
    "count_view": 0
  },
  {
    "link_thumb": "https://live.staticflickr.com/65535/50039698092_3d31cf6608_n.jpg",
    "id_album": "-1964113117",
    "description": "City_146486",
    "title": "City_146486",
    "link_img": "https://live.staticflickr.com/65535/50039698092_d683fb35c4_o.jpg",
    "id_image": "City_146486",
    "count_view": 0
  },
  {
    "link_thumb": "https://live.staticflickr.com/65535/50039849708_7dc51029fe_n.jpg",
    "id_album": "779690680",
    "description": "Robot_906346",
    "title": "Robot_906346",
    "link_img": "https://live.staticflickr.com/65535/50039849708_4893e6539e_o.jpg",
    "id_image": "Robot_906346",
    "count_view": 0
  },
  {
    "link_thumb": "https://live.staticflickr.com/65535/50039012128_9d92b4ba4c_n.jpg",
    "id_album": "-1372247677",
    "description": "Cyberpunk_373917",
    "title": "Cyberpunk_373917",
    "link_img": "https://live.staticflickr.com/65535/50039012128_2fb372241c_o.jpg",
    "id_image": "Cyberpunk_373917",
    "count_view": 0
  },
  {
    "link_thumb": "https://live.staticflickr.com/65535/50039891742_53aa0fa11a_n.jpg",
    "id_album": "1204249541",
    "description": "Galaxy_280753",
    "title": "Galaxy_280753",
    "link_img": "https://live.staticflickr.com/65535/50039891742_e4b2b3727d_o.jpg",
    "id_image": "Galaxy_280753",
    "count_view": 0
  },
  {
    "link_thumb": "https://live.staticflickr.com/65535/50038772318_1c4dda33ba_n.jpg",
    "id_album": "523598895",
    "description": "Artistic_229605",
    "title": "Artistic_229605",
    "link_img": "https://live.staticflickr.com/65535/50038772318_86e1b319f9_o.jpg",
    "id_image": "Artistic_229605",
    "count_view": 0
  },
  {
    "link_thumb": "https://live.staticflickr.com/65535/50039686906_bf14e49223_n.jpg",
    "id_album": "1402713104",
    "description": "Landscape_409690",
    "title": "Landscape_409690",
    "link_img": "https://live.staticflickr.com/65535/50039686906_f2c3b0c0f9_o.jpg",
    "id_image": "Landscape_409690",
    "count_view": 0
  },
  {
    "link_thumb": "https://live.staticflickr.com/65535/50039779547_3e004bce36_n.jpg",
    "id_album": "-1964113117",
    "description": "City_906131",
    "title": "City_906131",
    "link_img": "https://live.staticflickr.com/65535/50039779547_c2e3bbaf2b_o.jpg",
    "id_image": "City_906131",
    "count_view": 0
  },
  {
    "link_thumb": "https://live.staticflickr.com/65535/50039720051_2ff6d7a20a_n.jpg",
    "id_album": "1402713104",
    "description": "Landscape_900201",
    "title": "Landscape_900201",
    "link_img": "https://live.staticflickr.com/65535/50039720051_383ee3d02b_o.jpg",
    "id_image": "Landscape_900201",
    "count_view": 0
  },
  {
    "link_thumb": "https://live.staticflickr.com/65535/50039257418_02d86f17fc_n.jpg",
    "id_album": "-1610342324",
    "description": "Nebula_548119",
    "title": "Nebula_548119",
    "link_img": "https://live.staticflickr.com/65535/50039257418_6113ac2e32_o.jpg",
    "id_image": "Nebula_548119",
    "count_view": 0
  },
  {
    "link_thumb": "https://live.staticflickr.com/65535/50039887922_8afe9b2960_n.jpg",
    "id_album": "1204249541",
    "description": "Galaxy_172925",
    "title": "Galaxy_172925",
    "link_img": "https://live.staticflickr.com/65535/50039887922_210d4aa4a2_o.jpg",
    "id_image": "Galaxy_172925",
    "count_view": 0
  },
  {
    "link_thumb": "https://live.staticflickr.com/65535/50040705223_3be11fa734_n.jpg",
    "id_album": "-1587696329",
    "description": "Stars_193004",
    "title": "Stars_193004",
    "link_img": "https://live.staticflickr.com/65535/50040705223_8074034397_o.jpg",
    "id_image": "Stars_193004",
    "count_view": 0
  },
  {
    "link_thumb": "https://live.staticflickr.com/65535/50039926461_6d74aedb01_n.jpg",
    "id_album": "395161030",
    "description": "Planet_324580",
    "title": "Planet_324580",
    "link_img": "https://live.staticflickr.com/65535/50039926461_8e9be5c159_o.jpg",
    "id_image": "Planet_324580",
    "count_view": 0
  },
  {
    "link_thumb": "https://live.staticflickr.com/65535/50039409866_0ba63fa543_n.jpg",
    "id_album": "1187037014",
    "description": "Battle_957848",
    "title": "Battle_957848",
    "link_img": "https://live.staticflickr.com/65535/50039409866_0f027709e9_o.jpg",
    "id_image": "Battle_957848",
    "count_view": 0
  },
  {
    "link_thumb": "https://live.staticflickr.com/65535/50039926388_8691cddc82_n.jpg",
    "id_album": "1613540653",
    "description": "Space_223704",
    "title": "Space_223704",
    "link_img": "https://live.staticflickr.com/65535/50039926388_f88e5ef8a5_o.jpg",
    "id_image": "Space_223704",
    "count_view": 0
  },
  {
    "link_thumb": "https://live.staticflickr.com/65535/50038732913_d286cff8d5_n.jpg",
    "id_album": "-419633230",
    "description": "Apocalyptic_242682",
    "title": "Apocalyptic_242682",
    "link_img": "https://live.staticflickr.com/65535/50038732913_a798c53102_o.jpg",
    "id_image": "Apocalyptic_242682",
    "count_view": 0
  },
  {
    "link_thumb": "https://live.staticflickr.com/65535/50039908192_93763481d1_n.jpg",
    "id_album": "1204249541",
    "description": "Galaxy_58726",
    "title": "Galaxy_58726",
    "link_img": "https://live.staticflickr.com/65535/50039908192_9227a62f6b_o.jpg",
    "id_image": "Galaxy_58726",
    "count_view": 0
  },
  {
    "link_thumb": "https://live.staticflickr.com/65535/50039275928_8320673c56_n.jpg",
    "id_album": "-1610342324",
    "description": "Nebula_705665",
    "title": "Nebula_705665",
    "link_img": "https://live.staticflickr.com/65535/50039275928_c9928d8997_o.jpg",
    "id_image": "Nebula_705665",
    "count_view": 0
  },
  {
    "link_thumb": "https://live.staticflickr.com/65535/50040677982_3a21dc0b63_n.jpg",
    "id_album": "779690680",
    "description": "Robot_915579",
    "title": "Robot_915579",
    "link_img": "https://live.staticflickr.com/65535/50040677982_33d50db8d2_o.jpg",
    "id_image": "Robot_915579",
    "count_view": 0
  },
  {
    "link_thumb": "https://live.staticflickr.com/65535/50039874088_8a561c3cf9_n.jpg",
    "id_album": "779690680",
    "description": "Robot_930931",
    "title": "Robot_930931",
    "link_img": "https://live.staticflickr.com/65535/50039874088_66167b744d_o.jpg",
    "id_image": "Robot_930931",
    "count_view": 0
  },
  {
    "link_thumb": "https://live.staticflickr.com/65535/50041761407_980e0aa441_n.jpg",
    "id_album": "-1261420436",
    "description": "Warrior_991672",
    "title": "Warrior_991672",
    "link_img": "https://live.staticflickr.com/65535/50041761407_af9f4e356b_o.jpg",
    "id_image": "Warrior_991672",
    "count_view": 0
  },
  {
    "link_thumb": "https://live.staticflickr.com/65535/50039750738_4df337c136_n.jpg",
    "id_album": "779690680",
    "description": "Robot_405081",
    "title": "Robot_405081",
    "link_img": "https://live.staticflickr.com/65535/50039750738_77ccc332fe_o.jpg",
    "id_image": "Robot_405081",
    "count_view": 0
  },
  {
    "link_thumb": "https://live.staticflickr.com/65535/50041574461_699d2d5bfd_n.jpg",
    "id_album": "-1675918237",
    "description": "WomenWarrior_410152",
    "title": "WomenWarrior_410152",
    "link_img": "https://live.staticflickr.com/65535/50041574461_e442702eb4_o.jpg",
    "id_image": "WomenWarrior_410152",
    "count_view": 0
  },
  {
    "link_thumb": "https://live.staticflickr.com/65535/50039281336_85b973835b_n.jpg",
    "id_album": "-419633230",
    "description": "Apocalyptic_285801",
    "title": "Apocalyptic_285801",
    "link_img": "https://live.staticflickr.com/65535/50039281336_5e396acd33_o.jpg",
    "id_image": "Apocalyptic_285801",
    "count_view": 0
  },
  {
    "link_thumb": "https://live.staticflickr.com/65535/50040429081_e06002b649_n.jpg",
    "id_album": "779690680",
    "description": "Robot_931802",
    "title": "Robot_931802",
    "link_img": "https://live.staticflickr.com/65535/50040429081_40043d07b0_o.jpg",
    "id_image": "Robot_931802",
    "count_view": 0
  },
  {
    "link_thumb": "https://live.staticflickr.com/65535/50039351403_72481bbb3c_n.jpg",
    "id_album": "395161030",
    "description": "Planet_1004885",
    "title": "Planet_1004885",
    "link_img": "https://live.staticflickr.com/65535/50039351403_9f6e816b25_o.jpg",
    "id_image": "Planet_1004885",
    "count_view": 0
  },
  {
    "link_thumb": "https://live.staticflickr.com/65535/50040480922_950edd208c_n.jpg",
    "id_album": "-482547208",
    "description": "PostApocalyptic_599881",
    "title": "PostApocalyptic_599881",
    "link_img": "https://live.staticflickr.com/65535/50040480922_2e0d604ba5_o.jpg",
    "id_image": "PostApocalyptic_599881",
    "count_view": 0
  },
  {
    "link_thumb": "https://live.staticflickr.com/65535/50039114988_e17c782d9b_n.jpg",
    "id_album": "1402713104",
    "description": "Landscape_189233",
    "title": "Landscape_189233",
    "link_img": "https://live.staticflickr.com/65535/50039114988_61bf52bf4e_o.jpg",
    "id_image": "Landscape_189233",
    "count_view": 0
  },
  {
    "link_thumb": "https://live.staticflickr.com/65535/50041703097_2394d9aac7_n.jpg",
    "id_album": "-1261420436",
    "description": "Warrior_268817",
    "title": "Warrior_268817",
    "link_img": "https://live.staticflickr.com/65535/50041703097_ca2a6d2a19_o.jpg",
    "id_image": "Warrior_268817",
    "count_view": 0
  },
  {
    "link_thumb": "https://live.staticflickr.com/65535/50040627751_1606c3d360_n.jpg",
    "id_album": "2130067313",
    "description": "Spaceship_286775",
    "title": "Spaceship_286775",
    "link_img": "https://live.staticflickr.com/65535/50040627751_b08d5770e7_o.jpg",
    "id_image": "Spaceship_286775",
    "count_view": 0
  },
  {
    "link_thumb": "https://live.staticflickr.com/65535/50038686793_28f6a10bdc_n.jpg",
    "id_album": "-406145265",
    "description": "Aircraft_145431",
    "title": "Aircraft_145431",
    "link_img": "https://live.staticflickr.com/65535/50038686793_6fdb989b73_o.jpg",
    "id_image": "Aircraft_145431",
    "count_view": 0
  },
  {
    "link_thumb": "https://live.staticflickr.com/65535/50041845232_308b21955b_n.jpg",
    "id_album": "-1675918237",
    "description": "WomenWarrior_602057",
    "title": "WomenWarrior_602057",
    "link_img": "https://live.staticflickr.com/65535/50041845232_e6c4b3c81d_o.jpg",
    "id_image": "WomenWarrior_602057",
    "count_view": 0
  },
  {
    "link_thumb": "https://live.staticflickr.com/65535/50040504382_6cf0537cf0_n.jpg",
    "id_album": "-839602625",
    "description": "Predator_321210",
    "title": "Predator_321210",
    "link_img": "https://live.staticflickr.com/65535/50040504382_cbc08bcc1a_o.jpg",
    "id_image": "Predator_321210",
    "count_view": 0
  },
  {
    "link_thumb": "https://live.staticflickr.com/65535/50039853527_ae9a1f888f_n.jpg",
    "id_album": "829169633",
    "description": "Cyborg_488054",
    "title": "Cyborg_488054",
    "link_img": "https://live.staticflickr.com/65535/50039853527_b2c571966e_o.jpg",
    "id_image": "Cyborg_488054",
    "count_view": 0
  },
  {
    "link_thumb": "https://live.staticflickr.com/65535/50039989598_b42d60fb95_n.jpg",
    "id_album": "1613540653",
    "description": "Space_822480",
    "title": "Space_822480",
    "link_img": "https://live.staticflickr.com/65535/50039989598_81164bc11d_o.jpg",
    "id_image": "Space_822480",
    "count_view": 0
  },
  {
    "link_thumb": "https://live.staticflickr.com/65535/50040387842_9dcedae910_n.jpg",
    "id_album": "-1102314093",
    "description": "Planets_533844",
    "title": "Planets_533844",
    "link_img": "https://live.staticflickr.com/65535/50040387842_2d3284f8f9_o.jpg",
    "id_image": "Planets_533844",
    "count_view": 0
  },
  {
    "link_thumb": "https://live.staticflickr.com/65535/50038749868_9708c2fe2e_n.jpg",
    "id_album": "523598895",
    "description": "Artistic_152413",
    "title": "Artistic_152413",
    "link_img": "https://live.staticflickr.com/65535/50038749868_b016d9757c_o.jpg",
    "id_image": "Artistic_152413",
    "count_view": 0
  },
  {
    "link_thumb": "https://live.staticflickr.com/65535/50040479196_91af8c5407_n.jpg",
    "id_album": "1613540653",
    "description": "Space_207816",
    "title": "Space_207816",
    "link_img": "https://live.staticflickr.com/65535/50040479196_6678cdc929_o.jpg",
    "id_image": "Space_207816",
    "count_view": 0
  },
  {
    "link_thumb": "https://live.staticflickr.com/65535/50039097423_df5049442b_n.jpg",
    "id_album": "1204249541",
    "description": "Galaxy_596221",
    "title": "Galaxy_596221",
    "link_img": "https://live.staticflickr.com/65535/50039097423_45874695fb_o.jpg",
    "id_image": "Galaxy_596221",
    "count_view": 0
  },
  {
    "link_thumb": "https://live.staticflickr.com/65535/50039795326_f571eff5f9_n.jpg",
    "id_album": "-1610342324",
    "description": "Nebula_428229",
    "title": "Nebula_428229",
    "link_img": "https://live.staticflickr.com/65535/50039795326_13da5fc64e_o.jpg",
    "id_image": "Nebula_428229",
    "count_view": 0
  },
  {
    "link_thumb": "https://live.staticflickr.com/65535/50039221243_6b295e1ddb_n.jpg",
    "id_album": "-1610342324",
    "description": "Nebula_215037",
    "title": "Nebula_215037",
    "link_img": "https://live.staticflickr.com/65535/50039221243_b6e4234987_o.jpg",
    "id_image": "Nebula_215037",
    "count_view": 0
  },
  {
    "link_thumb": "https://live.staticflickr.com/65535/50040865147_9f5dc8f6bc_n.jpg",
    "id_album": "2130067313",
    "description": "Spaceship_235124",
    "title": "Spaceship_235124",
    "link_img": "https://live.staticflickr.com/65535/50040865147_9fa98a3e00_o.jpg",
    "id_image": "Spaceship_235124",
    "count_view": 0
  },
  {
    "link_thumb": "https://live.staticflickr.com/65535/50039952832_d7701cf05b_n.jpg",
    "id_album": "1402713104",
    "description": "Landscape_446153",
    "title": "Landscape_446153",
    "link_img": "https://live.staticflickr.com/65535/50039952832_131d6cf9ce_o.jpg",
    "id_image": "Landscape_446153",
    "count_view": 0
  },
  {
    "link_thumb": "https://live.staticflickr.com/65535/50039768401_0027491d8c_n.jpg",
    "id_album": "-1610342324",
    "description": "Nebula_203086",
    "title": "Nebula_203086",
    "link_img": "https://live.staticflickr.com/65535/50039768401_2cb9b58f98_o.jpg",
    "id_image": "Nebula_203086",
    "count_view": 0
  },
  {
    "link_thumb": "https://live.staticflickr.com/65535/50040387732_369de17996_n.jpg",
    "id_album": "-1102314093",
    "description": "Planets_533843",
    "title": "Planets_533843",
    "link_img": "https://live.staticflickr.com/65535/50040387732_08e6f3454e_o.jpg",
    "id_image": "Planets_533843",
    "count_view": 0
  },
  {
    "link_thumb": "https://live.staticflickr.com/65535/50038891683_67db6f16f3_n.jpg",
    "id_album": "-1964113117",
    "description": "City_187729",
    "title": "City_187729",
    "link_img": "https://live.staticflickr.com/65535/50038891683_52d189aeed_o.jpg",
    "id_image": "City_187729",
    "count_view": 0
  },
  {
    "link_thumb": "https://live.staticflickr.com/65535/50039872113_142d9e857d_n.jpg",
    "id_album": "779690680",
    "description": "Robot_928645",
    "title": "Robot_928645",
    "link_img": "https://live.staticflickr.com/65535/50039872113_3fc60675f3_o.jpg",
    "id_image": "Robot_928645",
    "count_view": 0
  },
  {
    "link_thumb": "https://live.staticflickr.com/65535/50038991223_4a56f57b51_n.jpg",
    "id_album": "894679094",
    "description": "Collision_331411",
    "title": "Collision_331411",
    "link_img": "https://live.staticflickr.com/65535/50038991223_7be9854142_o.jpg",
    "id_image": "Collision_331411",
    "count_view": 0
  },
  {
    "link_thumb": "https://live.staticflickr.com/65535/50040853703_2c1c906ace_n.jpg",
    "id_album": "2020068132",
    "description": "Vehicle_616889",
    "title": "Vehicle_616889",
    "link_img": "https://live.staticflickr.com/65535/50040853703_3e3b17d993_o.jpg",
    "id_image": "Vehicle_616889",
    "count_view": 0
  },
  {
    "link_thumb": "https://live.staticflickr.com/65535/50038836523_33779ed440_n.jpg",
    "id_album": "869545341",
    "description": "Astronaut_957407",
    "title": "Astronaut_957407",
    "link_img": "https://live.staticflickr.com/65535/50038836523_ec364a912f_o.jpg",
    "id_image": "Astronaut_957407",
    "count_view": 0
  },
  {
    "link_thumb": "https://live.staticflickr.com/65535/50040786548_5723ef7142_n.jpg",
    "id_album": "-221671103",
    "description": "Sun_193008",
    "title": "Sun_193008",
    "link_img": "https://live.staticflickr.com/65535/50040786548_382113ae14_o.jpg",
    "id_image": "Sun_193008",
    "count_view": 0
  },
  {
    "link_thumb": "https://live.staticflickr.com/65535/50040791728_37f857abcc_n.jpg",
    "id_album": "-221671103",
    "description": "Sun_333823",
    "title": "Sun_333823",
    "link_img": "https://live.staticflickr.com/65535/50040791728_d29e2fef1e_o.jpg",
    "id_image": "Sun_333823",
    "count_view": 0
  },
  {
    "link_thumb": "https://live.staticflickr.com/65535/50039118238_7ffba91d1c_n.jpg",
    "id_album": "1402713104",
    "description": "Landscape_252924",
    "title": "Landscape_252924",
    "link_img": "https://live.staticflickr.com/65535/50039118238_d5c269d636_o.jpg",
    "id_image": "Landscape_252924",
    "count_view": 0
  },
  {
    "link_thumb": "https://live.staticflickr.com/65535/50039491722_0280f80ffa_n.jpg",
    "id_album": "280884763",
    "description": "Abstract_286931",
    "title": "Abstract_286931",
    "link_img": "https://live.staticflickr.com/65535/50039491722_f271d3820b_o.jpg",
    "id_image": "Abstract_286931",
    "count_view": 0
  },
  {
    "link_thumb": "https://live.staticflickr.com/65535/50039291666_87294afc20_n.jpg",
    "id_album": "523598895",
    "description": "Artistic_105298",
    "title": "Artistic_105298",
    "link_img": "https://live.staticflickr.com/65535/50039291666_158cfe1b56_o.jpg",
    "id_image": "Artistic_105298",
    "count_view": 0
  },
  {
    "link_thumb": "https://live.staticflickr.com/65535/50040800632_3584066838_n.jpg",
    "id_album": "1613540653",
    "description": "Space_746369",
    "title": "Space_746369",
    "link_img": "https://live.staticflickr.com/65535/50040800632_c58c49e58b_o.jpg",
    "id_image": "Space_746369",
    "count_view": 0
  },
  {
    "link_thumb": "https://live.staticflickr.com/65535/50039383368_318351d954_n.jpg",
    "id_album": "395161030",
    "description": "Planet_345103",
    "title": "Planet_345103",
    "link_img": "https://live.staticflickr.com/65535/50039383368_e4de7886ef_o.jpg",
    "id_image": "Planet_345103",
    "count_view": 0
  },
  {
    "link_thumb": "https://live.staticflickr.com/65535/50039310861_4be402a1ef_n.jpg",
    "id_album": "523598895",
    "description": "Artistic_199916",
    "title": "Artistic_199916",
    "link_img": "https://live.staticflickr.com/65535/50039310861_ed77a17ed7_o.jpg",
    "id_image": "Artistic_199916",
    "count_view": 0
  },
  {
    "link_thumb": "https://live.staticflickr.com/65535/50040495867_9cd82f3cc1_n.jpg",
    "id_album": "-482547208",
    "description": "PostApocalyptic_922151",
    "title": "PostApocalyptic_922151",
    "link_img": "https://live.staticflickr.com/65535/50040495867_84a5845ab7_o.jpg",
    "id_image": "PostApocalyptic_922151",
    "count_view": 0
  },
  {
    "link_thumb": "https://live.staticflickr.com/65535/50039316101_f254138103_n.jpg",
    "id_album": "523598895",
    "description": "Artistic_220349",
    "title": "Artistic_220349",
    "link_img": "https://live.staticflickr.com/65535/50039316101_4c923e41ac_o.jpg",
    "id_image": "Artistic_220349",
    "count_view": 0
  },
  {
    "link_thumb": "https://live.staticflickr.com/65535/50040743912_78d0f63bc2_n.jpg",
    "id_album": "1613540653",
    "description": "Space_212456",
    "title": "Space_212456",
    "link_img": "https://live.staticflickr.com/65535/50040743912_067de2db5e_o.jpg",
    "id_image": "Space_212456",
    "count_view": 0
  },
  {
    "link_thumb": "https://live.staticflickr.com/65535/50039265556_7f0954df66_n.jpg",
    "id_album": "849020728",
    "description": "Alien_453136",
    "title": "Alien_453136",
    "link_img": "https://live.staticflickr.com/65535/50039265556_39c12751c2_o.jpg",
    "id_image": "Alien_453136",
    "count_view": 0
  },
  {
    "link_thumb": "https://live.staticflickr.com/65535/50039592921_eec65bdcc7_n.jpg",
    "id_album": "829169633",
    "description": "Cyborg_542952",
    "title": "Cyborg_542952",
    "link_img": "https://live.staticflickr.com/65535/50039592921_5dcde16153_o.jpg",
    "id_image": "Cyborg_542952",
    "count_view": 0
  },
  {
    "link_thumb": "https://live.staticflickr.com/65535/50039398223_25ffa88a3c_n.jpg",
    "id_album": "395161030",
    "description": "Planet_396516",
    "title": "Planet_396516",
    "link_img": "https://live.staticflickr.com/65535/50039398223_bb2a089ee7_o.jpg",
    "id_image": "Planet_396516",
    "count_view": 0
  },
  {
    "link_thumb": "https://live.staticflickr.com/65535/50038699178_11ec2631bc_n.jpg",
    "id_album": "849020728",
    "description": "Alien_152631",
    "title": "Alien_152631",
    "link_img": "https://live.staticflickr.com/65535/50038699178_a8eedc5aa9_o.jpg",
    "id_image": "Alien_152631",
    "count_view": 0
  },
  {
    "link_thumb": "https://live.staticflickr.com/65535/50039406298_cf4d8aa9b2_n.jpg",
    "id_album": "395161030",
    "description": "Planet_511413",
    "title": "Planet_511413",
    "link_img": "https://live.staticflickr.com/65535/50039406298_57196a2def_o.jpg",
    "id_image": "Planet_511413",
    "count_view": 0
  },
  {
    "link_thumb": "https://live.staticflickr.com/65535/50039506092_c7b914b2fb_n.jpg",
    "id_album": "849020728",
    "description": "Alien_108487",
    "title": "Alien_108487",
    "link_img": "https://live.staticflickr.com/65535/50039506092_f775b6838e_o.jpg",
    "id_image": "Alien_108487",
    "count_view": 0
  },
  {
    "link_thumb": "https://live.staticflickr.com/65535/50040184807_bcc207409d_n.jpg",
    "id_album": "395161030",
    "description": "Planet_239641",
    "title": "Planet_239641",
    "link_img": "https://live.staticflickr.com/65535/50040184807_454ec994ed_o.jpg",
    "id_image": "Planet_239641",
    "count_view": 0
  },
  {
    "link_thumb": "https://live.staticflickr.com/65535/50039592557_9554439643_n.jpg",
    "id_album": "523598895",
    "description": "Artistic_352708",
    "title": "Artistic_352708",
    "link_img": "https://live.staticflickr.com/65535/50039592557_fea06a2228_o.jpg",
    "id_image": "Artistic_352708",
    "count_view": 0
  },
  {
    "link_thumb": "https://live.staticflickr.com/65535/50041622647_3d911b35d2_n.jpg",
    "id_album": "-1177476763",
    "description": "Sunrise_324435",
    "title": "Sunrise_324435",
    "link_img": "https://live.staticflickr.com/65535/50041622647_a3e83a4598_o.jpg",
    "id_image": "Sunrise_324435",
    "count_view": 0
  },
  {
    "link_thumb": "https://live.staticflickr.com/65535/50038766653_06cac5a4e7_n.jpg",
    "id_album": "523598895",
    "description": "Artistic_211323",
    "title": "Artistic_211323",
    "link_img": "https://live.staticflickr.com/65535/50038766653_802c237498_o.jpg",
    "id_image": "Artistic_211323",
    "count_view": 0
  },
  {
    "link_thumb": "https://live.staticflickr.com/65535/50041008188_ab34ee4e23_n.jpg",
    "id_album": "-1675918237",
    "description": "WomenWarrior_243739",
    "title": "WomenWarrior_243739",
    "link_img": "https://live.staticflickr.com/65535/50041008188_4928a1188a_o.jpg",
    "id_image": "WomenWarrior_243739",
    "count_view": 0
  },
  {
    "link_thumb": "https://live.staticflickr.com/65535/50039752418_9ba5f06753_n.jpg",
    "id_album": "779690680",
    "description": "Robot_412738",
    "title": "Robot_412738",
    "link_img": "https://live.staticflickr.com/65535/50039752418_21ebf8738c_o.jpg",
    "id_image": "Robot_412738",
    "count_view": 0
  },
  {
    "link_thumb": "https://live.staticflickr.com/65535/50038983168_c52cdcffd1_n.jpg",
    "id_album": "-1964113117",
    "description": "City_982184",
    "title": "City_982184",
    "link_img": "https://live.staticflickr.com/65535/50038983168_5a99ae0d3e_o.jpg",
    "id_image": "City_982184",
    "count_view": 0
  },
  {
    "link_thumb": "https://live.staticflickr.com/65535/50039322551_ea675d382d_n.jpg",
    "id_album": "523598895",
    "description": "Artistic_237740",
    "title": "Artistic_237740",
    "link_img": "https://live.staticflickr.com/65535/50039322551_8e1fc43566_o.jpg",
    "id_image": "Artistic_237740",
    "count_view": 0
  },
  {
    "link_thumb": "https://live.staticflickr.com/65535/50039742837_bc2949a4cc_n.jpg",
    "id_album": "-1964113117",
    "description": "City_599394",
    "title": "City_599394",
    "link_img": "https://live.staticflickr.com/65535/50039742837_032e33ba0a_o.jpg",
    "id_image": "City_599394",
    "count_view": 0
  },
  {
    "link_thumb": "https://live.staticflickr.com/65535/50040931958_4c505aa176_n.jpg",
    "id_album": "-1261420436",
    "description": "Warrior_715711",
    "title": "Warrior_715711",
    "link_img": "https://live.staticflickr.com/65535/50040931958_d760ece0e9_o.jpg",
    "id_image": "Warrior_715711",
    "count_view": 0
  },
  {
    "link_thumb": "https://live.staticflickr.com/65535/50039797427_37f9a98f20_n.jpg",
    "id_album": "894679094",
    "description": "Collision_121048",
    "title": "Collision_121048",
    "link_img": "https://live.staticflickr.com/65535/50039797427_6a4655f70b_o.jpg",
    "id_image": "Collision_121048",
    "count_view": 0
  },
  {
    "link_thumb": "https://live.staticflickr.com/65535/50039577552_ab95e120ed_n.jpg",
    "id_album": "523598895",
    "description": "Artistic_218507",
    "title": "Artistic_218507",
    "link_img": "https://live.staticflickr.com/65535/50039577552_9132a44149_o.jpg",
    "id_image": "Artistic_218507",
    "count_view": 0
  },
  {
    "link_thumb": "https://live.staticflickr.com/65535/50040472341_a7ebe65619_n.jpg",
    "id_album": "1613540653",
    "description": "Space_175602",
    "title": "Space_175602",
    "link_img": "https://live.staticflickr.com/65535/50040472341_a57515f5e1_o.jpg",
    "id_image": "Space_175602",
    "count_view": 0
  },
  {
    "link_thumb": "https://live.staticflickr.com/65535/50040765902_94cb502b5f_n.jpg",
    "id_album": "1613540653",
    "description": "Space_368406",
    "title": "Space_368406",
    "link_img": "https://live.staticflickr.com/65535/50040765902_7ae0c889be_o.jpg",
    "id_image": "Space_368406",
    "count_view": 0
  },
  {
    "link_thumb": "https://live.staticflickr.com/65535/50039521637_61d851d851_n.jpg",
    "id_album": "849020728",
    "description": "Alien_304601",
    "title": "Alien_304601",
    "link_img": "https://live.staticflickr.com/65535/50039521637_8d07e84d2c_o.jpg",
    "id_image": "Alien_304601",
    "count_view": 0
  },
  {
    "link_thumb": "https://live.staticflickr.com/65535/50040429636_784e0934e6_n.jpg",
    "id_album": "779690680",
    "description": "Robot_932189",
    "title": "Robot_932189",
    "link_img": "https://live.staticflickr.com/65535/50040429636_94cd6cd15e_o.jpg",
    "id_image": "Robot_932189",
    "count_view": 0
  },
  {
    "link_thumb": "https://live.staticflickr.com/65535/50039302713_dba6991e92_n.jpg",
    "id_album": "-1610342324",
    "description": "Nebula_921276",
    "title": "Nebula_921276",
    "link_img": "https://live.staticflickr.com/65535/50039302713_ec05403177_o.jpg",
    "id_image": "Nebula_921276",
    "count_view": 0
  },
  {
    "link_thumb": "https://live.staticflickr.com/65535/50039734816_a1fe96429c_n.jpg",
    "id_album": "-1388385651",
    "description": "MilkyWay_592441",
    "title": "MilkyWay_592441",
    "link_img": "https://live.staticflickr.com/65535/50039734816_d3986cb655_o.jpg",
    "id_image": "MilkyWay_592441",
    "count_view": 0
  },
  {
    "link_thumb": "https://live.staticflickr.com/65535/50041788012_d4e9e3e4a7_n.jpg",
    "id_album": "-1126835654",
    "description": "Women_347710",
    "title": "Women_347710",
    "link_img": "https://live.staticflickr.com/65535/50041788012_df982f882f_o.jpg",
    "id_image": "Women_347710",
    "count_view": 0
  },
  {
    "link_thumb": "https://live.staticflickr.com/65535/50039393443_5dfebb16e3_n.jpg",
    "id_album": "395161030",
    "description": "Planet_377335",
    "title": "Planet_377335",
    "link_img": "https://live.staticflickr.com/65535/50039393443_dd8a247fd7_o.jpg",
    "id_image": "Planet_377335",
    "count_view": 0
  },
  {
    "link_thumb": "https://live.staticflickr.com/65535/50039609606_1c787aa83e_n.jpg",
    "id_album": "651930207",
    "description": "Explosion_351695",
    "title": "Explosion_351695",
    "link_img": "https://live.staticflickr.com/65535/50039609606_1c48829f8e_o.jpg",
    "id_image": "Explosion_351695",
    "count_view": 0
  },
  {
    "link_thumb": "https://live.staticflickr.com/65535/50039870392_f09f20aaf3_n.jpg",
    "id_album": "651930207",
    "description": "Explosion_225990",
    "title": "Explosion_225990",
    "link_img": "https://live.staticflickr.com/65535/50039870392_02ac62cb82_o.jpg",
    "id_image": "Explosion_225990",
    "count_view": 0
  },
  {
    "link_thumb": "https://live.staticflickr.com/65535/50040556417_de5935b891_n.jpg",
    "id_album": "779690680",
    "description": "Robot_333324",
    "title": "Robot_333324",
    "link_img": "https://live.staticflickr.com/65535/50040556417_26e70843e6_o.jpg",
    "id_image": "Robot_333324",
    "count_view": 0
  },
  {
    "link_thumb": "https://live.staticflickr.com/65535/50038745233_ea95bb65e1_n.jpg",
    "id_album": "523598895",
    "description": "Artistic_109233",
    "title": "Artistic_109233",
    "link_img": "https://live.staticflickr.com/65535/50038745233_dfc89f2c99_o.jpg",
    "id_image": "Artistic_109233",
    "count_view": 0
  },
  {
    "link_thumb": "https://live.staticflickr.com/65535/50040337791_6dbcf594d3_n.jpg",
    "id_album": "779690680",
    "description": "Robot_587353",
    "title": "Robot_587353",
    "link_img": "https://live.staticflickr.com/65535/50040337791_f7c0cddaec_o.jpg",
    "id_image": "Robot_587353",
    "count_view": 0
  },
  {
    "link_thumb": "https://live.staticflickr.com/65535/50040254846_306a980d24_n.jpg",
    "id_album": "779690680",
    "description": "Robot_146639",
    "title": "Robot_146639",
    "link_img": "https://live.staticflickr.com/65535/50040254846_749b8f1e88_o.jpg",
    "id_image": "Robot_146639",
    "count_view": 0
  },
  {
    "link_thumb": "https://live.staticflickr.com/65535/50038773843_d7423edf4f_n.jpg",
    "id_album": "523598895",
    "description": "Artistic_236641",
    "title": "Artistic_236641",
    "link_img": "https://live.staticflickr.com/65535/50038773843_51793fe1fd_o.jpg",
    "id_image": "Artistic_236641",
    "count_view": 0
  },
  {
    "link_thumb": "https://live.staticflickr.com/65535/50039010518_5304b77918_n.jpg",
    "id_album": "-437872736",
    "description": "Creature_879754",
    "title": "Creature_879754",
    "link_img": "https://live.staticflickr.com/65535/50039010518_b046b12d77_o.jpg",
    "id_image": "Creature_879754",
    "count_view": 0
  },
  {
    "link_thumb": "https://live.staticflickr.com/65535/50039960156_3e00bae2f3_n.jpg",
    "id_album": "395161030",
    "description": "Planet_558937",
    "title": "Planet_558937",
    "link_img": "https://live.staticflickr.com/65535/50039960156_3d0af5d8b5_o.jpg",
    "id_image": "Planet_558937",
    "count_view": 0
  },
  {
    "link_thumb": "https://live.staticflickr.com/65535/50038768593_50cdf47331_n.jpg",
    "id_album": "523598895",
    "description": "Artistic_220877",
    "title": "Artistic_220877",
    "link_img": "https://live.staticflickr.com/65535/50038768593_6a0c574f2f_o.jpg",
    "id_image": "Artistic_220877",
    "count_view": 0
  },
  {
    "link_thumb": "https://live.staticflickr.com/65535/50039592463_becf565d4b_n.jpg",
    "id_album": "-1102314093",
    "description": "Planets_86410",
    "title": "Planets_86410",
    "link_img": "https://live.staticflickr.com/65535/50039592463_fb5894fcf1_o.jpg",
    "id_image": "Planets_86410",
    "count_view": 0
  },
  {
    "link_thumb": "https://live.staticflickr.com/65535/50041736532_84994a9c39_n.jpg",
    "id_album": "-1261420436",
    "description": "Warrior_564436",
    "title": "Warrior_564436",
    "link_img": "https://live.staticflickr.com/65535/50041736532_e323729e2d_o.jpg",
    "id_image": "Warrior_564436",
    "count_view": 0
  },
  {
    "link_thumb": "https://live.staticflickr.com/65535/50040240501_d7e7aa9cae_n.jpg",
    "id_album": "-839602625",
    "description": "Predator_333753",
    "title": "Predator_333753",
    "link_img": "https://live.staticflickr.com/65535/50040240501_102b896490_o.jpg",
    "id_image": "Predator_333753",
    "count_view": 0
  },
  {
    "link_thumb": "https://live.staticflickr.com/65535/50040115386_f63a693e41_n.jpg",
    "id_album": "-1102314093",
    "description": "Planets_436890",
    "title": "Planets_436890",
    "link_img": "https://live.staticflickr.com/65535/50040115386_bb2d8554ea_o.jpg",
    "id_image": "Planets_436890",
    "count_view": 0
  },
  {
    "link_thumb": "https://live.staticflickr.com/65535/50039887288_18e3f741b1_n.jpg",
    "id_album": "779690680",
    "description": "Robot_949796",
    "title": "Robot_949796",
    "link_img": "https://live.staticflickr.com/65535/50039887288_9ceee63af9_o.jpg",
    "id_image": "Robot_949796",
    "count_view": 0
  },
  {
    "link_thumb": "https://live.staticflickr.com/65535/50040681182_b5361030f0_n.jpg",
    "id_album": "779690680",
    "description": "Robot_920333",
    "title": "Robot_920333",
    "link_img": "https://live.staticflickr.com/65535/50040681182_7a01088e57_o.jpg",
    "id_image": "Robot_920333",
    "count_view": 0
  },
  {
    "link_thumb": "https://live.staticflickr.com/65535/50039340943_f02943babb_n.jpg",
    "id_album": "-1862561193",
    "description": "Other_347657",
    "title": "Other_347657",
    "link_img": "https://live.staticflickr.com/65535/50039340943_02b4919946_o.jpg",
    "id_image": "Other_347657",
    "count_view": 0
  },
  {
    "link_thumb": "https://live.staticflickr.com/65535/50041457677_cf4fa487b8_n.jpg",
    "id_album": "-1863373220",
    "description": "StarWars_581222",
    "title": "StarWars_581222",
    "link_img": "https://live.staticflickr.com/65535/50041457677_246eabaeca_o.jpg",
    "id_image": "StarWars_581222",
    "count_view": 0
  },
  {
    "link_thumb": "https://live.staticflickr.com/65535/50040921043_1e8c7a7bb5_n.jpg",
    "id_album": "-1261420436",
    "description": "Warrior_592181",
    "title": "Warrior_592181",
    "link_img": "https://live.staticflickr.com/65535/50040921043_b8af30f262_o.jpg",
    "id_image": "Warrior_592181",
    "count_view": 0
  },
  {
    "link_thumb": "https://live.staticflickr.com/65535/50039646492_750ed147ed_n.jpg",
    "id_album": "869545341",
    "description": "Astronaut_955691",
    "title": "Astronaut_955691",
    "link_img": "https://live.staticflickr.com/65535/50039646492_9c2b5fac20_o.jpg",
    "id_image": "Astronaut_955691",
    "count_view": 0
  },
  {
    "link_thumb": "https://live.staticflickr.com/65535/50040485816_6b6fc2abe3_n.jpg",
    "id_album": "1613540653",
    "description": "Space_280026",
    "title": "Space_280026",
    "link_img": "https://live.staticflickr.com/65535/50040485816_8c4b667870_o.jpg",
    "id_image": "Space_280026",
    "count_view": 0
  },
  {
    "link_thumb": "https://live.staticflickr.com/65535/50039885898_c092ae6404_n.jpg",
    "id_album": "779690680",
    "description": "Robot_949785",
    "title": "Robot_949785",
    "link_img": "https://live.staticflickr.com/65535/50039885898_81553d13c8_o.jpg",
    "id_image": "Robot_949785",
    "count_view": 0
  },
  {
    "link_thumb": "https://live.staticflickr.com/65535/50039914642_ea6201651a_n.jpg",
    "id_album": "1204249541",
    "description": "Galaxy_689592",
    "title": "Galaxy_689592",
    "link_img": "https://live.staticflickr.com/65535/50039914642_0dac39960e_o.jpg",
    "id_image": "Galaxy_689592",
    "count_view": 0
  },
  {
    "link_thumb": "https://live.staticflickr.com/65535/50039320406_b79a1e6db5_n.jpg",
    "id_album": "523598895",
    "description": "Artistic_228785",
    "title": "Artistic_228785",
    "link_img": "https://live.staticflickr.com/65535/50039320406_86738a7c81_o.jpg",
    "id_image": "Artistic_228785",
    "count_view": 0
  },
  {
    "link_thumb": "https://live.staticflickr.com/65535/50039839628_42f9381d6b_n.jpg",
    "id_album": "779690680",
    "description": "Robot_884808",
    "title": "Robot_884808",
    "link_img": "https://live.staticflickr.com/65535/50039839628_ecac9bda29_o.jpg",
    "id_image": "Robot_884808",
    "count_view": 0
  },
  {
    "link_thumb": "https://live.staticflickr.com/65535/50039768486_d44883d0d6_n.jpg",
    "id_album": "-1610342324",
    "description": "Nebula_203964",
    "title": "Nebula_203964",
    "link_img": "https://live.staticflickr.com/65535/50039768486_1db6635367_o.jpg",
    "id_image": "Nebula_203964",
    "count_view": 0
  },
  {
    "link_thumb": "https://live.staticflickr.com/65535/50039759811_fd00a1da3c_n.jpg",
    "id_album": "-1610342324",
    "description": "Nebula_1002681",
    "title": "Nebula_1002681",
    "link_img": "https://live.staticflickr.com/65535/50039759811_fc2ba21b9f_o.jpg",
    "id_image": "Nebula_1002681",
    "count_view": 0
  },
  {
    "link_thumb": "https://live.staticflickr.com/65535/50040962733_5599a370f0_n.jpg",
    "id_album": "-1126835654",
    "description": "Women_275927",
    "title": "Women_275927",
    "link_img": "https://live.staticflickr.com/65535/50040962733_1cf49bd654_o.jpg",
    "id_image": "Women_275927",
    "count_view": 0
  },
  {
    "link_thumb": "https://live.staticflickr.com/65535/50039660096_6b29c75710_n.jpg",
    "id_album": "1402713104",
    "description": "Landscape_121896",
    "title": "Landscape_121896",
    "link_img": "https://live.staticflickr.com/65535/50039660096_582a5837ee_o.jpg",
    "id_image": "Landscape_121896",
    "count_view": 0
  },
  {
    "link_thumb": "https://live.staticflickr.com/65535/50040761967_7021796001_n.jpg",
    "id_album": "1613540653",
    "description": "Space_343744",
    "title": "Space_343744",
    "link_img": "https://live.staticflickr.com/65535/50040761967_bde2ca9c7f_o.jpg",
    "id_image": "Space_343744",
    "count_view": 0
  },
  {
    "link_thumb": "https://live.staticflickr.com/65535/50040122682_62979bc3d1_n.jpg",
    "id_album": "-1610342324",
    "description": "Nebula_981255",
    "title": "Nebula_981255",
    "link_img": "https://live.staticflickr.com/65535/50040122682_d9a08fb744_o.jpg",
    "id_image": "Nebula_981255",
    "count_view": 0
  },
  {
    "link_thumb": "https://live.staticflickr.com/65535/50039217468_86f8c91f7e_n.jpg",
    "id_album": "-1610342324",
    "description": "Nebula_196124",
    "title": "Nebula_196124",
    "link_img": "https://live.staticflickr.com/65535/50039217468_cf31812484_o.jpg",
    "id_image": "Nebula_196124",
    "count_view": 0
  },
  {
    "link_thumb": "https://live.staticflickr.com/65535/50039867783_23f14f5a24_n.jpg",
    "id_album": "779690680",
    "description": "Robot_928546",
    "title": "Robot_928546",
    "link_img": "https://live.staticflickr.com/65535/50039867783_7237550a22_o.jpg",
    "id_image": "Robot_928546",
    "count_view": 0
  },
  {
    "link_thumb": "https://live.staticflickr.com/65535/50038994998_1390e41f90_n.jpg",
    "id_album": "894679094",
    "description": "Collision_719901",
    "title": "Collision_719901",
    "link_img": "https://live.staticflickr.com/65535/50038994998_7048f29474_o.jpg",
    "id_image": "Collision_719901",
    "count_view": 0
  },
  {
    "link_thumb": "https://live.staticflickr.com/65535/50039793786_02fc753f0f_n.jpg",
    "id_album": "-1610342324",
    "description": "Nebula_413600",
    "title": "Nebula_413600",
    "link_img": "https://live.staticflickr.com/65535/50039793786_989b2a2762_o.jpg",
    "id_image": "Nebula_413600",
    "count_view": 0
  },
  {
    "link_thumb": "https://live.staticflickr.com/65535/50039841298_eb2ebd2254_n.jpg",
    "id_album": "779690680",
    "description": "Robot_886635",
    "title": "Robot_886635",
    "link_img": "https://live.staticflickr.com/65535/50039841298_32e33be649_o.jpg",
    "id_image": "Robot_886635",
    "count_view": 0
  },
  {
    "link_thumb": "https://live.staticflickr.com/65535/50039599297_3dcd2f160a_n.jpg",
    "id_album": "523598895",
    "description": "Artistic_474379",
    "title": "Artistic_474379",
    "link_img": "https://live.staticflickr.com/65535/50039599297_cfbc932599_o.jpg",
    "id_image": "Artistic_474379",
    "count_view": 0
  },
  {
    "link_thumb": "https://live.staticflickr.com/65535/50039226723_2e135bbcdc_n.jpg",
    "id_album": "-1610342324",
    "description": "Nebula_250434",
    "title": "Nebula_250434",
    "link_img": "https://live.staticflickr.com/65535/50039226723_62fb5b4cb1_o.jpg",
    "id_image": "Nebula_250434",
    "count_view": 0
  },
  {
    "link_thumb": "https://live.staticflickr.com/65535/50041572327_7791a5c289_n.jpg",
    "id_album": "1267121215",
    "description": "Steampunk_264131",
    "title": "Steampunk_264131",
    "link_img": "https://live.staticflickr.com/65535/50041572327_b1f3491341_o.jpg",
    "id_image": "Steampunk_264131",
    "count_view": 0
  },
  {
    "link_thumb": "https://live.staticflickr.com/65535/50039934901_aabe100fff_n.jpg",
    "id_album": "395161030",
    "description": "Planet_359430",
    "title": "Planet_359430",
    "link_img": "https://live.staticflickr.com/65535/50039934901_5c8b89e73e_o.jpg",
    "id_image": "Planet_359430",
    "count_view": 0
  },
  {
    "link_thumb": "https://live.staticflickr.com/65535/50039752501_3d0c3d7511_n.jpg",
    "id_album": "-1388385651",
    "description": "MilkyWay_925655",
    "title": "MilkyWay_925655",
    "link_img": "https://live.staticflickr.com/65535/50039752501_104bf3edf9_o.jpg",
    "id_image": "MilkyWay_925655",
    "count_view": 0
  },
  {
    "link_thumb": "https://live.staticflickr.com/65535/50039254213_37ba21fc4c_n.jpg",
    "id_album": "-1610342324",
    "description": "Nebula_523380",
    "title": "Nebula_523380",
    "link_img": "https://live.staticflickr.com/65535/50039254213_d1e4e405f6_o.jpg",
    "id_image": "Nebula_523380",
    "count_view": 0
  },
  {
    "link_thumb": "https://live.staticflickr.com/65535/50040920482_84fcda11e9_n.jpg",
    "id_album": "2130067313",
    "description": "Spaceship_333365",
    "title": "Spaceship_333365",
    "link_img": "https://live.staticflickr.com/65535/50040920482_f19e1ed2f9_o.jpg",
    "id_image": "Spaceship_333365",
    "count_view": 0
  },
  {
    "link_thumb": "https://live.staticflickr.com/65535/50039896482_18c26f40c5_n.jpg",
    "id_album": "1204249541",
    "description": "Galaxy_427590",
    "title": "Galaxy_427590",
    "link_img": "https://live.staticflickr.com/65535/50039896482_3cacfcbecc_o.jpg",
    "id_image": "Galaxy_427590",
    "count_view": 0
  },
  {
    "link_thumb": "https://live.staticflickr.com/65535/50041222271_93cdbe8db0_n.jpg",
    "id_album": "-1863373220",
    "description": "StarWars_771099",
    "title": "StarWars_771099",
    "link_img": "https://live.staticflickr.com/65535/50041222271_45f105dd8d_o.jpg",
    "id_image": "StarWars_771099",
    "count_view": 0
  },
  {
    "link_thumb": "https://live.staticflickr.com/65535/50039745177_a91d9259ed_n.jpg",
    "id_album": "-1964113117",
    "description": "City_649082",
    "title": "City_649082",
    "link_img": "https://live.staticflickr.com/65535/50039745177_1aa41f6bbd_o.jpg",
    "id_image": "City_649082",
    "count_view": 0
  },
  {
    "link_thumb": "https://live.staticflickr.com/65535/50041282851_33c2dae988_n.jpg",
    "id_album": "-1587696329",
    "description": "Stars_80996",
    "title": "Stars_80996",
    "link_img": "https://live.staticflickr.com/65535/50041282851_c449ce5833_o.jpg",
    "id_image": "Stars_80996",
    "count_view": 0
  },
  {
    "link_thumb": "https://live.staticflickr.com/65535/50039846823_b0ff9bd13a_n.jpg",
    "id_album": "779690680",
    "description": "Robot_901627",
    "title": "Robot_901627",
    "link_img": "https://live.staticflickr.com/65535/50039846823_563937f894_o.jpg",
    "id_image": "Robot_901627",
    "count_view": 0
  },
  {
    "link_thumb": "https://live.staticflickr.com/65535/50040472522_bd75eccb72_n.jpg",
    "id_album": "-482547208",
    "description": "PostApocalyptic_349008",
    "title": "PostApocalyptic_349008",
    "link_img": "https://live.staticflickr.com/65535/50040472522_b3c71bfa9a_o.jpg",
    "id_image": "PostApocalyptic_349008",
    "count_view": 0
  },
  {
    "link_thumb": "https://live.staticflickr.com/65535/50038856438_2e1bfc93f1_n.jpg",
    "id_album": "1187037014",
    "description": "Battle_602698",
    "title": "Battle_602698",
    "link_img": "https://live.staticflickr.com/65535/50038856438_a1d3c44d84_o.jpg",
    "id_image": "Battle_602698",
    "count_view": 0
  },
  {
    "link_thumb": "https://live.staticflickr.com/65535/50039818947_988c3e5e09_n.jpg",
    "id_album": "-437872736",
    "description": "Creature_488456",
    "title": "Creature_488456",
    "link_img": "https://live.staticflickr.com/65535/50039818947_eb21531874_o.jpg",
    "id_image": "Creature_488456",
    "count_view": 0
  },
  {
    "link_thumb": "https://live.staticflickr.com/65535/50041337091_2a6f885b09_n.jpg",
    "id_album": "1267121215",
    "description": "Steampunk_992541",
    "title": "Steampunk_992541",
    "link_img": "https://live.staticflickr.com/65535/50041337091_645e07d002_o.jpg",
    "id_image": "Steampunk_992541",
    "count_view": 0
  },
  {
    "link_thumb": "https://live.staticflickr.com/65535/50039099828_a6346993b3_n.jpg",
    "id_album": "1204249541",
    "description": "Galaxy_606891",
    "title": "Galaxy_606891",
    "link_img": "https://live.staticflickr.com/65535/50039099828_96d566a2a1_o.jpg",
    "id_image": "Galaxy_606891",
    "count_view": 0
  },
  {
    "link_thumb": "https://live.staticflickr.com/65535/50039291546_17e05e5747_n.jpg",
    "id_album": "523598895",
    "description": "Artistic_104388",
    "title": "Artistic_104388",
    "link_img": "https://live.staticflickr.com/65535/50039291546_a048058784_o.jpg",
    "id_image": "Artistic_104388",
    "count_view": 0
  },
  {
    "link_thumb": "https://live.staticflickr.com/65535/50038934653_544287118a_n.jpg",
    "id_album": "-1964113117",
    "description": "City_649176",
    "title": "City_649176",
    "link_img": "https://live.staticflickr.com/65535/50038934653_d003c25b98_o.jpg",
    "id_image": "City_649176",
    "count_view": 0
  },
  {
    "link_thumb": "https://live.staticflickr.com/65535/50039530577_796ed0aca4_n.jpg",
    "id_album": "849020728",
    "description": "Alien_512820",
    "title": "Alien_512820",
    "link_img": "https://live.staticflickr.com/65535/50039530577_d2143ed795_o.jpg",
    "id_image": "Alien_512820",
    "count_view": 0
  },
  {
    "link_thumb": "https://live.staticflickr.com/65535/50041377031_9191de9bea_n.jpg",
    "id_album": "2020068132",
    "description": "Vehicle_198980",
    "title": "Vehicle_198980",
    "link_img": "https://live.staticflickr.com/65535/50041377031_2269e598ce_o.jpg",
    "id_image": "Vehicle_198980",
    "count_view": 0
  },
  {
    "link_thumb": "https://live.staticflickr.com/65535/50040696033_075df50bcc_n.jpg",
    "id_album": "-1863373220",
    "description": "StarWars_980540",
    "title": "StarWars_980540",
    "link_img": "https://live.staticflickr.com/65535/50040696033_b2206976aa_o.jpg",
    "id_image": "StarWars_980540",
    "count_view": 0
  },
  {
    "link_thumb": "https://live.staticflickr.com/65535/50039571827_ffd30f86c3_n.jpg",
    "id_album": "523598895",
    "description": "Artistic_193500",
    "title": "Artistic_193500",
    "link_img": "https://live.staticflickr.com/65535/50039571827_d6c716f8de_o.jpg",
    "id_image": "Artistic_193500",
    "count_view": 0
  },
  {
    "link_thumb": "https://live.staticflickr.com/65535/50039919783_b56c278657_n.jpg",
    "id_album": "1613540653",
    "description": "Space_180954",
    "title": "Space_180954",
    "link_img": "https://live.staticflickr.com/65535/50039919783_813e4f88c9_o.jpg",
    "id_image": "Space_180954",
    "count_view": 0
  },
  {
    "link_thumb": "https://live.staticflickr.com/65535/50038746058_9c6b474123_n.jpg",
    "id_album": "523598895",
    "description": "Artistic_115150",
    "title": "Artistic_115150",
    "link_img": "https://live.staticflickr.com/65535/50038746058_3209216a41_o.jpg",
    "id_image": "Artistic_115150",
    "count_view": 0
  },
  {
    "link_thumb": "https://live.staticflickr.com/65535/50038964798_38de2c19f3_n.jpg",
    "id_album": "-1964113117",
    "description": "City_88912",
    "title": "City_88912",
    "link_img": "https://live.staticflickr.com/65535/50038964798_9c78289ef4_o.jpg",
    "id_image": "City_88912",
    "count_view": 0
  },
  {
    "link_thumb": "https://live.staticflickr.com/65535/50038702333_9a381608ef_n.jpg",
    "id_album": "849020728",
    "description": "Alien_179188",
    "title": "Alien_179188",
    "link_img": "https://live.staticflickr.com/65535/50038702333_6e06fe2c56_o.jpg",
    "id_image": "Alien_179188",
    "count_view": 0
  },
  {
    "link_thumb": "https://live.staticflickr.com/65535/50039415696_aa5a6048fe_n.jpg",
    "id_album": "-1780971522",
    "description": "Biohazard_49910",
    "title": "Biohazard_49910",
    "link_img": "https://live.staticflickr.com/65535/50039415696_da15f7f98a_o.jpg",
    "id_image": "Biohazard_49910",
    "count_view": 0
  },
  {
    "link_thumb": "https://live.staticflickr.com/65535/50039652537_ca5424085b_n.jpg",
    "id_album": "869545341",
    "description": "Astronaut_984725",
    "title": "Astronaut_984725",
    "link_img": "https://live.staticflickr.com/65535/50039652537_1528070dbd_o.jpg",
    "id_image": "Astronaut_984725",
    "count_view": 0
  },
  {
    "link_thumb": "https://live.staticflickr.com/65535/50041701302_63805c67d8_n.jpg",
    "id_album": "-1261420436",
    "description": "Warrior_253117",
    "title": "Warrior_253117",
    "link_img": "https://live.staticflickr.com/65535/50041701302_9bf50f9cbe_o.jpg",
    "id_image": "Warrior_253117",
    "count_view": 0
  },
  {
    "link_thumb": "https://live.staticflickr.com/65535/50039778981_889e3ee9f9_n.jpg",
    "id_album": "-1610342324",
    "description": "Nebula_264712",
    "title": "Nebula_264712",
    "link_img": "https://live.staticflickr.com/65535/50039778981_4cb3b871a2_o.jpg",
    "id_image": "Nebula_264712",
    "count_view": 0
  },
  {
    "link_thumb": "https://live.staticflickr.com/65535/50039536883_fffca836ca_n.jpg",
    "id_album": "-1102314093",
    "description": "Planets_335816",
    "title": "Planets_335816",
    "link_img": "https://live.staticflickr.com/65535/50039536883_c2bf9c3d75_o.jpg",
    "id_image": "Planets_335816",
    "count_view": 0
  },
  {
    "link_thumb": "https://live.staticflickr.com/65535/50039947592_2ce8e61052_n.jpg",
    "id_album": "1402713104",
    "description": "Landscape_375742",
    "title": "Landscape_375742",
    "link_img": "https://live.staticflickr.com/65535/50039947592_911a3a5f20_o.jpg",
    "id_image": "Landscape_375742",
    "count_view": 0
  },
  {
    "link_thumb": "https://live.staticflickr.com/65535/50038688203_b41ca3680f_n.jpg",
    "id_album": "-406145265",
    "description": "Aircraft_268367",
    "title": "Aircraft_268367",
    "link_img": "https://live.staticflickr.com/65535/50038688203_bd18441a15_o.jpg",
    "id_image": "Aircraft_268367",
    "count_view": 0
  },
  {
    "link_thumb": "https://live.staticflickr.com/65535/50040649322_b4c9047275_n.jpg",
    "id_album": "779690680",
    "description": "Robot_874032",
    "title": "Robot_874032",
    "link_img": "https://live.staticflickr.com/65535/50040649322_bbe3b787c9_o.jpg",
    "id_image": "Robot_874032",
    "count_view": 0
  },
  {
    "link_thumb": "https://live.staticflickr.com/65535/50041552641_4fe4c5682e_n.jpg",
    "id_album": "-1126835654",
    "description": "Women_981418",
    "title": "Women_981418",
    "link_img": "https://live.staticflickr.com/65535/50041552641_28700dc9a7_o.jpg",
    "id_image": "Women_981418",
    "count_view": 0
  },
  {
    "link_thumb": "https://live.staticflickr.com/65535/50039970022_51f08f1ac5_n.jpg",
    "id_album": "1402713104",
    "description": "Landscape_782626",
    "title": "Landscape_782626",
    "link_img": "https://live.staticflickr.com/65535/50039970022_ee5b71364e_o.jpg",
    "id_image": "Landscape_782626",
    "count_view": 0
  },
  {
    "link_thumb": "https://live.staticflickr.com/65535/50039874433_f90047f51f_n.jpg",
    "id_album": "779690680",
    "description": "Robot_931798",
    "title": "Robot_931798",
    "link_img": "https://live.staticflickr.com/65535/50039874433_f233546d15_o.jpg",
    "id_image": "Robot_931798",
    "count_view": 0
  },
  {
    "link_thumb": "https://live.staticflickr.com/65535/50040390431_032ef1442b_n.jpg",
    "id_album": "779690680",
    "description": "Robot_881753",
    "title": "Robot_881753",
    "link_img": "https://live.staticflickr.com/65535/50040390431_fcc4befd2e_o.jpg",
    "id_image": "Robot_881753",
    "count_view": 0
  },
  {
    "link_thumb": "https://live.staticflickr.com/65535/50041385686_2574c6d56f_n.jpg",
    "id_album": "2020068132",
    "description": "Vehicle_304664",
    "title": "Vehicle_304664",
    "link_img": "https://live.staticflickr.com/65535/50041385686_54edee4cc4_o.jpg",
    "id_image": "Vehicle_304664",
    "count_view": 0
  },
  {
    "link_thumb": "https://live.staticflickr.com/65535/50039212978_4775243735_n.jpg",
    "id_album": "-1610342324",
    "description": "Nebula_113347",
    "title": "Nebula_113347",
    "link_img": "https://live.staticflickr.com/65535/50039212978_6439774838_o.jpg",
    "id_image": "Nebula_113347",
    "count_view": 0
  },
  {
    "link_thumb": "https://live.staticflickr.com/65535/50041284241_f895027b11_n.jpg",
    "id_album": "-1587696329",
    "description": "Stars_956500",
    "title": "Stars_956500",
    "link_img": "https://live.staticflickr.com/65535/50041284241_2eb4a3c529_o.jpg",
    "id_image": "Stars_956500",
    "count_view": 0
  },
  {
    "link_thumb": "https://live.staticflickr.com/65535/50040651762_224a9fd542_n.jpg",
    "id_album": "779690680",
    "description": "Robot_877233",
    "title": "Robot_877233",
    "link_img": "https://live.staticflickr.com/65535/50040651762_deeaf78401_o.jpg",
    "id_image": "Robot_877233",
    "count_view": 0
  },
  {
    "link_thumb": "https://live.staticflickr.com/65535/50039888817_2774ec4698_n.jpg",
    "id_album": "1204249541",
    "description": "Galaxy_196794",
    "title": "Galaxy_196794",
    "link_img": "https://live.staticflickr.com/65535/50039888817_1c9ab2f884_o.jpg",
    "id_image": "Galaxy_196794",
    "count_view": 0
  },
  {
    "link_thumb": "https://live.staticflickr.com/65535/50039764576_fc9951e53d_n.jpg",
    "id_album": "-1610342324",
    "description": "Nebula_175208",
    "title": "Nebula_175208",
    "link_img": "https://live.staticflickr.com/65535/50039764576_da55c34015_o.jpg",
    "id_image": "Nebula_175208",
    "count_view": 0
  },
  {
    "link_thumb": "https://live.staticflickr.com/65535/50040066667_ed06193206_n.jpg",
    "id_album": "-1610342324",
    "description": "Nebula_509987",
    "title": "Nebula_509987",
    "link_img": "https://live.staticflickr.com/65535/50040066667_8ee1a55d4e_o.jpg",
    "id_image": "Nebula_509987",
    "count_view": 0
  },
  {
    "link_thumb": "https://live.staticflickr.com/65535/50039905061_9805104031_n.jpg",
    "id_album": "395161030",
    "description": "Planet_140189",
    "title": "Planet_140189",
    "link_img": "https://live.staticflickr.com/65535/50039905061_12c871aa1c_o.jpg",
    "id_image": "Planet_140189",
    "count_view": 0
  },
  {
    "link_thumb": "https://live.staticflickr.com/65535/50039256783_c8c6359705_n.jpg",
    "id_album": "-1610342324",
    "description": "Nebula_546024",
    "title": "Nebula_546024",
    "link_img": "https://live.staticflickr.com/65535/50039256783_e8b91ce5e8_o.jpg",
    "id_image": "Nebula_546024",
    "count_view": 0
  },
  {
    "link_thumb": "https://live.staticflickr.com/65535/50040042503_6e2433f607_n.jpg",
    "id_album": "2130067313",
    "description": "Spaceship_195156",
    "title": "Spaceship_195156",
    "link_img": "https://live.staticflickr.com/65535/50040042503_dc4f3bf7d9_o.jpg",
    "id_image": "Spaceship_195156",
    "count_view": 0
  },
  {
    "link_thumb": "https://live.staticflickr.com/65535/50040182446_203b375be2_n.jpg",
    "id_album": "376235057",
    "description": "Planetscape_860677",
    "title": "Planetscape_860677",
    "link_img": "https://live.staticflickr.com/65535/50040182446_564dbe4e4f_o.jpg",
    "id_image": "Planetscape_860677",
    "count_view": 0
  },
  {
    "link_thumb": "https://live.staticflickr.com/65535/50039360351_208a78cdb7_n.jpg",
    "id_album": "869545341",
    "description": "Astronaut_597456",
    "title": "Astronaut_597456",
    "link_img": "https://live.staticflickr.com/65535/50039360351_83842217d3_o.jpg",
    "id_image": "Astronaut_597456",
    "count_view": 0
  },
  {
    "link_thumb": "https://live.staticflickr.com/65535/50039889536_818c2935dd_n.jpg",
    "id_album": "-1862561193",
    "description": "Other_308642",
    "title": "Other_308642",
    "link_img": "https://live.staticflickr.com/65535/50039889536_5cb3ec9076_o.jpg",
    "id_image": "Other_308642",
    "count_view": 0
  },
  {
    "link_thumb": "https://live.staticflickr.com/65535/50039530871_6354d8ddaf_n.jpg",
    "id_album": "-1964113117",
    "description": "City_977581",
    "title": "City_977581",
    "link_img": "https://live.staticflickr.com/65535/50039530871_3cfa61ce23_o.jpg",
    "id_image": "City_977581",
    "count_view": 0
  },
  {
    "link_thumb": "https://live.staticflickr.com/65535/50038756353_65d0221b50_n.jpg",
    "id_album": "523598895",
    "description": "Artistic_175402",
    "title": "Artistic_175402",
    "link_img": "https://live.staticflickr.com/65535/50038756353_d373bc7fcd_o.jpg",
    "id_image": "Artistic_175402",
    "count_view": 0
  },
  {
    "link_thumb": "https://live.staticflickr.com/65535/50039294316_0ffaaeee83_n.jpg",
    "id_album": "523598895",
    "description": "Artistic_116011",
    "title": "Artistic_116011",
    "link_img": "https://live.staticflickr.com/65535/50039294316_c491bf2d23_o.jpg",
    "id_image": "Artistic_116011",
    "count_view": 0
  },
  {
    "link_thumb": "https://live.staticflickr.com/65535/50038731208_ce6ef590e4_n.jpg",
    "id_album": "-419633230",
    "description": "Apocalyptic_145957",
    "title": "Apocalyptic_145957",
    "link_img": "https://live.staticflickr.com/65535/50038731208_0f259713f9_o.jpg",
    "id_image": "Apocalyptic_145957",
    "count_view": 0
  },
  {
    "link_thumb": "https://live.staticflickr.com/65535/50040646276_1248a7e528_n.jpg",
    "id_album": "2130067313",
    "description": "Spaceship_314362",
    "title": "Spaceship_314362",
    "link_img": "https://live.staticflickr.com/65535/50040646276_61e0b0bbc9_o.jpg",
    "id_image": "Spaceship_314362",
    "count_view": 0
  },
  {
    "link_thumb": "https://live.staticflickr.com/65535/50039409551_08cc203cb5_n.jpg",
    "id_album": "1187037014",
    "description": "Battle_957840",
    "title": "Battle_957840",
    "link_img": "https://live.staticflickr.com/65535/50039409551_9689f6cf46_o.jpg",
    "id_image": "Battle_957840",
    "count_view": 0
  },
  {
    "link_thumb": "https://live.staticflickr.com/65535/50040442596_9a60f16c18_n.jpg",
    "id_album": "779690680",
    "description": "Robot_949797",
    "title": "Robot_949797",
    "link_img": "https://live.staticflickr.com/65535/50040442596_2557fb0c85_o.jpg",
    "id_image": "Robot_949797",
    "count_view": 0
  },
  {
    "link_thumb": "https://live.staticflickr.com/65535/50041393292_b14fc76116_n.jpg",
    "id_album": "-1863373220",
    "description": "StarWars_214974",
    "title": "StarWars_214974",
    "link_img": "https://live.staticflickr.com/65535/50041393292_3229508a2a_o.jpg",
    "id_image": "StarWars_214974",
    "count_view": 0
  },
  {
    "link_thumb": "https://live.staticflickr.com/65535/50040452672_fd861f117a_n.jpg",
    "id_album": "-482547208",
    "description": "PostApocalyptic_103035",
    "title": "PostApocalyptic_103035",
    "link_img": "https://live.staticflickr.com/65535/50040452672_0ef2490ebb_o.jpg",
    "id_image": "PostApocalyptic_103035",
    "count_view": 0
  },
  {
    "link_thumb": "https://live.staticflickr.com/65535/50039220708_589d06abed_n.jpg",
    "id_album": "-1610342324",
    "description": "Nebula_211858",
    "title": "Nebula_211858",
    "link_img": "https://live.staticflickr.com/65535/50039220708_e3530b0e4d_o.jpg",
    "id_image": "Nebula_211858",
    "count_view": 0
  },
  {
    "link_thumb": "https://live.staticflickr.com/65535/50040298947_6bfb3b0494_n.jpg",
    "id_album": "814701616",
    "description": "PlanetaryRing_514552",
    "title": "PlanetaryRing_514552",
    "link_img": "https://live.staticflickr.com/65535/50040298947_e0d0d78fb2_o.jpg",
    "id_image": "PlanetaryRing_514552",
    "count_view": 0
  },
  {
    "link_thumb": "https://live.staticflickr.com/65535/50040440931_4745750198_n.jpg",
    "id_album": "779690680",
    "description": "Robot_949787",
    "title": "Robot_949787",
    "link_img": "https://live.staticflickr.com/65535/50040440931_540a47af11_o.jpg",
    "id_image": "Robot_949787",
    "count_view": 0
  },
  {
    "link_thumb": "https://live.staticflickr.com/65535/50039833666_0b000b1444_n.jpg",
    "id_album": "-1610342324",
    "description": "Nebula_772691",
    "title": "Nebula_772691",
    "link_img": "https://live.staticflickr.com/65535/50039833666_9154b611fe_o.jpg",
    "id_image": "Nebula_772691",
    "count_view": 0
  },
  {
    "link_thumb": "https://live.staticflickr.com/65535/50040550401_a256e568cc_n.jpg",
    "id_album": "1613540653",
    "description": "Space_910213",
    "title": "Space_910213",
    "link_img": "https://live.staticflickr.com/65535/50040550401_a5e1c3613a_o.jpg",
    "id_image": "Space_910213",
    "count_view": 0
  },
  {
    "link_thumb": "https://live.staticflickr.com/65535/50039504838_ce43fedb6a_n.jpg",
    "id_album": "-1102314093",
    "description": "Planets_197717",
    "title": "Planets_197717",
    "link_img": "https://live.staticflickr.com/65535/50039504838_e9d7a5bfc3_o.jpg",
    "id_image": "Planets_197717",
    "count_view": 0
  },
  {
    "link_thumb": "https://live.staticflickr.com/65535/50039232348_d74b4b3d65_n.jpg",
    "id_album": "-1610342324",
    "description": "Nebula_286361",
    "title": "Nebula_286361",
    "link_img": "https://live.staticflickr.com/65535/50039232348_ff8b90bf49_o.jpg",
    "id_image": "Nebula_286361",
    "count_view": 0
  },
  {
    "link_thumb": "https://live.staticflickr.com/65535/50040611483_7b5761554a_n.jpg",
    "id_album": "-1863373220",
    "description": "StarWars_320291",
    "title": "StarWars_320291",
    "link_img": "https://live.staticflickr.com/65535/50040611483_1ed0a76c7c_o.jpg",
    "id_image": "StarWars_320291",
    "count_view": 0
  },
  {
    "link_thumb": "https://live.staticflickr.com/65535/50039925808_072fc40b6a_n.jpg",
    "id_album": "1613540653",
    "description": "Space_217722",
    "title": "Space_217722",
    "link_img": "https://live.staticflickr.com/65535/50039925808_15237d765f_o.jpg",
    "id_image": "Space_217722",
    "count_view": 0
  },
  {
    "link_thumb": "https://live.staticflickr.com/65535/50040327887_367a68787f_n.jpg",
    "id_album": "-1102314093",
    "description": "Planets_242673",
    "title": "Planets_242673",
    "link_img": "https://live.staticflickr.com/65535/50040327887_3640b3ddeb_o.jpg",
    "id_image": "Planets_242673",
    "count_view": 0
  },
  {
    "link_thumb": "https://live.staticflickr.com/65535/50040678642_7f228dc9ea_n.jpg",
    "id_album": "779690680",
    "description": "Robot_917194",
    "title": "Robot_917194",
    "link_img": "https://live.staticflickr.com/65535/50040678642_28ee7033fd_o.jpg",
    "id_image": "Robot_917194",
    "count_view": 0
  },
  {
    "link_thumb": "https://live.staticflickr.com/65535/50040377632_b6b2c45f16_n.jpg",
    "id_album": "-1102314093",
    "description": "Planets_425734",
    "title": "Planets_425734",
    "link_img": "https://live.staticflickr.com/65535/50040377632_01c2fff44e_o.jpg",
    "id_image": "Planets_425734",
    "count_view": 0
  },
  {
    "link_thumb": "https://live.staticflickr.com/65535/50040141242_b78363f3c9_n.jpg",
    "id_album": "1402713104",
    "description": "Landscape_319082",
    "title": "Landscape_319082",
    "link_img": "https://live.staticflickr.com/65535/50040141242_54783b3160_o.jpg",
    "id_image": "Landscape_319082",
    "count_view": 0
  },
  {
    "link_thumb": "https://live.staticflickr.com/65535/50039192698_40fca0783d_n.jpg",
    "id_album": "-1388385651",
    "description": "MilkyWay_707636",
    "title": "MilkyWay_707636",
    "link_img": "https://live.staticflickr.com/65535/50039192698_c695bcae08_o.jpg",
    "id_image": "MilkyWay_707636",
    "count_view": 0
  }
]