[
  {
    "link_thumb": "https://live.staticflickr.com/65535/50039647438_fc7f3a1f02_n.jpg",
    "id_album": "-482547208",
    "description": "PostApocalyptic_239848",
    "title": "PostApocalyptic_239848",
    "link_img": "https://live.staticflickr.com/65535/50039647438_817d5f98aa_o.jpg",
    "id_image": "PostApocalyptic_239848",
    "count_view": 0
  },
  {
    "link_thumb": "https://live.staticflickr.com/65535/50039459596_dbb75d44b5_n.jpg",
    "id_album": "-1964113117",
    "description": "City_291957",
    "title": "City_291957",
    "link_img": "https://live.staticflickr.com/65535/50039459596_91b31e3813_o.jpg",
    "id_image": "City_291957",
    "count_view": 0
  },
  {
    "link_thumb": "https://live.staticflickr.com/65535/50039739627_bf2bd9defe_n.jpg",
    "id_album": "-1964113117",
    "description": "City_550166",
    "title": "City_550166",
    "link_img": "https://live.staticflickr.com/65535/50039739627_4841f7527f_o.jpg",
    "id_image": "City_550166",
    "count_view": 0
  },
  {
    "link_thumb": "https://live.staticflickr.com/65535/50039357641_19f6e66e65_n.jpg",
    "id_album": "869545341",
    "description": "Astronaut_557605",
    "title": "Astronaut_557605",
    "link_img": "https://live.staticflickr.com/65535/50039357641_9b0ea19074_o.jpg",
    "id_image": "Astronaut_557605",
    "count_view": 0
  },
  {
    "link_thumb": "https://live.staticflickr.com/65535/50039562053_c3a5d5f5dc_n.jpg",
    "id_album": "-1102314093",
    "description": "Planets_419633",
    "title": "Planets_419633",
    "link_img": "https://live.staticflickr.com/65535/50039562053_5891c1ea8f_o.jpg",
    "id_image": "Planets_419633",
    "count_view": 0
  },
  {
    "link_thumb": "https://live.staticflickr.com/65535/50039942826_30ac635686_n.jpg",
    "id_album": "395161030",
    "description": "Planet_379336",
    "title": "Planet_379336",
    "link_img": "https://live.staticflickr.com/65535/50039942826_c499f2f1e8_o.jpg",
    "id_image": "Planet_379336",
    "count_view": 0
  },
  {
    "link_thumb": "https://live.staticflickr.com/65535/50040680457_561c542f3a_n.jpg",
    "id_album": "779690680",
    "description": "Robot_918801",
    "title": "Robot_918801",
    "link_img": "https://live.staticflickr.com/65535/50040680457_b4bb704eb9_o.jpg",
    "id_image": "Robot_918801",
    "count_view": 0
  },
  {
    "link_thumb": "https://live.staticflickr.com/65535/50039691817_1af984796d_n.jpg",
    "id_album": "406431601",
    "description": "Building_980250",
    "title": "Building_980250",
    "link_img": "https://live.staticflickr.com/65535/50039691817_dbec10657d_o.jpg",
    "id_image": "Building_980250",
    "count_view": 0
  },
  {
    "link_thumb": "https://live.staticflickr.com/65535/50039803456_4c3d1233fd_n.jpg",
    "id_album": "-1610342324",
    "description": "Nebula_525901",
    "title": "Nebula_525901",
    "link_img": "https://live.staticflickr.com/65535/50039803456_996460d13b_o.jpg",
    "id_image": "Nebula_525901",
    "count_view": 0
  },
  {
    "link_thumb": "https://live.staticflickr.com/65535/50039809592_0ba515fa99_n.jpg",
    "id_album": "-437872736",
    "description": "Creature_269297",
    "title": "Creature_269297",
    "link_img": "https://live.staticflickr.com/65535/50039809592_b980ac0032_o.jpg",
    "id_image": "Creature_269297",
    "count_view": 0
  },
  {
    "link_thumb": "https://live.staticflickr.com/65535/50041853547_ac3f84ac2c_n.jpg",
    "id_album": "-1675918237",
    "description": "WomenWarrior_970141",
    "title": "WomenWarrior_970141",
    "link_img": "https://live.staticflickr.com/65535/50041853547_1b9794e31c_o.jpg",
    "id_image": "WomenWarrior_970141",
    "count_view": 0
  },
  {
    "link_thumb": "https://live.staticflickr.com/65535/50040134511_88139c0339_n.jpg",
    "id_album": "-1102314093",
    "description": "Planets_77408",
    "title": "Planets_77408",
    "link_img": "https://live.staticflickr.com/65535/50040134511_0ee46cc8f0_o.jpg",
    "id_image": "Planets_77408",
    "count_view": 0
  },
  {
    "link_thumb": "https://live.staticflickr.com/65535/50039377681_a847bdf211_n.jpg",
    "id_album": "869545341",
    "description": "Astronaut_914142",
    "title": "Astronaut_914142",
    "link_img": "https://live.staticflickr.com/65535/50039377681_977b4b17cc_o.jpg",
    "id_image": "Astronaut_914142",
    "count_view": 0
  },
  {
    "link_thumb": "https://live.staticflickr.com/65535/50039533847_50b512d823_n.jpg",
    "id_album": "849020728",
    "description": "Alien_601517",
    "title": "Alien_601517",
    "link_img": "https://live.staticflickr.com/65535/50039533847_5773e9b983_o.jpg",
    "id_image": "Alien_601517",
    "count_view": 0
  },
  {
    "link_thumb": "https://live.staticflickr.com/65535/50039371826_8b8a1a0d4a_n.jpg",
    "id_album": "869545341",
    "description": "Astronaut_857743",
    "title": "Astronaut_857743",
    "link_img": "https://live.staticflickr.com/65535/50039371826_6204000759_o.jpg",
    "id_image": "Astronaut_857743",
    "count_view": 0
  },
  {
    "link_thumb": "https://live.staticflickr.com/65535/50039523216_8aee033607_n.jpg",
    "id_album": "-1964113117",
    "description": "City_930299",
    "title": "City_930299",
    "link_img": "https://live.staticflickr.com/65535/50039523216_0f0700fbda_o.jpg",
    "id_image": "City_930299",
    "count_view": 0
  },
  {
    "link_thumb": "https://live.staticflickr.com/65535/50039643182_287fdbc577_n.jpg",
    "id_album": "869545341",
    "description": "Astronaut_923969",
    "title": "Astronaut_923969",
    "link_img": "https://live.staticflickr.com/65535/50039643182_36169e3746_o.jpg",
    "id_image": "Astronaut_923969",
    "count_view": 0
  },
  {
    "link_thumb": "https://live.staticflickr.com/65535/50038882558_362449b37c_n.jpg",
    "id_album": "-1964113117",
    "description": "City_103434",
    "title": "City_103434",
    "link_img": "https://live.staticflickr.com/65535/50038882558_7f4069d14d_o.jpg",
    "id_image": "City_103434",
    "count_view": 0
  },
  {
    "link_thumb": "https://live.staticflickr.com/65535/50040153753_144050b1e8_n.jpg",
    "id_album": "2130067313",
    "description": "Spaceship_528589",
    "title": "Spaceship_528589",
    "link_img": "https://live.staticflickr.com/65535/50040153753_72358b2687_o.jpg",
    "id_image": "Spaceship_528589",
    "count_view": 0
  },
  {
    "link_thumb": "https://live.staticflickr.com/65535/50039295718_035cfb1ac7_n.jpg",
    "id_album": "-1610342324",
    "description": "Nebula_864570",
    "title": "Nebula_864570",
    "link_img": "https://live.staticflickr.com/65535/50039295718_18b1f45c9a_o.jpg",
    "id_image": "Nebula_864570",
    "count_view": 0
  },
  {
    "link_thumb": "https://live.staticflickr.com/65535/50040787553_48e7b741ea_n.jpg",
    "id_album": "-221671103",
    "description": "Sun_234855",
    "title": "Sun_234855",
    "link_img": "https://live.staticflickr.com/65535/50040787553_95d77f427b_o.jpg",
    "id_image": "Sun_234855",
    "count_view": 0
  },
  {
    "link_thumb": "https://live.staticflickr.com/65535/50039287176_19abcdd680_n.jpg",
    "id_album": "-419633230",
    "description": "Apocalyptic_716245",
    "title": "Apocalyptic_716245",
    "link_img": "https://live.staticflickr.com/65535/50039287176_15c40e686d_o.jpg",
    "id_image": "Apocalyptic_716245",
    "count_view": 0
  },
  {
    "link_thumb": "https://live.staticflickr.com/65535/50040200352_9209c10269_n.jpg",
    "id_album": "395161030",
    "description": "Planet_357811",
    "title": "Planet_357811",
    "link_img": "https://live.staticflickr.com/65535/50040200352_72dd4582d3_o.jpg",
    "id_image": "Planet_357811",
    "count_view": 0
  },
  {
    "link_thumb": "https://live.staticflickr.com/65535/50041511677_d3a59a28c1_n.jpg",
    "id_album": "-1863373220",
    "description": "StarWars_980524",
    "title": "StarWars_980524",
    "link_img": "https://live.staticflickr.com/65535/50041511677_e581f381df_o.jpg",
    "id_image": "StarWars_980524",
    "count_view": 0
  },
  {
    "link_thumb": "https://live.staticflickr.com/65535/50041719902_cbb29a169e_n.jpg",
    "id_album": "-1261420436",
    "description": "Warrior_393645",
    "title": "Warrior_393645",
    "link_img": "https://live.staticflickr.com/65535/50041719902_78a94b522a_o.jpg",
    "id_image": "Warrior_393645",
    "count_view": 0
  },
  {
    "link_thumb": "https://live.staticflickr.com/65535/50039660976_09abfcef3a_n.jpg",
    "id_album": "1402713104",
    "description": "Landscape_151181",
    "title": "Landscape_151181",
    "link_img": "https://live.staticflickr.com/65535/50039660976_fe25dbff0c_o.jpg",
    "id_image": "Landscape_151181",
    "count_view": 0
  },
  {
    "link_thumb": "https://live.staticflickr.com/65535/50040398111_4fd9fa165f_n.jpg",
    "id_album": "779690680",
    "description": "Robot_898627",
    "title": "Robot_898627",
    "link_img": "https://live.staticflickr.com/65535/50040398111_844e13fc84_o.jpg",
    "id_image": "Robot_898627",
    "count_view": 0
  },
  {
    "link_thumb": "https://live.staticflickr.com/65535/50040975572_c3133cb669_n.jpg",
    "id_album": "2130067313",
    "description": "Spaceship_533750",
    "title": "Spaceship_533750",
    "link_img": "https://live.staticflickr.com/65535/50040975572_49432cf740_o.jpg",
    "id_image": "Spaceship_533750",
    "count_view": 0
  },
  {
    "link_thumb": "https://live.staticflickr.com/65535/50039397681_7323c81070_n.jpg",
    "id_album": "1187037014",
    "description": "Battle_248738",
    "title": "Battle_248738",
    "link_img": "https://live.staticflickr.com/65535/50039397681_c6b939b556_o.jpg",
    "id_image": "Battle_248738",
    "count_view": 0
  },
  {
    "link_thumb": "https://live.staticflickr.com/65535/50039505287_bd61cca65b_n.jpg",
    "id_album": "849020728",
    "description": "Alien_1011232",
    "title": "Alien_1011232",
    "link_img": "https://live.staticflickr.com/65535/50039505287_d42de51647_o.jpg",
    "id_image": "Alien_1011232",
    "count_view": 0
  },
  {
    "link_thumb": "https://live.staticflickr.com/65535/50041161721_58149597fb_n.jpg",
    "id_album": "-1863373220",
    "description": "StarWars_296352",
    "title": "StarWars_296352",
    "link_img": "https://live.staticflickr.com/65535/50041161721_f1f30c731a_o.jpg",
    "id_image": "StarWars_296352",
    "count_view": 0
  },
  {
    "link_thumb": "https://live.staticflickr.com/65535/50039879332_677638388d_n.jpg",
    "id_album": "2104507156",
    "description": "Fantasy_162713",
    "title": "Fantasy_162713",
    "link_img": "https://live.staticflickr.com/65535/50039879332_9441f0ff7b_o.jpg",
    "id_image": "Fantasy_162713",
    "count_view": 0
  },
  {
    "link_thumb": "https://live.staticflickr.com/65535/50039913597_74a71203a1_n.jpg",
    "id_album": "1204249541",
    "description": "Galaxy_685054",
    "title": "Galaxy_685054",
    "link_img": "https://live.staticflickr.com/65535/50039913597_27abd9c2c6_o.jpg",
    "id_image": "Galaxy_685054",
    "count_view": 0
  },
  {
    "link_thumb": "https://live.staticflickr.com/65535/50039601642_21da17e7b6_n.jpg",
    "id_album": "523598895",
    "description": "Artistic_593706",
    "title": "Artistic_593706",
    "link_img": "https://live.staticflickr.com/65535/50039601642_263c81dc07_o.jpg",
    "id_image": "Artistic_593706",
    "count_view": 0
  },
  {
    "link_thumb": "https://live.staticflickr.com/65535/50039395206_2948d9cc40_n.jpg",
    "id_album": "1187037014",
    "description": "Battle_173806",
    "title": "Battle_173806",
    "link_img": "https://live.staticflickr.com/65535/50039395206_f65349ac5a_o.jpg",
    "id_image": "Battle_173806",
    "count_view": 0
  },
  {
    "link_thumb": "https://live.staticflickr.com/65535/50041843017_89dbc1c09d_n.jpg",
    "id_album": "-1675918237",
    "description": "WomenWarrior_584726",
    "title": "WomenWarrior_584726",
    "link_img": "https://live.staticflickr.com/65535/50041843017_d9fdbe7036_o.jpg",
    "id_image": "WomenWarrior_584726",
    "count_view": 0
  },
  {
    "link_thumb": "https://live.staticflickr.com/65535/50039942297_4657322142_n.jpg",
    "id_album": "1402713104",
    "description": "Landscape_332267",
    "title": "Landscape_332267",
    "link_img": "https://live.staticflickr.com/65535/50039942297_d1aa51fc07_o.jpg",
    "id_image": "Landscape_332267",
    "count_view": 0
  },
  {
    "link_thumb": "https://live.staticflickr.com/65535/50039410471_c97a3fb773_n.jpg",
    "id_album": "-1780971522",
    "description": "Biohazard_10386",
    "title": "Biohazard_10386",
    "link_img": "https://live.staticflickr.com/65535/50039410471_99b60198a8_o.jpg",
    "id_image": "Biohazard_10386",
    "count_view": 0
  },
  {
    "link_thumb": "https://live.staticflickr.com/65535/50038773458_4cefce4386_n.jpg",
    "id_album": "523598895",
    "description": "Artistic_235986",
    "title": "Artistic_235986",
    "link_img": "https://live.staticflickr.com/65535/50038773458_360708f9c9_o.jpg",
    "id_image": "Artistic_235986",
    "count_view": 0
  },
  {
    "link_thumb": "https://live.staticflickr.com/65535/50039699812_a360930b74_n.jpg",
    "id_album": "-1964113117",
    "description": "City_156371",
    "title": "City_156371",
    "link_img": "https://live.staticflickr.com/65535/50039699812_04627277bc_o.jpg",
    "id_image": "City_156371",
    "count_view": 0
  },
  {
    "link_thumb": "https://live.staticflickr.com/65535/50038871963_54039a5527_n.jpg",
    "id_album": "406431601",
    "description": "Building_209401",
    "title": "Building_209401",
    "link_img": "https://live.staticflickr.com/65535/50038871963_b62fbc703b_o.jpg",
    "id_image": "Building_209401",
    "count_view": 0
  },
  {
    "link_thumb": "https://live.staticflickr.com/65535/50040652212_0d8182071e_n.jpg",
    "id_album": "779690680",
    "description": "Robot_877464",
    "title": "Robot_877464",
    "link_img": "https://live.staticflickr.com/65535/50040652212_dd1dd37024_o.jpg",
    "id_image": "Robot_877464",
    "count_view": 0
  },
  {
    "link_thumb": "https://live.staticflickr.com/65535/50039939046_99834d90b9_n.jpg",
    "id_album": "395161030",
    "description": "Planet_374641",
    "title": "Planet_374641",
    "link_img": "https://live.staticflickr.com/65535/50039939046_18e6a69cd3_o.jpg",
    "id_image": "Planet_374641",
    "count_view": 0
  },
  {
    "link_thumb": "https://live.staticflickr.com/65535/50041217851_3fea386a18_n.jpg",
    "id_album": "-1863373220",
    "description": "StarWars_711018",
    "title": "StarWars_711018",
    "link_img": "https://live.staticflickr.com/65535/50041217851_af92c3eef6_o.jpg",
    "id_image": "StarWars_711018",
    "count_view": 0
  },
  {
    "link_thumb": "https://live.staticflickr.com/65535/50040286386_59f1ec3ae1_n.jpg",
    "id_album": "779690680",
    "description": "Robot_309940",
    "title": "Robot_309940",
    "link_img": "https://live.staticflickr.com/65535/50040286386_efa91b9ed3_o.jpg",
    "id_image": "Robot_309940",
    "count_view": 0
  },
  {
    "link_thumb": "https://live.staticflickr.com/65535/50039657407_9efa65a15d_n.jpg",
    "id_album": "1187037014",
    "description": "Battle_162711",
    "title": "Battle_162711",
    "link_img": "https://live.staticflickr.com/65535/50039657407_79ae1382df_o.jpg",
    "id_image": "Battle_162711",
    "count_view": 0
  },
  {
    "link_thumb": "https://live.staticflickr.com/65535/50040805558_25f219b994_n.jpg",
    "id_album": "-1177476763",
    "description": "Sunrise_324573",
    "title": "Sunrise_324573",
    "link_img": "https://live.staticflickr.com/65535/50040805558_c69c8b6078_o.jpg",
    "id_image": "Sunrise_324573",
    "count_view": 0
  },
  {
    "link_thumb": "https://live.staticflickr.com/65535/50039764786_20d3a20b89_n.jpg",
    "id_album": "-1610342324",
    "description": "Nebula_175986",
    "title": "Nebula_175986",
    "link_img": "https://live.staticflickr.com/65535/50039764786_be662b4df9_o.jpg",
    "id_image": "Nebula_175986",
    "count_view": 0
  },
  {
    "link_thumb": "https://live.staticflickr.com/65535/50039783471_07be10e97a_n.jpg",
    "id_album": "-1610342324",
    "description": "Nebula_289247",
    "title": "Nebula_289247",
    "link_img": "https://live.staticflickr.com/65535/50039783471_44680fd528_o.jpg",
    "id_image": "Nebula_289247",
    "count_view": 0
  },
  {
    "link_thumb": "https://live.staticflickr.com/65535/50039533161_8c3a5bf048_n.jpg",
    "id_album": "-1964113117",
    "description": "City_992759",
    "title": "City_992759",
    "link_img": "https://live.staticflickr.com/65535/50039533161_fec4689f84_o.jpg",
    "id_image": "City_992759",
    "count_view": 0
  },
  {
    "link_thumb": "https://live.staticflickr.com/65535/50039838873_d36fd853fc_n.jpg",
    "id_album": "779690680",
    "description": "Robot_883164",
    "title": "Robot_883164",
    "link_img": "https://live.staticflickr.com/65535/50039838873_b498581d33_o.jpg",
    "id_image": "Robot_883164",
    "count_view": 0
  },
  {
    "link_thumb": "https://live.staticflickr.com/65535/50039582048_f3f4fe5375_n.jpg",
    "id_album": "-1102314093",
    "description": "Planets_75642",
    "title": "Planets_75642",
    "link_img": "https://live.staticflickr.com/65535/50039582048_9a9eb641c9_o.jpg",
    "id_image": "Planets_75642",
    "count_view": 0
  },
  {
    "link_thumb": "https://live.staticflickr.com/65535/50039952366_cbba71fa9f_n.jpg",
    "id_album": "395161030",
    "description": "Planet_476253",
    "title": "Planet_476253",
    "link_img": "https://live.staticflickr.com/65535/50039952366_7b676e320b_o.jpg",
    "id_image": "Planet_476253",
    "count_view": 0
  },
  {
    "link_thumb": "https://live.staticflickr.com/65535/50039614182_ecbb5986d6_n.jpg",
    "id_album": "869545341",
    "description": "Astronaut_238542",
    "title": "Astronaut_238542",
    "link_img": "https://live.staticflickr.com/65535/50039614182_5f480e4b5a_o.jpg",
    "id_image": "Astronaut_238542",
    "count_view": 0
  },
  {
    "link_thumb": "https://live.staticflickr.com/65535/50040980383_8de78b008a_n.jpg",
    "id_album": "-1126835654",
    "description": "Women_514681",
    "title": "Women_514681",
    "link_img": "https://live.staticflickr.com/65535/50040980383_1b6d578a3a_o.jpg",
    "id_image": "Women_514681",
    "count_view": 0
  },
  {
    "link_thumb": "https://live.staticflickr.com/65535/50039914497_273e931738_n.jpg",
    "id_album": "1204249541",
    "description": "Galaxy_689590",
    "title": "Galaxy_689590",
    "link_img": "https://live.staticflickr.com/65535/50039914497_2a1e96cd54_o.jpg",
    "id_image": "Galaxy_689590",
    "count_view": 0
  },
  {
    "link_thumb": "https://live.staticflickr.com/65535/50040020378_6e94e39f67_n.jpg",
    "id_album": "2130067313",
    "description": "Spaceship_113067",
    "title": "Spaceship_113067",
    "link_img": "https://live.staticflickr.com/65535/50040020378_c69853157f_o.jpg",
    "id_image": "Spaceship_113067",
    "count_view": 0
  },
  {
    "link_thumb": "https://live.staticflickr.com/65535/50039489681_9ee772883f_n.jpg",
    "id_album": "-1964113117",
    "description": "City_697302",
    "title": "City_697302",
    "link_img": "https://live.staticflickr.com/65535/50039489681_cd5f3f95b0_o.jpg",
    "id_image": "City_697302",
    "count_view": 0
  },
  {
    "link_thumb": "https://live.staticflickr.com/65535/50039244861_31265efe67_n.jpg",
    "id_album": "849020728",
    "description": "Alien_116320",
    "title": "Alien_116320",
    "link_img": "https://live.staticflickr.com/65535/50039244861_f588ed1233_o.jpg",
    "id_image": "Alien_116320",
    "count_view": 0
  },
  {
    "link_thumb": "https://live.staticflickr.com/65535/50040246168_f937beb9e3_n.jpg",
    "id_album": "-1449720967",
    "description": "StarTrek_177180",
    "title": "StarTrek_177180",
    "link_img": "https://live.staticflickr.com/65535/50040246168_fdcde32423_o.jpg",
    "id_image": "StarTrek_177180",
    "count_view": 0
  },
  {
    "link_thumb": "https://live.staticflickr.com/65535/50040689037_e650588d36_n.jpg",
    "id_album": "779690680",
    "description": "Robot_928636",
    "title": "Robot_928636",
    "link_img": "https://live.staticflickr.com/65535/50040689037_ea54c996c3_o.jpg",
    "id_image": "Robot_928636",
    "count_view": 0
  },
  {
    "link_thumb": "https://live.staticflickr.com/65535/50040607452_5e70fe2392_n.jpg",
    "id_album": "779690680",
    "description": "Robot_602295",
    "title": "Robot_602295",
    "link_img": "https://live.staticflickr.com/65535/50040607452_813059482e_o.jpg",
    "id_image": "Robot_602295",
    "count_view": 0
  },
  {
    "link_thumb": "https://live.staticflickr.com/65535/50040048262_9c2bbe3de8_n.jpg",
    "id_album": "-1610342324",
    "description": "Nebula_301298",
    "title": "Nebula_301298",
    "link_img": "https://live.staticflickr.com/65535/50040048262_0833da0988_o.jpg",
    "id_image": "Nebula_301298",
    "count_view": 0
  },
  {
    "link_thumb": "https://live.staticflickr.com/65535/50038958353_982575732e_n.jpg",
    "id_album": "-1964113117",
    "description": "City_864521",
    "title": "City_864521",
    "link_img": "https://live.staticflickr.com/65535/50038958353_d48e1e4bc3_o.jpg",
    "id_image": "City_864521",
    "count_view": 0
  },
  {
    "link_thumb": "https://live.staticflickr.com/65535/50039504737_64a0b12285_n.jpg",
    "id_album": "-406145265",
    "description": "Aircraft_969699",
    "title": "Aircraft_969699",
    "link_img": "https://live.staticflickr.com/65535/50039504737_5370af2d52_o.jpg",
    "id_image": "Aircraft_969699",
    "count_view": 0
  },
  {
    "link_thumb": "https://live.staticflickr.com/65535/50038765513_a9c931dc5b_n.jpg",
    "id_album": "523598895",
    "description": "Artistic_208687",
    "title": "Artistic_208687",
    "link_img": "https://live.staticflickr.com/65535/50038765513_6037e79158_o.jpg",
    "id_image": "Artistic_208687",
    "count_view": 0
  },
  {
    "link_thumb": "https://live.staticflickr.com/65535/50040384416_b4bc991b06_n.jpg",
    "id_album": "779690680",
    "description": "Robot_874029",
    "title": "Robot_874029",
    "link_img": "https://live.staticflickr.com/65535/50040384416_4dbe12890e_o.jpg",
    "id_image": "Robot_874029",
    "count_view": 0
  },
  {
    "link_thumb": "https://live.staticflickr.com/65535/50040432261_e60d0b39ec_n.jpg",
    "id_album": "779690680",
    "description": "Robot_936220",
    "title": "Robot_936220",
    "link_img": "https://live.staticflickr.com/65535/50040432261_f51f96eaa7_o.jpg",
    "id_image": "Robot_936220",
    "count_view": 0
  },
  {
    "link_thumb": "https://live.staticflickr.com/65535/50040183757_55bc58e13f_n.jpg",
    "id_album": "395161030",
    "description": "Planet_210868",
    "title": "Planet_210868",
    "link_img": "https://live.staticflickr.com/65535/50040183757_5a37a12ae5_o.jpg",
    "id_image": "Planet_210868",
    "count_view": 0
  },
  {
    "link_thumb": "https://live.staticflickr.com/65535/50040898648_7bda980552_n.jpg",
    "id_album": "-1261420436",
    "description": "Warrior_373907",
    "title": "Warrior_373907",
    "link_img": "https://live.staticflickr.com/65535/50040898648_6d84609be8_o.jpg",
    "id_image": "Warrior_373907",
    "count_view": 0
  },
  {
    "link_thumb": "https://live.staticflickr.com/65535/50039572367_61048e771b_n.jpg",
    "id_album": "523598895",
    "description": "Artistic_196781",
    "title": "Artistic_196781",
    "link_img": "https://live.staticflickr.com/65535/50039572367_49c63bf868_o.jpg",
    "id_image": "Artistic_196781",
    "count_view": 0
  },
  {
    "link_thumb": "https://live.staticflickr.com/65535/50039581763_6da0e9b4da_n.jpg",
    "id_album": "-1102314093",
    "description": "Planets_74041",
    "title": "Planets_74041",
    "link_img": "https://live.staticflickr.com/65535/50039581763_9bbfbbce39_o.jpg",
    "id_image": "Planets_74041",
    "count_view": 0
  },
  {
    "link_thumb": "https://live.staticflickr.com/65535/50039658226_eaa2bf4b8d_n.jpg",
    "id_album": "1402713104",
    "description": "Landscape_1004828",
    "title": "Landscape_1004828",
    "link_img": "https://live.staticflickr.com/65535/50039658226_668d1072d5_o.jpg",
    "id_image": "Landscape_1004828",
    "count_view": 0
  },
  {
    "link_thumb": "https://live.staticflickr.com/65535/50039302713_dba6991e92_n.jpg",
    "id_album": "-1610342324",
    "description": "Nebula_921276",
    "title": "Nebula_921276",
    "link_img": "https://live.staticflickr.com/65535/50039302713_ec05403177_o.jpg",
    "id_image": "Nebula_921276",
    "count_view": 0
  },
  {
    "link_thumb": "https://live.staticflickr.com/65535/50040284231_f49f9a3ca0_n.jpg",
    "id_album": "779690680",
    "description": "Robot_303464",
    "title": "Robot_303464",
    "link_img": "https://live.staticflickr.com/65535/50040284231_69fa901e71_o.jpg",
    "id_image": "Robot_303464",
    "count_view": 0
  },
  {
    "link_thumb": "https://live.staticflickr.com/65535/50040464086_a3dbfe1644_n.jpg",
    "id_album": "1613540653",
    "description": "Space_113280",
    "title": "Space_113280",
    "link_img": "https://live.staticflickr.com/65535/50040464086_d3ede598d7_o.jpg",
    "id_image": "Space_113280",
    "count_view": 0
  },
  {
    "link_thumb": "https://live.staticflickr.com/65535/50040100787_04dcbe62b5_n.jpg",
    "id_album": "-1610342324",
    "description": "Nebula_789217",
    "title": "Nebula_789217",
    "link_img": "https://live.staticflickr.com/65535/50040100787_c2242aed3c_o.jpg",
    "id_image": "Nebula_789217",
    "count_view": 0
  },
  {
    "link_thumb": "https://live.staticflickr.com/65535/50039330381_9ba5c61937_n.jpg",
    "id_album": "523598895",
    "description": "Artistic_344215",
    "title": "Artistic_344215",
    "link_img": "https://live.staticflickr.com/65535/50039330381_e8f07f7382_o.jpg",
    "id_image": "Artistic_344215",
    "count_view": 0
  },
  {
    "link_thumb": "https://live.staticflickr.com/65535/50041266726_cfde9545c2_n.jpg",
    "id_album": "-1587696329",
    "description": "Stars_421925",
    "title": "Stars_421925",
    "link_img": "https://live.staticflickr.com/65535/50041266726_975d56eb4f_o.jpg",
    "id_image": "Stars_421925",
    "count_view": 0
  },
  {
    "link_thumb": "https://live.staticflickr.com/65535/50039821407_e9155de75d_n.jpg",
    "id_album": "-437872736",
    "description": "Creature_920307",
    "title": "Creature_920307",
    "link_img": "https://live.staticflickr.com/65535/50039821407_ac3b13feac_o.jpg",
    "id_image": "Creature_920307",
    "count_view": 0
  },
  {
    "link_thumb": "https://live.staticflickr.com/65535/50039938091_dc8ac0d01a_n.jpg",
    "id_album": "395161030",
    "description": "Planet_372303",
    "title": "Planet_372303",
    "link_img": "https://live.staticflickr.com/65535/50039938091_eb251b81d3_o.jpg",
    "id_image": "Planet_372303",
    "count_view": 0
  },
  {
    "link_thumb": "https://live.staticflickr.com/65535/50039659866_0c7057fd38_n.jpg",
    "id_album": "1402713104",
    "description": "Landscape_119739",
    "title": "Landscape_119739",
    "link_img": "https://live.staticflickr.com/65535/50039659866_1048fc0503_o.jpg",
    "id_image": "Landscape_119739",
    "count_view": 0
  },
  {
    "link_thumb": "https://live.staticflickr.com/65535/50039595627_d944ea941a_n.jpg",
    "id_album": "523598895",
    "description": "Artistic_401753",
    "title": "Artistic_401753",
    "link_img": "https://live.staticflickr.com/65535/50039595627_e07b326afd_o.jpg",
    "id_image": "Artistic_401753",
    "count_view": 0
  },
  {
    "link_thumb": "https://live.staticflickr.com/65535/50039687182_b1843cab62_n.jpg",
    "id_album": "406431601",
    "description": "Building_871300",
    "title": "Building_871300",
    "link_img": "https://live.staticflickr.com/65535/50039687182_5b5d3fa4ea_o.jpg",
    "id_image": "Building_871300",
    "count_view": 0
  },
  {
    "link_thumb": "https://live.staticflickr.com/65535/50038942053_29212946b0_n.jpg",
    "id_album": "-1964113117",
    "description": "City_709118",
    "title": "City_709118",
    "link_img": "https://live.staticflickr.com/65535/50038942053_bb84aba71d_o.jpg",
    "id_image": "City_709118",
    "count_view": 0
  },
  {
    "link_thumb": "https://live.staticflickr.com/65535/50039720256_449d043649_n.jpg",
    "id_album": "1402713104",
    "description": "Landscape_902745",
    "title": "Landscape_902745",
    "link_img": "https://live.staticflickr.com/65535/50039720256_47a3b684ff_o.jpg",
    "id_image": "Landscape_902745",
    "count_view": 0
  },
  {
    "link_thumb": "https://live.staticflickr.com/65535/50041327351_21d2115a24_n.jpg",
    "id_album": "1267121215",
    "description": "Steampunk_703396",
    "title": "Steampunk_703396",
    "link_img": "https://live.staticflickr.com/65535/50041327351_323b197dee_o.jpg",
    "id_image": "Steampunk_703396",
    "count_view": 0
  },
  {
    "link_thumb": "https://live.staticflickr.com/65535/50041249906_436d5529e7_n.jpg",
    "id_album": "-1863373220",
    "description": "StarWars_980549",
    "title": "StarWars_980549",
    "link_img": "https://live.staticflickr.com/65535/50041249906_feef8a22c1_o.jpg",
    "id_image": "StarWars_980549",
    "count_view": 0
  },
  {
    "link_thumb": "https://live.staticflickr.com/65535/50040426726_1269e4e7ce_n.jpg",
    "id_album": "779690680",
    "description": "Robot_928647",
    "title": "Robot_928647",
    "link_img": "https://live.staticflickr.com/65535/50040426726_08f06734c0_o.jpg",
    "id_image": "Robot_928647",
    "count_view": 0
  },
  {
    "link_thumb": "https://live.staticflickr.com/65535/50039818227_a672b8016f_n.jpg",
    "id_album": "-437872736",
    "description": "Creature_410085",
    "title": "Creature_410085",
    "link_img": "https://live.staticflickr.com/65535/50039818227_6867bf3aaa_o.jpg",
    "id_image": "Creature_410085",
    "count_view": 0
  },
  {
    "link_thumb": "https://live.staticflickr.com/65535/50040024591_b2d1b16ed4_n.jpg",
    "id_album": "814701616",
    "description": "PlanetaryRing_286989",
    "title": "PlanetaryRing_286989",
    "link_img": "https://live.staticflickr.com/65535/50040024591_b8ea25b8ca_o.jpg",
    "id_image": "PlanetaryRing_286989",
    "count_view": 0
  },
  {
    "link_thumb": "https://live.staticflickr.com/65535/50038884408_5d3d8e4f80_n.jpg",
    "id_album": "-1964113117",
    "description": "City_113812",
    "title": "City_113812",
    "link_img": "https://live.staticflickr.com/65535/50038884408_7bc8c8679a_o.jpg",
    "id_image": "City_113812",
    "count_view": 0
  },
  {
    "link_thumb": "https://live.staticflickr.com/65535/50038856898_2c28f06a47_n.jpg",
    "id_album": "1187037014",
    "description": "Battle_629982",
    "title": "Battle_629982",
    "link_img": "https://live.staticflickr.com/65535/50038856898_dc51ff5c23_o.jpg",
    "id_image": "Battle_629982",
    "count_view": 0
  },
  {
    "link_thumb": "https://live.staticflickr.com/65535/50039687548_e4ddc203c8_n.jpg",
    "id_album": "-839602625",
    "description": "Predator_323988",
    "title": "Predator_323988",
    "link_img": "https://live.staticflickr.com/65535/50039687548_fb588cb08e_o.jpg",
    "id_image": "Predator_323988",
    "count_view": 0
  },
  {
    "link_thumb": "https://live.staticflickr.com/65535/50039519947_19028df962_n.jpg",
    "id_album": "849020728",
    "description": "Alien_278137",
    "title": "Alien_278137",
    "link_img": "https://live.staticflickr.com/65535/50039519947_0d50fc9b73_o.jpg",
    "id_image": "Alien_278137",
    "count_view": 0
  },
  {
    "link_thumb": "https://live.staticflickr.com/65535/50039293406_1572a4aa30_n.jpg",
    "id_album": "523598895",
    "description": "Artistic_114133",
    "title": "Artistic_114133",
    "link_img": "https://live.staticflickr.com/65535/50039293406_c717bce632_o.jpg",
    "id_image": "Artistic_114133",
    "count_view": 0
  },
  {
    "link_thumb": "https://live.staticflickr.com/65535/50041511542_fdc159569b_n.jpg",
    "id_album": "-1863373220",
    "description": "StarWars_980510",
    "title": "StarWars_980510",
    "link_img": "https://live.staticflickr.com/65535/50041511542_5dfb1db5a8_o.jpg",
    "id_image": "StarWars_980510",
    "count_view": 0
  },
  {
    "link_thumb": "https://live.staticflickr.com/65535/50039076413_cd20851a56_n.jpg",
    "id_album": "1204249541",
    "description": "Galaxy_189863",
    "title": "Galaxy_189863",
    "link_img": "https://live.staticflickr.com/65535/50039076413_88a86322cc_o.jpg",
    "id_image": "Galaxy_189863",
    "count_view": 0
  },
  {
    "link_thumb": "https://live.staticflickr.com/65535/50038773843_d7423edf4f_n.jpg",
    "id_album": "523598895",
    "description": "Artistic_236641",
    "title": "Artistic_236641",
    "link_img": "https://live.staticflickr.com/65535/50038773843_51793fe1fd_o.jpg",
    "id_image": "Artistic_236641",
    "count_view": 0
  },
  {
    "link_thumb": "https://live.staticflickr.com/65535/50039264481_2d3e6d9a94_n.jpg",
    "id_album": "849020728",
    "description": "Alien_41597",
    "title": "Alien_41597",
    "link_img": "https://live.staticflickr.com/65535/50039264481_be2bfed6ca_o.jpg",
    "id_image": "Alien_41597",
    "count_view": 0
  },
  {
    "link_thumb": "https://live.staticflickr.com/65535/50040743793_e6147cb1de_n.jpg",
    "id_album": "1267121215",
    "description": "Steampunk_199576",
    "title": "Steampunk_199576",
    "link_img": "https://live.staticflickr.com/65535/50040743793_223ce8a47c_o.jpg",
    "id_image": "Steampunk_199576",
    "count_view": 0
  },
  {
    "link_thumb": "https://live.staticflickr.com/65535/50040709978_395eb955ce_n.jpg",
    "id_album": "-1587696329",
    "description": "Stars_373654",
    "title": "Stars_373654",
    "link_img": "https://live.staticflickr.com/65535/50040709978_99cf24e204_o.jpg",
    "id_image": "Stars_373654",
    "count_view": 0
  },
  {
    "link_thumb": "https://live.staticflickr.com/65535/50039681372_cf0d91235f_n.jpg",
    "id_album": "-1780971522",
    "description": "Biohazard_577356",
    "title": "Biohazard_577356",
    "link_img": "https://live.staticflickr.com/65535/50039681372_3be4c8485b_o.jpg",
    "id_image": "Biohazard_577356",
    "count_view": 0
  },
  {
    "link_thumb": "https://live.staticflickr.com/65535/50039747357_9ba74d2a9f_n.jpg",
    "id_album": "-1964113117",
    "description": "City_665165",
    "title": "City_665165",
    "link_img": "https://live.staticflickr.com/65535/50039747357_9a73856c67_o.jpg",
    "id_image": "City_665165",
    "count_view": 0
  },
  {
    "link_thumb": "https://live.staticflickr.com/65535/50040255056_7b3de9414a_n.jpg",
    "id_album": "779690680",
    "description": "Robot_150258",
    "title": "Robot_150258",
    "link_img": "https://live.staticflickr.com/65535/50040255056_06be209a1c_o.jpg",
    "id_image": "Robot_150258",
    "count_view": 0
  },
  {
    "link_thumb": "https://live.staticflickr.com/65535/50038940373_f969a02269_n.jpg",
    "id_album": "-1964113117",
    "description": "City_694102",
    "title": "City_694102",
    "link_img": "https://live.staticflickr.com/65535/50038940373_8ceb414c27_o.jpg",
    "id_image": "City_694102",
    "count_view": 0
  },
  {
    "link_thumb": "https://live.staticflickr.com/65535/50039810387_e4dcb667c3_n.jpg",
    "id_album": "-437872736",
    "description": "Creature_289697",
    "title": "Creature_289697",
    "link_img": "https://live.staticflickr.com/65535/50039810387_c91247edb9_o.jpg",
    "id_image": "Creature_289697",
    "count_view": 0
  },
  {
    "link_thumb": "https://live.staticflickr.com/65535/50040735137_cc84b1502c_n.jpg",
    "id_album": "1613540653",
    "description": "Space_159491",
    "title": "Space_159491",
    "link_img": "https://live.staticflickr.com/65535/50040735137_873c9233c1_o.jpg",
    "id_image": "Space_159491",
    "count_view": 0
  },
  {
    "link_thumb": "https://live.staticflickr.com/65535/50040191947_a018f6d241_n.jpg",
    "id_album": "395161030",
    "description": "Planet_324785",
    "title": "Planet_324785",
    "link_img": "https://live.staticflickr.com/65535/50040191947_364a3f7821_o.jpg",
    "id_image": "Planet_324785",
    "count_view": 0
  },
  {
    "link_thumb": "https://live.staticflickr.com/65535/50038835088_e68394c692_n.jpg",
    "id_album": "869545341",
    "description": "Astronaut_949964",
    "title": "Astronaut_949964",
    "link_img": "https://live.staticflickr.com/65535/50038835088_4a5152fe09_o.jpg",
    "id_image": "Astronaut_949964",
    "count_view": 0
  },
  {
    "link_thumb": "https://live.staticflickr.com/65535/50039553937_014fe9c47c_n.jpg",
    "id_album": "523598895",
    "description": "Artistic_106052",
    "title": "Artistic_106052",
    "link_img": "https://live.staticflickr.com/65535/50039553937_d699180bd4_o.jpg",
    "id_image": "Artistic_106052",
    "count_view": 0
  },
  {
    "link_thumb": "https://live.staticflickr.com/65535/50040709008_83990bc003_n.jpg",
    "id_album": "-1587696329",
    "description": "Stars_333372",
    "title": "Stars_333372",
    "link_img": "https://live.staticflickr.com/65535/50040709008_d0852aba20_o.jpg",
    "id_image": "Stars_333372",
    "count_view": 0
  },
  {
    "link_thumb": "https://live.staticflickr.com/65535/50040253778_94ae445d81_n.jpg",
    "id_album": "-1449720967",
    "description": "StarTrek_207897",
    "title": "StarTrek_207897",
    "link_img": "https://live.staticflickr.com/65535/50040253778_3a8d36fd68_o.jpg",
    "id_image": "StarTrek_207897",
    "count_view": 0
  },
  {
    "link_thumb": "https://live.staticflickr.com/65535/50038753888_baba6f0565_n.jpg",
    "id_album": "523598895",
    "description": "Artistic_170992",
    "title": "Artistic_170992",
    "link_img": "https://live.staticflickr.com/65535/50038753888_4229e5987e_o.jpg",
    "id_image": "Artistic_170992",
    "count_view": 0
  },
  {
    "link_thumb": "https://live.staticflickr.com/65535/50041611297_c9605d289a_n.jpg",
    "id_album": "-221671103",
    "description": "Sun_438129",
    "title": "Sun_438129",
    "link_img": "https://live.staticflickr.com/65535/50041611297_e5abefb881_o.jpg",
    "id_image": "Sun_438129",
    "count_view": 0
  },
  {
    "link_thumb": "https://live.staticflickr.com/65535/50038993503_eeef56a677_n.jpg",
    "id_album": "894679094",
    "description": "Collision_517482",
    "title": "Collision_517482",
    "link_img": "https://live.staticflickr.com/65535/50038993503_cca1719472_o.jpg",
    "id_image": "Collision_517482",
    "count_view": 0
  },
  {
    "link_thumb": "https://live.staticflickr.com/65535/50039896287_b02642c418_n.jpg",
    "id_album": "1204249541",
    "description": "Galaxy_426478",
    "title": "Galaxy_426478",
    "link_img": "https://live.staticflickr.com/65535/50039896287_225909b7e5_o.jpg",
    "id_image": "Galaxy_426478",
    "count_view": 0
  },
  {
    "link_thumb": "https://live.staticflickr.com/65535/50039891192_3fa3e33aac_n.jpg",
    "id_album": "1204249541",
    "description": "Galaxy_264708",
    "title": "Galaxy_264708",
    "link_img": "https://live.staticflickr.com/65535/50039891192_1061b2d69c_o.jpg",
    "id_image": "Galaxy_264708",
    "count_view": 0
  },
  {
    "link_thumb": "https://live.staticflickr.com/65535/50039818652_f579e94ff7_n.jpg",
    "id_album": "-437872736",
    "description": "Creature_455768",
    "title": "Creature_455768",
    "link_img": "https://live.staticflickr.com/65535/50039818652_0e4dbfb7f7_o.jpg",
    "id_image": "Creature_455768",
    "count_view": 0
  },
  {
    "link_thumb": "https://live.staticflickr.com/65535/50040863583_a6a51548b3_n.jpg",
    "id_album": "2020068132",
    "description": "Vehicle_879537",
    "title": "Vehicle_879537",
    "link_img": "https://live.staticflickr.com/65535/50040863583_d5207bd673_o.jpg",
    "id_image": "Vehicle_879537",
    "count_view": 0
  },
  {
    "link_thumb": "https://live.staticflickr.com/65535/50039557522_3653b81f1e_n.jpg",
    "id_album": "523598895",
    "description": "Artistic_149417",
    "title": "Artistic_149417",
    "link_img": "https://live.staticflickr.com/65535/50039557522_1fbb43ac81_o.jpg",
    "id_image": "Artistic_149417",
    "count_view": 0
  },
  {
    "link_thumb": "https://live.staticflickr.com/65535/50039350968_95fbe45329_n.jpg",
    "id_album": "395161030",
    "description": "Planet_1003035",
    "title": "Planet_1003035",
    "link_img": "https://live.staticflickr.com/65535/50039350968_064a32d958_o.jpg",
    "id_image": "Planet_1003035",
    "count_view": 0
  },
  {
    "link_thumb": "https://live.staticflickr.com/65535/50039423908_cf1b8f8b65_n.jpg",
    "id_album": "395161030",
    "description": "Planet_717757",
    "title": "Planet_717757",
    "link_img": "https://live.staticflickr.com/65535/50039423908_79f8be1352_o.jpg",
    "id_image": "Planet_717757",
    "count_view": 0
  },
  {
    "link_thumb": "https://live.staticflickr.com/65535/50039667357_1b291c16c8_n.jpg",
    "id_album": "1187037014",
    "description": "Battle_615954",
    "title": "Battle_615954",
    "link_img": "https://live.staticflickr.com/65535/50039667357_d77a41ae63_o.jpg",
    "id_image": "Battle_615954",
    "count_view": 0
  },
  {
    "link_thumb": "https://live.staticflickr.com/65535/50040004552_88aea9aa9e_n.jpg",
    "id_album": "-1388385651",
    "description": "MilkyWay_706097",
    "title": "MilkyWay_706097",
    "link_img": "https://live.staticflickr.com/65535/50040004552_cd84934463_o.jpg",
    "id_image": "MilkyWay_706097",
    "count_view": 0
  },
  {
    "link_thumb": "https://live.staticflickr.com/65535/50038892783_4a13ee3552_n.jpg",
    "id_album": "-1964113117",
    "description": "City_198938",
    "title": "City_198938",
    "link_img": "https://live.staticflickr.com/65535/50038892783_91a2b7a98e_o.jpg",
    "id_image": "City_198938",
    "count_view": 0
  },
  {
    "link_thumb": "https://live.staticflickr.com/65535/50040887198_94cb7abe86_n.jpg",
    "id_album": "-1261420436",
    "description": "Warrior_278843",
    "title": "Warrior_278843",
    "link_img": "https://live.staticflickr.com/65535/50040887198_1a28445d71_o.jpg",
    "id_image": "Warrior_278843",
    "count_view": 0
  },
  {
    "link_thumb": "https://live.staticflickr.com/65535/50040674597_2f4cefcbc1_n.jpg",
    "id_album": "779690680",
    "description": "Robot_913019",
    "title": "Robot_913019",
    "link_img": "https://live.staticflickr.com/65535/50040674597_e280920ee0_o.jpg",
    "id_image": "Robot_913019",
    "count_view": 0
  },
  {
    "link_thumb": "https://live.staticflickr.com/65535/50038929668_3d7cb27948_n.jpg",
    "id_album": "-1964113117",
    "description": "City_558457",
    "title": "City_558457",
    "link_img": "https://live.staticflickr.com/65535/50038929668_9fce85c600_o.jpg",
    "id_image": "City_558457",
    "count_view": 0
  },
  {
    "link_thumb": "https://live.staticflickr.com/65535/50041008188_ab34ee4e23_n.jpg",
    "id_album": "-1675918237",
    "description": "WomenWarrior_243739",
    "title": "WomenWarrior_243739",
    "link_img": "https://live.staticflickr.com/65535/50041008188_4928a1188a_o.jpg",
    "id_image": "WomenWarrior_243739",
    "count_view": 0
  },
  {
    "link_thumb": "https://live.staticflickr.com/65535/50040327887_367a68787f_n.jpg",
    "id_album": "-1102314093",
    "description": "Planets_242673",
    "title": "Planets_242673",
    "link_img": "https://live.staticflickr.com/65535/50040327887_3640b3ddeb_o.jpg",
    "id_image": "Planets_242673",
    "count_view": 0
  },
  {
    "link_thumb": "https://live.staticflickr.com/65535/50039226723_2e135bbcdc_n.jpg",
    "id_album": "-1610342324",
    "description": "Nebula_250434",
    "title": "Nebula_250434",
    "link_img": "https://live.staticflickr.com/65535/50039226723_62fb5b4cb1_o.jpg",
    "id_image": "Nebula_250434",
    "count_view": 0
  },
  {
    "link_thumb": "https://live.staticflickr.com/65535/50039659991_b0f5625a5b_n.jpg",
    "id_album": "1402713104",
    "description": "Landscape_121806",
    "title": "Landscape_121806",
    "link_img": "https://live.staticflickr.com/65535/50039659991_2905d2aab4_o.jpg",
    "id_image": "Landscape_121806",
    "count_view": 0
  },
  {
    "link_thumb": "https://live.staticflickr.com/65535/50040031517_bdbcb2ab21_n.jpg",
    "id_album": "-1610342324",
    "description": "Nebula_200559",
    "title": "Nebula_200559",
    "link_img": "https://live.staticflickr.com/65535/50040031517_f1020119b5_o.jpg",
    "id_image": "Nebula_200559",
    "count_view": 0
  },
  {
    "link_thumb": "https://live.staticflickr.com/65535/50040190716_aacfc1f5bb_n.jpg",
    "id_album": "-482547208",
    "description": "PostApocalyptic_147450",
    "title": "PostApocalyptic_147450",
    "link_img": "https://live.staticflickr.com/65535/50040190716_c40bed19fd_o.jpg",
    "id_image": "PostApocalyptic_147450",
    "count_view": 0
  },
  {
    "link_thumb": "https://live.staticflickr.com/65535/50038690293_b86614959b_n.jpg",
    "id_album": "-406145265",
    "description": "Aircraft_339915",
    "title": "Aircraft_339915",
    "link_img": "https://live.staticflickr.com/65535/50038690293_1dd9536419_o.jpg",
    "id_image": "Aircraft_339915",
    "count_view": 0
  },
  {
    "link_thumb": "https://live.staticflickr.com/65535/50039120743_9b78dc3e50_n.jpg",
    "id_album": "1402713104",
    "description": "Landscape_282105",
    "title": "Landscape_282105",
    "link_img": "https://live.staticflickr.com/65535/50039120743_8f603d0e39_o.jpg",
    "id_image": "Landscape_282105",
    "count_view": 0
  },
  {
    "link_thumb": "https://live.staticflickr.com/65535/50040727772_3c026f59f0_n.jpg",
    "id_album": "1613540653",
    "description": "Space_110229",
    "title": "Space_110229",
    "link_img": "https://live.staticflickr.com/65535/50040727772_dc3a4d2bec_o.jpg",
    "id_image": "Space_110229",
    "count_view": 0
  },
  {
    "link_thumb": "https://live.staticflickr.com/65535/50039086138_11c0259bd4_n.jpg",
    "id_album": "1204249541",
    "description": "Galaxy_441063",
    "title": "Galaxy_441063",
    "link_img": "https://live.staticflickr.com/65535/50039086138_e3a511cbf7_o.jpg",
    "id_image": "Galaxy_441063",
    "count_view": 0
  },
  {
    "link_thumb": "https://live.staticflickr.com/65535/50040846273_4d3319749f_n.jpg",
    "id_album": "2020068132",
    "description": "Vehicle_427318",
    "title": "Vehicle_427318",
    "link_img": "https://live.staticflickr.com/65535/50040846273_4ddc264315_o.jpg",
    "id_image": "Vehicle_427318",
    "count_view": 0
  },
  {
    "link_thumb": "https://live.staticflickr.com/65535/50041377031_9191de9bea_n.jpg",
    "id_album": "2020068132",
    "description": "Vehicle_198980",
    "title": "Vehicle_198980",
    "link_img": "https://live.staticflickr.com/65535/50041377031_2269e598ce_o.jpg",
    "id_image": "Vehicle_198980",
    "count_view": 0
  },
  {
    "link_thumb": "https://live.staticflickr.com/65535/50038900308_502e7e5aa5_n.jpg",
    "id_album": "-1964113117",
    "description": "City_220203",
    "title": "City_220203",
    "link_img": "https://live.staticflickr.com/65535/50038900308_367e43586b_o.jpg",
    "id_image": "City_220203",
    "count_view": 0
  },
  {
    "link_thumb": "https://live.staticflickr.com/65535/50040395386_fe6b66f96c_n.jpg",
    "id_album": "779690680",
    "description": "Robot_887982",
    "title": "Robot_887982",
    "link_img": "https://live.staticflickr.com/65535/50040395386_09b0f5988c_o.jpg",
    "id_image": "Robot_887982",
    "count_view": 0
  },
  {
    "link_thumb": "https://live.staticflickr.com/65535/50041010603_29954da6be_n.jpg",
    "id_album": "-1675918237",
    "description": "WomenWarrior_288889",
    "title": "WomenWarrior_288889",
    "link_img": "https://live.staticflickr.com/65535/50041010603_1b50e3ba09_o.jpg",
    "id_image": "WomenWarrior_288889",
    "count_view": 0
  },
  {
    "link_thumb": "https://live.staticflickr.com/65535/50040523157_aebfabe9c1_n.jpg",
    "id_album": "779690680",
    "description": "Robot_176936",
    "title": "Robot_176936",
    "link_img": "https://live.staticflickr.com/65535/50040523157_9b71a7c248_o.jpg",
    "id_image": "Robot_176936",
    "count_view": 0
  },
  {
    "link_thumb": "https://live.staticflickr.com/65535/50041478901_45a19d0907_n.jpg",
    "id_album": "-1261420436",
    "description": "Warrior_616940",
    "title": "Warrior_616940",
    "link_img": "https://live.staticflickr.com/65535/50041478901_036e5a5a11_o.jpg",
    "id_image": "Warrior_616940",
    "count_view": 0
  },
  {
    "link_thumb": "https://live.staticflickr.com/65535/50039502982_89e07033b2_n.jpg",
    "id_album": "-406145265",
    "description": "Aircraft_530108",
    "title": "Aircraft_530108",
    "link_img": "https://live.staticflickr.com/65535/50039502982_65bc5347df_o.jpg",
    "id_image": "Aircraft_530108",
    "count_view": 0
  },
  {
    "link_thumb": "https://live.staticflickr.com/65535/50041638192_65b7f5f552_n.jpg",
    "id_album": "2020068132",
    "description": "Vehicle_192943",
    "title": "Vehicle_192943",
    "link_img": "https://live.staticflickr.com/65535/50041638192_680655783d_o.jpg",
    "id_image": "Vehicle_192943",
    "count_view": 0
  },
  {
    "link_thumb": "https://live.staticflickr.com/65535/50039592557_9554439643_n.jpg",
    "id_album": "523598895",
    "description": "Artistic_352708",
    "title": "Artistic_352708",
    "link_img": "https://live.staticflickr.com/65535/50039592557_fea06a2228_o.jpg",
    "id_image": "Artistic_352708",
    "count_view": 0
  },
  {
    "link_thumb": "https://live.staticflickr.com/65535/50041465211_c438715155_n.jpg",
    "id_album": "-1261420436",
    "description": "Warrior_500636",
    "title": "Warrior_500636",
    "link_img": "https://live.staticflickr.com/65535/50041465211_33c271bb29_o.jpg",
    "id_image": "Warrior_500636",
    "count_view": 0
  },
  {
    "link_thumb": "https://live.staticflickr.com/65535/50039924581_41bc2572cf_n.jpg",
    "id_album": "395161030",
    "description": "Planet_287058",
    "title": "Planet_287058",
    "link_img": "https://live.staticflickr.com/65535/50039924581_17281bf4b6_o.jpg",
    "id_image": "Planet_287058",
    "count_view": 0
  },
  {
    "link_thumb": "https://live.staticflickr.com/65535/50039415696_aa5a6048fe_n.jpg",
    "id_album": "-1780971522",
    "description": "Biohazard_49910",
    "title": "Biohazard_49910",
    "link_img": "https://live.staticflickr.com/65535/50039415696_da15f7f98a_o.jpg",
    "id_image": "Biohazard_49910",
    "count_view": 0
  },
  {
    "link_thumb": "https://live.staticflickr.com/65535/50040105557_18ed79ac67_n.jpg",
    "id_album": "-1610342324",
    "description": "Nebula_825559",
    "title": "Nebula_825559",
    "link_img": "https://live.staticflickr.com/65535/50040105557_6c85c59395_o.jpg",
    "id_image": "Nebula_825559",
    "count_view": 0
  },
  {
    "link_thumb": "https://live.staticflickr.com/65535/50039278163_c1663a747e_n.jpg",
    "id_album": "-1610342324",
    "description": "Nebula_738413",
    "title": "Nebula_738413",
    "link_img": "https://live.staticflickr.com/65535/50039278163_1de4cbb648_o.jpg",
    "id_image": "Nebula_738413",
    "count_view": 0
  },
  {
    "link_thumb": "https://live.staticflickr.com/65535/50039713468_9d04894b89_n.jpg",
    "id_album": "779690680",
    "description": "Robot_218101",
    "title": "Robot_218101",
    "link_img": "https://live.staticflickr.com/65535/50039713468_930c04b2a8_o.jpg",
    "id_image": "Robot_218101",
    "count_view": 0
  },
  {
    "link_thumb": "https://live.staticflickr.com/65535/50039089458_294157f7fb_n.jpg",
    "id_album": "1204249541",
    "description": "Galaxy_510603",
    "title": "Galaxy_510603",
    "link_img": "https://live.staticflickr.com/65535/50039089458_16a23820be_o.jpg",
    "id_image": "Galaxy_510603",
    "count_view": 0
  },
  {
    "link_thumb": "https://live.staticflickr.com/65535/50039390306_8a1211f1b5_n.jpg",
    "id_album": "869545341",
    "description": "Astronaut_990251",
    "title": "Astronaut_990251",
    "link_img": "https://live.staticflickr.com/65535/50039390306_338e9e6814_o.jpg",
    "id_image": "Astronaut_990251",
    "count_view": 0
  },
  {
    "link_thumb": "https://live.staticflickr.com/65535/50040781697_e3392c844e_n.jpg",
    "id_album": "1613540653",
    "description": "Space_608325",
    "title": "Space_608325",
    "link_img": "https://live.staticflickr.com/65535/50040781697_c9f0daed0c_o.jpg",
    "id_image": "Space_608325",
    "count_view": 0
  },
  {
    "link_thumb": "https://live.staticflickr.com/65535/50039541202_2cb33c409d_n.jpg",
    "id_album": "-419633230",
    "description": "Apocalyptic_157349",
    "title": "Apocalyptic_157349",
    "link_img": "https://live.staticflickr.com/65535/50039541202_ccbf05586e_o.jpg",
    "id_image": "Apocalyptic_157349",
    "count_view": 0
  },
  {
    "link_thumb": "https://live.staticflickr.com/65535/50040707668_9b03101e60_n.jpg",
    "id_album": "-1587696329",
    "description": "Stars_275952",
    "title": "Stars_275952",
    "link_img": "https://live.staticflickr.com/65535/50040707668_499dccb5c8_o.jpg",
    "id_image": "Stars_275952",
    "count_view": 0
  },
  {
    "link_thumb": "https://live.staticflickr.com/65535/50038873063_76496d0ef3_n.jpg",
    "id_album": "406431601",
    "description": "Building_405546",
    "title": "Building_405546",
    "link_img": "https://live.staticflickr.com/65535/50038873063_605146dc18_o.jpg",
    "id_image": "Building_405546",
    "count_view": 0
  },
  {
    "link_thumb": "https://live.staticflickr.com/65535/50038849333_5e166103ba_n.jpg",
    "id_album": "1187037014",
    "description": "Battle_244159",
    "title": "Battle_244159",
    "link_img": "https://live.staticflickr.com/65535/50038849333_483d61b029_o.jpg",
    "id_image": "Battle_244159",
    "count_view": 0
  },
  {
    "link_thumb": "https://live.staticflickr.com/65535/50038697928_b85387b8ea_n.jpg",
    "id_album": "849020728",
    "description": "Alien_120345",
    "title": "Alien_120345",
    "link_img": "https://live.staticflickr.com/65535/50038697928_b6f3400ca3_o.jpg",
    "id_image": "Alien_120345",
    "count_view": 0
  },
  {
    "link_thumb": "https://live.staticflickr.com/65535/50039276023_f0b3c88136_n.jpg",
    "id_album": "-1610342324",
    "description": "Nebula_706889",
    "title": "Nebula_706889",
    "link_img": "https://live.staticflickr.com/65535/50039276023_7512bc157b_o.jpg",
    "id_image": "Nebula_706889",
    "count_view": 0
  },
  {
    "link_thumb": "https://live.staticflickr.com/65535/50040140682_84320e6169_n.jpg",
    "id_album": "869545341",
    "description": "Astronaut_712774",
    "title": "Astronaut_712774",
    "link_img": "https://live.staticflickr.com/65535/50040140682_b1abcfea14_o.jpg",
    "id_image": "Astronaut_712774",
    "count_view": 0
  },
  {
    "link_thumb": "https://live.staticflickr.com/65535/50038769383_1c6692d5ac_n.jpg",
    "id_album": "523598895",
    "description": "Artistic_221528",
    "title": "Artistic_221528",
    "link_img": "https://live.staticflickr.com/65535/50038769383_924873195a_o.jpg",
    "id_image": "Artistic_221528",
    "count_view": 0
  },
  {
    "link_thumb": "https://live.staticflickr.com/65535/50039689167_53645053d3_n.jpg",
    "id_album": "406431601",
    "description": "Building_912993",
    "title": "Building_912993",
    "link_img": "https://live.staticflickr.com/65535/50039689167_81c882ab1c_o.jpg",
    "id_image": "Building_912993",
    "count_view": 0
  },
  {
    "link_thumb": "https://live.staticflickr.com/65535/50039368811_0ba717d319_n.jpg",
    "id_album": "869545341",
    "description": "Astronaut_852644",
    "title": "Astronaut_852644",
    "link_img": "https://live.staticflickr.com/65535/50039368811_51b7958fff_o.jpg",
    "id_image": "Astronaut_852644",
    "count_view": 0
  },
  {
    "link_thumb": "https://live.staticflickr.com/65535/50039605912_d2d59c7364_n.jpg",
    "id_album": "523598895",
    "description": "Artistic_732623",
    "title": "Artistic_732623",
    "link_img": "https://live.staticflickr.com/65535/50039605912_e911e3720b_o.jpg",
    "id_image": "Artistic_732623",
    "count_view": 0
  },
  {
    "link_thumb": "https://live.staticflickr.com/65535/50040418751_8b8ee7c638_n.jpg",
    "id_album": "779690680",
    "description": "Robot_922858",
    "title": "Robot_922858",
    "link_img": "https://live.staticflickr.com/65535/50040418751_8166db540e_o.jpg",
    "id_image": "Robot_922858",
    "count_view": 0
  },
  {
    "link_thumb": "https://live.staticflickr.com/65535/50038981758_b18a591750_n.jpg",
    "id_album": "-1964113117",
    "description": "City_974784",
    "title": "City_974784",
    "link_img": "https://live.staticflickr.com/65535/50038981758_650637f195_o.jpg",
    "id_image": "City_974784",
    "count_view": 0
  },
  {
    "link_thumb": "https://live.staticflickr.com/65535/50039965658_8385b85254_n.jpg",
    "id_album": "1613540653",
    "description": "Space_659468",
    "title": "Space_659468",
    "link_img": "https://live.staticflickr.com/65535/50039965658_f71722f6e0_o.jpg",
    "id_image": "Space_659468",
    "count_view": 0
  },
  {
    "link_thumb": "https://live.staticflickr.com/65535/50039701628_8772fd24d6_n.jpg",
    "id_album": "779690680",
    "description": "Robot_131017",
    "title": "Robot_131017",
    "link_img": "https://live.staticflickr.com/65535/50039701628_0e8006e3b1_o.jpg",
    "id_image": "Robot_131017",
    "count_view": 0
  },
  {
    "link_thumb": "https://live.staticflickr.com/65535/50038898548_8bda79f26a_n.jpg",
    "id_album": "-1964113117",
    "description": "City_214317",
    "title": "City_214317",
    "link_img": "https://live.staticflickr.com/65535/50038898548_b078064e7f_o.jpg",
    "id_image": "City_214317",
    "count_view": 0
  },
  {
    "link_thumb": "https://live.staticflickr.com/65535/50040569127_8f71b424f8_n.jpg",
    "id_album": "779690680",
    "description": "Robot_410154",
    "title": "Robot_410154",
    "link_img": "https://live.staticflickr.com/65535/50040569127_e1e67cc443_o.jpg",
    "id_image": "Robot_410154",
    "count_view": 0
  },
  {
    "link_thumb": "https://live.staticflickr.com/65535/50038849728_d0ce966729_n.jpg",
    "id_album": "1187037014",
    "description": "Battle_248486",
    "title": "Battle_248486",
    "link_img": "https://live.staticflickr.com/65535/50038849728_14a4a84a62_o.jpg",
    "id_image": "Battle_248486",
    "count_view": 0
  },
  {
    "link_thumb": "https://live.staticflickr.com/65535/50039861803_f683ddecea_n.jpg",
    "id_album": "779690680",
    "description": "Robot_918798",
    "title": "Robot_918798",
    "link_img": "https://live.staticflickr.com/65535/50039861803_012fbd12cf_o.jpg",
    "id_image": "Robot_918798",
    "count_view": 0
  },
  {
    "link_thumb": "https://live.staticflickr.com/65535/50039383368_318351d954_n.jpg",
    "id_album": "395161030",
    "description": "Planet_345103",
    "title": "Planet_345103",
    "link_img": "https://live.staticflickr.com/65535/50039383368_e4de7886ef_o.jpg",
    "id_image": "Planet_345103",
    "count_view": 0
  },
  {
    "link_thumb": "https://live.staticflickr.com/65535/50041804952_09b852c657_n.jpg",
    "id_album": "-1126835654",
    "description": "Women_611019",
    "title": "Women_611019",
    "link_img": "https://live.staticflickr.com/65535/50041804952_da7a85234b_o.jpg",
    "id_image": "Women_611019",
    "count_view": 0
  },
  {
    "link_thumb": "https://live.staticflickr.com/65535/50040203603_23063c29dd_n.jpg",
    "id_album": "2130067313",
    "description": "Spaceship_870321",
    "title": "Spaceship_870321",
    "link_img": "https://live.staticflickr.com/65535/50040203603_1451f40fee_o.jpg",
    "id_image": "Spaceship_870321",
    "count_view": 0
  },
  {
    "link_thumb": "https://live.staticflickr.com/65535/50039419181_7a225039e8_n.jpg",
    "id_album": "-1780971522",
    "description": "Biohazard_577358",
    "title": "Biohazard_577358",
    "link_img": "https://live.staticflickr.com/65535/50039419181_de17edbd4d_o.jpg",
    "id_image": "Biohazard_577358",
    "count_view": 0
  },
  {
    "link_thumb": "https://live.staticflickr.com/65535/50039351748_e229d0d649_n.jpg",
    "id_album": "395161030",
    "description": "Planet_1005774",
    "title": "Planet_1005774",
    "link_img": "https://live.staticflickr.com/65535/50039351748_322371f792_o.jpg",
    "id_image": "Planet_1005774",
    "count_view": 0
  },
  {
    "link_thumb": "https://live.staticflickr.com/65535/50039654486_9553e15a02_n.jpg",
    "id_album": "1204249541",
    "description": "Galaxy_864929",
    "title": "Galaxy_864929",
    "link_img": "https://live.staticflickr.com/65535/50039654486_718c30c31f_o.jpg",
    "id_image": "Galaxy_864929",
    "count_view": 0
  },
  {
    "link_thumb": "https://live.staticflickr.com/65535/50041014063_ff5c987743_n.jpg",
    "id_album": "-1675918237",
    "description": "WomenWarrior_320615",
    "title": "WomenWarrior_320615",
    "link_img": "https://live.staticflickr.com/65535/50041014063_fd3ac0acd8_o.jpg",
    "id_image": "WomenWarrior_320615",
    "count_view": 0
  },
  {
    "link_thumb": "https://live.staticflickr.com/65535/50039853432_bb2969ab30_n.jpg",
    "id_album": "829169633",
    "description": "Cyborg_488050",
    "title": "Cyborg_488050",
    "link_img": "https://live.staticflickr.com/65535/50039853432_311cc64368_o.jpg",
    "id_image": "Cyborg_488050",
    "count_view": 0
  },
  {
    "link_thumb": "https://live.staticflickr.com/65535/50039538408_44ebcb12d8_n.jpg",
    "id_album": "-1102314093",
    "description": "Planets_344840",
    "title": "Planets_344840",
    "link_img": "https://live.staticflickr.com/65535/50039538408_6e6eace4a0_o.jpg",
    "id_image": "Planets_344840",
    "count_view": 0
  },
  {
    "link_thumb": "https://live.staticflickr.com/65535/50041338136_760776478b_n.jpg",
    "id_album": "-221671103",
    "description": "Sun_106490",
    "title": "Sun_106490",
    "link_img": "https://live.staticflickr.com/65535/50041338136_782456eb93_o.jpg",
    "id_image": "Sun_106490",
    "count_view": 0
  },
  {
    "link_thumb": "https://live.staticflickr.com/65535/50039819147_f7cd26e7ba_n.jpg",
    "id_album": "-437872736",
    "description": "Creature_503794",
    "title": "Creature_503794",
    "link_img": "https://live.staticflickr.com/65535/50039819147_72d4193f70_o.jpg",
    "id_image": "Creature_503794",
    "count_view": 0
  },
  {
    "link_thumb": "https://live.staticflickr.com/65535/50039447036_f2c0c2c122_n.jpg",
    "id_album": "-1964113117",
    "description": "City_213563",
    "title": "City_213563",
    "link_img": "https://live.staticflickr.com/65535/50039447036_61a03a201e_o.jpg",
    "id_image": "City_213563",
    "count_view": 0
  },
  {
    "link_thumb": "https://live.staticflickr.com/65535/50041297751_95e5ffc1fd_n.jpg",
    "id_album": "1267121215",
    "description": "Steampunk_190593",
    "title": "Steampunk_190593",
    "link_img": "https://live.staticflickr.com/65535/50041297751_a700c86c2a_o.jpg",
    "id_image": "Steampunk_190593",
    "count_view": 0
  },
  {
    "link_thumb": "https://live.staticflickr.com/65535/50040639912_ab67f845cc_n.jpg",
    "id_album": "779690680",
    "description": "Robot_857296",
    "title": "Robot_857296",
    "link_img": "https://live.staticflickr.com/65535/50040639912_f96b8c2797_o.jpg",
    "id_image": "Robot_857296",
    "count_view": 0
  },
  {
    "link_thumb": "https://live.staticflickr.com/65535/50040201792_41dba67683_n.jpg",
    "id_album": "395161030",
    "description": "Planet_364200",
    "title": "Planet_364200",
    "link_img": "https://live.staticflickr.com/65535/50040201792_f85f92b545_o.jpg",
    "id_image": "Planet_364200",
    "count_view": 0
  },
  {
    "link_thumb": "https://live.staticflickr.com/65535/50039744892_5d5b2226cb_n.jpg",
    "id_album": "-1964113117",
    "description": "City_64029",
    "title": "City_64029",
    "link_img": "https://live.staticflickr.com/65535/50039744892_853a84e044_o.jpg",
    "id_image": "City_64029",
    "count_view": 0
  },
  {
    "link_thumb": "https://live.staticflickr.com/65535/50039140633_0d2b479920_n.jpg",
    "id_album": "1402713104",
    "description": "Landscape_448946",
    "title": "Landscape_448946",
    "link_img": "https://live.staticflickr.com/65535/50039140633_03cf59fd5d_o.jpg",
    "id_image": "Landscape_448946",
    "count_view": 0
  },
  {
    "link_thumb": "https://live.staticflickr.com/65535/50040454211_847f2114c8_n.jpg",
    "id_album": "779690680",
    "description": "Robot_990152",
    "title": "Robot_990152",
    "link_img": "https://live.staticflickr.com/65535/50040454211_a22ff56103_o.jpg",
    "id_image": "Robot_990152",
    "count_view": 0
  },
  {
    "link_thumb": "https://live.staticflickr.com/65535/50039624952_f138dee3a4_n.jpg",
    "id_album": "869545341",
    "description": "Astronaut_676268",
    "title": "Astronaut_676268",
    "link_img": "https://live.staticflickr.com/65535/50039624952_2082d1a5be_o.jpg",
    "id_image": "Astronaut_676268",
    "count_view": 0
  },
  {
    "link_thumb": "https://live.staticflickr.com/65535/50041593541_37027a1073_n.jpg",
    "id_album": "-1675918237",
    "description": "WomenWarrior_985659",
    "title": "WomenWarrior_985659",
    "link_img": "https://live.staticflickr.com/65535/50041593541_37efdfa449_o.jpg",
    "id_image": "WomenWarrior_985659",
    "count_view": 0
  },
  {
    "link_thumb": "https://live.staticflickr.com/65535/50039234101_47916c6b9e_n.jpg",
    "id_album": "-406145265",
    "description": "Aircraft_145916",
    "title": "Aircraft_145916",
    "link_img": "https://live.staticflickr.com/65535/50039234101_52b1bf0684_o.jpg",
    "id_image": "Aircraft_145916",
    "count_view": 0
  },
  {
    "link_thumb": "https://live.staticflickr.com/65535/50041100507_9965084e7e_n.jpg",
    "id_album": "-1449720967",
    "description": "StarTrek_323586",
    "title": "StarTrek_323586",
    "link_img": "https://live.staticflickr.com/65535/50041100507_a06e4c9193_o.jpg",
    "id_image": "StarTrek_323586",
    "count_view": 0
  },
  {
    "link_thumb": "https://live.staticflickr.com/65535/50039683013_5db81b9238_n.jpg",
    "id_album": "-482547208",
    "description": "PostApocalyptic_971388",
    "title": "PostApocalyptic_971388",
    "link_img": "https://live.staticflickr.com/65535/50039683013_7292c81f04_o.jpg",
    "id_image": "PostApocalyptic_971388",
    "count_view": 0
  },
  {
    "link_thumb": "https://live.staticflickr.com/65535/50039368496_d5b3d48fc7_n.jpg",
    "id_album": "869545341",
    "description": "Astronaut_833507",
    "title": "Astronaut_833507",
    "link_img": "https://live.staticflickr.com/65535/50039368496_dd097b3db4_o.jpg",
    "id_image": "Astronaut_833507",
    "count_view": 0
  },
  {
    "link_thumb": "https://live.staticflickr.com/65535/50039837506_b04f773966_n.jpg",
    "id_album": "-1610342324",
    "description": "Nebula_792646",
    "title": "Nebula_792646",
    "link_img": "https://live.staticflickr.com/65535/50039837506_63d4131d9d_o.jpg",
    "id_image": "Nebula_792646",
    "count_view": 0
  },
  {
    "link_thumb": "https://live.staticflickr.com/65535/50040859583_d442ff6e1f_n.jpg",
    "id_album": "2020068132",
    "description": "Vehicle_714774",
    "title": "Vehicle_714774",
    "link_img": "https://live.staticflickr.com/65535/50040859583_b0177ce5d8_o.jpg",
    "id_image": "Vehicle_714774",
    "count_view": 0
  },
  {
    "link_thumb": "https://live.staticflickr.com/65535/50039628668_9112ebe46d_n.jpg",
    "id_album": "376235057",
    "description": "Planetscape_694465",
    "title": "Planetscape_694465",
    "link_img": "https://live.staticflickr.com/65535/50039628668_57b7ea11db_o.jpg",
    "id_image": "Planetscape_694465",
    "count_view": 0
  },
  {
    "link_thumb": "https://live.staticflickr.com/65535/50039421471_4bfd39ee46_n.jpg",
    "id_album": "406431601",
    "description": "Building_309918",
    "title": "Building_309918",
    "link_img": "https://live.staticflickr.com/65535/50039421471_ce450275c1_o.jpg",
    "id_image": "Building_309918",
    "count_view": 0
  },
  {
    "link_thumb": "https://live.staticflickr.com/65535/50040325237_26a1067750_n.jpg",
    "id_album": "-1102314093",
    "description": "Planets_22375",
    "title": "Planets_22375",
    "link_img": "https://live.staticflickr.com/65535/50040325237_4fe4a29c54_o.jpg",
    "id_image": "Planets_22375",
    "count_view": 0
  },
  {
    "link_thumb": "https://live.staticflickr.com/65535/50039932867_225c849820_n.jpg",
    "id_album": "1402713104",
    "description": "Landscape_274642",
    "title": "Landscape_274642",
    "link_img": "https://live.staticflickr.com/65535/50039932867_51bc5495b4_o.jpg",
    "id_image": "Landscape_274642",
    "count_view": 0
  },
  {
    "link_thumb": "https://live.staticflickr.com/65535/50040912373_73670ffd7d_n.jpg",
    "id_album": "-1261420436",
    "description": "Warrior_514705",
    "title": "Warrior_514705",
    "link_img": "https://live.staticflickr.com/65535/50040912373_a92c420ab1_o.jpg",
    "id_image": "Warrior_514705",
    "count_view": 0
  },
  {
    "link_thumb": "https://live.staticflickr.com/65535/50039372561_8545cea783_n.jpg",
    "id_album": "869545341",
    "description": "Astronaut_857747",
    "title": "Astronaut_857747",
    "link_img": "https://live.staticflickr.com/65535/50039372561_5d3e19c018_o.jpg",
    "id_image": "Astronaut_857747",
    "count_view": 0
  },
  {
    "link_thumb": "https://live.staticflickr.com/65535/50041788117_605ac920b8_n.jpg",
    "id_album": "-1126835654",
    "description": "Women_350154",
    "title": "Women_350154",
    "link_img": "https://live.staticflickr.com/65535/50041788117_617b52c05a_o.jpg",
    "id_image": "Women_350154",
    "count_view": 0
  },
  {
    "link_thumb": "https://live.staticflickr.com/65535/50040616113_4eb7c4ee0a_n.jpg",
    "id_album": "-1863373220",
    "description": "StarWars_344859",
    "title": "StarWars_344859",
    "link_img": "https://live.staticflickr.com/65535/50040616113_01ff22cc2e_o.jpg",
    "id_image": "StarWars_344859",
    "count_view": 0
  },
  {
    "link_thumb": "https://live.staticflickr.com/65535/50040068822_21f2fbeefb_n.jpg",
    "id_album": "-1610342324",
    "description": "Nebula_533835",
    "title": "Nebula_533835",
    "link_img": "https://live.staticflickr.com/65535/50040068822_87d6d935be_o.jpg",
    "id_image": "Nebula_533835",
    "count_view": 0
  },
  {
    "link_thumb": "https://live.staticflickr.com/65535/50039598833_63d6368744_n.jpg",
    "id_album": "-1102314093",
    "description": "Planets_957456",
    "title": "Planets_957456",
    "link_img": "https://live.staticflickr.com/65535/50039598833_9a86db98a6_o.jpg",
    "id_image": "Planets_957456",
    "count_view": 0
  },
  {
    "link_thumb": "https://live.staticflickr.com/65535/50039497722_9176eda5f2_n.jpg",
    "id_album": "-406145265",
    "description": "Aircraft_268465",
    "title": "Aircraft_268465",
    "link_img": "https://live.staticflickr.com/65535/50039497722_577b3c5bef_o.jpg",
    "id_image": "Aircraft_268465",
    "count_view": 0
  },
  {
    "link_thumb": "https://live.staticflickr.com/65535/50040350256_074030d6b9_n.jpg",
    "id_album": "779690680",
    "description": "Robot_649069",
    "title": "Robot_649069",
    "link_img": "https://live.staticflickr.com/65535/50040350256_b45a17d75d_o.jpg",
    "id_image": "Robot_649069",
    "count_view": 0
  },
  {
    "link_thumb": "https://live.staticflickr.com/65535/50039670092_9187e33790_n.jpg",
    "id_album": "1187037014",
    "description": "Battle_84029",
    "title": "Battle_84029",
    "link_img": "https://live.staticflickr.com/65535/50039670092_d94cc4c628_o.jpg",
    "id_image": "Battle_84029",
    "count_view": 0
  },
  {
    "link_thumb": "https://live.staticflickr.com/65535/50039360141_271e03bc19_n.jpg",
    "id_album": "869545341",
    "description": "Astronaut_591948",
    "title": "Astronaut_591948",
    "link_img": "https://live.staticflickr.com/65535/50039360141_bcf6c72a38_o.jpg",
    "id_image": "Astronaut_591948",
    "count_view": 0
  },
  {
    "link_thumb": "https://live.staticflickr.com/65535/50039873708_e9ded4b9c6_n.jpg",
    "id_album": "779690680",
    "description": "Robot_930303",
    "title": "Robot_930303",
    "link_img": "https://live.staticflickr.com/65535/50039873708_f1d4ba1866_o.jpg",
    "id_image": "Robot_930303",
    "count_view": 0
  },
  {
    "link_thumb": "https://live.staticflickr.com/65535/50039846823_b0ff9bd13a_n.jpg",
    "id_album": "779690680",
    "description": "Robot_901627",
    "title": "Robot_901627",
    "link_img": "https://live.staticflickr.com/65535/50039846823_563937f894_o.jpg",
    "id_image": "Robot_901627",
    "count_view": 0
  },
  {
    "link_thumb": "https://live.staticflickr.com/65535/50040706148_73ae3064af_n.jpg",
    "id_album": "-1587696329",
    "description": "Stars_216544",
    "title": "Stars_216544",
    "link_img": "https://live.staticflickr.com/65535/50040706148_fcaa84ffa5_o.jpg",
    "id_image": "Stars_216544",
    "count_view": 0
  },
  {
    "link_thumb": "https://live.staticflickr.com/65535/50040963318_5f94f0d71d_n.jpg",
    "id_album": "-1126835654",
    "description": "Women_283781",
    "title": "Women_283781",
    "link_img": "https://live.staticflickr.com/65535/50040963318_392fdfd1ee_o.jpg",
    "id_image": "Women_283781",
    "count_view": 0
  },
  {
    "link_thumb": "https://live.staticflickr.com/65535/50038906793_44291829a3_n.jpg",
    "id_album": "-1964113117",
    "description": "City_265068",
    "title": "City_265068",
    "link_img": "https://live.staticflickr.com/65535/50038906793_43b369d428_o.jpg",
    "id_image": "City_265068",
    "count_view": 0
  },
  {
    "link_thumb": "https://live.staticflickr.com/65535/50039919987_4d293cbc9a_n.jpg",
    "id_album": "1204249541",
    "description": "Galaxy_947087",
    "title": "Galaxy_947087",
    "link_img": "https://live.staticflickr.com/65535/50039919987_2525fe6667_o.jpg",
    "id_image": "Galaxy_947087",
    "count_view": 0
  },
  {
    "link_thumb": "https://live.staticflickr.com/65535/50039848511_49c5b7c785_n.jpg",
    "id_album": "-1610342324",
    "description": "Nebula_879755",
    "title": "Nebula_879755",
    "link_img": "https://live.staticflickr.com/65535/50039848511_8597a80c72_o.jpg",
    "id_image": "Nebula_879755",
    "count_view": 0
  },
  {
    "link_thumb": "https://live.staticflickr.com/65535/50038891683_67db6f16f3_n.jpg",
    "id_album": "-1964113117",
    "description": "City_187729",
    "title": "City_187729",
    "link_img": "https://live.staticflickr.com/65535/50038891683_52d189aeed_o.jpg",
    "id_image": "City_187729",
    "count_view": 0
  },
  {
    "link_thumb": "https://live.staticflickr.com/65535/50039710386_d73d9763a4_n.jpg",
    "id_album": "1402713104",
    "description": "Landscape_852162",
    "title": "Landscape_852162",
    "link_img": "https://live.staticflickr.com/65535/50039710386_d8d68de6d3_o.jpg",
    "id_image": "Landscape_852162",
    "count_view": 0
  },
  {
    "link_thumb": "https://live.staticflickr.com/65535/50041604467_3649713fbe_n.jpg",
    "id_album": "-221671103",
    "description": "Sun_215993",
    "title": "Sun_215993",
    "link_img": "https://live.staticflickr.com/65535/50041604467_2aba0a01e6_o.jpg",
    "id_image": "Sun_215993",
    "count_view": 0
  },
  {
    "link_thumb": "https://live.staticflickr.com/65535/50040529783_7d356bc534_n.jpg",
    "id_album": "-1863373220",
    "description": "StarWars_107444",
    "title": "StarWars_107444",
    "link_img": "https://live.staticflickr.com/65535/50040529783_4c8901f064_o.jpg",
    "id_image": "StarWars_107444",
    "count_view": 0
  },
  {
    "link_thumb": "https://live.staticflickr.com/65535/50039087083_5911ec77a5_n.jpg",
    "id_album": "1204249541",
    "description": "Galaxy_450494",
    "title": "Galaxy_450494",
    "link_img": "https://live.staticflickr.com/65535/50039087083_b25c7d31f3_o.jpg",
    "id_image": "Galaxy_450494",
    "count_view": 0
  },
  {
    "link_thumb": "https://live.staticflickr.com/65535/50041218681_8e7295e89e_n.jpg",
    "id_album": "-1863373220",
    "description": "StarWars_714561",
    "title": "StarWars_714561",
    "link_img": "https://live.staticflickr.com/65535/50041218681_2131b43da0_o.jpg",
    "id_image": "StarWars_714561",
    "count_view": 0
  },
  {
    "link_thumb": "https://live.staticflickr.com/65535/50039607112_95b5a6d751_n.jpg",
    "id_album": "523598895",
    "description": "Artistic_857266",
    "title": "Artistic_857266",
    "link_img": "https://live.staticflickr.com/65535/50039607112_1b7fba34c7_o.jpg",
    "id_image": "Artistic_857266",
    "count_view": 0
  },
  {
    "link_thumb": "https://live.staticflickr.com/65535/50040353661_7a7b63d4a3_n.jpg",
    "id_album": "779690680",
    "description": "Robot_658830",
    "title": "Robot_658830",
    "link_img": "https://live.staticflickr.com/65535/50040353661_c603f441f9_o.jpg",
    "id_image": "Robot_658830",
    "count_view": 0
  },
  {
    "link_thumb": "https://live.staticflickr.com/65535/50040228152_d15999c0aa_n.jpg",
    "id_album": "395161030",
    "description": "Planet_559160",
    "title": "Planet_559160",
    "link_img": "https://live.staticflickr.com/65535/50040228152_52e8538be3_o.jpg",
    "id_image": "Planet_559160",
    "count_view": 0
  },
  {
    "link_thumb": "https://live.staticflickr.com/65535/50039403796_b011cf9fa4_n.jpg",
    "id_album": "1187037014",
    "description": "Battle_599838",
    "title": "Battle_599838",
    "link_img": "https://live.staticflickr.com/65535/50039403796_f628fa3213_o.jpg",
    "id_image": "Battle_599838",
    "count_view": 0
  },
  {
    "link_thumb": "https://live.staticflickr.com/65535/50040034821_12b2f59a6b_n.jpg",
    "id_album": "814701616",
    "description": "PlanetaryRing_463721",
    "title": "PlanetaryRing_463721",
    "link_img": "https://live.staticflickr.com/65535/50040034821_09b987c7f3_o.jpg",
    "id_image": "PlanetaryRing_463721",
    "count_view": 0
  },
  {
    "link_thumb": "https://live.staticflickr.com/65535/50040030201_d3508b8cc9_n.jpg",
    "id_album": "814701616",
    "description": "PlanetaryRing_361107",
    "title": "PlanetaryRing_361107",
    "link_img": "https://live.staticflickr.com/65535/50040030201_55729dd5b0_o.jpg",
    "id_image": "PlanetaryRing_361107",
    "count_view": 0
  },
  {
    "link_thumb": "https://live.staticflickr.com/65535/50039010518_5304b77918_n.jpg",
    "id_album": "-437872736",
    "description": "Creature_879754",
    "title": "Creature_879754",
    "link_img": "https://live.staticflickr.com/65535/50039010518_b046b12d77_o.jpg",
    "id_image": "Creature_879754",
    "count_view": 0
  },
  {
    "link_thumb": "https://live.staticflickr.com/65535/50039860243_6e258db873_n.jpg",
    "id_album": "779690680",
    "description": "Robot_915581",
    "title": "Robot_915581",
    "link_img": "https://live.staticflickr.com/65535/50039860243_f1407d9f2a_o.jpg",
    "id_image": "Robot_915581",
    "count_view": 0
  },
  {
    "link_thumb": "https://live.staticflickr.com/65535/50038968228_2a24e08cbe_n.jpg",
    "id_album": "-1964113117",
    "description": "City_902988",
    "title": "City_902988",
    "link_img": "https://live.staticflickr.com/65535/50038968228_9a98efffd4_o.jpg",
    "id_image": "City_902988",
    "count_view": 0
  },
  {
    "link_thumb": "https://live.staticflickr.com/65535/50040681182_b5361030f0_n.jpg",
    "id_album": "779690680",
    "description": "Robot_920333",
    "title": "Robot_920333",
    "link_img": "https://live.staticflickr.com/65535/50040681182_7a01088e57_o.jpg",
    "id_image": "Robot_920333",
    "count_view": 0
  },
  {
    "link_thumb": "https://live.staticflickr.com/65535/50040801177_9a479cc642_n.jpg",
    "id_album": "1613540653",
    "description": "Space_748350",
    "title": "Space_748350",
    "link_img": "https://live.staticflickr.com/65535/50040801177_cf00ba5ec8_o.jpg",
    "id_image": "Space_748350",
    "count_view": 0
  },
  {
    "link_thumb": "https://live.staticflickr.com/65535/50039257173_c761bce870_n.jpg",
    "id_album": "-1610342324",
    "description": "Nebula_548004",
    "title": "Nebula_548004",
    "link_img": "https://live.staticflickr.com/65535/50039257173_f9f8fb169f_o.jpg",
    "id_image": "Nebula_548004",
    "count_view": 0
  },
  {
    "link_thumb": "https://live.staticflickr.com/65535/50038930628_18a352b553_n.jpg",
    "id_album": "-1964113117",
    "description": "City_567071",
    "title": "City_567071",
    "link_img": "https://live.staticflickr.com/65535/50038930628_4dbc05c10d_o.jpg",
    "id_image": "City_567071",
    "count_view": 0
  },
  {
    "link_thumb": "https://live.staticflickr.com/65535/50039959752_05af802ce6_n.jpg",
    "id_album": "1402713104",
    "description": "Landscape_6391",
    "title": "Landscape_6391",
    "link_img": "https://live.staticflickr.com/65535/50039959752_f7daae072a_o.jpg",
    "id_image": "Landscape_6391",
    "count_view": 0
  },
  {
    "link_thumb": "https://live.staticflickr.com/65535/50039246993_53def207b1_n.jpg",
    "id_album": "-1610342324",
    "description": "Nebula_439287",
    "title": "Nebula_439287",
    "link_img": "https://live.staticflickr.com/65535/50039246993_0f07fbacba_o.jpg",
    "id_image": "Nebula_439287",
    "count_view": 0
  },
  {
    "link_thumb": "https://live.staticflickr.com/65535/50040158121_22b325166b_n.jpg",
    "id_album": "376235057",
    "description": "Planetscape_292588",
    "title": "Planetscape_292588",
    "link_img": "https://live.staticflickr.com/65535/50040158121_f44342fa57_o.jpg",
    "id_image": "Planetscape_292588",
    "count_view": 0
  },
  {
    "link_thumb": "https://live.staticflickr.com/65535/50039790232_6d6812ae80_n.jpg",
    "id_album": "-1964113117",
    "description": "City_962967",
    "title": "City_962967",
    "link_img": "https://live.staticflickr.com/65535/50039790232_2bac71de3a_o.jpg",
    "id_image": "City_962967",
    "count_view": 0
  },
  {
    "link_thumb": "https://live.staticflickr.com/65535/50039500911_52bbf8816b_n.jpg",
    "id_album": "-1964113117",
    "description": "City_842652",
    "title": "City_842652",
    "link_img": "https://live.staticflickr.com/65535/50039500911_8c4d262cef_o.jpg",
    "id_image": "City_842652",
    "count_view": 0
  },
  {
    "link_thumb": "https://live.staticflickr.com/65535/50040097252_711012a9c8_n.jpg",
    "id_album": "-1610342324",
    "description": "Nebula_77204",
    "title": "Nebula_77204",
    "link_img": "https://live.staticflickr.com/65535/50040097252_702811d354_o.jpg",
    "id_image": "Nebula_77204",
    "count_view": 0
  },
  {
    "link_thumb": "https://live.staticflickr.com/65535/50039983556_b036447188_n.jpg",
    "id_album": "395161030",
    "description": "Planet_920772",
    "title": "Planet_920772",
    "link_img": "https://live.staticflickr.com/65535/50039983556_7e1619c1ef_o.jpg",
    "id_image": "Planet_920772",
    "count_view": 0
  }
]