[
  {
    "link_thumb": "https://live.staticflickr.com/65535/50038901743_0e03d54cc6_n.jpg",
    "id_album": "-1964113117",
    "description": "City_229033",
    "title": "City_229033",
    "link_img": "https://live.staticflickr.com/65535/50038901743_b3d146c39f_o.jpg",
    "id_image": "City_229033",
    "count_view": 0
  },
  {
    "link_thumb": "https://live.staticflickr.com/65535/50040588698_a5b95d75a7_n.jpg",
    "id_album": "-1863373220",
    "description": "StarWars_226928",
    "title": "StarWars_226928",
    "link_img": "https://live.staticflickr.com/65535/50040588698_b26eb2769b_o.jpg",
    "id_image": "StarWars_226928",
    "count_view": 0
  },
  {
    "link_thumb": "https://live.staticflickr.com/65535/50040089096_cc2de463a6_n.jpg",
    "id_album": "-1102314093",
    "description": "Planets_346529",
    "title": "Planets_346529",
    "link_img": "https://live.staticflickr.com/65535/50040089096_77848d2598_o.jpg",
    "id_image": "Planets_346529",
    "count_view": 0
  },
  {
    "link_thumb": "https://live.staticflickr.com/65535/50039789986_539f6e0629_n.jpg",
    "id_album": "-1610342324",
    "description": "Nebula_393940",
    "title": "Nebula_393940",
    "link_img": "https://live.staticflickr.com/65535/50039789986_4301ffbcce_o.jpg",
    "id_image": "Nebula_393940",
    "count_view": 0
  },
  {
    "link_thumb": "https://live.staticflickr.com/65535/50041690132_5b04492a65_n.jpg",
    "id_album": "2020068132",
    "description": "Vehicle_978184",
    "title": "Vehicle_978184",
    "link_img": "https://live.staticflickr.com/65535/50041690132_3b8b8287ac_o.jpg",
    "id_image": "Vehicle_978184",
    "count_view": 0
  },
  {
    "link_thumb": "https://live.staticflickr.com/65535/50039646867_fd5082eae5_n.jpg",
    "id_album": "869545341",
    "description": "Astronaut_957347",
    "title": "Astronaut_957347",
    "link_img": "https://live.staticflickr.com/65535/50039646867_27999c2455_o.jpg",
    "id_image": "Astronaut_957347",
    "count_view": 0
  },
  {
    "link_thumb": "https://live.staticflickr.com/65535/50040666047_4dc4fff5ec_n.jpg",
    "id_album": "779690680",
    "description": "Robot_903931",
    "title": "Robot_903931",
    "link_img": "https://live.staticflickr.com/65535/50040666047_c0c1187224_o.jpg",
    "id_image": "Robot_903931",
    "count_view": 0
  },
  {
    "link_thumb": "https://live.staticflickr.com/65535/50039701858_76760212f5_n.jpg",
    "id_album": "779690680",
    "description": "Robot_145924",
    "title": "Robot_145924",
    "link_img": "https://live.staticflickr.com/65535/50039701858_cbdbae8548_o.jpg",
    "id_image": "Robot_145924",
    "count_view": 0
  },
  {
    "link_thumb": "https://live.staticflickr.com/65535/50040029187_2c81f6e6b1_n.jpg",
    "id_album": "-1610342324",
    "description": "Nebula_179730",
    "title": "Nebula_179730",
    "link_img": "https://live.staticflickr.com/65535/50040029187_f207fdc38f_o.jpg",
    "id_image": "Nebula_179730",
    "count_view": 0
  },
  {
    "link_thumb": "https://live.staticflickr.com/65535/50039085033_dcb319cbe4_n.jpg",
    "id_album": "1204249541",
    "description": "Galaxy_437551",
    "title": "Galaxy_437551",
    "link_img": "https://live.staticflickr.com/65535/50039085033_8d7c8d82fa_o.jpg",
    "id_image": "Galaxy_437551",
    "count_view": 0
  },
  {
    "link_thumb": "https://live.staticflickr.com/65535/50039998771_7b37b4b555_n.jpg",
    "id_album": "1443611160",
    "description": "PlanetRise_249342",
    "title": "PlanetRise_249342",
    "link_img": "https://live.staticflickr.com/65535/50039998771_8b6bd105ba_o.jpg",
    "id_image": "PlanetRise_249342",
    "count_view": 0
  },
  {
    "link_thumb": "https://live.staticflickr.com/65535/50038772593_382ecebfee_n.jpg",
    "id_album": "523598895",
    "description": "Artistic_233260",
    "title": "Artistic_233260",
    "link_img": "https://live.staticflickr.com/65535/50038772593_a9f7f1991e_o.jpg",
    "id_image": "Artistic_233260",
    "count_view": 0
  },
  {
    "link_thumb": "https://live.staticflickr.com/65535/50040568672_0fe9b57ab5_n.jpg",
    "id_album": "779690680",
    "description": "Robot_407249",
    "title": "Robot_407249",
    "link_img": "https://live.staticflickr.com/65535/50040568672_c9b9ac0a36_o.jpg",
    "id_image": "Robot_407249",
    "count_view": 0
  },
  {
    "link_thumb": "https://live.staticflickr.com/65535/50039875563_d1d7d73a2d_n.jpg",
    "id_album": "779690680",
    "description": "Robot_933176",
    "title": "Robot_933176",
    "link_img": "https://live.staticflickr.com/65535/50039875563_3fabc64571_o.jpg",
    "id_image": "Robot_933176",
    "count_view": 0
  },
  {
    "link_thumb": "https://live.staticflickr.com/65535/50038862808_32f6d8b9a7_n.jpg",
    "id_album": "-1780971522",
    "description": "Biohazard_18630",
    "title": "Biohazard_18630",
    "link_img": "https://live.staticflickr.com/65535/50038862808_ea821355c8_o.jpg",
    "id_image": "Biohazard_18630",
    "count_view": 0
  },
  {
    "link_thumb": "https://live.staticflickr.com/65535/50041478901_45a19d0907_n.jpg",
    "id_album": "-1261420436",
    "description": "Warrior_616940",
    "title": "Warrior_616940",
    "link_img": "https://live.staticflickr.com/65535/50041478901_036e5a5a11_o.jpg",
    "id_image": "Warrior_616940",
    "count_view": 0
  },
  {
    "link_thumb": "https://live.staticflickr.com/65535/50039852108_1205a9463a_n.jpg",
    "id_album": "779690680",
    "description": "Robot_909548",
    "title": "Robot_909548",
    "link_img": "https://live.staticflickr.com/65535/50039852108_430164f33d_o.jpg",
    "id_image": "Robot_909548",
    "count_view": 0
  },
  {
    "link_thumb": "https://live.staticflickr.com/65535/50039288848_83c4740851_n.jpg",
    "id_album": "-1610342324",
    "description": "Nebula_793712",
    "title": "Nebula_793712",
    "link_img": "https://live.staticflickr.com/65535/50039288848_a042f4d022_o.jpg",
    "id_image": "Nebula_793712",
    "count_view": 0
  },
  {
    "link_thumb": "https://live.staticflickr.com/65535/50039926978_c0fd6d5530_n.jpg",
    "id_album": "1613540653",
    "description": "Space_227839",
    "title": "Space_227839",
    "link_img": "https://live.staticflickr.com/65535/50039926978_6d01590ccd_o.jpg",
    "id_image": "Space_227839",
    "count_view": 0
  },
  {
    "link_thumb": "https://live.staticflickr.com/65535/50039469721_1a4b5a1c41_n.jpg",
    "id_album": "-1964113117",
    "description": "City_414109",
    "title": "City_414109",
    "link_img": "https://live.staticflickr.com/65535/50039469721_fba8685a0a_o.jpg",
    "id_image": "City_414109",
    "count_view": 0
  },
  {
    "link_thumb": "https://live.staticflickr.com/65535/50039378366_ac1d1b1f91_n.jpg",
    "id_album": "869545341",
    "description": "Astronaut_923960",
    "title": "Astronaut_923960",
    "link_img": "https://live.staticflickr.com/65535/50039378366_e12d4744d3_o.jpg",
    "id_image": "Astronaut_923960",
    "count_view": 0
  },
  {
    "link_thumb": "https://live.staticflickr.com/65535/50040406481_1245bc9897_n.jpg",
    "id_album": "779690680",
    "description": "Robot_910938",
    "title": "Robot_910938",
    "link_img": "https://live.staticflickr.com/65535/50040406481_0e7163d791_o.jpg",
    "id_image": "Robot_910938",
    "count_view": 0
  },
  {
    "link_thumb": "https://live.staticflickr.com/65535/50040129961_6f6f32658e_n.jpg",
    "id_album": "-1102314093",
    "description": "Planets_714854",
    "title": "Planets_714854",
    "link_img": "https://live.staticflickr.com/65535/50040129961_7b8e0ebc58_o.jpg",
    "id_image": "Planets_714854",
    "count_view": 0
  },
  {
    "link_thumb": "https://live.staticflickr.com/65535/50039989788_f922d1e884_n.jpg",
    "id_album": "1613540653",
    "description": "Space_822481",
    "title": "Space_822481",
    "link_img": "https://live.staticflickr.com/65535/50039989788_f0700fea1e_o.jpg",
    "id_image": "Space_822481",
    "count_view": 0
  },
  {
    "link_thumb": "https://live.staticflickr.com/65535/50039025743_a40a0c7867_n.jpg",
    "id_album": "829169633",
    "description": "Cyborg_1010375",
    "title": "Cyborg_1010375",
    "link_img": "https://live.staticflickr.com/65535/50039025743_4e62b62ab8_o.jpg",
    "id_image": "Cyborg_1010375",
    "count_view": 0
  },
  {
    "link_thumb": "https://live.staticflickr.com/65535/50041228796_0601d2535c_n.jpg",
    "id_album": "-1863373220",
    "description": "StarWars_831236",
    "title": "StarWars_831236",
    "link_img": "https://live.staticflickr.com/65535/50041228796_d4ab5b0a6a_o.jpg",
    "id_image": "StarWars_831236",
    "count_view": 0
  },
  {
    "link_thumb": "https://live.staticflickr.com/65535/50039879788_2313c2a6ce_n.jpg",
    "id_album": "779690680",
    "description": "Robot_937813",
    "title": "Robot_937813",
    "link_img": "https://live.staticflickr.com/65535/50039879788_08f557951f_o.jpg",
    "id_image": "Robot_937813",
    "count_view": 0
  },
  {
    "link_thumb": "https://live.staticflickr.com/65535/50039903936_7c2cc3f1af_n.jpg",
    "id_album": "395161030",
    "description": "Planet_108501",
    "title": "Planet_108501",
    "link_img": "https://live.staticflickr.com/65535/50039903936_21f1c966f2_o.jpg",
    "id_image": "Planet_108501",
    "count_view": 0
  },
  {
    "link_thumb": "https://live.staticflickr.com/65535/50038772318_1c4dda33ba_n.jpg",
    "id_album": "523598895",
    "description": "Artistic_229605",
    "title": "Artistic_229605",
    "link_img": "https://live.staticflickr.com/65535/50038772318_86e1b319f9_o.jpg",
    "id_image": "Artistic_229605",
    "count_view": 0
  },
  {
    "link_thumb": "https://live.staticflickr.com/65535/50039664087_fccca7b6aa_n.jpg",
    "id_album": "1187037014",
    "description": "Battle_331559",
    "title": "Battle_331559",
    "link_img": "https://live.staticflickr.com/65535/50039664087_278e638917_o.jpg",
    "id_image": "Battle_331559",
    "count_view": 0
  },
  {
    "link_thumb": "https://live.staticflickr.com/65535/50039545051_252dcfaf14_n.jpg",
    "id_album": "894679094",
    "description": "Collision_957418",
    "title": "Collision_957418",
    "link_img": "https://live.staticflickr.com/65535/50039545051_c222cb5c3a_o.jpg",
    "id_image": "Collision_957418",
    "count_view": 0
  },
  {
    "link_thumb": "https://live.staticflickr.com/65535/50040796597_0a71136d1a_n.jpg",
    "id_album": "1613540653",
    "description": "Space_704756",
    "title": "Space_704756",
    "link_img": "https://live.staticflickr.com/65535/50040796597_0c10b9cec4_o.jpg",
    "id_image": "Space_704756",
    "count_view": 0
  },
  {
    "link_thumb": "https://live.staticflickr.com/65535/50041117231_5704b7f64a_n.jpg",
    "id_album": "-1863373220",
    "description": "StarWars_107748",
    "title": "StarWars_107748",
    "link_img": "https://live.staticflickr.com/65535/50041117231_9d7ac872d7_o.jpg",
    "id_image": "StarWars_107748",
    "count_view": 0
  },
  {
    "link_thumb": "https://live.staticflickr.com/65535/50040388711_57a3bbc126_n.jpg",
    "id_album": "779690680",
    "description": "Robot_878416",
    "title": "Robot_878416",
    "link_img": "https://live.staticflickr.com/65535/50040388711_3650cf58c8_o.jpg",
    "id_image": "Robot_878416",
    "count_view": 0
  },
  {
    "link_thumb": "https://live.staticflickr.com/65535/50040432261_e60d0b39ec_n.jpg",
    "id_album": "779690680",
    "description": "Robot_936220",
    "title": "Robot_936220",
    "link_img": "https://live.staticflickr.com/65535/50040432261_f51f96eaa7_o.jpg",
    "id_image": "Robot_936220",
    "count_view": 0
  },
  {
    "link_thumb": "https://live.staticflickr.com/65535/50040416802_b19915cb50_n.jpg",
    "id_album": "376235057",
    "description": "Planetscape_1009887",
    "title": "Planetscape_1009887",
    "link_img": "https://live.staticflickr.com/65535/50040416802_48018e620b_o.jpg",
    "id_image": "Planetscape_1009887",
    "count_view": 0
  },
  {
    "link_thumb": "https://live.staticflickr.com/65535/50040634398_30e0ecf8db_n.jpg",
    "id_album": "-1863373220",
    "description": "StarWars_497641",
    "title": "StarWars_497641",
    "link_img": "https://live.staticflickr.com/65535/50040634398_82b57c6b64_o.jpg",
    "id_image": "StarWars_497641",
    "count_view": 0
  },
  {
    "link_thumb": "https://live.staticflickr.com/65535/50041263421_118371238b_n.jpg",
    "id_album": "-1587696329",
    "description": "Stars_346525",
    "title": "Stars_346525",
    "link_img": "https://live.staticflickr.com/65535/50041263421_c2cd6e7fb7_o.jpg",
    "id_image": "Stars_346525",
    "count_view": 0
  },
  {
    "link_thumb": "https://live.staticflickr.com/65535/50038916983_99f9854c33_n.jpg",
    "id_album": "-1964113117",
    "description": "City_352207",
    "title": "City_352207",
    "link_img": "https://live.staticflickr.com/65535/50038916983_3fde450bd6_o.jpg",
    "id_image": "City_352207",
    "count_view": 0
  },
  {
    "link_thumb": "https://live.staticflickr.com/65535/50040111847_4e70bb7b4e_n.jpg",
    "id_album": "-1610342324",
    "description": "Nebula_876168",
    "title": "Nebula_876168",
    "link_img": "https://live.staticflickr.com/65535/50040111847_ef0a697003_o.jpg",
    "id_image": "Nebula_876168",
    "count_view": 0
  },
  {
    "link_thumb": "https://live.staticflickr.com/65535/50040744897_fca21fe1c2_n.jpg",
    "id_album": "1613540653",
    "description": "Space_218839",
    "title": "Space_218839",
    "link_img": "https://live.staticflickr.com/65535/50040744897_e0c4173615_o.jpg",
    "id_image": "Space_218839",
    "count_view": 0
  },
  {
    "link_thumb": "https://live.staticflickr.com/65535/50039694682_ccfe7af7db_n.jpg",
    "id_album": "-1964113117",
    "description": "City_105543",
    "title": "City_105543",
    "link_img": "https://live.staticflickr.com/65535/50039694682_4892406183_o.jpg",
    "id_image": "City_105543",
    "count_view": 0
  },
  {
    "link_thumb": "https://live.staticflickr.com/65535/50039230163_ccbda9287a_n.jpg",
    "id_album": "-1610342324",
    "description": "Nebula_267750",
    "title": "Nebula_267750",
    "link_img": "https://live.staticflickr.com/65535/50039230163_0a82d33b84_o.jpg",
    "id_image": "Nebula_267750",
    "count_view": 0
  },
  {
    "link_thumb": "https://live.staticflickr.com/65535/50041606792_835fa7d74d_n.jpg",
    "id_album": "-221671103",
    "description": "Sun_264703",
    "title": "Sun_264703",
    "link_img": "https://live.staticflickr.com/65535/50041606792_82df70dd87_o.jpg",
    "id_image": "Sun_264703",
    "count_view": 0
  },
  {
    "link_thumb": "https://live.staticflickr.com/65535/50039160673_9981b5bff9_n.jpg",
    "id_album": "1402713104",
    "description": "Landscape_842682",
    "title": "Landscape_842682",
    "link_img": "https://live.staticflickr.com/65535/50039160673_a6c80ca108_o.jpg",
    "id_image": "Landscape_842682",
    "count_view": 0
  },
  {
    "link_thumb": "https://live.staticflickr.com/65535/50040677492_44ee7341fa_n.jpg",
    "id_album": "779690680",
    "description": "Robot_915576",
    "title": "Robot_915576",
    "link_img": "https://live.staticflickr.com/65535/50040677492_c129791c11_o.jpg",
    "id_image": "Robot_915576",
    "count_view": 0
  },
  {
    "link_thumb": "https://live.staticflickr.com/65535/50039920417_f3c2fe3f38_n.jpg",
    "id_album": "1204249541",
    "description": "Galaxy_957478",
    "title": "Galaxy_957478",
    "link_img": "https://live.staticflickr.com/65535/50039920417_70639223d4_o.jpg",
    "id_image": "Galaxy_957478",
    "count_view": 0
  },
  {
    "link_thumb": "https://live.staticflickr.com/65535/50040123396_fc122e5cb3_n.jpg",
    "id_album": "-1102314093",
    "description": "Planets_533841",
    "title": "Planets_533841",
    "link_img": "https://live.staticflickr.com/65535/50040123396_e8f6a33330_o.jpg",
    "id_image": "Planets_533841",
    "count_view": 0
  },
  {
    "link_thumb": "https://live.staticflickr.com/65535/50039931833_0583e28360_n.jpg",
    "id_album": "1613540653",
    "description": "Space_286915",
    "title": "Space_286915",
    "link_img": "https://live.staticflickr.com/65535/50039931833_b924b676e3_o.jpg",
    "id_image": "Space_286915",
    "count_view": 0
  },
  {
    "link_thumb": "https://live.staticflickr.com/65535/50040220276_5b3c24c238_n.jpg",
    "id_album": "-482547208",
    "description": "PostApocalyptic_709114",
    "title": "PostApocalyptic_709114",
    "link_img": "https://live.staticflickr.com/65535/50040220276_095098851d_o.jpg",
    "id_image": "PostApocalyptic_709114",
    "count_view": 0
  },
  {
    "link_thumb": "https://live.staticflickr.com/65535/50039655133_b4cc6d9963_n.jpg",
    "id_album": "-482547208",
    "description": "PostApocalyptic_337385",
    "title": "PostApocalyptic_337385",
    "link_img": "https://live.staticflickr.com/65535/50039655133_136d8bb3a0_o.jpg",
    "id_image": "PostApocalyptic_337385",
    "count_view": 0
  },
  {
    "link_thumb": "https://live.staticflickr.com/65535/50039283586_23092eff4e_n.jpg",
    "id_album": "-419633230",
    "description": "Apocalyptic_340438",
    "title": "Apocalyptic_340438",
    "link_img": "https://live.staticflickr.com/65535/50039283586_9f31e4ee3e_o.jpg",
    "id_image": "Apocalyptic_340438",
    "count_view": 0
  },
  {
    "link_thumb": "https://live.staticflickr.com/65535/50041178056_c865857b68_n.jpg",
    "id_album": "-1863373220",
    "description": "StarWars_411412",
    "title": "StarWars_411412",
    "link_img": "https://live.staticflickr.com/65535/50041178056_b87ac830e3_o.jpg",
    "id_image": "StarWars_411412",
    "count_view": 0
  },
  {
    "link_thumb": "https://live.staticflickr.com/65535/50040227822_f4bef014f4_n.jpg",
    "id_album": "395161030",
    "description": "Planet_559154",
    "title": "Planet_559154",
    "link_img": "https://live.staticflickr.com/65535/50040227822_2e47cdec46_o.jpg",
    "id_image": "Planet_559154",
    "count_view": 0
  },
  {
    "link_thumb": "https://live.staticflickr.com/65535/50040505977_bff99170d2_n.jpg",
    "id_album": "-839602625",
    "description": "Predator_416548",
    "title": "Predator_416548",
    "link_img": "https://live.staticflickr.com/65535/50040505977_72b445db87_o.jpg",
    "id_image": "Predator_416548",
    "count_view": 0
  },
  {
    "link_thumb": "https://live.staticflickr.com/65535/50039628057_82de37ed1d_n.jpg",
    "id_album": "869545341",
    "description": "Astronaut_737999",
    "title": "Astronaut_737999",
    "link_img": "https://live.staticflickr.com/65535/50039628057_0a5d06e28a_o.jpg",
    "id_image": "Astronaut_737999",
    "count_view": 0
  },
  {
    "link_thumb": "https://live.staticflickr.com/65535/50039668851_6525914227_n.jpg",
    "id_album": "1402713104",
    "description": "Landscape_279664",
    "title": "Landscape_279664",
    "link_img": "https://live.staticflickr.com/65535/50039668851_772d764613_o.jpg",
    "id_image": "Landscape_279664",
    "count_view": 0
  },
  {
    "link_thumb": "https://live.staticflickr.com/65535/50039851273_f55b51a7b6_n.jpg",
    "id_album": "779690680",
    "description": "Robot_907940",
    "title": "Robot_907940",
    "link_img": "https://live.staticflickr.com/65535/50039851273_248483de52_o.jpg",
    "id_image": "Robot_907940",
    "count_view": 0
  },
  {
    "link_thumb": "https://live.staticflickr.com/65535/50039106558_84b5a464ec_n.jpg",
    "id_album": "1204249541",
    "description": "Galaxy_905628",
    "title": "Galaxy_905628",
    "link_img": "https://live.staticflickr.com/65535/50039106558_e8b65c48ef_o.jpg",
    "id_image": "Galaxy_905628",
    "count_view": 0
  },
  {
    "link_thumb": "https://live.staticflickr.com/65535/50040655997_737e3286e7_n.jpg",
    "id_album": "779690680",
    "description": "Robot_883159",
    "title": "Robot_883159",
    "link_img": "https://live.staticflickr.com/65535/50040655997_6f73399a42_o.jpg",
    "id_image": "Robot_883159",
    "count_view": 0
  },
  {
    "link_thumb": "https://live.staticflickr.com/65535/50040670432_0c49129124_n.jpg",
    "id_album": "779690680",
    "description": "Robot_909551",
    "title": "Robot_909551",
    "link_img": "https://live.staticflickr.com/65535/50040670432_194e593d58_o.jpg",
    "id_image": "Robot_909551",
    "count_view": 0
  },
  {
    "link_thumb": "https://live.staticflickr.com/65535/50039790117_1720ee81b3_n.jpg",
    "id_album": "-1964113117",
    "description": "City_962040",
    "title": "City_962040",
    "link_img": "https://live.staticflickr.com/65535/50039790117_b7efa71103_o.jpg",
    "id_image": "City_962040",
    "count_view": 0
  },
  {
    "link_thumb": "https://live.staticflickr.com/65535/50040022622_6f16b6a094_n.jpg",
    "id_album": "416351698",
    "description": "Moon_873971",
    "title": "Moon_873971",
    "link_img": "https://live.staticflickr.com/65535/50040022622_7c229f6f4f_o.jpg",
    "id_image": "Moon_873971",
    "count_view": 0
  },
  {
    "link_thumb": "https://live.staticflickr.com/65535/50041241146_bae6f29631_n.jpg",
    "id_album": "-1863373220",
    "description": "StarWars_916314",
    "title": "StarWars_916314",
    "link_img": "https://live.staticflickr.com/65535/50041241146_9b1eda3aa1_o.jpg",
    "id_image": "StarWars_916314",
    "count_view": 0
  },
  {
    "link_thumb": "https://live.staticflickr.com/65535/50040101042_26b4895c52_n.jpg",
    "id_album": "-1610342324",
    "description": "Nebula_790646",
    "title": "Nebula_790646",
    "link_img": "https://live.staticflickr.com/65535/50040101042_799687acac_o.jpg",
    "id_image": "Nebula_790646",
    "count_view": 0
  },
  {
    "link_thumb": "https://live.staticflickr.com/65535/50039445931_f75b6cf13f_n.jpg",
    "id_album": "-1964113117",
    "description": "City_2113",
    "title": "City_2113",
    "link_img": "https://live.staticflickr.com/65535/50039445931_07414065c5_o.jpg",
    "id_image": "City_2113",
    "count_view": 0
  },
  {
    "link_thumb": "https://live.staticflickr.com/65535/50039907793_8a3de94951_n.jpg",
    "id_album": "1613540653",
    "description": "Space_107620",
    "title": "Space_107620",
    "link_img": "https://live.staticflickr.com/65535/50039907793_ce6240e9ed_o.jpg",
    "id_image": "Space_107620",
    "count_view": 0
  },
  {
    "link_thumb": "https://live.staticflickr.com/65535/50039775206_95665748ea_n.jpg",
    "id_album": "-1610342324",
    "description": "Nebula_243346",
    "title": "Nebula_243346",
    "link_img": "https://live.staticflickr.com/65535/50039775206_0ae0d0f322_o.jpg",
    "id_image": "Nebula_243346",
    "count_view": 0
  },
  {
    "link_thumb": "https://live.staticflickr.com/65535/50039914352_bef13ed891_n.jpg",
    "id_album": "1204249541",
    "description": "Galaxy_689589",
    "title": "Galaxy_689589",
    "link_img": "https://live.staticflickr.com/65535/50039914352_90c1e634d5_o.jpg",
    "id_image": "Galaxy_689589",
    "count_view": 0
  },
  {
    "link_thumb": "https://live.staticflickr.com/65535/50040195377_56dbcceb01_n.jpg",
    "id_album": "395161030",
    "description": "Planet_335814",
    "title": "Planet_335814",
    "link_img": "https://live.staticflickr.com/65535/50040195377_6b8c72a68b_o.jpg",
    "id_image": "Planet_335814",
    "count_view": 0
  },
  {
    "link_thumb": "https://live.staticflickr.com/65535/50039082588_37f557ddf0_n.jpg",
    "id_album": "1204249541",
    "description": "Galaxy_369509",
    "title": "Galaxy_369509",
    "link_img": "https://live.staticflickr.com/65535/50039082588_2786c73b7e_o.jpg",
    "id_image": "Galaxy_369509",
    "count_view": 0
  },
  {
    "link_thumb": "https://live.staticflickr.com/65535/50039571382_a18eed57d4_n.jpg",
    "id_album": "523598895",
    "description": "Artistic_191740",
    "title": "Artistic_191740",
    "link_img": "https://live.staticflickr.com/65535/50039571382_91ceba7069_o.jpg",
    "id_image": "Artistic_191740",
    "count_view": 0
  },
  {
    "link_thumb": "https://live.staticflickr.com/65535/50039171583_34aacbe682_n.jpg",
    "id_album": "1402713104",
    "description": "Landscape_906139",
    "title": "Landscape_906139",
    "link_img": "https://live.staticflickr.com/65535/50039171583_4c3a6c9d69_o.jpg",
    "id_image": "Landscape_906139",
    "count_view": 0
  },
  {
    "link_thumb": "https://live.staticflickr.com/65535/50040846273_4d3319749f_n.jpg",
    "id_album": "2020068132",
    "description": "Vehicle_427318",
    "title": "Vehicle_427318",
    "link_img": "https://live.staticflickr.com/65535/50040846273_4ddc264315_o.jpg",
    "id_image": "Vehicle_427318",
    "count_view": 0
  },
  {
    "link_thumb": "https://live.staticflickr.com/65535/50039996496_c81784ef63_n.jpg",
    "id_album": "1443611160",
    "description": "PlanetRise_150176",
    "title": "PlanetRise_150176",
    "link_img": "https://live.staticflickr.com/65535/50039996496_85e5d2f2ef_o.jpg",
    "id_image": "PlanetRise_150176",
    "count_view": 0
  },
  {
    "link_thumb": "https://live.staticflickr.com/65535/50039499067_68c9594ef5_n.jpg",
    "id_album": "-406145265",
    "description": "Aircraft_327270",
    "title": "Aircraft_327270",
    "link_img": "https://live.staticflickr.com/65535/50039499067_33da993d2f_o.jpg",
    "id_image": "Aircraft_327270",
    "count_view": 0
  },
  {
    "link_thumb": "https://live.staticflickr.com/65535/50041593541_37027a1073_n.jpg",
    "id_album": "-1675918237",
    "description": "WomenWarrior_985659",
    "title": "WomenWarrior_985659",
    "link_img": "https://live.staticflickr.com/65535/50041593541_37efdfa449_o.jpg",
    "id_image": "WomenWarrior_985659",
    "count_view": 0
  },
  {
    "link_thumb": "https://live.staticflickr.com/65535/50040743793_e6147cb1de_n.jpg",
    "id_album": "1267121215",
    "description": "Steampunk_199576",
    "title": "Steampunk_199576",
    "link_img": "https://live.staticflickr.com/65535/50040743793_223ce8a47c_o.jpg",
    "id_image": "Steampunk_199576",
    "count_view": 0
  },
  {
    "link_thumb": "https://live.staticflickr.com/65535/50039927502_f56867f9f5_n.jpg",
    "id_album": "1402713104",
    "description": "Landscape_188210",
    "title": "Landscape_188210",
    "link_img": "https://live.staticflickr.com/65535/50039927502_577f31fddd_o.jpg",
    "id_image": "Landscape_188210",
    "count_view": 0
  },
  {
    "link_thumb": "https://live.staticflickr.com/65535/50039230623_6bd6db2b48_n.jpg",
    "id_album": "-1610342324",
    "description": "Nebula_271792",
    "title": "Nebula_271792",
    "link_img": "https://live.staticflickr.com/65535/50039230623_451ffda269_o.jpg",
    "id_image": "Nebula_271792",
    "count_view": 0
  },
  {
    "link_thumb": "https://live.staticflickr.com/65535/50039278691_e0bc2692a1_n.jpg",
    "id_album": "-419633230",
    "description": "Apocalyptic_117055",
    "title": "Apocalyptic_117055",
    "link_img": "https://live.staticflickr.com/65535/50039278691_5bdf59e847_o.jpg",
    "id_image": "Apocalyptic_117055",
    "count_view": 0
  },
  {
    "link_thumb": "https://live.staticflickr.com/65535/50041168036_610b35556f_n.jpg",
    "id_album": "-1863373220",
    "description": "StarWars_330898",
    "title": "StarWars_330898",
    "link_img": "https://live.staticflickr.com/65535/50041168036_9170ef6697_o.jpg",
    "id_image": "StarWars_330898",
    "count_view": 0
  },
  {
    "link_thumb": "https://live.staticflickr.com/65535/50039254721_e4a3b03a45_n.jpg",
    "id_album": "849020728",
    "description": "Alien_217685",
    "title": "Alien_217685",
    "link_img": "https://live.staticflickr.com/65535/50039254721_b4a8004f19_o.jpg",
    "id_image": "Alien_217685",
    "count_view": 0
  },
  {
    "link_thumb": "https://live.staticflickr.com/65535/50039974507_6661617699_n.jpg",
    "id_album": "1402713104",
    "description": "Landscape_85247",
    "title": "Landscape_85247",
    "link_img": "https://live.staticflickr.com/65535/50039974507_1c2995c0a5_o.jpg",
    "id_image": "Landscape_85247",
    "count_view": 0
  },
  {
    "link_thumb": "https://live.staticflickr.com/65535/50040962733_5599a370f0_n.jpg",
    "id_album": "-1126835654",
    "description": "Women_275927",
    "title": "Women_275927",
    "link_img": "https://live.staticflickr.com/65535/50040962733_1cf49bd654_o.jpg",
    "id_image": "Women_275927",
    "count_view": 0
  },
  {
    "link_thumb": "https://live.staticflickr.com/65535/50039848511_49c5b7c785_n.jpg",
    "id_album": "-1610342324",
    "description": "Nebula_879755",
    "title": "Nebula_879755",
    "link_img": "https://live.staticflickr.com/65535/50039848511_8597a80c72_o.jpg",
    "id_image": "Nebula_879755",
    "count_view": 0
  },
  {
    "link_thumb": "https://live.staticflickr.com/65535/50039920292_28ede4f717_n.jpg",
    "id_album": "1204249541",
    "description": "Galaxy_957473",
    "title": "Galaxy_957473",
    "link_img": "https://live.staticflickr.com/65535/50039920292_e4658c6b0d_o.jpg",
    "id_image": "Galaxy_957473",
    "count_view": 0
  },
  {
    "link_thumb": "https://live.staticflickr.com/65535/50039956927_62e2ed043f_n.jpg",
    "id_album": "1402713104",
    "description": "Landscape_552105",
    "title": "Landscape_552105",
    "link_img": "https://live.staticflickr.com/65535/50039956927_07905ffb02_o.jpg",
    "id_image": "Landscape_552105",
    "count_view": 0
  },
  {
    "link_thumb": "https://live.staticflickr.com/65535/50041309596_66a96cd6fe_n.jpg",
    "id_album": "1267121215",
    "description": "Steampunk_264630",
    "title": "Steampunk_264630",
    "link_img": "https://live.staticflickr.com/65535/50041309596_45d8f88427_o.jpg",
    "id_image": "Steampunk_264630",
    "count_view": 0
  },
  {
    "link_thumb": "https://live.staticflickr.com/65535/50039262546_62e5101cc0_n.jpg",
    "id_album": "849020728",
    "description": "Alien_394364",
    "title": "Alien_394364",
    "link_img": "https://live.staticflickr.com/65535/50039262546_470a3ffa7d_o.jpg",
    "id_image": "Alien_394364",
    "count_view": 0
  },
  {
    "link_thumb": "https://live.staticflickr.com/65535/50040390357_3e582b67b9_n.jpg",
    "id_album": "-1102314093",
    "description": "Planets_596027",
    "title": "Planets_596027",
    "link_img": "https://live.staticflickr.com/65535/50040390357_6fb11583df_o.jpg",
    "id_image": "Planets_596027",
    "count_view": 0
  },
  {
    "link_thumb": "https://live.staticflickr.com/65535/50039381796_dec156a8a0_n.jpg",
    "id_album": "869545341",
    "description": "Astronaut_925911",
    "title": "Astronaut_925911",
    "link_img": "https://live.staticflickr.com/65535/50039381796_cdbb76edff_o.jpg",
    "id_image": "Astronaut_925911",
    "count_view": 0
  },
  {
    "link_thumb": "https://live.staticflickr.com/65535/50038890258_327de88c48_n.jpg",
    "id_album": "-1964113117",
    "description": "City_174039",
    "title": "City_174039",
    "link_img": "https://live.staticflickr.com/65535/50038890258_4be1cbf04e_o.jpg",
    "id_image": "City_174039",
    "count_view": 0
  },
  {
    "link_thumb": "https://live.staticflickr.com/65535/50040142417_007f5e830d_n.jpg",
    "id_album": "-1610342324",
    "description": "Nebula_500768",
    "title": "Nebula_500768",
    "link_img": "https://live.staticflickr.com/65535/50040142417_121004d94b_o.jpg",
    "id_image": "Nebula_500768",
    "count_view": 0
  },
  {
    "link_thumb": "https://live.staticflickr.com/65535/50040609553_9f17c910d3_n.jpg",
    "id_album": "-1863373220",
    "description": "StarWars_306427",
    "title": "StarWars_306427",
    "link_img": "https://live.staticflickr.com/65535/50040609553_f96767415b_o.jpg",
    "id_image": "StarWars_306427",
    "count_view": 0
  },
  {
    "link_thumb": "https://live.staticflickr.com/65535/50041547042_495c6001bf_n.jpg",
    "id_album": "-1587696329",
    "description": "Stars_947554",
    "title": "Stars_947554",
    "link_img": "https://live.staticflickr.com/65535/50041547042_b1822768e8_o.jpg",
    "id_image": "Stars_947554",
    "count_view": 0
  },
  {
    "link_thumb": "https://live.staticflickr.com/65535/50039244883_fb5a594d37_n.jpg",
    "id_album": "-1610342324",
    "description": "Nebula_415324",
    "title": "Nebula_415324",
    "link_img": "https://live.staticflickr.com/65535/50039244883_185be97643_o.jpg",
    "id_image": "Nebula_415324",
    "count_view": 0
  },
  {
    "link_thumb": "https://live.staticflickr.com/65535/50039584301_f21e10ce79_n.jpg",
    "id_album": "829169633",
    "description": "Cyborg_283335",
    "title": "Cyborg_283335",
    "link_img": "https://live.staticflickr.com/65535/50039584301_6e7ee521f2_o.jpg",
    "id_image": "Cyborg_283335",
    "count_view": 0
  },
  {
    "link_thumb": "https://live.staticflickr.com/65535/50038769383_1c6692d5ac_n.jpg",
    "id_album": "523598895",
    "description": "Artistic_221528",
    "title": "Artistic_221528",
    "link_img": "https://live.staticflickr.com/65535/50038769383_924873195a_o.jpg",
    "id_image": "Artistic_221528",
    "count_view": 0
  },
  {
    "link_thumb": "https://live.staticflickr.com/65535/50040039557_f2246bfa81_n.jpg",
    "id_album": "-1610342324",
    "description": "Nebula_249135",
    "title": "Nebula_249135",
    "link_img": "https://live.staticflickr.com/65535/50040039557_a292e7109e_o.jpg",
    "id_image": "Nebula_249135",
    "count_view": 0
  },
  {
    "link_thumb": "https://live.staticflickr.com/65535/50041497326_d07667195d_n.jpg",
    "id_album": "-1261420436",
    "description": "Warrior_976315",
    "title": "Warrior_976315",
    "link_img": "https://live.staticflickr.com/65535/50041497326_83652bbd7e_o.jpg",
    "id_image": "Warrior_976315",
    "count_view": 0
  },
  {
    "link_thumb": "https://live.staticflickr.com/65535/50041014063_ff5c987743_n.jpg",
    "id_album": "-1675918237",
    "description": "WomenWarrior_320615",
    "title": "WomenWarrior_320615",
    "link_img": "https://live.staticflickr.com/65535/50041014063_fd3ac0acd8_o.jpg",
    "id_image": "WomenWarrior_320615",
    "count_view": 0
  },
  {
    "link_thumb": "https://live.staticflickr.com/65535/50039541762_92ca06879d_n.jpg",
    "id_album": "-419633230",
    "description": "Apocalyptic_172414",
    "title": "Apocalyptic_172414",
    "link_img": "https://live.staticflickr.com/65535/50039541762_b141b7f030_o.jpg",
    "id_image": "Apocalyptic_172414",
    "count_view": 0
  },
  {
    "link_thumb": "https://live.staticflickr.com/65535/50040709008_83990bc003_n.jpg",
    "id_album": "-1587696329",
    "description": "Stars_333372",
    "title": "Stars_333372",
    "link_img": "https://live.staticflickr.com/65535/50040709008_d0852aba20_o.jpg",
    "id_image": "Stars_333372",
    "count_view": 0
  },
  {
    "link_thumb": "https://live.staticflickr.com/65535/50041382631_bc66cd7910_n.jpg",
    "id_album": "2020068132",
    "description": "Vehicle_269322",
    "title": "Vehicle_269322",
    "link_img": "https://live.staticflickr.com/65535/50041382631_3128c2a527_o.jpg",
    "id_image": "Vehicle_269322",
    "count_view": 0
  },
  {
    "link_thumb": "https://live.staticflickr.com/65535/50039949648_9cf881d989_n.jpg",
    "id_album": "1613540653",
    "description": "Space_394026",
    "title": "Space_394026",
    "link_img": "https://live.staticflickr.com/65535/50039949648_01024fb34a_o.jpg",
    "id_image": "Space_394026",
    "count_view": 0
  },
  {
    "link_thumb": "https://live.staticflickr.com/65535/50039343511_cede0a32f3_n.jpg",
    "id_album": "523598895",
    "description": "Artistic_718550",
    "title": "Artistic_718550",
    "link_img": "https://live.staticflickr.com/65535/50039343511_c415f7b529_o.jpg",
    "id_image": "Artistic_718550",
    "count_view": 0
  },
  {
    "link_thumb": "https://live.staticflickr.com/65535/50039938007_5dbff39c0f_n.jpg",
    "id_album": "1402713104",
    "description": "Landscape_314143",
    "title": "Landscape_314143",
    "link_img": "https://live.staticflickr.com/65535/50039938007_46857b28db_o.jpg",
    "id_image": "Landscape_314143",
    "count_view": 0
  },
  {
    "link_thumb": "https://live.staticflickr.com/65535/50041180431_3b77b6f923_n.jpg",
    "id_album": "-1863373220",
    "description": "StarWars_438738",
    "title": "StarWars_438738",
    "link_img": "https://live.staticflickr.com/65535/50041180431_0aa98fa141_o.jpg",
    "id_image": "StarWars_438738",
    "count_view": 0
  },
  {
    "link_thumb": "https://live.staticflickr.com/65535/50039895928_2462aa8b8c_n.jpg",
    "id_album": "779690680",
    "description": "Robot_970157",
    "title": "Robot_970157",
    "link_img": "https://live.staticflickr.com/65535/50039895928_9e0be57cbf_o.jpg",
    "id_image": "Robot_970157",
    "count_view": 0
  },
  {
    "link_thumb": "https://live.staticflickr.com/65535/50038930958_0d396f7342_n.jpg",
    "id_album": "-1964113117",
    "description": "City_569779",
    "title": "City_569779",
    "link_img": "https://live.staticflickr.com/65535/50038930958_10de40a189_o.jpg",
    "id_image": "City_569779",
    "count_view": 0
  },
  {
    "link_thumb": "https://live.staticflickr.com/65535/50041246411_f9bc4afb0a_n.jpg",
    "id_album": "-1863373220",
    "description": "StarWars_973298",
    "title": "StarWars_973298",
    "link_img": "https://live.staticflickr.com/65535/50041246411_f5e4dc9de7_o.jpg",
    "id_image": "StarWars_973298",
    "count_view": 0
  },
  {
    "link_thumb": "https://live.staticflickr.com/65535/50040597427_0060b066a5_n.jpg",
    "id_album": "779690680",
    "description": "Robot_554881",
    "title": "Robot_554881",
    "link_img": "https://live.staticflickr.com/65535/50040597427_f6891d505a_o.jpg",
    "id_image": "Robot_554881",
    "count_view": 0
  },
  {
    "link_thumb": "https://live.staticflickr.com/65535/50040299966_0a77a3091b_n.jpg",
    "id_album": "779690680",
    "description": "Robot_390499",
    "title": "Robot_390499",
    "link_img": "https://live.staticflickr.com/65535/50040299966_688ba03aee_o.jpg",
    "id_image": "Robot_390499",
    "count_view": 0
  },
  {
    "link_thumb": "https://live.staticflickr.com/65535/50039904097_5f5201ab68_n.jpg",
    "id_album": "1204249541",
    "description": "Galaxy_542730",
    "title": "Galaxy_542730",
    "link_img": "https://live.staticflickr.com/65535/50039904097_7d7c320582_o.jpg",
    "id_image": "Galaxy_542730",
    "count_view": 0
  },
  {
    "link_thumb": "https://live.staticflickr.com/65535/50039691673_fba2c3ba70_n.jpg",
    "id_album": "-839602625",
    "description": "Predator_484811",
    "title": "Predator_484811",
    "link_img": "https://live.staticflickr.com/65535/50039691673_dd4e8a8512_o.jpg",
    "id_image": "Predator_484811",
    "count_view": 0
  },
  {
    "link_thumb": "https://live.staticflickr.com/65535/50039287746_1b5bd3c78e_n.jpg",
    "id_album": "-419633230",
    "description": "Apocalyptic_857386",
    "title": "Apocalyptic_857386",
    "link_img": "https://live.staticflickr.com/65535/50039287746_7a132d7182_o.jpg",
    "id_image": "Apocalyptic_857386",
    "count_view": 0
  },
  {
    "link_thumb": "https://live.staticflickr.com/65535/50041331981_9e815b08f8_n.jpg",
    "id_album": "1267121215",
    "description": "Steampunk_858543",
    "title": "Steampunk_858543",
    "link_img": "https://live.staticflickr.com/65535/50041331981_e818b6d85b_o.jpg",
    "id_image": "Steampunk_858543",
    "count_view": 0
  },
  {
    "link_thumb": "https://live.staticflickr.com/65535/50040843876_4d72f8d0d2_n.jpg",
    "id_album": "-1449720967",
    "description": "StarTrek_333721",
    "title": "StarTrek_333721",
    "link_img": "https://live.staticflickr.com/65535/50040843876_9278b1db7d_o.jpg",
    "id_image": "StarTrek_333721",
    "count_view": 0
  },
  {
    "link_thumb": "https://live.staticflickr.com/65535/50041244146_531497f7d5_n.jpg",
    "id_album": "-1863373220",
    "description": "StarWars_942817",
    "title": "StarWars_942817",
    "link_img": "https://live.staticflickr.com/65535/50041244146_d01baed035_o.jpg",
    "id_image": "StarWars_942817",
    "count_view": 0
  },
  {
    "link_thumb": "https://live.staticflickr.com/65535/50038767243_141f34b2a3_n.jpg",
    "id_album": "523598895",
    "description": "Artistic_214924",
    "title": "Artistic_214924",
    "link_img": "https://live.staticflickr.com/65535/50038767243_84459953db_o.jpg",
    "id_image": "Artistic_214924",
    "count_view": 0
  },
  {
    "link_thumb": "https://live.staticflickr.com/65535/50041012427_cdbd33bdc7_n.jpg",
    "id_album": "2130067313",
    "description": "Spaceship_778587",
    "title": "Spaceship_778587",
    "link_img": "https://live.staticflickr.com/65535/50041012427_42733f353f_o.jpg",
    "id_image": "Spaceship_778587",
    "count_view": 0
  },
  {
    "link_thumb": "https://live.staticflickr.com/65535/50039000358_25b3337d7e_n.jpg",
    "id_album": "-437872736",
    "description": "Creature_282527",
    "title": "Creature_282527",
    "link_img": "https://live.staticflickr.com/65535/50039000358_d1205a310f_o.jpg",
    "id_image": "Creature_282527",
    "count_view": 0
  },
  {
    "link_thumb": "https://live.staticflickr.com/65535/50040400506_2591062df0_n.jpg",
    "id_album": "779690680",
    "description": "Robot_902752",
    "title": "Robot_902752",
    "link_img": "https://live.staticflickr.com/65535/50040400506_6f2781468a_o.jpg",
    "id_image": "Robot_902752",
    "count_view": 0
  },
  {
    "link_thumb": "https://live.staticflickr.com/65535/50040116397_222b3d60c2_n.jpg",
    "id_album": "-1610342324",
    "description": "Nebula_922577",
    "title": "Nebula_922577",
    "link_img": "https://live.staticflickr.com/65535/50040116397_6b6feaed4e_o.jpg",
    "id_image": "Nebula_922577",
    "count_view": 0
  },
  {
    "link_thumb": "https://live.staticflickr.com/65535/50040093803_10c88dd68e_n.jpg",
    "id_album": "2130067313",
    "description": "Spaceship_317008",
    "title": "Spaceship_317008",
    "link_img": "https://live.staticflickr.com/65535/50040093803_3aea09940a_o.jpg",
    "id_image": "Spaceship_317008",
    "count_view": 0
  },
  {
    "link_thumb": "https://live.staticflickr.com/65535/50040214598_617ac4158d_n.jpg",
    "id_album": "2130067313",
    "description": "Spaceship_955754",
    "title": "Spaceship_955754",
    "link_img": "https://live.staticflickr.com/65535/50040214598_15d3e882b2_o.jpg",
    "id_image": "Spaceship_955754",
    "count_view": 0
  },
  {
    "link_thumb": "https://live.staticflickr.com/65535/50040190496_b6ee34540a_n.jpg",
    "id_album": "-482547208",
    "description": "PostApocalyptic_146662",
    "title": "PostApocalyptic_146662",
    "link_img": "https://live.staticflickr.com/65535/50040190496_de937a451e_o.jpg",
    "id_image": "PostApocalyptic_146662",
    "count_view": 0
  },
  {
    "link_thumb": "https://live.staticflickr.com/65535/50039675871_6c68d89b52_n.jpg",
    "id_album": "1402713104",
    "description": "Landscape_323795",
    "title": "Landscape_323795",
    "link_img": "https://live.staticflickr.com/65535/50039675871_96e5113680_o.jpg",
    "id_image": "Landscape_323795",
    "count_view": 0
  },
  {
    "link_thumb": "https://live.staticflickr.com/65535/50040920482_84fcda11e9_n.jpg",
    "id_album": "2130067313",
    "description": "Spaceship_333365",
    "title": "Spaceship_333365",
    "link_img": "https://live.staticflickr.com/65535/50040920482_f19e1ed2f9_o.jpg",
    "id_image": "Spaceship_333365",
    "count_view": 0
  },
  {
    "link_thumb": "https://live.staticflickr.com/65535/50039254998_af1e17e417_n.jpg",
    "id_album": "-1610342324",
    "description": "Nebula_529985",
    "title": "Nebula_529985",
    "link_img": "https://live.staticflickr.com/65535/50039254998_2d3810a2f2_o.jpg",
    "id_image": "Nebula_529985",
    "count_view": 0
  },
  {
    "link_thumb": "https://live.staticflickr.com/65535/50039775506_9d75f7ce07_n.jpg",
    "id_album": "-1610342324",
    "description": "Nebula_246134",
    "title": "Nebula_246134",
    "link_img": "https://live.staticflickr.com/65535/50039775506_4d89150fe4_o.jpg",
    "id_image": "Nebula_246134",
    "count_view": 0
  },
  {
    "link_thumb": "https://live.staticflickr.com/65535/50039983593_9c6dd70cb4_n.jpg",
    "id_album": "1613540653",
    "description": "Space_772701",
    "title": "Space_772701",
    "link_img": "https://live.staticflickr.com/65535/50039983593_fe1e462465_o.jpg",
    "id_image": "Space_772701",
    "count_view": 0
  },
  {
    "link_thumb": "https://live.staticflickr.com/65535/50041845232_308b21955b_n.jpg",
    "id_album": "-1675918237",
    "description": "WomenWarrior_602057",
    "title": "WomenWarrior_602057",
    "link_img": "https://live.staticflickr.com/65535/50041845232_e6c4b3c81d_o.jpg",
    "id_image": "WomenWarrior_602057",
    "count_view": 0
  },
  {
    "link_thumb": "https://live.staticflickr.com/65535/50040689037_e650588d36_n.jpg",
    "id_album": "779690680",
    "description": "Robot_928636",
    "title": "Robot_928636",
    "link_img": "https://live.staticflickr.com/65535/50040689037_ea54c996c3_o.jpg",
    "id_image": "Robot_928636",
    "count_view": 0
  },
  {
    "link_thumb": "https://live.staticflickr.com/65535/50038849333_5e166103ba_n.jpg",
    "id_album": "1187037014",
    "description": "Battle_244159",
    "title": "Battle_244159",
    "link_img": "https://live.staticflickr.com/65535/50038849333_483d61b029_o.jpg",
    "id_image": "Battle_244159",
    "count_view": 0
  },
  {
    "link_thumb": "https://live.staticflickr.com/65535/50040661587_b4e59ca109_n.jpg",
    "id_album": "779690680",
    "description": "Robot_894432",
    "title": "Robot_894432",
    "link_img": "https://live.staticflickr.com/65535/50040661587_caf6ffdae0_o.jpg",
    "id_image": "Robot_894432",
    "count_view": 0
  },
  {
    "link_thumb": "https://live.staticflickr.com/65535/50039487576_70cae81b0f_n.jpg",
    "id_album": "-1964113117",
    "description": "City_681252",
    "title": "City_681252",
    "link_img": "https://live.staticflickr.com/65535/50039487576_07c24b9308_o.jpg",
    "id_image": "City_681252",
    "count_view": 0
  },
  {
    "link_thumb": "https://live.staticflickr.com/65535/50039659048_8fdb1f90ce_n.jpg",
    "id_album": "-482547208",
    "description": "PostApocalyptic_453012",
    "title": "PostApocalyptic_453012",
    "link_img": "https://live.staticflickr.com/65535/50039659048_88c8f395fb_o.jpg",
    "id_image": "PostApocalyptic_453012",
    "count_view": 0
  },
  {
    "link_thumb": "https://live.staticflickr.com/65535/50039917867_e3412c1ac5_n.jpg",
    "id_album": "1204249541",
    "description": "Galaxy_864037",
    "title": "Galaxy_864037",
    "link_img": "https://live.staticflickr.com/65535/50039917867_a1216c32ce_o.jpg",
    "id_image": "Galaxy_864037",
    "count_view": 0
  },
  {
    "link_thumb": "https://live.staticflickr.com/65535/50041620277_d09029d19b_n.jpg",
    "id_album": "-1177476763",
    "description": "Sunrise_209315",
    "title": "Sunrise_209315",
    "link_img": "https://live.staticflickr.com/65535/50041620277_2ea61be0ec_o.jpg",
    "id_image": "Sunrise_209315",
    "count_view": 0
  },
  {
    "link_thumb": "https://live.staticflickr.com/65535/50040036217_ca6d665f68_n.jpg",
    "id_album": "-1610342324",
    "description": "Nebula_221804",
    "title": "Nebula_221804",
    "link_img": "https://live.staticflickr.com/65535/50040036217_1aa5a66967_o.jpg",
    "id_image": "Nebula_221804",
    "count_view": 0
  },
  {
    "link_thumb": "https://live.staticflickr.com/65535/50038726128_e1127a8668_n.jpg",
    "id_album": "849020728",
    "description": "Alien_720709",
    "title": "Alien_720709",
    "link_img": "https://live.staticflickr.com/65535/50038726128_fd73132873_o.jpg",
    "id_image": "Alien_720709",
    "count_view": 0
  },
  {
    "link_thumb": "https://live.staticflickr.com/65535/50039764767_9ff6029ef4_n.jpg",
    "id_album": "-1964113117",
    "description": "City_857253",
    "title": "City_857253",
    "link_img": "https://live.staticflickr.com/65535/50039764767_1b774d7ee1_o.jpg",
    "id_image": "City_857253",
    "count_view": 0
  },
  {
    "link_thumb": "https://live.staticflickr.com/65535/50038926463_511b3a6d4f_n.jpg",
    "id_album": "-1964113117",
    "description": "City_527911",
    "title": "City_527911",
    "link_img": "https://live.staticflickr.com/65535/50038926463_9e5746a003_o.jpg",
    "id_image": "City_527911",
    "count_view": 0
  },
  {
    "link_thumb": "https://live.staticflickr.com/65535/50040043132_1dd01fdfa3_n.jpg",
    "id_album": "-1610342324",
    "description": "Nebula_265686",
    "title": "Nebula_265686",
    "link_img": "https://live.staticflickr.com/65535/50040043132_553fc7b2ae_o.jpg",
    "id_image": "Nebula_265686",
    "count_view": 0
  },
  {
    "link_thumb": "https://live.staticflickr.com/65535/50039009548_ce2f9bbabc_n.jpg",
    "id_album": "-437872736",
    "description": "Creature_526743",
    "title": "Creature_526743",
    "link_img": "https://live.staticflickr.com/65535/50039009548_6f30aa5cf0_o.jpg",
    "id_image": "Creature_526743",
    "count_view": 0
  },
  {
    "link_thumb": "https://live.staticflickr.com/65535/50039896287_b02642c418_n.jpg",
    "id_album": "1204249541",
    "description": "Galaxy_426478",
    "title": "Galaxy_426478",
    "link_img": "https://live.staticflickr.com/65535/50039896287_225909b7e5_o.jpg",
    "id_image": "Galaxy_426478",
    "count_view": 0
  },
  {
    "link_thumb": "https://live.staticflickr.com/65535/50038896963_47e5b75900_n.jpg",
    "id_album": "-1964113117",
    "description": "City_211813",
    "title": "City_211813",
    "link_img": "https://live.staticflickr.com/65535/50038896963_52c0b840ed_o.jpg",
    "id_image": "City_211813",
    "count_view": 0
  },
  {
    "link_thumb": "https://live.staticflickr.com/65535/50038731393_b04646cea1_n.jpg",
    "id_album": "-419633230",
    "description": "Apocalyptic_158914",
    "title": "Apocalyptic_158914",
    "link_img": "https://live.staticflickr.com/65535/50038731393_67ea498edd_o.jpg",
    "id_image": "Apocalyptic_158914",
    "count_view": 0
  },
  {
    "link_thumb": "https://live.staticflickr.com/65535/50040636288_a2b4c83ffa_n.jpg",
    "id_album": "-1863373220",
    "description": "StarWars_517138",
    "title": "StarWars_517138",
    "link_img": "https://live.staticflickr.com/65535/50040636288_10b35d50c4_o.jpg",
    "id_image": "StarWars_517138",
    "count_view": 0
  },
  {
    "link_thumb": "https://live.staticflickr.com/65535/50039288128_b3f223873d_n.jpg",
    "id_album": "-1610342324",
    "description": "Nebula_791016",
    "title": "Nebula_791016",
    "link_img": "https://live.staticflickr.com/65535/50039288128_7dcaef0fdd_o.jpg",
    "id_image": "Nebula_791016",
    "count_view": 0
  },
  {
    "link_thumb": "https://live.staticflickr.com/65535/50039818947_988c3e5e09_n.jpg",
    "id_album": "-437872736",
    "description": "Creature_488456",
    "title": "Creature_488456",
    "link_img": "https://live.staticflickr.com/65535/50039818947_eb21531874_o.jpg",
    "id_image": "Creature_488456",
    "count_view": 0
  },
  {
    "link_thumb": "https://live.staticflickr.com/65535/50039811841_9b2d63ef7e_n.jpg",
    "id_album": "-1610342324",
    "description": "Nebula_567283",
    "title": "Nebula_567283",
    "link_img": "https://live.staticflickr.com/65535/50039811841_bb37f847dd_o.jpg",
    "id_image": "Nebula_567283",
    "count_view": 0
  },
  {
    "link_thumb": "https://live.staticflickr.com/65535/50039897118_fba5303639_n.jpg",
    "id_album": "779690680",
    "description": "Robot_978187",
    "title": "Robot_978187",
    "link_img": "https://live.staticflickr.com/65535/50039897118_6f4b0b6f11_o.jpg",
    "id_image": "Robot_978187",
    "count_view": 0
  },
  {
    "link_thumb": "https://live.staticflickr.com/65535/50039182418_6784a2a8e4_n.jpg",
    "id_album": "-1388385651",
    "description": "MilkyWay_482715",
    "title": "MilkyWay_482715",
    "link_img": "https://live.staticflickr.com/65535/50039182418_43b6a3103f_o.jpg",
    "id_image": "MilkyWay_482715",
    "count_view": 0
  },
  {
    "link_thumb": "https://live.staticflickr.com/65535/50040549872_eea889a3d7_n.jpg",
    "id_album": "779690680",
    "description": "Robot_309455",
    "title": "Robot_309455",
    "link_img": "https://live.staticflickr.com/65535/50040549872_152c55883b_o.jpg",
    "id_image": "Robot_309455",
    "count_view": 0
  },
  {
    "link_thumb": "https://live.staticflickr.com/65535/50039818227_a672b8016f_n.jpg",
    "id_album": "-437872736",
    "description": "Creature_410085",
    "title": "Creature_410085",
    "link_img": "https://live.staticflickr.com/65535/50039818227_6867bf3aaa_o.jpg",
    "id_image": "Creature_410085",
    "count_view": 0
  },
  {
    "link_thumb": "https://live.staticflickr.com/65535/50040119946_253784c744_n.jpg",
    "id_album": "-1102314093",
    "description": "Planets_516889",
    "title": "Planets_516889",
    "link_img": "https://live.staticflickr.com/65535/50040119946_8685ff4e1c_o.jpg",
    "id_image": "Planets_516889",
    "count_view": 0
  },
  {
    "link_thumb": "https://live.staticflickr.com/65535/50040405056_03e2a945b6_n.jpg",
    "id_album": "779690680",
    "description": "Robot_907942",
    "title": "Robot_907942",
    "link_img": "https://live.staticflickr.com/65535/50040405056_9b7591b133_o.jpg",
    "id_image": "Robot_907942",
    "count_view": 0
  },
  {
    "link_thumb": "https://live.staticflickr.com/65535/50039572367_61048e771b_n.jpg",
    "id_album": "523598895",
    "description": "Artistic_196781",
    "title": "Artistic_196781",
    "link_img": "https://live.staticflickr.com/65535/50039572367_49c63bf868_o.jpg",
    "id_image": "Artistic_196781",
    "count_view": 0
  },
  {
    "link_thumb": "https://live.staticflickr.com/65535/50039871793_9383403fc2_n.jpg",
    "id_album": "779690680",
    "description": "Robot_928643",
    "title": "Robot_928643",
    "link_img": "https://live.staticflickr.com/65535/50039871793_5c1c994fb0_o.jpg",
    "id_image": "Robot_928643",
    "count_view": 0
  },
  {
    "link_thumb": "https://live.staticflickr.com/65535/50040263522_06a220168d_n.jpg",
    "id_album": "1443611160",
    "description": "PlanetRise_287016",
    "title": "PlanetRise_287016",
    "link_img": "https://live.staticflickr.com/65535/50040263522_23640c196b_o.jpg",
    "id_image": "PlanetRise_287016",
    "count_view": 0
  },
  {
    "link_thumb": "https://live.staticflickr.com/65535/50039081448_72d0fbc1e0_n.jpg",
    "id_album": "1204249541",
    "description": "Galaxy_315004",
    "title": "Galaxy_315004",
    "link_img": "https://live.staticflickr.com/65535/50039081448_66ff88313b_o.jpg",
    "id_image": "Galaxy_315004",
    "count_view": 0
  },
  {
    "link_thumb": "https://live.staticflickr.com/65535/50039620536_47d9b0fb85_n.jpg",
    "id_album": "2104507156",
    "description": "Fantasy_311805",
    "title": "Fantasy_311805",
    "link_img": "https://live.staticflickr.com/65535/50039620536_453e529a73_o.jpg",
    "id_image": "Fantasy_311805",
    "count_view": 0
  },
  {
    "link_thumb": "https://live.staticflickr.com/65535/50041335116_705bfcbb90_n.jpg",
    "id_album": "1267121215",
    "description": "Steampunk_912945",
    "title": "Steampunk_912945",
    "link_img": "https://live.staticflickr.com/65535/50041335116_ed47f33081_o.jpg",
    "id_image": "Steampunk_912945",
    "count_view": 0
  },
  {
    "link_thumb": "https://live.staticflickr.com/65535/50040292421_2cfc663d38_n.jpg",
    "id_album": "779690680",
    "description": "Robot_336756",
    "title": "Robot_336756",
    "link_img": "https://live.staticflickr.com/65535/50040292421_f1ab7f6f0c_o.jpg",
    "id_image": "Robot_336756",
    "count_view": 0
  },
  {
    "link_thumb": "https://live.staticflickr.com/65535/50039372913_d5ae4fa902_n.jpg",
    "id_album": "395161030",
    "description": "Planet_286757",
    "title": "Planet_286757",
    "link_img": "https://live.staticflickr.com/65535/50039372913_81e525ec23_o.jpg",
    "id_image": "Planet_286757",
    "count_view": 0
  },
  {
    "link_thumb": "https://live.staticflickr.com/65535/50040027167_15bbd3d787_n.jpg",
    "id_album": "-1610342324",
    "description": "Nebula_166114",
    "title": "Nebula_166114",
    "link_img": "https://live.staticflickr.com/65535/50040027167_0a642cd744_o.jpg",
    "id_image": "Nebula_166114",
    "count_view": 0
  },
  {
    "link_thumb": "https://live.staticflickr.com/65535/50040376821_fb63d45c2d_n.jpg",
    "id_album": "779690680",
    "description": "Robot_859573",
    "title": "Robot_859573",
    "link_img": "https://live.staticflickr.com/65535/50040376821_d348da2a7d_o.jpg",
    "id_image": "Robot_859573",
    "count_view": 0
  },
  {
    "link_thumb": "https://live.staticflickr.com/65535/50041616952_36a93e0928_n.jpg",
    "id_album": "-221671103",
    "description": "Sun_709935",
    "title": "Sun_709935",
    "link_img": "https://live.staticflickr.com/65535/50041616952_cfa3052446_o.jpg",
    "id_image": "Sun_709935",
    "count_view": 0
  },
  {
    "link_thumb": "https://live.staticflickr.com/65535/50040886897_3dc03c6811_n.jpg",
    "id_album": "2130067313",
    "description": "Spaceship_280885",
    "title": "Spaceship_280885",
    "link_img": "https://live.staticflickr.com/65535/50040886897_3a3d7be410_o.jpg",
    "id_image": "Spaceship_280885",
    "count_view": 0
  },
  {
    "link_thumb": "https://live.staticflickr.com/65535/50040178883_0693de2f47_n.jpg",
    "id_album": "2130067313",
    "description": "Spaceship_676807",
    "title": "Spaceship_676807",
    "link_img": "https://live.staticflickr.com/65535/50040178883_eb6c9a9001_o.jpg",
    "id_image": "Spaceship_676807",
    "count_view": 0
  },
  {
    "link_thumb": "https://live.staticflickr.com/65535/50038948558_5b85134c00_n.jpg",
    "id_album": "-1964113117",
    "description": "City_782596",
    "title": "City_782596",
    "link_img": "https://live.staticflickr.com/65535/50038948558_481178fece_o.jpg",
    "id_image": "City_782596",
    "count_view": 0
  },
  {
    "link_thumb": "https://live.staticflickr.com/65535/50039255418_5e7e9a4c31_n.jpg",
    "id_album": "-1610342324",
    "description": "Nebula_533759",
    "title": "Nebula_533759",
    "link_img": "https://live.staticflickr.com/65535/50039255418_a9ed149704_o.jpg",
    "id_image": "Nebula_533759",
    "count_view": 0
  },
  {
    "link_thumb": "https://live.staticflickr.com/65535/50039325561_08c8e9ced9_n.jpg",
    "id_album": "523598895",
    "description": "Artistic_262902",
    "title": "Artistic_262902",
    "link_img": "https://live.staticflickr.com/65535/50039325561_215fab522b_o.jpg",
    "id_image": "Artistic_262902",
    "count_view": 0
  },
  {
    "link_thumb": "https://live.staticflickr.com/65535/50040408916_08f1c5070b_n.jpg",
    "id_album": "779690680",
    "description": "Robot_911878",
    "title": "Robot_911878",
    "link_img": "https://live.staticflickr.com/65535/50040408916_3924bc84be_o.jpg",
    "id_image": "Robot_911878",
    "count_view": 0
  },
  {
    "link_thumb": "https://live.staticflickr.com/65535/50041590426_1cc438f0f6_n.jpg",
    "id_album": "-1675918237",
    "description": "WomenWarrior_920517",
    "title": "WomenWarrior_920517",
    "link_img": "https://live.staticflickr.com/65535/50041590426_5ebf193420_o.jpg",
    "id_image": "WomenWarrior_920517",
    "count_view": 0
  },
  {
    "link_thumb": "https://live.staticflickr.com/65535/50041288911_f739f3b82e_n.jpg",
    "id_album": "1267121215",
    "description": "Steampunk_157858",
    "title": "Steampunk_157858",
    "link_img": "https://live.staticflickr.com/65535/50041288911_ce917e8c04_o.jpg",
    "id_image": "Steampunk_157858",
    "count_view": 0
  },
  {
    "link_thumb": "https://live.staticflickr.com/65535/50039546666_af87071235_n.jpg",
    "id_album": "-437872736",
    "description": "Creature_200027",
    "title": "Creature_200027",
    "link_img": "https://live.staticflickr.com/65535/50039546666_d28201c7ae_o.jpg",
    "id_image": "Creature_200027",
    "count_view": 0
  },
  {
    "link_thumb": "https://live.staticflickr.com/65535/50039687722_bf96a1ddfb_n.jpg",
    "id_album": "406431601",
    "description": "Building_877121",
    "title": "Building_877121",
    "link_img": "https://live.staticflickr.com/65535/50039687722_ebe9e3bcf8_o.jpg",
    "id_image": "Building_877121",
    "count_view": 0
  },
  {
    "link_thumb": "https://live.staticflickr.com/65535/50041495037_4ed78b72d5_n.jpg",
    "id_album": "-1863373220",
    "description": "StarWars_879747",
    "title": "StarWars_879747",
    "link_img": "https://live.staticflickr.com/65535/50041495037_2a81a3030f_o.jpg",
    "id_image": "StarWars_879747",
    "count_view": 0
  },
  {
    "link_thumb": "https://live.staticflickr.com/65535/50039891897_82343e093a_n.jpg",
    "id_album": "1204249541",
    "description": "Galaxy_281520",
    "title": "Galaxy_281520",
    "link_img": "https://live.staticflickr.com/65535/50039891897_f5d566d499_o.jpg",
    "id_image": "Galaxy_281520",
    "count_view": 0
  },
  {
    "link_thumb": "https://live.staticflickr.com/65535/50039445591_29a59cbd2b_n.jpg",
    "id_album": "-1964113117",
    "description": "City_209618",
    "title": "City_209618",
    "link_img": "https://live.staticflickr.com/65535/50039445591_5ef55a2e97_o.jpg",
    "id_image": "City_209618",
    "count_view": 0
  },
  {
    "link_thumb": "https://live.staticflickr.com/65535/50039888917_1b0a114d62_n.jpg",
    "id_album": "1204249541",
    "description": "Galaxy_201447",
    "title": "Galaxy_201447",
    "link_img": "https://live.staticflickr.com/65535/50039888917_3bf899e786_o.jpg",
    "id_image": "Galaxy_201447",
    "count_view": 0
  },
  {
    "link_thumb": "https://live.staticflickr.com/65535/50040769882_065dc48036_n.jpg",
    "id_album": "1613540653",
    "description": "Space_397989",
    "title": "Space_397989",
    "link_img": "https://live.staticflickr.com/65535/50040769882_d29c04d7fc_o.jpg",
    "id_image": "Space_397989",
    "count_view": 0
  },
  {
    "link_thumb": "https://live.staticflickr.com/65535/50040867048_2e9290dc4e_n.jpg",
    "id_album": "2020068132",
    "description": "Vehicle_937790",
    "title": "Vehicle_937790",
    "link_img": "https://live.staticflickr.com/65535/50040867048_df299a208b_o.jpg",
    "id_image": "Vehicle_937790",
    "count_view": 0
  },
  {
    "link_thumb": "https://live.staticflickr.com/65535/50039887838_71a33aab6d_n.jpg",
    "id_album": "779690680",
    "description": "Robot_949799",
    "title": "Robot_949799",
    "link_img": "https://live.staticflickr.com/65535/50039887838_266a2798d8_o.jpg",
    "id_image": "Robot_949799",
    "count_view": 0
  },
  {
    "link_thumb": "https://live.staticflickr.com/65535/50040853442_3cb41c6be1_n.jpg",
    "id_album": "2130067313",
    "description": "Spaceship_184501",
    "title": "Spaceship_184501",
    "link_img": "https://live.staticflickr.com/65535/50040853442_16662b4d4f_o.jpg",
    "id_image": "Spaceship_184501",
    "count_view": 0
  },
  {
    "link_thumb": "https://live.staticflickr.com/65535/50039553156_423eb8d31b_n.jpg",
    "id_album": "-437872736",
    "description": "Creature_339011",
    "title": "Creature_339011",
    "link_img": "https://live.staticflickr.com/65535/50039553156_311f038483_o.jpg",
    "id_image": "Creature_339011",
    "count_view": 0
  },
  {
    "link_thumb": "https://live.staticflickr.com/65535/50039217153_8a1c5e902f_n.jpg",
    "id_album": "-1610342324",
    "description": "Nebula_195749",
    "title": "Nebula_195749",
    "link_img": "https://live.staticflickr.com/65535/50039217153_0721670324_o.jpg",
    "id_image": "Nebula_195749",
    "count_view": 0
  },
  {
    "link_thumb": "https://live.staticflickr.com/65535/50039759181_ba490e2ebe_n.jpg",
    "id_album": "416351698",
    "description": "Moon_938354",
    "title": "Moon_938354",
    "link_img": "https://live.staticflickr.com/65535/50039759181_8bbdc3f4f1_o.jpg",
    "id_image": "Moon_938354",
    "count_view": 0
  },
  {
    "link_thumb": "https://live.staticflickr.com/65535/50041035193_38318f7b53_n.jpg",
    "id_album": "-1675918237",
    "description": "WomenWarrior_867370",
    "title": "WomenWarrior_867370",
    "link_img": "https://live.staticflickr.com/65535/50041035193_e8508eeede_o.jpg",
    "id_image": "WomenWarrior_867370",
    "count_view": 0
  },
  {
    "link_thumb": "https://live.staticflickr.com/65535/50040761967_7021796001_n.jpg",
    "id_album": "1613540653",
    "description": "Space_343744",
    "title": "Space_343744",
    "link_img": "https://live.staticflickr.com/65535/50040761967_bde2ca9c7f_o.jpg",
    "id_image": "Space_343744",
    "count_view": 0
  },
  {
    "link_thumb": "https://live.staticflickr.com/65535/50041456896_c3ec73b2c6_n.jpg",
    "id_album": "-1261420436",
    "description": "Warrior_393973",
    "title": "Warrior_393973",
    "link_img": "https://live.staticflickr.com/65535/50041456896_76b06bb9ce_o.jpg",
    "id_image": "Warrior_393973",
    "count_view": 0
  },
  {
    "link_thumb": "https://live.staticflickr.com/65535/50039950851_919666e7d3_n.jpg",
    "id_album": "395161030",
    "description": "Planet_463782",
    "title": "Planet_463782",
    "link_img": "https://live.staticflickr.com/65535/50039950851_e501d330c6_o.jpg",
    "id_image": "Planet_463782",
    "count_view": 0
  },
  {
    "link_thumb": "https://live.staticflickr.com/65535/50038738103_2cf552aa28_n.jpg",
    "id_album": "-419633230",
    "description": "Apocalyptic_678101",
    "title": "Apocalyptic_678101",
    "link_img": "https://live.staticflickr.com/65535/50038738103_94aa5ba697_o.jpg",
    "id_image": "Apocalyptic_678101",
    "count_view": 0
  },
  {
    "link_thumb": "https://live.staticflickr.com/65535/50039620713_ba9dfaa817_n.jpg",
    "id_album": "376235057",
    "description": "Planetscape_394009",
    "title": "Planetscape_394009",
    "link_img": "https://live.staticflickr.com/65535/50039620713_ae50a28fe3_o.jpg",
    "id_image": "Planetscape_394009",
    "count_view": 0
  },
  {
    "link_thumb": "https://live.staticflickr.com/65535/50039842023_9fd3c7ded1_n.jpg",
    "id_album": "779690680",
    "description": "Robot_887979",
    "title": "Robot_887979",
    "link_img": "https://live.staticflickr.com/65535/50039842023_01efc1a9c3_o.jpg",
    "id_image": "Robot_887979",
    "count_view": 0
  },
  {
    "link_thumb": "https://live.staticflickr.com/65535/50039656886_d533d36226_n.jpg",
    "id_album": "1204249541",
    "description": "Galaxy_953633",
    "title": "Galaxy_953633",
    "link_img": "https://live.staticflickr.com/65535/50039656886_24b43f432a_o.jpg",
    "id_image": "Galaxy_953633",
    "count_view": 0
  },
  {
    "link_thumb": "https://live.staticflickr.com/65535/50038695848_04d9d31be0_n.jpg",
    "id_album": "849020728",
    "description": "Alien_1003054",
    "title": "Alien_1003054",
    "link_img": "https://live.staticflickr.com/65535/50038695848_5e6084297e_o.jpg",
    "id_image": "Alien_1003054",
    "count_view": 0
  },
  {
    "link_thumb": "https://live.staticflickr.com/65535/50041040877_30ef9c587d_n.jpg",
    "id_album": "2130067313",
    "description": "Spaceship_972183",
    "title": "Spaceship_972183",
    "link_img": "https://live.staticflickr.com/65535/50041040877_2bf1405858_o.jpg",
    "id_image": "Spaceship_972183",
    "count_view": 0
  },
  {
    "link_thumb": "https://live.staticflickr.com/65535/50040414831_c92cd4d2bb_n.jpg",
    "id_album": "779690680",
    "description": "Robot_917206",
    "title": "Robot_917206",
    "link_img": "https://live.staticflickr.com/65535/50040414831_df5b4d2287_o.jpg",
    "id_image": "Robot_917206",
    "count_view": 0
  },
  {
    "link_thumb": "https://live.staticflickr.com/65535/50039242633_78efda8532_n.jpg",
    "id_album": "-1610342324",
    "description": "Nebula_397402",
    "title": "Nebula_397402",
    "link_img": "https://live.staticflickr.com/65535/50039242633_9a205492f5_o.jpg",
    "id_image": "Nebula_397402",
    "count_view": 0
  },
  {
    "link_thumb": "https://live.staticflickr.com/65535/50039595627_d944ea941a_n.jpg",
    "id_album": "523598895",
    "description": "Artistic_401753",
    "title": "Artistic_401753",
    "link_img": "https://live.staticflickr.com/65535/50039595627_e07b326afd_o.jpg",
    "id_image": "Artistic_401753",
    "count_view": 0
  },
  {
    "link_thumb": "https://live.staticflickr.com/65535/50041657872_3d5837918c_n.jpg",
    "id_album": "2020068132",
    "description": "Vehicle_387251",
    "title": "Vehicle_387251",
    "link_img": "https://live.staticflickr.com/65535/50041657872_d3f1abebc8_o.jpg",
    "id_image": "Vehicle_387251",
    "count_view": 0
  },
  {
    "link_thumb": "https://live.staticflickr.com/65535/50038932093_6eebbe97c1_n.jpg",
    "id_album": "-1964113117",
    "description": "City_610991",
    "title": "City_610991",
    "link_img": "https://live.staticflickr.com/65535/50038932093_179d5a5607_o.jpg",
    "id_image": "City_610991",
    "count_view": 0
  },
  {
    "link_thumb": "https://live.staticflickr.com/65535/50039781086_a1c7b96aaa_n.jpg",
    "id_album": "-1610342324",
    "description": "Nebula_283889",
    "title": "Nebula_283889",
    "link_img": "https://live.staticflickr.com/65535/50039781086_665fa3d32c_o.jpg",
    "id_image": "Nebula_283889",
    "count_view": 0
  },
  {
    "link_thumb": "https://live.staticflickr.com/65535/50039124358_fba4a2be61_n.jpg",
    "id_album": "1402713104",
    "description": "Landscape_305754",
    "title": "Landscape_305754",
    "link_img": "https://live.staticflickr.com/65535/50039124358_10db202d4f_o.jpg",
    "id_image": "Landscape_305754",
    "count_view": 0
  },
  {
    "link_thumb": "https://live.staticflickr.com/65535/50039242898_25b73d73c7_n.jpg",
    "id_album": "-1610342324",
    "description": "Nebula_397567",
    "title": "Nebula_397567",
    "link_img": "https://live.staticflickr.com/65535/50039242898_c1e0d5386e_o.jpg",
    "id_image": "Nebula_397567",
    "count_view": 0
  },
  {
    "link_thumb": "https://live.staticflickr.com/65535/50039946152_c7a8c87e0d_n.jpg",
    "id_album": "1402713104",
    "description": "Landscape_367852",
    "title": "Landscape_367852",
    "link_img": "https://live.staticflickr.com/65535/50039946152_d9a117144b_o.jpg",
    "id_image": "Landscape_367852",
    "count_view": 0
  },
  {
    "link_thumb": "https://live.staticflickr.com/65535/50039640801_8073035636_n.jpg",
    "id_album": "1204249541",
    "description": "Galaxy_542444",
    "title": "Galaxy_542444",
    "link_img": "https://live.staticflickr.com/65535/50039640801_cc37616150_o.jpg",
    "id_image": "Galaxy_542444",
    "count_view": 0
  },
  {
    "link_thumb": "https://live.staticflickr.com/65535/50039623806_9698f6cbba_n.jpg",
    "id_album": "1204249541",
    "description": "Galaxy_1010664",
    "title": "Galaxy_1010664",
    "link_img": "https://live.staticflickr.com/65535/50039623806_094c4445af_o.jpg",
    "id_image": "Galaxy_1010664",
    "count_view": 0
  },
  {
    "link_thumb": "https://live.staticflickr.com/65535/50039614657_35e030acf9_n.jpg",
    "id_album": "869545341",
    "description": "Astronaut_268425",
    "title": "Astronaut_268425",
    "link_img": "https://live.staticflickr.com/65535/50039614657_ea213d1714_o.jpg",
    "id_image": "Astronaut_268425",
    "count_view": 0
  },
  {
    "link_thumb": "https://live.staticflickr.com/65535/50040211182_af69918bc0_n.jpg",
    "id_album": "395161030",
    "description": "Planet_394375",
    "title": "Planet_394375",
    "link_img": "https://live.staticflickr.com/65535/50040211182_5f21907844_o.jpg",
    "id_image": "Planet_394375",
    "count_view": 0
  },
  {
    "link_thumb": "https://live.staticflickr.com/65535/50039772013_14b6343bbd_n.jpg",
    "id_album": "779690680",
    "description": "Robot_489387",
    "title": "Robot_489387",
    "link_img": "https://live.staticflickr.com/65535/50039772013_84b9ca787c_o.jpg",
    "id_image": "Robot_489387",
    "count_view": 0
  },
  {
    "link_thumb": "https://live.staticflickr.com/65535/50038878068_7974969e58_n.jpg",
    "id_album": "406431601",
    "description": "Building_920076",
    "title": "Building_920076",
    "link_img": "https://live.staticflickr.com/65535/50038878068_ea366edcbe_o.jpg",
    "id_image": "Building_920076",
    "count_view": 0
  },
  {
    "link_thumb": "https://live.staticflickr.com/65535/50040036572_86b7163123_n.jpg",
    "id_album": "-1610342324",
    "description": "Nebula_225127",
    "title": "Nebula_225127",
    "link_img": "https://live.staticflickr.com/65535/50040036572_e862dc15fb_o.jpg",
    "id_image": "Nebula_225127",
    "count_view": 0
  },
  {
    "link_thumb": "https://live.staticflickr.com/65535/50039747612_1d8f2eb968_n.jpg",
    "id_album": "-1964113117",
    "description": "City_671368",
    "title": "City_671368",
    "link_img": "https://live.staticflickr.com/65535/50039747612_8a3372d712_o.jpg",
    "id_image": "City_671368",
    "count_view": 0
  },
  {
    "link_thumb": "https://live.staticflickr.com/65535/50039954937_e5ded77b84_n.jpg",
    "id_album": "1402713104",
    "description": "Landscape_523833",
    "title": "Landscape_523833",
    "link_img": "https://live.staticflickr.com/65535/50039954937_c83acc8263_o.jpg",
    "id_image": "Landscape_523833",
    "count_view": 0
  },
  {
    "link_thumb": "https://live.staticflickr.com/65535/50039712743_00c9705513_n.jpg",
    "id_album": "779690680",
    "description": "Robot_209420",
    "title": "Robot_209420",
    "link_img": "https://live.staticflickr.com/65535/50039712743_efd5718a80_o.jpg",
    "id_image": "Robot_209420",
    "count_view": 0
  },
  {
    "link_thumb": "https://live.staticflickr.com/65535/50040808182_d770ece8da_n.jpg",
    "id_album": "1613540653",
    "description": "Space_822469",
    "title": "Space_822469",
    "link_img": "https://live.staticflickr.com/65535/50040808182_84af645c86_o.jpg",
    "id_image": "Space_822469",
    "count_view": 0
  },
  {
    "link_thumb": "https://live.staticflickr.com/65535/50040799636_740e1e55a9_n.jpg",
    "id_album": "-1449720967",
    "description": "StarTrek_182728",
    "title": "StarTrek_182728",
    "link_img": "https://live.staticflickr.com/65535/50040799636_e5e3eaca61_o.jpg",
    "id_image": "StarTrek_182728",
    "count_view": 0
  },
  {
    "link_thumb": "https://live.staticflickr.com/65535/50039392556_438b9e514b_n.jpg",
    "id_album": "869545341",
    "description": "Astronaut_997879",
    "title": "Astronaut_997879",
    "link_img": "https://live.staticflickr.com/65535/50039392556_98c3bc940e_o.jpg",
    "id_image": "Astronaut_997879",
    "count_view": 0
  },
  {
    "link_thumb": "https://live.staticflickr.com/65535/50040066667_ed06193206_n.jpg",
    "id_album": "-1610342324",
    "description": "Nebula_509987",
    "title": "Nebula_509987",
    "link_img": "https://live.staticflickr.com/65535/50040066667_8ee1a55d4e_o.jpg",
    "id_image": "Nebula_509987",
    "count_view": 0
  },
  {
    "link_thumb": "https://live.staticflickr.com/65535/50040237947_f9df3c29b9_n.jpg",
    "id_album": "395161030",
    "description": "Planet_720708",
    "title": "Planet_720708",
    "link_img": "https://live.staticflickr.com/65535/50040237947_a76f394dfb_o.jpg",
    "id_image": "Planet_720708",
    "count_view": 0
  },
  {
    "link_thumb": "https://live.staticflickr.com/65535/50039888923_dcbbf3b851_n.jpg",
    "id_album": "779690680",
    "description": "Robot_955666",
    "title": "Robot_955666",
    "link_img": "https://live.staticflickr.com/65535/50039888923_5cb9e0be8a_o.jpg",
    "id_image": "Robot_955666",
    "count_view": 0
  },
  {
    "link_thumb": "https://live.staticflickr.com/65535/50039739271_3c33692959_n.jpg",
    "id_album": "-1388385651",
    "description": "MilkyWay_682913",
    "title": "MilkyWay_682913",
    "link_img": "https://live.staticflickr.com/65535/50039739271_910fe40963_o.jpg",
    "id_image": "MilkyWay_682913",
    "count_view": 0
  },
  {
    "link_thumb": "https://live.staticflickr.com/65535/50039060758_5f9b461be8_n.jpg",
    "id_album": "651930207",
    "description": "Explosion_361783",
    "title": "Explosion_361783",
    "link_img": "https://live.staticflickr.com/65535/50039060758_09ee8fee81_o.jpg",
    "id_image": "Explosion_361783",
    "count_view": 0
  },
  {
    "link_thumb": "https://live.staticflickr.com/65535/50040146337_df9a7a2c97_n.jpg",
    "id_album": "-1862561193",
    "description": "Other_269524",
    "title": "Other_269524",
    "link_img": "https://live.staticflickr.com/65535/50040146337_c0d8d588f8_o.jpg",
    "id_image": "Other_269524",
    "count_view": 0
  },
  {
    "link_thumb": "https://live.staticflickr.com/65535/50040301541_106e35beaa_n.jpg",
    "id_album": "779690680",
    "description": "Robot_396916",
    "title": "Robot_396916",
    "link_img": "https://live.staticflickr.com/65535/50040301541_d09ef59efe_o.jpg",
    "id_image": "Robot_396916",
    "count_view": 0
  },
  {
    "link_thumb": "https://live.staticflickr.com/65535/50039533066_a6c5a99ba8_n.jpg",
    "id_album": "-1964113117",
    "description": "City_992548",
    "title": "City_992548",
    "link_img": "https://live.staticflickr.com/65535/50039533066_9663cbe5bd_o.jpg",
    "id_image": "City_992548",
    "count_view": 0
  },
  {
    "link_thumb": "https://live.staticflickr.com/65535/50040256281_591351776d_n.jpg",
    "id_album": "779690680",
    "description": "Robot_155010",
    "title": "Robot_155010",
    "link_img": "https://live.staticflickr.com/65535/50040256281_9bb595e518_o.jpg",
    "id_image": "Robot_155010",
    "count_view": 0
  },
  {
    "link_thumb": "https://live.staticflickr.com/65535/50038779088_a6ce33fc2f_n.jpg",
    "id_album": "523598895",
    "description": "Artistic_281513",
    "title": "Artistic_281513",
    "link_img": "https://live.staticflickr.com/65535/50038779088_dedec4b0a2_o.jpg",
    "id_image": "Artistic_281513",
    "count_view": 0
  },
  {
    "link_thumb": "https://live.staticflickr.com/65535/50039451431_e5cca83cab_n.jpg",
    "id_album": "-1964113117",
    "description": "City_233924",
    "title": "City_233924",
    "link_img": "https://live.staticflickr.com/65535/50039451431_7c57f7ac06_o.jpg",
    "id_image": "City_233924",
    "count_view": 0
  },
  {
    "link_thumb": "https://live.staticflickr.com/65535/50039252746_ccaf01f953_n.jpg",
    "id_album": "849020728",
    "description": "Alien_201874",
    "title": "Alien_201874",
    "link_img": "https://live.staticflickr.com/65535/50039252746_1461ef6695_o.jpg",
    "id_image": "Alien_201874",
    "count_view": 0
  },
  {
    "link_thumb": "https://live.staticflickr.com/65535/50039599297_3dcd2f160a_n.jpg",
    "id_album": "523598895",
    "description": "Artistic_474379",
    "title": "Artistic_474379",
    "link_img": "https://live.staticflickr.com/65535/50039599297_cfbc932599_o.jpg",
    "id_image": "Artistic_474379",
    "count_view": 0
  },
  {
    "link_thumb": "https://live.staticflickr.com/65535/50040088112_90f212da3d_n.jpg",
    "id_album": "-1610342324",
    "description": "Nebula_705310",
    "title": "Nebula_705310",
    "link_img": "https://live.staticflickr.com/65535/50040088112_6a1545ae21_o.jpg",
    "id_image": "Nebula_705310",
    "count_view": 0
  },
  {
    "link_thumb": "https://live.staticflickr.com/65535/50039957666_9b858296a4_n.jpg",
    "id_album": "395161030",
    "description": "Planet_533952",
    "title": "Planet_533952",
    "link_img": "https://live.staticflickr.com/65535/50039957666_102822f0c0_o.jpg",
    "id_image": "Planet_533952",
    "count_view": 0
  },
  {
    "link_thumb": "https://live.staticflickr.com/65535/50040266651_a714b07403_n.jpg",
    "id_album": "779690680",
    "description": "Robot_222394",
    "title": "Robot_222394",
    "link_img": "https://live.staticflickr.com/65535/50040266651_b8f3602eb8_o.jpg",
    "id_image": "Robot_222394",
    "count_view": 0
  },
  {
    "link_thumb": "https://live.staticflickr.com/65535/50040399191_55d61f7830_n.jpg",
    "id_album": "779690680",
    "description": "Robot_900261",
    "title": "Robot_900261",
    "link_img": "https://live.staticflickr.com/65535/50040399191_43e87dfa97_o.jpg",
    "id_image": "Robot_900261",
    "count_view": 0
  },
  {
    "link_thumb": "https://live.staticflickr.com/65535/50040814898_43b1ccf451_n.jpg",
    "id_album": "-1177476763",
    "description": "Sunrise_805194",
    "title": "Sunrise_805194",
    "link_img": "https://live.staticflickr.com/65535/50040814898_97b0a2010a_o.jpg",
    "id_image": "Sunrise_805194",
    "count_view": 0
  },
  {
    "link_thumb": "https://live.staticflickr.com/65535/50039236171_05b3cb10f5_n.jpg",
    "id_album": "-406145265",
    "description": "Aircraft_269816",
    "title": "Aircraft_269816",
    "link_img": "https://live.staticflickr.com/65535/50039236171_0265b8cafc_o.jpg",
    "id_image": "Aircraft_269816",
    "count_view": 0
  },
  {
    "link_thumb": "https://live.staticflickr.com/65535/50038885663_416f6703df_n.jpg",
    "id_album": "-1964113117",
    "description": "City_145242",
    "title": "City_145242",
    "link_img": "https://live.staticflickr.com/65535/50038885663_35b2595cbc_o.jpg",
    "id_image": "City_145242",
    "count_view": 0
  },
  {
    "link_thumb": "https://live.staticflickr.com/65535/50040627608_c3568ef708_n.jpg",
    "id_album": "-1863373220",
    "description": "StarWars_446472",
    "title": "StarWars_446472",
    "link_img": "https://live.staticflickr.com/65535/50040627608_4ed361ca60_o.jpg",
    "id_image": "StarWars_446472",
    "count_view": 0
  },
  {
    "link_thumb": "https://live.staticflickr.com/65535/50039790502_50548e0477_n.jpg",
    "id_album": "-1964113117",
    "description": "City_968741",
    "title": "City_968741",
    "link_img": "https://live.staticflickr.com/65535/50039790502_57b95a9c9a_o.jpg",
    "id_image": "City_968741",
    "count_view": 0
  },
  {
    "link_thumb": "https://live.staticflickr.com/65535/50039482246_2ecb721db4_n.jpg",
    "id_album": "-1964113117",
    "description": "City_631675",
    "title": "City_631675",
    "link_img": "https://live.staticflickr.com/65535/50039482246_035a518f4c_o.jpg",
    "id_image": "City_631675",
    "count_view": 0
  },
  {
    "link_thumb": "https://live.staticflickr.com/65535/50039102983_3cd1ecc87f_n.jpg",
    "id_album": "1204249541",
    "description": "Galaxy_744904",
    "title": "Galaxy_744904",
    "link_img": "https://live.staticflickr.com/65535/50039102983_6868b5ce55_o.jpg",
    "id_image": "Galaxy_744904",
    "count_view": 0
  },
  {
    "link_thumb": "https://live.staticflickr.com/65535/50039482416_5c40ce104f_n.jpg",
    "id_album": "-1964113117",
    "description": "City_635056",
    "title": "City_635056",
    "link_img": "https://live.staticflickr.com/65535/50039482416_49959e162f_o.jpg",
    "id_image": "City_635056",
    "count_view": 0
  },
  {
    "link_thumb": "https://live.staticflickr.com/65535/50040042503_6e2433f607_n.jpg",
    "id_album": "2130067313",
    "description": "Spaceship_195156",
    "title": "Spaceship_195156",
    "link_img": "https://live.staticflickr.com/65535/50040042503_dc4f3bf7d9_o.jpg",
    "id_image": "Spaceship_195156",
    "count_view": 0
  },
  {
    "link_thumb": "https://live.staticflickr.com/65535/50039215573_e4f6e2df4f_n.jpg",
    "id_album": "-1610342324",
    "description": "Nebula_179724",
    "title": "Nebula_179724",
    "link_img": "https://live.staticflickr.com/65535/50039215573_1bb7885b4e_o.jpg",
    "id_image": "Nebula_179724",
    "count_view": 0
  },
  {
    "link_thumb": "https://live.staticflickr.com/65535/50040505482_4a1466bac0_n.jpg",
    "id_album": "-839602625",
    "description": "Predator_340249",
    "title": "Predator_340249",
    "link_img": "https://live.staticflickr.com/65535/50040505482_1225656af3_o.jpg",
    "id_image": "Predator_340249",
    "count_view": 0
  },
  {
    "link_thumb": "https://live.staticflickr.com/65535/50040398111_4fd9fa165f_n.jpg",
    "id_album": "779690680",
    "description": "Robot_898627",
    "title": "Robot_898627",
    "link_img": "https://live.staticflickr.com/65535/50040398111_844e13fc84_o.jpg",
    "id_image": "Robot_898627",
    "count_view": 0
  },
  {
    "link_thumb": "https://live.staticflickr.com/65535/50041377532_5218f020ed_n.jpg",
    "id_album": "-1863373220",
    "description": "StarWars_107677",
    "title": "StarWars_107677",
    "link_img": "https://live.staticflickr.com/65535/50041377532_dfccf9900b_o.jpg",
    "id_image": "StarWars_107677",
    "count_view": 0
  },
  {
    "link_thumb": "https://live.staticflickr.com/65535/50039831358_b329178d50_n.jpg",
    "id_album": "779690680",
    "description": "Robot_874028",
    "title": "Robot_874028",
    "link_img": "https://live.staticflickr.com/65535/50039831358_bed6b08a00_o.jpg",
    "id_image": "Robot_874028",
    "count_view": 0
  },
  {
    "link_thumb": "https://live.staticflickr.com/65535/50041037573_9b29e56138_n.jpg",
    "id_album": "-1675918237",
    "description": "WomenWarrior_931841",
    "title": "WomenWarrior_931841",
    "link_img": "https://live.staticflickr.com/65535/50041037573_37743f3388_o.jpg",
    "id_image": "WomenWarrior_931841",
    "count_view": 0
  },
  {
    "link_thumb": "https://live.staticflickr.com/65535/50039973417_3c2b6cdc21_n.jpg",
    "id_album": "1402713104",
    "description": "Landscape_842686",
    "title": "Landscape_842686",
    "link_img": "https://live.staticflickr.com/65535/50039973417_fb3e9de4dc_o.jpg",
    "id_image": "Landscape_842686",
    "count_view": 0
  },
  {
    "link_thumb": "https://live.staticflickr.com/65535/50039670556_e12e1a2c92_n.jpg",
    "id_album": "1402713104",
    "description": "Landscape_283783",
    "title": "Landscape_283783",
    "link_img": "https://live.staticflickr.com/65535/50039670556_4833786ae3_o.jpg",
    "id_image": "Landscape_283783",
    "count_view": 0
  },
  {
    "link_thumb": "https://live.staticflickr.com/65535/50040501532_e119287726_n.jpg",
    "id_album": "-839602625",
    "description": "Predator_113128",
    "title": "Predator_113128",
    "link_img": "https://live.staticflickr.com/65535/50040501532_dc6b3cd073_o.jpg",
    "id_image": "Predator_113128",
    "count_view": 0
  },
  {
    "link_thumb": "https://live.staticflickr.com/65535/50039432101_a0c98daed4_n.jpg",
    "id_album": "-1964113117",
    "description": "City_106212",
    "title": "City_106212",
    "link_img": "https://live.staticflickr.com/65535/50039432101_1aceaf61d7_o.jpg",
    "id_image": "City_106212",
    "count_view": 0
  },
  {
    "link_thumb": "https://live.staticflickr.com/65535/50039480086_31e9629592_n.jpg",
    "id_album": "-1964113117",
    "description": "City_587290",
    "title": "City_587290",
    "link_img": "https://live.staticflickr.com/65535/50039480086_c1b58184fc_o.jpg",
    "id_image": "City_587290",
    "count_view": 0
  },
  {
    "link_thumb": "https://live.staticflickr.com/65535/50039197643_d0a5805492_n.jpg",
    "id_album": "-1388385651",
    "description": "MilkyWay_750352",
    "title": "MilkyWay_750352",
    "link_img": "https://live.staticflickr.com/65535/50039197643_e5d527b5ae_o.jpg",
    "id_image": "MilkyWay_750352",
    "count_view": 0
  },
  {
    "link_thumb": "https://live.staticflickr.com/65535/50040500452_c47017c786_n.jpg",
    "id_album": "-482547208",
    "description": "PostApocalyptic_977052",
    "title": "PostApocalyptic_977052",
    "link_img": "https://live.staticflickr.com/65535/50040500452_caaf79a6f7_o.jpg",
    "id_image": "PostApocalyptic_977052",
    "count_view": 0
  },
  {
    "link_thumb": "https://live.staticflickr.com/65535/50039534686_8a642e3b13_n.jpg",
    "id_album": "-1964113117",
    "description": "City_997454",
    "title": "City_997454",
    "link_img": "https://live.staticflickr.com/65535/50039534686_e0416f54ea_o.jpg",
    "id_image": "City_997454",
    "count_view": 0
  },
  {
    "link_thumb": "https://live.staticflickr.com/65535/50040477481_0f64201905_n.jpg",
    "id_album": "1613540653",
    "description": "Space_193",
    "title": "Space_193",
    "link_img": "https://live.staticflickr.com/65535/50040477481_5162ab3ddf_o.jpg",
    "id_image": "Space_193",
    "count_view": 0
  },
  {
    "link_thumb": "https://live.staticflickr.com/65535/50041187841_7809ce5c9b_n.jpg",
    "id_album": "-1863373220",
    "description": "StarWars_497642",
    "title": "StarWars_497642",
    "link_img": "https://live.staticflickr.com/65535/50041187841_919bccf154_o.jpg",
    "id_image": "StarWars_497642",
    "count_view": 0
  },
  {
    "link_thumb": "https://live.staticflickr.com/65535/50041608012_6bddc4d90e_n.jpg",
    "id_album": "-221671103",
    "description": "Sun_293355",
    "title": "Sun_293355",
    "link_img": "https://live.staticflickr.com/65535/50041608012_7be9ca2f33_o.jpg",
    "id_image": "Sun_293355",
    "count_view": 0
  },
  {
    "link_thumb": "https://live.staticflickr.com/65535/50041528832_28ccb471cb_n.jpg",
    "id_album": "-1587696329",
    "description": "Stars_407915",
    "title": "Stars_407915",
    "link_img": "https://live.staticflickr.com/65535/50041528832_50528599db_o.jpg",
    "id_image": "Stars_407915",
    "count_view": 0
  },
  {
    "link_thumb": "https://live.staticflickr.com/65535/50039519947_19028df962_n.jpg",
    "id_album": "849020728",
    "description": "Alien_278137",
    "title": "Alien_278137",
    "link_img": "https://live.staticflickr.com/65535/50039519947_0d50fc9b73_o.jpg",
    "id_image": "Alien_278137",
    "count_view": 0
  },
  {
    "link_thumb": "https://live.staticflickr.com/65535/50040226628_ba1b951dac_n.jpg",
    "id_album": "2130067313",
    "description": "Spaceship_975881",
    "title": "Spaceship_975881",
    "link_img": "https://live.staticflickr.com/65535/50040226628_3d6d7658c4_o.jpg",
    "id_image": "Spaceship_975881",
    "count_view": 0
  },
  {
    "link_thumb": "https://live.staticflickr.com/65535/50039822658_61833177da_n.jpg",
    "id_album": "779690680",
    "description": "Robot_857297",
    "title": "Robot_857297",
    "link_img": "https://live.staticflickr.com/65535/50039822658_1af1e325ec_o.jpg",
    "id_image": "Robot_857297",
    "count_view": 0
  },
  {
    "link_thumb": "https://live.staticflickr.com/65535/50039533847_50b512d823_n.jpg",
    "id_album": "849020728",
    "description": "Alien_601517",
    "title": "Alien_601517",
    "link_img": "https://live.staticflickr.com/65535/50039533847_5773e9b983_o.jpg",
    "id_image": "Alien_601517",
    "count_view": 0
  },
  {
    "link_thumb": "https://live.staticflickr.com/65535/50039293158_e6e0ed76b8_n.jpg",
    "id_album": "-1610342324",
    "description": "Nebula_835408",
    "title": "Nebula_835408",
    "link_img": "https://live.staticflickr.com/65535/50039293158_789777a19c_o.jpg",
    "id_image": "Nebula_835408",
    "count_view": 0
  },
  {
    "link_thumb": "https://live.staticflickr.com/65535/50039352256_cfb8ff0a04_n.jpg",
    "id_album": "869545341",
    "description": "Astronaut_247116",
    "title": "Astronaut_247116",
    "link_img": "https://live.staticflickr.com/65535/50039352256_261f21f70f_o.jpg",
    "id_image": "Astronaut_247116",
    "count_view": 0
  },
  {
    "link_thumb": "https://live.staticflickr.com/65535/50039952366_cbba71fa9f_n.jpg",
    "id_album": "395161030",
    "description": "Planet_476253",
    "title": "Planet_476253",
    "link_img": "https://live.staticflickr.com/65535/50039952366_7b676e320b_o.jpg",
    "id_image": "Planet_476253",
    "count_view": 0
  },
  {
    "link_thumb": "https://live.staticflickr.com/65535/50039183448_bd47fd7b79_n.jpg",
    "id_album": "-1388385651",
    "description": "MilkyWay_550926",
    "title": "MilkyWay_550926",
    "link_img": "https://live.staticflickr.com/65535/50039183448_4bc8ed835e_o.jpg",
    "id_image": "MilkyWay_550926",
    "count_view": 0
  },
  {
    "link_thumb": "https://live.staticflickr.com/65535/50039403266_5096c64643_n.jpg",
    "id_album": "1187037014",
    "description": "Battle_564424",
    "title": "Battle_564424",
    "link_img": "https://live.staticflickr.com/65535/50039403266_c1dd95a89e_o.jpg",
    "id_image": "Battle_564424",
    "count_view": 0
  },
  {
    "link_thumb": "https://live.staticflickr.com/65535/50039696522_3ce8eaec65_n.jpg",
    "id_album": "-1964113117",
    "description": "City_123749",
    "title": "City_123749",
    "link_img": "https://live.staticflickr.com/65535/50039696522_d837aa0fde_o.jpg",
    "id_image": "City_123749",
    "count_view": 0
  },
  {
    "link_thumb": "https://live.staticflickr.com/65535/50039550201_aa0fdc5bec_n.jpg",
    "id_album": "-437872736",
    "description": "Creature_312151",
    "title": "Creature_312151",
    "link_img": "https://live.staticflickr.com/65535/50039550201_c9fede1478_o.jpg",
    "id_image": "Creature_312151",
    "count_view": 0
  },
  {
    "link_thumb": "https://live.staticflickr.com/65535/50038839928_3331fe48cf_n.jpg",
    "id_album": "869545341",
    "description": "Astronaut_971385",
    "title": "Astronaut_971385",
    "link_img": "https://live.staticflickr.com/65535/50038839928_d46362994b_o.jpg",
    "id_image": "Astronaut_971385",
    "count_view": 0
  },
  {
    "link_thumb": "https://live.staticflickr.com/65535/50040552071_8dff6dc611_n.jpg",
    "id_album": "1613540653",
    "description": "Space_936378",
    "title": "Space_936378",
    "link_img": "https://live.staticflickr.com/65535/50040552071_bbc3356b43_o.jpg",
    "id_image": "Space_936378",
    "count_view": 0
  },
  {
    "link_thumb": "https://live.staticflickr.com/65535/50039342901_59f3d55cfd_n.jpg",
    "id_album": "523598895",
    "description": "Artistic_712822",
    "title": "Artistic_712822",
    "link_img": "https://live.staticflickr.com/65535/50039342901_1b87507f30_o.jpg",
    "id_image": "Artistic_712822",
    "count_view": 0
  },
  {
    "link_thumb": "https://live.staticflickr.com/65535/50039866978_2df9175ea5_n.jpg",
    "id_album": "779690680",
    "description": "Robot_926852",
    "title": "Robot_926852",
    "link_img": "https://live.staticflickr.com/65535/50039866978_22c0a26c5f_o.jpg",
    "id_image": "Robot_926852",
    "count_view": 0
  },
  {
    "link_thumb": "https://live.staticflickr.com/65535/50040492482_1c7d85bd16_n.jpg",
    "id_album": "-482547208",
    "description": "PostApocalyptic_869203",
    "title": "PostApocalyptic_869203",
    "link_img": "https://live.staticflickr.com/65535/50040492482_1452a2ae51_o.jpg",
    "id_image": "PostApocalyptic_869203",
    "count_view": 0
  },
  {
    "link_thumb": "https://live.staticflickr.com/65535/50039014953_3d7eb0c1dc_n.jpg",
    "id_album": "-1372247677",
    "description": "Cyberpunk_868980",
    "title": "Cyberpunk_868980",
    "link_img": "https://live.staticflickr.com/65535/50039014953_f134bd5b7b_o.jpg",
    "id_image": "Cyberpunk_868980",
    "count_view": 0
  },
  {
    "link_thumb": "https://live.staticflickr.com/65535/50039187163_0a5325abd6_n.jpg",
    "id_album": "-1388385651",
    "description": "MilkyWay_598607",
    "title": "MilkyWay_598607",
    "link_img": "https://live.staticflickr.com/65535/50039187163_711de30ca3_o.jpg",
    "id_image": "MilkyWay_598607",
    "count_view": 0
  },
  {
    "link_thumb": "https://live.staticflickr.com/65535/50039897672_d1f6f2193f_n.jpg",
    "id_album": "1204249541",
    "description": "Galaxy_441058",
    "title": "Galaxy_441058",
    "link_img": "https://live.staticflickr.com/65535/50039897672_5c44a731ba_o.jpg",
    "id_image": "Galaxy_441058",
    "count_view": 0
  },
  {
    "link_thumb": "https://live.staticflickr.com/65535/50039871573_2eb8e0f53e_n.jpg",
    "id_album": "779690680",
    "description": "Robot_928640",
    "title": "Robot_928640",
    "link_img": "https://live.staticflickr.com/65535/50039871573_0d3b7599e7_o.jpg",
    "id_image": "Robot_928640",
    "count_view": 0
  },
  {
    "link_thumb": "https://live.staticflickr.com/65535/50039491837_89371c0d2f_n.jpg",
    "id_album": "280884763",
    "description": "Abstract_286952",
    "title": "Abstract_286952",
    "link_img": "https://live.staticflickr.com/65535/50039491837_a201e18886_o.jpg",
    "id_image": "Abstract_286952",
    "count_view": 0
  },
  {
    "link_thumb": "https://live.staticflickr.com/65535/50040056932_eaa81c0cc3_n.jpg",
    "id_album": "-1610342324",
    "description": "Nebula_405236",
    "title": "Nebula_405236",
    "link_img": "https://live.staticflickr.com/65535/50040056932_bcdb3c4a1f_o.jpg",
    "id_image": "Nebula_405236",
    "count_view": 0
  },
  {
    "link_thumb": "https://live.staticflickr.com/65535/50039310958_1c77f5c3c5_n.jpg",
    "id_album": "-1862561193",
    "description": "Other_1304",
    "title": "Other_1304",
    "link_img": "https://live.staticflickr.com/65535/50039310958_814f2b0880_o.jpg",
    "id_image": "Other_1304",
    "count_view": 0
  },
  {
    "link_thumb": "https://live.staticflickr.com/65535/50038748518_ccb58caf4c_n.jpg",
    "id_album": "523598895",
    "description": "Artistic_150243",
    "title": "Artistic_150243",
    "link_img": "https://live.staticflickr.com/65535/50038748518_af8784c132_o.jpg",
    "id_image": "Artistic_150243",
    "count_view": 0
  },
  {
    "link_thumb": "https://live.staticflickr.com/65535/50039229148_cae736a20f_n.jpg",
    "id_album": "-1610342324",
    "description": "Nebula_264704",
    "title": "Nebula_264704",
    "link_img": "https://live.staticflickr.com/65535/50039229148_cb14a59e85_o.jpg",
    "id_image": "Nebula_264704",
    "count_view": 0
  },
  {
    "link_thumb": "https://live.staticflickr.com/65535/50039252231_528ba0524b_n.jpg",
    "id_album": "849020728",
    "description": "Alien_197560",
    "title": "Alien_197560",
    "link_img": "https://live.staticflickr.com/65535/50039252231_2dcdacacd6_o.jpg",
    "id_image": "Alien_197560",
    "count_view": 0
  },
  {
    "link_thumb": "https://live.staticflickr.com/65535/50040152928_acc1795a54_n.jpg",
    "id_album": "2130067313",
    "description": "Spaceship_526714",
    "title": "Spaceship_526714",
    "link_img": "https://live.staticflickr.com/65535/50040152928_0b68c0b152_o.jpg",
    "id_image": "Spaceship_526714",
    "count_view": 0
  },
  {
    "link_thumb": "https://live.staticflickr.com/65535/50039895852_a23cb0ba54_n.jpg",
    "id_album": "1204249541",
    "description": "Galaxy_421608",
    "title": "Galaxy_421608",
    "link_img": "https://live.staticflickr.com/65535/50039895852_de2ea326e4_o.jpg",
    "id_image": "Galaxy_421608",
    "count_view": 0
  },
  {
    "link_thumb": "https://live.staticflickr.com/65535/50038941223_0e49e1183a_n.jpg",
    "id_album": "-1964113117",
    "description": "City_697303",
    "title": "City_697303",
    "link_img": "https://live.staticflickr.com/65535/50038941223_7df4d2b874_o.jpg",
    "id_image": "City_697303",
    "count_view": 0
  },
  {
    "link_thumb": "https://live.staticflickr.com/65535/50040808878_569e6cbceb_n.jpg",
    "id_album": "-1177476763",
    "description": "Sunrise_391881",
    "title": "Sunrise_391881",
    "link_img": "https://live.staticflickr.com/65535/50040808878_83ac0613a0_o.jpg",
    "id_image": "Sunrise_391881",
    "count_view": 0
  },
  {
    "link_thumb": "https://live.staticflickr.com/65535/50040115386_f63a693e41_n.jpg",
    "id_album": "-1102314093",
    "description": "Planets_436890",
    "title": "Planets_436890",
    "link_img": "https://live.staticflickr.com/65535/50040115386_bb2d8554ea_o.jpg",
    "id_image": "Planets_436890",
    "count_view": 0
  },
  {
    "link_thumb": "https://live.staticflickr.com/65535/50039925808_072fc40b6a_n.jpg",
    "id_album": "1613540653",
    "description": "Space_217722",
    "title": "Space_217722",
    "link_img": "https://live.staticflickr.com/65535/50039925808_15237d765f_o.jpg",
    "id_image": "Space_217722",
    "count_view": 0
  }
]