[
  {
    "link_thumb": "https://live.staticflickr.com/65535/50040664352_808e15eeaa_n.jpg",
    "id_album": "779690680",
    "description": "Robot_900265",
    "title": "Robot_900265",
    "link_img": "https://live.staticflickr.com/65535/50040664352_81e6238eb9_o.jpg",
    "id_image": "Robot_900265",
    "count_view": 0
  },
  {
    "link_thumb": "https://live.staticflickr.com/65535/50038776493_0d4722567a_n.jpg",
    "id_album": "523598895",
    "description": "Artistic_250290",
    "title": "Artistic_250290",
    "link_img": "https://live.staticflickr.com/65535/50038776493_c00ab2e99b_o.jpg",
    "id_image": "Artistic_250290",
    "count_view": 0
  },
  {
    "link_thumb": "https://live.staticflickr.com/65535/50039286931_1553707b50_n.jpg",
    "id_album": "-419633230",
    "description": "Apocalyptic_711999",
    "title": "Apocalyptic_711999",
    "link_img": "https://live.staticflickr.com/65535/50039286931_94e9a435a6_o.jpg",
    "id_image": "Apocalyptic_711999",
    "count_view": 0
  },
  {
    "link_thumb": "https://live.staticflickr.com/65535/50039868797_d7e2e7f908_n.jpg",
    "id_album": "829169633",
    "description": "Cyborg_964089",
    "title": "Cyborg_964089",
    "link_img": "https://live.staticflickr.com/65535/50039868797_5f1c1ab277_o.jpg",
    "id_image": "Cyborg_964089",
    "count_view": 0
  },
  {
    "link_thumb": "https://live.staticflickr.com/65535/50039341081_dcfb74aea1_n.jpg",
    "id_album": "523598895",
    "description": "Artistic_653391",
    "title": "Artistic_653391",
    "link_img": "https://live.staticflickr.com/65535/50039341081_a1caa306a8_o.jpg",
    "id_image": "Artistic_653391",
    "count_view": 0
  },
  {
    "link_thumb": "https://live.staticflickr.com/65535/50038688318_e637f0a34a_n.jpg",
    "id_album": "-406145265",
    "description": "Aircraft_268483",
    "title": "Aircraft_268483",
    "link_img": "https://live.staticflickr.com/65535/50038688318_8e0b447096_o.jpg",
    "id_image": "Aircraft_268483",
    "count_view": 0
  },
  {
    "link_thumb": "https://live.staticflickr.com/65535/50039895732_18e6ef21d9_n.jpg",
    "id_album": "1204249541",
    "description": "Galaxy_418331",
    "title": "Galaxy_418331",
    "link_img": "https://live.staticflickr.com/65535/50039895732_2f381504de_o.jpg",
    "id_image": "Galaxy_418331",
    "count_view": 0
  },
  {
    "link_thumb": "https://live.staticflickr.com/65535/50038706073_949baedc3b_n.jpg",
    "id_album": "849020728",
    "description": "Alien_206856",
    "title": "Alien_206856",
    "link_img": "https://live.staticflickr.com/65535/50038706073_fc37f45c1d_o.jpg",
    "id_image": "Alien_206856",
    "count_view": 0
  },
  {
    "link_thumb": "https://live.staticflickr.com/65535/50039268928_0d1d58f80e_n.jpg",
    "id_album": "-1610342324",
    "description": "Nebula_609709",
    "title": "Nebula_609709",
    "link_img": "https://live.staticflickr.com/65535/50039268928_5edf369b8e_o.jpg",
    "id_image": "Nebula_609709",
    "count_view": 0
  },
  {
    "link_thumb": "https://live.staticflickr.com/65535/50041706317_d0bb8dbe57_n.jpg",
    "id_album": "-1261420436",
    "description": "Warrior_283852",
    "title": "Warrior_283852",
    "link_img": "https://live.staticflickr.com/65535/50041706317_783af978b6_o.jpg",
    "id_image": "Warrior_283852",
    "count_view": 0
  },
  {
    "link_thumb": "https://live.staticflickr.com/65535/50038691448_9a163fd5fd_n.jpg",
    "id_album": "-406145265",
    "description": "Aircraft_341297",
    "title": "Aircraft_341297",
    "link_img": "https://live.staticflickr.com/65535/50038691448_5a33ac87e3_o.jpg",
    "id_image": "Aircraft_341297",
    "count_view": 0
  },
  {
    "link_thumb": "https://live.staticflickr.com/65535/50040817153_60b476ef59_n.jpg",
    "id_album": "2020068132",
    "description": "Vehicle_1011724",
    "title": "Vehicle_1011724",
    "link_img": "https://live.staticflickr.com/65535/50040817153_c463822ea1_o.jpg",
    "id_image": "Vehicle_1011724",
    "count_view": 0
  },
  {
    "link_thumb": "https://live.staticflickr.com/65535/50038679778_a54e0b8386_n.jpg",
    "id_album": "280884763",
    "description": "Abstract_129854",
    "title": "Abstract_129854",
    "link_img": "https://live.staticflickr.com/65535/50038679778_05b9b30949_o.jpg",
    "id_image": "Abstract_129854",
    "count_view": 0
  },
  {
    "link_thumb": "https://live.staticflickr.com/65535/50039578337_1af17a9b88_n.jpg",
    "id_album": "523598895",
    "description": "Artistic_220815",
    "title": "Artistic_220815",
    "link_img": "https://live.staticflickr.com/65535/50039578337_a9f34f449d_o.jpg",
    "id_image": "Artistic_220815",
    "count_view": 0
  },
  {
    "link_thumb": "https://live.staticflickr.com/65535/50038916423_3743de74bb_n.jpg",
    "id_album": "-1964113117",
    "description": "City_345696",
    "title": "City_345696",
    "link_img": "https://live.staticflickr.com/65535/50038916423_e509f31ba1_o.jpg",
    "id_image": "City_345696",
    "count_view": 0
  },
  {
    "link_thumb": "https://live.staticflickr.com/65535/50039131428_2c034d92f0_n.jpg",
    "id_album": "1402713104",
    "description": "Landscape_341730",
    "title": "Landscape_341730",
    "link_img": "https://live.staticflickr.com/65535/50039131428_73d977111c_o.jpg",
    "id_image": "Landscape_341730",
    "count_view": 0
  },
  {
    "link_thumb": "https://live.staticflickr.com/65535/50039301588_339187b4e5_n.jpg",
    "id_album": "-1610342324",
    "description": "Nebula_909713",
    "title": "Nebula_909713",
    "link_img": "https://live.staticflickr.com/65535/50039301588_165404b9f9_o.jpg",
    "id_image": "Nebula_909713",
    "count_view": 0
  },
  {
    "link_thumb": "https://live.staticflickr.com/65535/50040819776_43789c86fe_n.jpg",
    "id_album": "-1449720967",
    "description": "StarTrek_279989",
    "title": "StarTrek_279989",
    "link_img": "https://live.staticflickr.com/65535/50040819776_a4112354de_o.jpg",
    "id_image": "StarTrek_279989",
    "count_view": 0
  },
  {
    "link_thumb": "https://live.staticflickr.com/65535/50040211761_be9b44e981_n.jpg",
    "id_album": "-482547208",
    "description": "PostApocalyptic_51666",
    "title": "PostApocalyptic_51666",
    "link_img": "https://live.staticflickr.com/65535/50040211761_841e4e442b_o.jpg",
    "id_image": "PostApocalyptic_51666",
    "count_view": 0
  },
  {
    "link_thumb": "https://live.staticflickr.com/65535/50039932193_8864912259_n.jpg",
    "id_album": "1613540653",
    "description": "Space_286946",
    "title": "Space_286946",
    "link_img": "https://live.staticflickr.com/65535/50039932193_e837491b76_o.jpg",
    "id_image": "Space_286946",
    "count_view": 0
  },
  {
    "link_thumb": "https://live.staticflickr.com/65535/50039380016_437222e5f8_n.jpg",
    "id_album": "869545341",
    "description": "Astronaut_923968",
    "title": "Astronaut_923968",
    "link_img": "https://live.staticflickr.com/65535/50039380016_e60728d6fa_o.jpg",
    "id_image": "Astronaut_923968",
    "count_view": 0
  },
  {
    "link_thumb": "https://live.staticflickr.com/65535/50040164682_9dca1140b1_n.jpg",
    "id_album": "395161030",
    "description": "Planet_1004882",
    "title": "Planet_1004882",
    "link_img": "https://live.staticflickr.com/65535/50040164682_ec080948b9_o.jpg",
    "id_image": "Planet_1004882",
    "count_view": 0
  },
  {
    "link_thumb": "https://live.staticflickr.com/65535/50038745233_ea95bb65e1_n.jpg",
    "id_album": "523598895",
    "description": "Artistic_109233",
    "title": "Artistic_109233",
    "link_img": "https://live.staticflickr.com/65535/50038745233_dfc89f2c99_o.jpg",
    "id_image": "Artistic_109233",
    "count_view": 0
  },
  {
    "link_thumb": "https://live.staticflickr.com/65535/50040024307_5029efbd26_n.jpg",
    "id_album": "-1610342324",
    "description": "Nebula_103054",
    "title": "Nebula_103054",
    "link_img": "https://live.staticflickr.com/65535/50040024307_62cf128729_o.jpg",
    "id_image": "Nebula_103054",
    "count_view": 0
  },
  {
    "link_thumb": "https://live.staticflickr.com/65535/50041079292_293171cafe_n.jpg",
    "id_album": "-1449720967",
    "description": "StarTrek_275065",
    "title": "StarTrek_275065",
    "link_img": "https://live.staticflickr.com/65535/50041079292_c873d1a19a_o.jpg",
    "id_image": "StarTrek_275065",
    "count_view": 0
  },
  {
    "link_thumb": "https://live.staticflickr.com/65535/50041563741_5b21c625f9_n.jpg",
    "id_album": "-1675918237",
    "description": "WomenWarrior_283334",
    "title": "WomenWarrior_283334",
    "link_img": "https://live.staticflickr.com/65535/50041563741_5a8b211ee1_o.jpg",
    "id_image": "WomenWarrior_283334",
    "count_view": 0
  },
  {
    "link_thumb": "https://live.staticflickr.com/65535/50040552632_30dc767c27_n.jpg",
    "id_album": "779690680",
    "description": "Robot_321391",
    "title": "Robot_321391",
    "link_img": "https://live.staticflickr.com/65535/50040552632_2d567cf782_o.jpg",
    "id_image": "Robot_321391",
    "count_view": 0
  },
  {
    "link_thumb": "https://live.staticflickr.com/65535/50040059657_a1da6c524f_n.jpg",
    "id_album": "-1610342324",
    "description": "Nebula_430204",
    "title": "Nebula_430204",
    "link_img": "https://live.staticflickr.com/65535/50040059657_8ed5ed9789_o.jpg",
    "id_image": "Nebula_430204",
    "count_view": 0
  },
  {
    "link_thumb": "https://live.staticflickr.com/65535/50039610571_bc0e27cfa4_n.jpg",
    "id_album": "651930207",
    "description": "Explosion_371317",
    "title": "Explosion_371317",
    "link_img": "https://live.staticflickr.com/65535/50039610571_43b23446a9_o.jpg",
    "id_image": "Explosion_371317",
    "count_view": 0
  },
  {
    "link_thumb": "https://live.staticflickr.com/65535/50039382391_96bfa87451_n.jpg",
    "id_album": "869545341",
    "description": "Astronaut_935282",
    "title": "Astronaut_935282",
    "link_img": "https://live.staticflickr.com/65535/50039382391_39861cbcff_o.jpg",
    "id_image": "Astronaut_935282",
    "count_view": 0
  },
  {
    "link_thumb": "https://live.staticflickr.com/65535/50039656707_41b1fd95e4_n.jpg",
    "id_album": "1187037014",
    "description": "Battle_150262",
    "title": "Battle_150262",
    "link_img": "https://live.staticflickr.com/65535/50039656707_eb3627472d_o.jpg",
    "id_image": "Battle_150262",
    "count_view": 0
  },
  {
    "link_thumb": "https://live.staticflickr.com/65535/50041677412_0526190a69_n.jpg",
    "id_album": "2020068132",
    "description": "Vehicle_779329",
    "title": "Vehicle_779329",
    "link_img": "https://live.staticflickr.com/65535/50041677412_3b4681d1b1_o.jpg",
    "id_image": "Vehicle_779329",
    "count_view": 0
  },
  {
    "link_thumb": "https://live.staticflickr.com/65535/50039088208_8d55841d5a_n.jpg",
    "id_album": "1204249541",
    "description": "Galaxy_467024",
    "title": "Galaxy_467024",
    "link_img": "https://live.staticflickr.com/65535/50039088208_d1cb7bc633_o.jpg",
    "id_image": "Galaxy_467024",
    "count_view": 0
  },
  {
    "link_thumb": "https://live.staticflickr.com/65535/50038996003_39e9f230f8_n.jpg",
    "id_album": "894679094",
    "description": "Collision_913000",
    "title": "Collision_913000",
    "link_img": "https://live.staticflickr.com/65535/50038996003_53a594d53d_o.jpg",
    "id_image": "Collision_913000",
    "count_view": 0
  },
  {
    "link_thumb": "https://live.staticflickr.com/65535/50039566187_bb0cae0cfc_n.jpg",
    "id_album": "523598895",
    "description": "Artistic_175695",
    "title": "Artistic_175695",
    "link_img": "https://live.staticflickr.com/65535/50039566187_1d6a0962af_o.jpg",
    "id_image": "Artistic_175695",
    "count_view": 0
  },
  {
    "link_thumb": "https://live.staticflickr.com/65535/50040101042_26b4895c52_n.jpg",
    "id_album": "-1610342324",
    "description": "Nebula_790646",
    "title": "Nebula_790646",
    "link_img": "https://live.staticflickr.com/65535/50040101042_799687acac_o.jpg",
    "id_image": "Nebula_790646",
    "count_view": 0
  },
  {
    "link_thumb": "https://live.staticflickr.com/65535/50040167367_7a61cd4f5e_n.jpg",
    "id_album": "395161030",
    "description": "Planet_105256",
    "title": "Planet_105256",
    "link_img": "https://live.staticflickr.com/65535/50040167367_4581d3d8d4_o.jpg",
    "id_image": "Planet_105256",
    "count_view": 0
  },
  {
    "link_thumb": "https://live.staticflickr.com/65535/50040033542_b1fa33ed44_n.jpg",
    "id_album": "-1610342324",
    "description": "Nebula_210500",
    "title": "Nebula_210500",
    "link_img": "https://live.staticflickr.com/65535/50040033542_c012560e1d_o.jpg",
    "id_image": "Nebula_210500",
    "count_view": 0
  },
  {
    "link_thumb": "https://live.staticflickr.com/65535/50039892497_667b10148b_n.jpg",
    "id_album": "1204249541",
    "description": "Galaxy_286847",
    "title": "Galaxy_286847",
    "link_img": "https://live.staticflickr.com/65535/50039892497_82c94ce85a_o.jpg",
    "id_image": "Galaxy_286847",
    "count_view": 0
  },
  {
    "link_thumb": "https://live.staticflickr.com/65535/50040524608_2074ca5324_n.jpg",
    "id_album": "-1863373220",
    "description": "StarWars_1006252",
    "title": "StarWars_1006252",
    "link_img": "https://live.staticflickr.com/65535/50040524608_7a21ce260d_o.jpg",
    "id_image": "StarWars_1006252",
    "count_view": 0
  },
  {
    "link_thumb": "https://live.staticflickr.com/65535/50038950193_80f9b744fd_n.jpg",
    "id_album": "-1964113117",
    "description": "City_806776",
    "title": "City_806776",
    "link_img": "https://live.staticflickr.com/65535/50038950193_1ec14bba7c_o.jpg",
    "id_image": "City_806776",
    "count_view": 0
  },
  {
    "link_thumb": "https://live.staticflickr.com/65535/50039372561_8545cea783_n.jpg",
    "id_album": "869545341",
    "description": "Astronaut_857747",
    "title": "Astronaut_857747",
    "link_img": "https://live.staticflickr.com/65535/50039372561_5d3e19c018_o.jpg",
    "id_image": "Astronaut_857747",
    "count_view": 0
  },
  {
    "link_thumb": "https://live.staticflickr.com/65535/50039341856_737d82c9a6_n.jpg",
    "id_album": "523598895",
    "description": "Artistic_669063",
    "title": "Artistic_669063",
    "link_img": "https://live.staticflickr.com/65535/50039341856_e08c7ab3b4_o.jpg",
    "id_image": "Artistic_669063",
    "count_view": 0
  },
  {
    "link_thumb": "https://live.staticflickr.com/65535/50039906152_896b4c3be7_n.jpg",
    "id_album": "1204249541",
    "description": "Galaxy_558929",
    "title": "Galaxy_558929",
    "link_img": "https://live.staticflickr.com/65535/50039906152_732246cd36_o.jpg",
    "id_image": "Galaxy_558929",
    "count_view": 0
  },
  {
    "link_thumb": "https://live.staticflickr.com/65535/50039680732_a17da47924_n.jpg",
    "id_album": "-1780971522",
    "description": "Biohazard_573095",
    "title": "Biohazard_573095",
    "link_img": "https://live.staticflickr.com/65535/50039680732_193364d024_o.jpg",
    "id_image": "Biohazard_573095",
    "count_view": 0
  },
  {
    "link_thumb": "https://live.staticflickr.com/65535/50040226026_0fb72d179d_n.jpg",
    "id_album": "-482547208",
    "description": "PostApocalyptic_852641",
    "title": "PostApocalyptic_852641",
    "link_img": "https://live.staticflickr.com/65535/50040226026_8f614b5681_o.jpg",
    "id_image": "PostApocalyptic_852641",
    "count_view": 0
  },
  {
    "link_thumb": "https://live.staticflickr.com/65535/50039756271_a5e5c887d2_n.jpg",
    "id_album": "416351698",
    "description": "Moon_437354",
    "title": "Moon_437354",
    "link_img": "https://live.staticflickr.com/65535/50039756271_0e62d4b99c_o.jpg",
    "id_image": "Moon_437354",
    "count_view": 0
  },
  {
    "link_thumb": "https://live.staticflickr.com/65535/50041797317_8683349f0a_n.jpg",
    "id_album": "-1126835654",
    "description": "Women_530822",
    "title": "Women_530822",
    "link_img": "https://live.staticflickr.com/65535/50041797317_a00641bf4b_o.jpg",
    "id_image": "Women_530822",
    "count_view": 0
  },
  {
    "link_thumb": "https://live.staticflickr.com/65535/50039345746_b4ef96a822_n.jpg",
    "id_album": "523598895",
    "description": "Artistic_876188",
    "title": "Artistic_876188",
    "link_img": "https://live.staticflickr.com/65535/50039345746_dbdd7ae338_o.jpg",
    "id_image": "Artistic_876188",
    "count_view": 0
  },
  {
    "link_thumb": "https://live.staticflickr.com/65535/50039029418_9bbdbd50da_n.jpg",
    "id_album": "829169633",
    "description": "Cyborg_176741",
    "title": "Cyborg_176741",
    "link_img": "https://live.staticflickr.com/65535/50039029418_19d35a5942_o.jpg",
    "id_image": "Cyborg_176741",
    "count_view": 0
  },
  {
    "link_thumb": "https://live.staticflickr.com/65535/50039258863_0802de9d7c_n.jpg",
    "id_album": "-1610342324",
    "description": "Nebula_550553",
    "title": "Nebula_550553",
    "link_img": "https://live.staticflickr.com/65535/50039258863_606d3809ff_o.jpg",
    "id_image": "Nebula_550553",
    "count_view": 0
  },
  {
    "link_thumb": "https://live.staticflickr.com/65535/50041214456_48033379c4_n.jpg",
    "id_album": "-1863373220",
    "description": "StarWars_672006",
    "title": "StarWars_672006",
    "link_img": "https://live.staticflickr.com/65535/50041214456_15f9cb2419_o.jpg",
    "id_image": "StarWars_672006",
    "count_view": 0
  },
  {
    "link_thumb": "https://live.staticflickr.com/65535/50040900618_24505daa7f_n.jpg",
    "id_album": "-1261420436",
    "description": "Warrior_384693",
    "title": "Warrior_384693",
    "link_img": "https://live.staticflickr.com/65535/50040900618_f24486b9e7_o.jpg",
    "id_image": "Warrior_384693",
    "count_view": 0
  },
  {
    "link_thumb": "https://live.staticflickr.com/65535/50041737677_708306d2bc_n.jpg",
    "id_album": "-1261420436",
    "description": "Warrior_585041",
    "title": "Warrior_585041",
    "link_img": "https://live.staticflickr.com/65535/50041737677_18c2bcb660_o.jpg",
    "id_image": "Warrior_585041",
    "count_view": 0
  },
  {
    "link_thumb": "https://live.staticflickr.com/65535/50039737386_0338bf630d_n.jpg",
    "id_album": "-1388385651",
    "description": "MilkyWay_657343",
    "title": "MilkyWay_657343",
    "link_img": "https://live.staticflickr.com/65535/50039737386_424da3b5d6_o.jpg",
    "id_image": "MilkyWay_657343",
    "count_view": 0
  },
  {
    "link_thumb": "https://live.staticflickr.com/65535/50039732496_51e3b6f7bb_n.jpg",
    "id_album": "-1388385651",
    "description": "MilkyWay_550058",
    "title": "MilkyWay_550058",
    "link_img": "https://live.staticflickr.com/65535/50039732496_7bacbfc362_o.jpg",
    "id_image": "MilkyWay_550058",
    "count_view": 0
  },
  {
    "link_thumb": "https://live.staticflickr.com/65535/50039537377_bc746d7b48_n.jpg",
    "id_album": "849020728",
    "description": "Alien_868749",
    "title": "Alien_868749",
    "link_img": "https://live.staticflickr.com/65535/50039537377_ccc2f24a95_o.jpg",
    "id_image": "Alien_868749",
    "count_view": 0
  },
  {
    "link_thumb": "https://live.staticflickr.com/65535/50039244153_b51ea2b372_n.jpg",
    "id_album": "-1610342324",
    "description": "Nebula_413590",
    "title": "Nebula_413590",
    "link_img": "https://live.staticflickr.com/65535/50039244153_80f2be2aaf_o.jpg",
    "id_image": "Nebula_413590",
    "count_view": 0
  },
  {
    "link_thumb": "https://live.staticflickr.com/65535/50040185647_e42b8c1f6a_n.jpg",
    "id_album": "395161030",
    "description": "Planet_275966",
    "title": "Planet_275966",
    "link_img": "https://live.staticflickr.com/65535/50040185647_156bedb0f6_o.jpg",
    "id_image": "Planet_275966",
    "count_view": 0
  },
  {
    "link_thumb": "https://live.staticflickr.com/65535/50040173221_f0cb0d15e1_n.jpg",
    "id_album": "376235057",
    "description": "Planetscape_439174",
    "title": "Planetscape_439174",
    "link_img": "https://live.staticflickr.com/65535/50040173221_7973cb7432_o.jpg",
    "id_image": "Planetscape_439174",
    "count_view": 0
  },
  {
    "link_thumb": "https://live.staticflickr.com/65535/50040499882_8167e192f7_n.jpg",
    "id_album": "-482547208",
    "description": "PostApocalyptic_969641",
    "title": "PostApocalyptic_969641",
    "link_img": "https://live.staticflickr.com/65535/50040499882_cc639842b6_o.jpg",
    "id_image": "PostApocalyptic_969641",
    "count_view": 0
  },
  {
    "link_thumb": "https://live.staticflickr.com/65535/50040002321_cab0ed8039_n.jpg",
    "id_album": "1443611160",
    "description": "PlanetRise_344647",
    "title": "PlanetRise_344647",
    "link_img": "https://live.staticflickr.com/65535/50040002321_ea98c31a7a_o.jpg",
    "id_image": "PlanetRise_344647",
    "count_view": 0
  },
  {
    "link_thumb": "https://live.staticflickr.com/65535/50041700552_815a0f6826_n.jpg",
    "id_album": "-1261420436",
    "description": "Warrior_238424",
    "title": "Warrior_238424",
    "link_img": "https://live.staticflickr.com/65535/50041700552_cf751f55bb_o.jpg",
    "id_image": "Warrior_238424",
    "count_view": 0
  },
  {
    "link_thumb": "https://live.staticflickr.com/65535/50039607266_0b28ca3ebe_n.jpg",
    "id_album": "651930207",
    "description": "Explosion_127961",
    "title": "Explosion_127961",
    "link_img": "https://live.staticflickr.com/65535/50039607266_1b25afd6d5_o.jpg",
    "id_image": "Explosion_127961",
    "count_view": 0
  },
  {
    "link_thumb": "https://live.staticflickr.com/65535/50041012657_a6ac3d1f1c_n.jpg",
    "id_album": "2130067313",
    "description": "Spaceship_785328",
    "title": "Spaceship_785328",
    "link_img": "https://live.staticflickr.com/65535/50041012657_85fee80942_o.jpg",
    "id_image": "Spaceship_785328",
    "count_view": 0
  },
  {
    "link_thumb": "https://live.staticflickr.com/65535/50039661526_f2f08a4e81_n.jpg",
    "id_album": "1402713104",
    "description": "Landscape_163727",
    "title": "Landscape_163727",
    "link_img": "https://live.staticflickr.com/65535/50039661526_8f50f206e1_o.jpg",
    "id_image": "Landscape_163727",
    "count_view": 0
  },
  {
    "link_thumb": "https://live.staticflickr.com/65535/50040808878_569e6cbceb_n.jpg",
    "id_album": "-1177476763",
    "description": "Sunrise_391881",
    "title": "Sunrise_391881",
    "link_img": "https://live.staticflickr.com/65535/50040808878_83ac0613a0_o.jpg",
    "id_image": "Sunrise_391881",
    "count_view": 0
  },
  {
    "link_thumb": "https://live.staticflickr.com/65535/50039850257_688f55b2fb_n.jpg",
    "id_album": "829169633",
    "description": "Cyborg_390068",
    "title": "Cyborg_390068",
    "link_img": "https://live.staticflickr.com/65535/50039850257_51d7aa45fc_o.jpg",
    "id_image": "Cyborg_390068",
    "count_view": 0
  },
  {
    "link_thumb": "https://live.staticflickr.com/65535/50039606777_a6ccbb3636_n.jpg",
    "id_album": "523598895",
    "description": "Artistic_808400",
    "title": "Artistic_808400",
    "link_img": "https://live.staticflickr.com/65535/50039606777_09f2d76885_o.jpg",
    "id_image": "Artistic_808400",
    "count_view": 0
  },
  {
    "link_thumb": "https://live.staticflickr.com/65535/50040656482_b88b06ec3b_n.jpg",
    "id_album": "779690680",
    "description": "Robot_883165",
    "title": "Robot_883165",
    "link_img": "https://live.staticflickr.com/65535/50040656482_161b5b015b_o.jpg",
    "id_image": "Robot_883165",
    "count_view": 0
  },
  {
    "link_thumb": "https://live.staticflickr.com/65535/50040416802_b19915cb50_n.jpg",
    "id_album": "376235057",
    "description": "Planetscape_1009887",
    "title": "Planetscape_1009887",
    "link_img": "https://live.staticflickr.com/65535/50040416802_48018e620b_o.jpg",
    "id_image": "Planetscape_1009887",
    "count_view": 0
  },
  {
    "link_thumb": "https://live.staticflickr.com/65535/50040607452_5e70fe2392_n.jpg",
    "id_album": "779690680",
    "description": "Robot_602295",
    "title": "Robot_602295",
    "link_img": "https://live.staticflickr.com/65535/50040607452_813059482e_o.jpg",
    "id_image": "Robot_602295",
    "count_view": 0
  },
  {
    "link_thumb": "https://live.staticflickr.com/65535/50040090656_487d49d8dc_n.jpg",
    "id_album": "-1102314093",
    "description": "Planets_348909",
    "title": "Planets_348909",
    "link_img": "https://live.staticflickr.com/65535/50040090656_bdfa171c2f_o.jpg",
    "id_image": "Planets_348909",
    "count_view": 0
  },
  {
    "link_thumb": "https://live.staticflickr.com/65535/50040725177_89db9a61a3_n.jpg",
    "id_album": "779690680",
    "description": "Robot_997950",
    "title": "Robot_997950",
    "link_img": "https://live.staticflickr.com/65535/50040725177_dc25b04fb0_o.jpg",
    "id_image": "Robot_997950",
    "count_view": 0
  },
  {
    "link_thumb": "https://live.staticflickr.com/65535/50039732108_ae1ce57ac5_n.jpg",
    "id_album": "779690680",
    "description": "Robot_307407",
    "title": "Robot_307407",
    "link_img": "https://live.staticflickr.com/65535/50039732108_a9c1aea53e_o.jpg",
    "id_image": "Robot_307407",
    "count_view": 0
  },
  {
    "link_thumb": "https://live.staticflickr.com/65535/50040477312_07e46332bd_n.jpg",
    "id_album": "-482547208",
    "description": "PostApocalyptic_529241",
    "title": "PostApocalyptic_529241",
    "link_img": "https://live.staticflickr.com/65535/50040477312_8a1abaea05_o.jpg",
    "id_image": "PostApocalyptic_529241",
    "count_view": 0
  },
  {
    "link_thumb": "https://live.staticflickr.com/65535/50041008188_ab34ee4e23_n.jpg",
    "id_album": "-1675918237",
    "description": "WomenWarrior_243739",
    "title": "WomenWarrior_243739",
    "link_img": "https://live.staticflickr.com/65535/50041008188_4928a1188a_o.jpg",
    "id_image": "WomenWarrior_243739",
    "count_view": 0
  },
  {
    "link_thumb": "https://live.staticflickr.com/65535/50041325101_ac8d31aedb_n.jpg",
    "id_album": "1267121215",
    "description": "Steampunk_655447",
    "title": "Steampunk_655447",
    "link_img": "https://live.staticflickr.com/65535/50041325101_fbe50a6bb3_o.jpg",
    "id_image": "Steampunk_655447",
    "count_view": 0
  },
  {
    "link_thumb": "https://live.staticflickr.com/65535/50039959193_1f5227949d_n.jpg",
    "id_album": "1613540653",
    "description": "Space_566803",
    "title": "Space_566803",
    "link_img": "https://live.staticflickr.com/65535/50039959193_1c538d4e53_o.jpg",
    "id_image": "Space_566803",
    "count_view": 0
  },
  {
    "link_thumb": "https://live.staticflickr.com/65535/50039606456_e04a839e10_n.jpg",
    "id_album": "829169633",
    "description": "Cyborg_964102",
    "title": "Cyborg_964102",
    "link_img": "https://live.staticflickr.com/65535/50039606456_c8c59d4ff1_o.jpg",
    "id_image": "Cyborg_964102",
    "count_view": 0
  },
  {
    "link_thumb": "https://live.staticflickr.com/65535/50039543556_53329ab6cb_n.jpg",
    "id_album": "894679094",
    "description": "Collision_78047",
    "title": "Collision_78047",
    "link_img": "https://live.staticflickr.com/65535/50039543556_a1bf9b5326_o.jpg",
    "id_image": "Collision_78047",
    "count_view": 0
  },
  {
    "link_thumb": "https://live.staticflickr.com/65535/50041739942_25fd76083f_n.jpg",
    "id_album": "-1261420436",
    "description": "Warrior_599815",
    "title": "Warrior_599815",
    "link_img": "https://live.staticflickr.com/65535/50041739942_e4b3b1bfc0_o.jpg",
    "id_image": "Warrior_599815",
    "count_view": 0
  },
  {
    "link_thumb": "https://live.staticflickr.com/65535/50039872113_142d9e857d_n.jpg",
    "id_album": "779690680",
    "description": "Robot_928645",
    "title": "Robot_928645",
    "link_img": "https://live.staticflickr.com/65535/50039872113_3fc60675f3_o.jpg",
    "id_image": "Robot_928645",
    "count_view": 0
  },
  {
    "link_thumb": "https://live.staticflickr.com/65535/50040863763_fb7e8a5d25_n.jpg",
    "id_album": "2020068132",
    "description": "Vehicle_879546",
    "title": "Vehicle_879546",
    "link_img": "https://live.staticflickr.com/65535/50040863763_86b7b69a0c_o.jpg",
    "id_image": "Vehicle_879546",
    "count_view": 0
  },
  {
    "link_thumb": "https://live.staticflickr.com/65535/50041155591_4a670fc97a_n.jpg",
    "id_album": "-1863373220",
    "description": "StarWars_254395",
    "title": "StarWars_254395",
    "link_img": "https://live.staticflickr.com/65535/50041155591_190bcdb23b_o.jpg",
    "id_image": "StarWars_254395",
    "count_view": 0
  },
  {
    "link_thumb": "https://live.staticflickr.com/65535/50039904402_81438eb12f_n.jpg",
    "id_album": "1204249541",
    "description": "Galaxy_546246",
    "title": "Galaxy_546246",
    "link_img": "https://live.staticflickr.com/65535/50039904402_c72a50a48b_o.jpg",
    "id_image": "Galaxy_546246",
    "count_view": 0
  },
  {
    "link_thumb": "https://live.staticflickr.com/65535/50040562717_13a48edb0f_n.jpg",
    "id_album": "779690680",
    "description": "Robot_379829",
    "title": "Robot_379829",
    "link_img": "https://live.staticflickr.com/65535/50040562717_ef2b2db8d1_o.jpg",
    "id_image": "Robot_379829",
    "count_view": 0
  },
  {
    "link_thumb": "https://live.staticflickr.com/65535/50039940961_4b47e8fef6_n.jpg",
    "id_album": "395161030",
    "description": "Planet_376380",
    "title": "Planet_376380",
    "link_img": "https://live.staticflickr.com/65535/50039940961_b48404f21f_o.jpg",
    "id_image": "Planet_376380",
    "count_view": 0
  },
  {
    "link_thumb": "https://live.staticflickr.com/65535/50039828702_dbc34a72e4_n.jpg",
    "id_album": "-1372247677",
    "description": "Cyberpunk_920538",
    "title": "Cyberpunk_920538",
    "link_img": "https://live.staticflickr.com/65535/50039828702_29dd054236_o.jpg",
    "id_image": "Cyberpunk_920538",
    "count_view": 0
  },
  {
    "link_thumb": "https://live.staticflickr.com/65535/50041526811_809eda8220_n.jpg",
    "id_album": "-1126835654",
    "description": "Women_374516",
    "title": "Women_374516",
    "link_img": "https://live.staticflickr.com/65535/50041526811_c95b78059e_o.jpg",
    "id_image": "Women_374516",
    "count_view": 0
  },
  {
    "link_thumb": "https://live.staticflickr.com/65535/50039623467_199a891310_n.jpg",
    "id_album": "869545341",
    "description": "Astronaut_641238",
    "title": "Astronaut_641238",
    "link_img": "https://live.staticflickr.com/65535/50039623467_3499c059d6_o.jpg",
    "id_image": "Astronaut_641238",
    "count_view": 0
  },
  {
    "link_thumb": "https://live.staticflickr.com/65535/50039010773_f5450cb403_n.jpg",
    "id_album": "-437872736",
    "description": "Creature_881685",
    "title": "Creature_881685",
    "link_img": "https://live.staticflickr.com/65535/50039010773_0d120dcbd3_o.jpg",
    "id_image": "Creature_881685",
    "count_view": 0
  },
  {
    "link_thumb": "https://live.staticflickr.com/65535/50040217027_21a30bbcae_n.jpg",
    "id_album": "395161030",
    "description": "Planet_473048",
    "title": "Planet_473048",
    "link_img": "https://live.staticflickr.com/65535/50040217027_b408ab3c42_o.jpg",
    "id_image": "Planet_473048",
    "count_view": 0
  },
  {
    "link_thumb": "https://live.staticflickr.com/65535/50039085033_dcb319cbe4_n.jpg",
    "id_album": "1204249541",
    "description": "Galaxy_437551",
    "title": "Galaxy_437551",
    "link_img": "https://live.staticflickr.com/65535/50039085033_8d7c8d82fa_o.jpg",
    "id_image": "Galaxy_437551",
    "count_view": 0
  },
  {
    "link_thumb": "https://live.staticflickr.com/65535/50040502667_54366d62a0_n.jpg",
    "id_album": "-839602625",
    "description": "Predator_196975",
    "title": "Predator_196975",
    "link_img": "https://live.staticflickr.com/65535/50040502667_64bcf76d87_o.jpg",
    "id_image": "Predator_196975",
    "count_view": 0
  },
  {
    "link_thumb": "https://live.staticflickr.com/65535/50040063007_8b5414d57d_n.jpg",
    "id_album": "-1610342324",
    "description": "Nebula_459200",
    "title": "Nebula_459200",
    "link_img": "https://live.staticflickr.com/65535/50040063007_45af30bbfd_o.jpg",
    "id_image": "Nebula_459200",
    "count_view": 0
  },
  {
    "link_thumb": "https://live.staticflickr.com/65535/50040647622_3d183ac359_n.jpg",
    "id_album": "779690680",
    "description": "Robot_872979",
    "title": "Robot_872979",
    "link_img": "https://live.staticflickr.com/65535/50040647622_a3697da5c4_o.jpg",
    "id_image": "Robot_872979",
    "count_view": 0
  },
  {
    "link_thumb": "https://live.staticflickr.com/65535/50040646276_1248a7e528_n.jpg",
    "id_album": "2130067313",
    "description": "Spaceship_314362",
    "title": "Spaceship_314362",
    "link_img": "https://live.staticflickr.com/65535/50040646276_61e0b0bbc9_o.jpg",
    "id_image": "Spaceship_314362",
    "count_view": 0
  },
  {
    "link_thumb": "https://live.staticflickr.com/65535/50040729782_8146617089_n.jpg",
    "id_album": "1613540653",
    "description": "Space_114228",
    "title": "Space_114228",
    "link_img": "https://live.staticflickr.com/65535/50040729782_55eb0d59dd_o.jpg",
    "id_image": "Space_114228",
    "count_view": 0
  },
  {
    "link_thumb": "https://live.staticflickr.com/65535/50039670126_cef0d1bf80_n.jpg",
    "id_album": "1402713104",
    "description": "Landscape_283646",
    "title": "Landscape_283646",
    "link_img": "https://live.staticflickr.com/65535/50039670126_c1c1803d0a_o.jpg",
    "id_image": "Landscape_283646",
    "count_view": 0
  },
  {
    "link_thumb": "https://live.staticflickr.com/65535/50040521667_6dd3eb221b_n.jpg",
    "id_album": "779690680",
    "description": "Robot_167503",
    "title": "Robot_167503",
    "link_img": "https://live.staticflickr.com/65535/50040521667_1ddbbdcde6_o.jpg",
    "id_image": "Robot_167503",
    "count_view": 0
  },
  {
    "link_thumb": "https://live.staticflickr.com/65535/50040440411_632a950ccc_n.jpg",
    "id_album": "779690680",
    "description": "Robot_948243",
    "title": "Robot_948243",
    "link_img": "https://live.staticflickr.com/65535/50040440411_b3a7c47a82_o.jpg",
    "id_image": "Robot_948243",
    "count_view": 0
  },
  {
    "link_thumb": "https://live.staticflickr.com/65535/50040027167_15bbd3d787_n.jpg",
    "id_album": "-1610342324",
    "description": "Nebula_166114",
    "title": "Nebula_166114",
    "link_img": "https://live.staticflickr.com/65535/50040027167_0a642cd744_o.jpg",
    "id_image": "Nebula_166114",
    "count_view": 0
  },
  {
    "link_thumb": "https://live.staticflickr.com/65535/50039295718_035cfb1ac7_n.jpg",
    "id_album": "-1610342324",
    "description": "Nebula_864570",
    "title": "Nebula_864570",
    "link_img": "https://live.staticflickr.com/65535/50039295718_18b1f45c9a_o.jpg",
    "id_image": "Nebula_864570",
    "count_view": 0
  },
  {
    "link_thumb": "https://live.staticflickr.com/65535/50039720197_d6eb18e083_n.jpg",
    "id_album": "-1964113117",
    "description": "City_280884",
    "title": "City_280884",
    "link_img": "https://live.staticflickr.com/65535/50039720197_4b26cb803a_o.jpg",
    "id_image": "City_280884",
    "count_view": 0
  },
  {
    "link_thumb": "https://live.staticflickr.com/65535/50041216921_ab714b756f_n.jpg",
    "id_album": "-1863373220",
    "description": "StarWars_699576",
    "title": "StarWars_699576",
    "link_img": "https://live.staticflickr.com/65535/50041216921_20982b2721_o.jpg",
    "id_image": "StarWars_699576",
    "count_view": 0
  },
  {
    "link_thumb": "https://live.staticflickr.com/65535/50041741777_c9bd4f5fb6_n.jpg",
    "id_album": "-1261420436",
    "description": "Warrior_608178",
    "title": "Warrior_608178",
    "link_img": "https://live.staticflickr.com/65535/50041741777_a29d584382_o.jpg",
    "id_image": "Warrior_608178",
    "count_view": 0
  },
  {
    "link_thumb": "https://live.staticflickr.com/65535/50039858683_8d3dc5fe65_n.jpg",
    "id_album": "779690680",
    "description": "Robot_915571",
    "title": "Robot_915571",
    "link_img": "https://live.staticflickr.com/65535/50039858683_5e470e33f9_o.jpg",
    "id_image": "Robot_915571",
    "count_view": 0
  },
  {
    "link_thumb": "https://live.staticflickr.com/65535/50039116188_51d5b85989_n.jpg",
    "id_album": "1402713104",
    "description": "Landscape_219088",
    "title": "Landscape_219088",
    "link_img": "https://live.staticflickr.com/65535/50039116188_e1a06faa4e_o.jpg",
    "id_image": "Landscape_219088",
    "count_view": 0
  },
  {
    "link_thumb": "https://live.staticflickr.com/65535/50040063376_dae70f6ec7_n.jpg",
    "id_album": "-1102314093",
    "description": "Planets_234617",
    "title": "Planets_234617",
    "link_img": "https://live.staticflickr.com/65535/50040063376_69a75e928a_o.jpg",
    "id_image": "Planets_234617",
    "count_view": 0
  },
  {
    "link_thumb": "https://live.staticflickr.com/65535/50039403266_5096c64643_n.jpg",
    "id_album": "1187037014",
    "description": "Battle_564424",
    "title": "Battle_564424",
    "link_img": "https://live.staticflickr.com/65535/50039403266_c1dd95a89e_o.jpg",
    "id_image": "Battle_564424",
    "count_view": 0
  },
  {
    "link_thumb": "https://live.staticflickr.com/65535/50039244883_fb5a594d37_n.jpg",
    "id_album": "-1610342324",
    "description": "Nebula_415324",
    "title": "Nebula_415324",
    "link_img": "https://live.staticflickr.com/65535/50039244883_185be97643_o.jpg",
    "id_image": "Nebula_415324",
    "count_view": 0
  },
  {
    "link_thumb": "https://live.staticflickr.com/65535/50041574461_699d2d5bfd_n.jpg",
    "id_album": "-1675918237",
    "description": "WomenWarrior_410152",
    "title": "WomenWarrior_410152",
    "link_img": "https://live.staticflickr.com/65535/50041574461_e442702eb4_o.jpg",
    "id_image": "WomenWarrior_410152",
    "count_view": 0
  },
  {
    "link_thumb": "https://live.staticflickr.com/65535/50039805502_27d3f0f491_n.jpg",
    "id_album": "894679094",
    "description": "Collision_72061",
    "title": "Collision_72061",
    "link_img": "https://live.staticflickr.com/65535/50039805502_18299093eb_o.jpg",
    "id_image": "Collision_72061",
    "count_view": 0
  },
  {
    "link_thumb": "https://live.staticflickr.com/65535/50039510617_2b7d7ae0b2_n.jpg",
    "id_album": "849020728",
    "description": "Alien_17726",
    "title": "Alien_17726",
    "link_img": "https://live.staticflickr.com/65535/50039510617_a76271585d_o.jpg",
    "id_image": "Alien_17726",
    "count_view": 0
  },
  {
    "link_thumb": "https://live.staticflickr.com/65535/50040493846_80b519d312_n.jpg",
    "id_album": "1613540653",
    "description": "Space_326477",
    "title": "Space_326477",
    "link_img": "https://live.staticflickr.com/65535/50040493846_5f44224f02_o.jpg",
    "id_image": "Space_326477",
    "count_view": 0
  },
  {
    "link_thumb": "https://live.staticflickr.com/65535/50040176356_8e607036d1_n.jpg",
    "id_album": "376235057",
    "description": "Planetscape_550240",
    "title": "Planetscape_550240",
    "link_img": "https://live.staticflickr.com/65535/50040176356_92f652c82d_o.jpg",
    "id_image": "Planetscape_550240",
    "count_view": 0
  },
  {
    "link_thumb": "https://live.staticflickr.com/65535/50041426181_33d33d81ed_n.jpg",
    "id_album": "2020068132",
    "description": "Vehicle_967969",
    "title": "Vehicle_967969",
    "link_img": "https://live.staticflickr.com/65535/50041426181_0b251d41b8_o.jpg",
    "id_image": "Vehicle_967969",
    "count_view": 0
  },
  {
    "link_thumb": "https://live.staticflickr.com/65535/50040157967_e89f00ac2d_n.jpg",
    "id_album": "1896531081",
    "description": "People_285695",
    "title": "People_285695",
    "link_img": "https://live.staticflickr.com/65535/50040157967_d598eab3da_o.jpg",
    "id_image": "People_285695",
    "count_view": 0
  },
  {
    "link_thumb": "https://live.staticflickr.com/65535/50040934578_03ea8aa7f6_n.jpg",
    "id_album": "-1261420436",
    "description": "Warrior_81859",
    "title": "Warrior_81859",
    "link_img": "https://live.staticflickr.com/65535/50040934578_90ccc88a79_o.jpg",
    "id_image": "Warrior_81859",
    "count_view": 0
  },
  {
    "link_thumb": "https://live.staticflickr.com/65535/50039607787_72c077473d_n.jpg",
    "id_album": "523598895",
    "description": "Artistic_881461",
    "title": "Artistic_881461",
    "link_img": "https://live.staticflickr.com/65535/50039607787_206e2d2c4d_o.jpg",
    "id_image": "Artistic_881461",
    "count_view": 0
  },
  {
    "link_thumb": "https://live.staticflickr.com/65535/50039865848_626f4b2e21_n.jpg",
    "id_album": "779690680",
    "description": "Robot_926847",
    "title": "Robot_926847",
    "link_img": "https://live.staticflickr.com/65535/50039865848_0f3a6344b1_o.jpg",
    "id_image": "Robot_926847",
    "count_view": 0
  },
  {
    "link_thumb": "https://live.staticflickr.com/65535/50040164006_bc3b260850_n.jpg",
    "id_album": "376235057",
    "description": "Planetscape_354287",
    "title": "Planetscape_354287",
    "link_img": "https://live.staticflickr.com/65535/50040164006_087a0cacf8_o.jpg",
    "id_image": "Planetscape_354287",
    "count_view": 0
  },
  {
    "link_thumb": "https://live.staticflickr.com/65535/50041250976_1ac9e2dfe1_n.jpg",
    "id_album": "-1863373220",
    "description": "StarWars_982810",
    "title": "StarWars_982810",
    "link_img": "https://live.staticflickr.com/65535/50041250976_5792b9a593_o.jpg",
    "id_image": "StarWars_982810",
    "count_view": 0
  },
  {
    "link_thumb": "https://live.staticflickr.com/65535/50041502252_7167b75fc9_n.jpg",
    "id_album": "-1863373220",
    "description": "StarWars_904999",
    "title": "StarWars_904999",
    "link_img": "https://live.staticflickr.com/65535/50041502252_d1556d76df_o.jpg",
    "id_image": "StarWars_904999",
    "count_view": 0
  },
  {
    "link_thumb": "https://live.staticflickr.com/65535/50040542231_957f8eb310_n.jpg",
    "id_album": "1613540653",
    "description": "Space_822445",
    "title": "Space_822445",
    "link_img": "https://live.staticflickr.com/65535/50040542231_f6665730b7_o.jpg",
    "id_image": "Space_822445",
    "count_view": 0
  },
  {
    "link_thumb": "https://live.staticflickr.com/65535/50039926633_b4bee4985e_n.jpg",
    "id_album": "1613540653",
    "description": "Space_224209",
    "title": "Space_224209",
    "link_img": "https://live.staticflickr.com/65535/50039926633_a62b9f3135_o.jpg",
    "id_image": "Space_224209",
    "count_view": 0
  },
  {
    "link_thumb": "https://live.staticflickr.com/65535/50040049127_e0c4c8fe9a_n.jpg",
    "id_album": "-1610342324",
    "description": "Nebula_307831",
    "title": "Nebula_307831",
    "link_img": "https://live.staticflickr.com/65535/50040049127_30d96a593c_o.jpg",
    "id_image": "Nebula_307831",
    "count_view": 0
  },
  {
    "link_thumb": "https://live.staticflickr.com/65535/50039232348_d74b4b3d65_n.jpg",
    "id_album": "-1610342324",
    "description": "Nebula_286361",
    "title": "Nebula_286361",
    "link_img": "https://live.staticflickr.com/65535/50039232348_ff8b90bf49_o.jpg",
    "id_image": "Nebula_286361",
    "count_view": 0
  },
  {
    "link_thumb": "https://live.staticflickr.com/65535/50040045552_e770681567_n.jpg",
    "id_album": "-1610342324",
    "description": "Nebula_286228",
    "title": "Nebula_286228",
    "link_img": "https://live.staticflickr.com/65535/50040045552_652daa8496_o.jpg",
    "id_image": "Nebula_286228",
    "count_view": 0
  },
  {
    "link_thumb": "https://live.staticflickr.com/65535/50039846248_29db110bb5_n.jpg",
    "id_album": "779690680",
    "description": "Robot_900262",
    "title": "Robot_900262",
    "link_img": "https://live.staticflickr.com/65535/50039846248_2457314dcf_o.jpg",
    "id_image": "Robot_900262",
    "count_view": 0
  },
  {
    "link_thumb": "https://live.staticflickr.com/65535/50040688062_7d3993c58a_n.jpg",
    "id_album": "779690680",
    "description": "Robot_928584",
    "title": "Robot_928584",
    "link_img": "https://live.staticflickr.com/65535/50040688062_75ae354d5e_o.jpg",
    "id_image": "Robot_928584",
    "count_view": 0
  },
  {
    "link_thumb": "https://live.staticflickr.com/65535/50041690132_5b04492a65_n.jpg",
    "id_album": "2020068132",
    "description": "Vehicle_978184",
    "title": "Vehicle_978184",
    "link_img": "https://live.staticflickr.com/65535/50041690132_3b8b8287ac_o.jpg",
    "id_image": "Vehicle_978184",
    "count_view": 0
  },
  {
    "link_thumb": "https://live.staticflickr.com/65535/50040166562_3d64daaac9_n.jpg",
    "id_album": "395161030",
    "description": "Planet_1011269",
    "title": "Planet_1011269",
    "link_img": "https://live.staticflickr.com/65535/50040166562_64cb5f1b88_o.jpg",
    "id_image": "Planet_1011269",
    "count_view": 0
  },
  {
    "link_thumb": "https://live.staticflickr.com/65535/50040709158_03ef6e235a_n.jpg",
    "id_album": "-1587696329",
    "description": "Stars_333385",
    "title": "Stars_333385",
    "link_img": "https://live.staticflickr.com/65535/50040709158_eab6e0441c_o.jpg",
    "id_image": "Stars_333385",
    "count_view": 0
  },
  {
    "link_thumb": "https://live.staticflickr.com/65535/50039656251_d5015d87b5_n.jpg",
    "id_album": "1204249541",
    "description": "Galaxy_941744",
    "title": "Galaxy_941744",
    "link_img": "https://live.staticflickr.com/65535/50039656251_b84293e5d4_o.jpg",
    "id_image": "Galaxy_941744",
    "count_view": 0
  },
  {
    "link_thumb": "https://live.staticflickr.com/65535/50039523216_8aee033607_n.jpg",
    "id_album": "-1964113117",
    "description": "City_930299",
    "title": "City_930299",
    "link_img": "https://live.staticflickr.com/65535/50039523216_0f0700fbda_o.jpg",
    "id_image": "City_930299",
    "count_view": 0
  },
  {
    "link_thumb": "https://live.staticflickr.com/65535/50039285238_a2b5615b45_n.jpg",
    "id_album": "-1610342324",
    "description": "Nebula_772694",
    "title": "Nebula_772694",
    "link_img": "https://live.staticflickr.com/65535/50039285238_0d8c071f4a_o.jpg",
    "id_image": "Nebula_772694",
    "count_view": 0
  },
  {
    "link_thumb": "https://live.staticflickr.com/65535/50040565162_ed1dd55dfc_n.jpg",
    "id_album": "779690680",
    "description": "Robot_391641",
    "title": "Robot_391641",
    "link_img": "https://live.staticflickr.com/65535/50040565162_6694c4ae6a_o.jpg",
    "id_image": "Robot_391641",
    "count_view": 0
  },
  {
    "link_thumb": "https://live.staticflickr.com/65535/50039763901_438919447f_n.jpg",
    "id_album": "-1610342324",
    "description": "Nebula_169803",
    "title": "Nebula_169803",
    "link_img": "https://live.staticflickr.com/65535/50039763901_b03d7c685e_o.jpg",
    "id_image": "Nebula_169803",
    "count_view": 0
  },
  {
    "link_thumb": "https://live.staticflickr.com/65535/50039547106_bb98946138_n.jpg",
    "id_album": "-437872736",
    "description": "Creature_218508",
    "title": "Creature_218508",
    "link_img": "https://live.staticflickr.com/65535/50039547106_111fe677cf_o.jpg",
    "id_image": "Creature_218508",
    "count_view": 0
  },
  {
    "link_thumb": "https://live.staticflickr.com/65535/50040776776_b328e02d00_n.jpg",
    "id_album": "2130067313",
    "description": "Spaceship_972168",
    "title": "Spaceship_972168",
    "link_img": "https://live.staticflickr.com/65535/50040776776_eba15d9d76_o.jpg",
    "id_image": "Spaceship_972168",
    "count_view": 0
  },
  {
    "link_thumb": "https://live.staticflickr.com/65535/50040044377_2eef36a06b_n.jpg",
    "id_album": "-1610342324",
    "description": "Nebula_280749",
    "title": "Nebula_280749",
    "link_img": "https://live.staticflickr.com/65535/50040044377_d5afaaaf11_o.jpg",
    "id_image": "Nebula_280749",
    "count_view": 0
  },
  {
    "link_thumb": "https://live.staticflickr.com/65535/50040009792_5266c9b18d_n.jpg",
    "id_album": "-1388385651",
    "description": "MilkyWay_740492",
    "title": "MilkyWay_740492",
    "link_img": "https://live.staticflickr.com/65535/50040009792_88e655f688_o.jpg",
    "id_image": "MilkyWay_740492",
    "count_view": 0
  },
  {
    "link_thumb": "https://live.staticflickr.com/65535/50039419181_7a225039e8_n.jpg",
    "id_album": "-1780971522",
    "description": "Biohazard_577358",
    "title": "Biohazard_577358",
    "link_img": "https://live.staticflickr.com/65535/50039419181_de17edbd4d_o.jpg",
    "id_image": "Biohazard_577358",
    "count_view": 0
  },
  {
    "link_thumb": "https://live.staticflickr.com/65535/50040397471_8739ffb2ca_n.jpg",
    "id_album": "779690680",
    "description": "Robot_894439",
    "title": "Robot_894439",
    "link_img": "https://live.staticflickr.com/65535/50040397471_136de0d410_o.jpg",
    "id_image": "Robot_894439",
    "count_view": 0
  },
  {
    "link_thumb": "https://live.staticflickr.com/65535/50041421582_fd902eb28e_n.jpg",
    "id_album": "-1863373220",
    "description": "StarWars_276422",
    "title": "StarWars_276422",
    "link_img": "https://live.staticflickr.com/65535/50041421582_7793e604cb_o.jpg",
    "id_image": "StarWars_276422",
    "count_view": 0
  },
  {
    "link_thumb": "https://live.staticflickr.com/65535/50040162231_b449095da9_n.jpg",
    "id_album": "376235057",
    "description": "Planetscape_347456",
    "title": "Planetscape_347456",
    "link_img": "https://live.staticflickr.com/65535/50040162231_054af219ed_o.jpg",
    "id_image": "Planetscape_347456",
    "count_view": 0
  },
  {
    "link_thumb": "https://live.staticflickr.com/65535/50040099582_357012e678_n.jpg",
    "id_album": "-1610342324",
    "description": "Nebula_7823",
    "title": "Nebula_7823",
    "link_img": "https://live.staticflickr.com/65535/50040099582_840061a40d_o.jpg",
    "id_image": "Nebula_7823",
    "count_view": 0
  },
  {
    "link_thumb": "https://live.staticflickr.com/65535/50041275236_4915b67719_n.jpg",
    "id_album": "-1587696329",
    "description": "Stars_548436",
    "title": "Stars_548436",
    "link_img": "https://live.staticflickr.com/65535/50041275236_b4b60f4916_o.jpg",
    "id_image": "Stars_548436",
    "count_view": 0
  },
  {
    "link_thumb": "https://live.staticflickr.com/65535/50040060111_8495163a39_n.jpg",
    "id_album": "-1102314093",
    "description": "Planets_216382",
    "title": "Planets_216382",
    "link_img": "https://live.staticflickr.com/65535/50040060111_d9d032cf20_o.jpg",
    "id_image": "Planets_216382",
    "count_view": 0
  },
  {
    "link_thumb": "https://live.staticflickr.com/65535/50038862473_af7469c83a_n.jpg",
    "id_album": "-1780971522",
    "description": "Biohazard_1099",
    "title": "Biohazard_1099",
    "link_img": "https://live.staticflickr.com/65535/50038862473_2f8cdc35af_o.jpg",
    "id_image": "Biohazard_1099",
    "count_view": 0
  },
  {
    "link_thumb": "https://live.staticflickr.com/65535/50039968367_894ef16b11_n.jpg",
    "id_album": "1402713104",
    "description": "Landscape_776210",
    "title": "Landscape_776210",
    "link_img": "https://live.staticflickr.com/65535/50039968367_e4f058c788_o.jpg",
    "id_image": "Landscape_776210",
    "count_view": 0
  },
  {
    "link_thumb": "https://live.staticflickr.com/65535/50040668927_b95183e9f6_n.jpg",
    "id_album": "779690680",
    "description": "Robot_907939",
    "title": "Robot_907939",
    "link_img": "https://live.staticflickr.com/65535/50040668927_4beac9e5c3_o.jpg",
    "id_image": "Robot_907939",
    "count_view": 0
  },
  {
    "link_thumb": "https://live.staticflickr.com/65535/50041269821_07d29ffde5_n.jpg",
    "id_album": "-1587696329",
    "description": "Stars_458289",
    "title": "Stars_458289",
    "link_img": "https://live.staticflickr.com/65535/50041269821_45323dc392_o.jpg",
    "id_image": "Stars_458289",
    "count_view": 0
  },
  {
    "link_thumb": "https://live.staticflickr.com/65535/50040765902_94cb502b5f_n.jpg",
    "id_album": "1613540653",
    "description": "Space_368406",
    "title": "Space_368406",
    "link_img": "https://live.staticflickr.com/65535/50040765902_7ae0c889be_o.jpg",
    "id_image": "Space_368406",
    "count_view": 0
  },
  {
    "link_thumb": "https://live.staticflickr.com/65535/50039692672_bf57dbaf6a_n.jpg",
    "id_album": "-1964113117",
    "description": "City_1005747",
    "title": "City_1005747",
    "link_img": "https://live.staticflickr.com/65535/50039692672_6db98fe4f9_o.jpg",
    "id_image": "City_1005747",
    "count_view": 0
  },
  {
    "link_thumb": "https://live.staticflickr.com/65535/50039663246_3a28c10320_n.jpg",
    "id_album": "1402713104",
    "description": "Landscape_185208",
    "title": "Landscape_185208",
    "link_img": "https://live.staticflickr.com/65535/50039663246_9f01b97987_o.jpg",
    "id_image": "Landscape_185208",
    "count_view": 0
  },
  {
    "link_thumb": "https://live.staticflickr.com/65535/50041392451_9e3ef8ed5e_n.jpg",
    "id_album": "2020068132",
    "description": "Vehicle_357432",
    "title": "Vehicle_357432",
    "link_img": "https://live.staticflickr.com/65535/50041392451_3e43e64657_o.jpg",
    "id_image": "Vehicle_357432",
    "count_view": 0
  },
  {
    "link_thumb": "https://live.staticflickr.com/65535/50040060032_bd274673df_n.jpg",
    "id_album": "-1610342324",
    "description": "Nebula_436139",
    "title": "Nebula_436139",
    "link_img": "https://live.staticflickr.com/65535/50040060032_e22862e77f_o.jpg",
    "id_image": "Nebula_436139",
    "count_view": 0
  },
  {
    "link_thumb": "https://live.staticflickr.com/65535/50040143076_2727a224f2_n.jpg",
    "id_album": "-1102314093",
    "description": "Planets_867537",
    "title": "Planets_867537",
    "link_img": "https://live.staticflickr.com/65535/50040143076_f98210988b_o.jpg",
    "id_image": "Planets_867537",
    "count_view": 0
  },
  {
    "link_thumb": "https://live.staticflickr.com/65535/50039412766_73c3dbd9ac_n.jpg",
    "id_album": "-1780971522",
    "description": "Biohazard_316504",
    "title": "Biohazard_316504",
    "link_img": "https://live.staticflickr.com/65535/50039412766_84a9784174_o.jpg",
    "id_image": "Biohazard_316504",
    "count_view": 0
  },
  {
    "link_thumb": "https://live.staticflickr.com/65535/50039409266_9ee1190df3_n.jpg",
    "id_album": "1187037014",
    "description": "Battle_957796",
    "title": "Battle_957796",
    "link_img": "https://live.staticflickr.com/65535/50039409266_a576a93bf6_o.jpg",
    "id_image": "Battle_957796",
    "count_view": 0
  },
  {
    "link_thumb": "https://live.staticflickr.com/65535/50040557651_9c419337e9_n.jpg",
    "id_album": "-1532370292",
    "description": "SpaceStation_425727",
    "title": "SpaceStation_425727",
    "link_img": "https://live.staticflickr.com/65535/50040557651_8edd4e62f6_o.jpg",
    "id_image": "SpaceStation_425727",
    "count_view": 0
  },
  {
    "link_thumb": "https://live.staticflickr.com/65535/50039800037_37fdd21a9d_n.jpg",
    "id_album": "894679094",
    "description": "Collision_286791",
    "title": "Collision_286791",
    "link_img": "https://live.staticflickr.com/65535/50039800037_5d8c62b31a_o.jpg",
    "id_image": "Collision_286791",
    "count_view": 0
  },
  {
    "link_thumb": "https://live.staticflickr.com/65535/50040744122_fa8e0fe206_n.jpg",
    "id_album": "1613540653",
    "description": "Space_212846",
    "title": "Space_212846",
    "link_img": "https://live.staticflickr.com/65535/50040744122_63638a48ff_o.jpg",
    "id_image": "Space_212846",
    "count_view": 0
  },
  {
    "link_thumb": "https://live.staticflickr.com/65535/50039402091_41731c8407_n.jpg",
    "id_album": "1187037014",
    "description": "Battle_482221",
    "title": "Battle_482221",
    "link_img": "https://live.staticflickr.com/65535/50039402091_543fd78fe5_o.jpg",
    "id_image": "Battle_482221",
    "count_view": 0
  },
  {
    "link_thumb": "https://live.staticflickr.com/65535/50039810966_74a8e4e6a3_n.jpg",
    "id_album": "-1610342324",
    "description": "Nebula_560769",
    "title": "Nebula_560769",
    "link_img": "https://live.staticflickr.com/65535/50039810966_cabd38a3ca_o.jpg",
    "id_image": "Nebula_560769",
    "count_view": 0
  },
  {
    "link_thumb": "https://live.staticflickr.com/65535/50039230868_6541190249_n.jpg",
    "id_album": "-1610342324",
    "description": "Nebula_280175",
    "title": "Nebula_280175",
    "link_img": "https://live.staticflickr.com/65535/50039230868_d01f5436e6_o.jpg",
    "id_image": "Nebula_280175",
    "count_view": 0
  },
  {
    "link_thumb": "https://live.staticflickr.com/65535/50039227576_6f2f6a6d46_n.jpg",
    "id_album": "280884763",
    "description": "Abstract_213828",
    "title": "Abstract_213828",
    "link_img": "https://live.staticflickr.com/65535/50039227576_8d2e8aa4af_o.jpg",
    "id_image": "Abstract_213828",
    "count_view": 0
  },
  {
    "link_thumb": "https://live.staticflickr.com/65535/50041582852_f814d0c93a_n.jpg",
    "id_album": "1267121215",
    "description": "Steampunk_515158",
    "title": "Steampunk_515158",
    "link_img": "https://live.staticflickr.com/65535/50041582852_6ed9db5703_o.jpg",
    "id_image": "Steampunk_515158",
    "count_view": 0
  },
  {
    "link_thumb": "https://live.staticflickr.com/65535/50039107673_47b5c11a14_n.jpg",
    "id_album": "1204249541",
    "description": "Galaxy_948044",
    "title": "Galaxy_948044",
    "link_img": "https://live.staticflickr.com/65535/50039107673_89a0a3fcaa_o.jpg",
    "id_image": "Galaxy_948044",
    "count_view": 0
  },
  {
    "link_thumb": "https://live.staticflickr.com/65535/50040160898_a640c7cd9d_n.jpg",
    "id_album": "2130067313",
    "description": "Spaceship_555967",
    "title": "Spaceship_555967",
    "link_img": "https://live.staticflickr.com/65535/50040160898_c91554fa3f_o.jpg",
    "id_image": "Spaceship_555967",
    "count_view": 0
  },
  {
    "link_thumb": "https://live.staticflickr.com/65535/50039084793_8ab1e46f05_n.jpg",
    "id_album": "1204249541",
    "description": "Galaxy_430469",
    "title": "Galaxy_430469",
    "link_img": "https://live.staticflickr.com/65535/50039084793_7c502c9d75_o.jpg",
    "id_image": "Galaxy_430469",
    "count_view": 0
  },
  {
    "link_thumb": "https://live.staticflickr.com/65535/50039997066_387b70944c_n.jpg",
    "id_album": "1443611160",
    "description": "PlanetRise_177495",
    "title": "PlanetRise_177495",
    "link_img": "https://live.staticflickr.com/65535/50039997066_be2eea0a14_o.jpg",
    "id_image": "PlanetRise_177495",
    "count_view": 0
  },
  {
    "link_thumb": "https://live.staticflickr.com/65535/50040082407_de9cdb05bc_n.jpg",
    "id_album": "-1610342324",
    "description": "Nebula_64873",
    "title": "Nebula_64873",
    "link_img": "https://live.staticflickr.com/65535/50040082407_bb7aed7356_o.jpg",
    "id_image": "Nebula_64873",
    "count_view": 0
  },
  {
    "link_thumb": "https://live.staticflickr.com/65535/50041493461_d7c4cc7a7e_n.jpg",
    "id_album": "-1261420436",
    "description": "Warrior_911663",
    "title": "Warrior_911663",
    "link_img": "https://live.staticflickr.com/65535/50041493461_9a1b5281e5_o.jpg",
    "id_image": "Warrior_911663",
    "count_view": 0
  },
  {
    "link_thumb": "https://live.staticflickr.com/65535/50040530942_b184a2180f_n.jpg",
    "id_album": "779690680",
    "description": "Robot_220391",
    "title": "Robot_220391",
    "link_img": "https://live.staticflickr.com/65535/50040530942_8de1667d3d_o.jpg",
    "id_image": "Robot_220391",
    "count_view": 0
  },
  {
    "link_thumb": "https://live.staticflickr.com/65535/50039498177_7d9f7f86fc_n.jpg",
    "id_album": "-406145265",
    "description": "Aircraft_269371",
    "title": "Aircraft_269371",
    "link_img": "https://live.staticflickr.com/65535/50039498177_a432629343_o.jpg",
    "id_image": "Aircraft_269371",
    "count_view": 0
  },
  {
    "link_thumb": "https://live.staticflickr.com/65535/50040402471_a594fe1ba1_n.jpg",
    "id_album": "779690680",
    "description": "Robot_906343",
    "title": "Robot_906343",
    "link_img": "https://live.staticflickr.com/65535/50040402471_a51e79dc56_o.jpg",
    "id_image": "Robot_906343",
    "count_view": 0
  },
  {
    "link_thumb": "https://live.staticflickr.com/65535/50040796597_0a71136d1a_n.jpg",
    "id_album": "1613540653",
    "description": "Space_704756",
    "title": "Space_704756",
    "link_img": "https://live.staticflickr.com/65535/50040796597_0c10b9cec4_o.jpg",
    "id_image": "Space_704756",
    "count_view": 0
  },
  {
    "link_thumb": "https://live.staticflickr.com/65535/50040495867_9cd82f3cc1_n.jpg",
    "id_album": "-482547208",
    "description": "PostApocalyptic_922151",
    "title": "PostApocalyptic_922151",
    "link_img": "https://live.staticflickr.com/65535/50040495867_84a5845ab7_o.jpg",
    "id_image": "PostApocalyptic_922151",
    "count_view": 0
  },
  {
    "link_thumb": "https://live.staticflickr.com/65535/50041026328_e85a67549a_n.jpg",
    "id_album": "-1675918237",
    "description": "WomenWarrior_551719",
    "title": "WomenWarrior_551719",
    "link_img": "https://live.staticflickr.com/65535/50041026328_438f57d5fb_o.jpg",
    "id_image": "WomenWarrior_551719",
    "count_view": 0
  },
  {
    "link_thumb": "https://live.staticflickr.com/65535/50039257173_c761bce870_n.jpg",
    "id_album": "-1610342324",
    "description": "Nebula_548004",
    "title": "Nebula_548004",
    "link_img": "https://live.staticflickr.com/65535/50039257173_f9f8fb169f_o.jpg",
    "id_image": "Nebula_548004",
    "count_view": 0
  },
  {
    "link_thumb": "https://live.staticflickr.com/65535/50040653517_73ebf2beae_n.jpg",
    "id_album": "779690680",
    "description": "Robot_879757",
    "title": "Robot_879757",
    "link_img": "https://live.staticflickr.com/65535/50040653517_c7b5a7d349_o.jpg",
    "id_image": "Robot_879757",
    "count_view": 0
  },
  {
    "link_thumb": "https://live.staticflickr.com/65535/50039888923_dcbbf3b851_n.jpg",
    "id_album": "779690680",
    "description": "Robot_955666",
    "title": "Robot_955666",
    "link_img": "https://live.staticflickr.com/65535/50039888923_5cb9e0be8a_o.jpg",
    "id_image": "Robot_955666",
    "count_view": 0
  },
  {
    "link_thumb": "https://live.staticflickr.com/65535/50038726128_e1127a8668_n.jpg",
    "id_album": "849020728",
    "description": "Alien_720709",
    "title": "Alien_720709",
    "link_img": "https://live.staticflickr.com/65535/50038726128_fd73132873_o.jpg",
    "id_image": "Alien_720709",
    "count_view": 0
  },
  {
    "link_thumb": "https://live.staticflickr.com/65535/50039887838_71a33aab6d_n.jpg",
    "id_album": "779690680",
    "description": "Robot_949799",
    "title": "Robot_949799",
    "link_img": "https://live.staticflickr.com/65535/50039887838_266a2798d8_o.jpg",
    "id_image": "Robot_949799",
    "count_view": 0
  },
  {
    "link_thumb": "https://live.staticflickr.com/65535/50039631446_4bb723d955_n.jpg",
    "id_album": "1204249541",
    "description": "Galaxy_337200",
    "title": "Galaxy_337200",
    "link_img": "https://live.staticflickr.com/65535/50039631446_8462c1aafb_o.jpg",
    "id_image": "Galaxy_337200",
    "count_view": 0
  },
  {
    "link_thumb": "https://live.staticflickr.com/65535/50039855068_0f2ee4cc11_n.jpg",
    "id_album": "779690680",
    "description": "Robot_911876",
    "title": "Robot_911876",
    "link_img": "https://live.staticflickr.com/65535/50039855068_eef4585773_o.jpg",
    "id_image": "Robot_911876",
    "count_view": 0
  },
  {
    "link_thumb": "https://live.staticflickr.com/65535/50039881938_c3300d6fe0_n.jpg",
    "id_album": "779690680",
    "description": "Robot_940962",
    "title": "Robot_940962",
    "link_img": "https://live.staticflickr.com/65535/50039881938_de3db2b8a3_o.jpg",
    "id_image": "Robot_940962",
    "count_view": 0
  },
  {
    "link_thumb": "https://live.staticflickr.com/65535/50040837413_60604b9b14_n.jpg",
    "id_album": "2020068132",
    "description": "Vehicle_342933",
    "title": "Vehicle_342933",
    "link_img": "https://live.staticflickr.com/65535/50040837413_496c40a0ea_o.jpg",
    "id_image": "Vehicle_342933",
    "count_view": 0
  },
  {
    "link_thumb": "https://live.staticflickr.com/65535/50039781262_ab243fa03b_n.jpg",
    "id_album": "-1964113117",
    "description": "City_910936",
    "title": "City_910936",
    "link_img": "https://live.staticflickr.com/65535/50039781262_2d62bda94d_o.jpg",
    "id_image": "City_910936",
    "count_view": 0
  },
  {
    "link_thumb": "https://live.staticflickr.com/65535/50041030073_1305bb5fa6_n.jpg",
    "id_album": "-1675918237",
    "description": "WomenWarrior_602059",
    "title": "WomenWarrior_602059",
    "link_img": "https://live.staticflickr.com/65535/50041030073_1476ef39fe_o.jpg",
    "id_image": "WomenWarrior_602059",
    "count_view": 0
  },
  {
    "link_thumb": "https://live.staticflickr.com/65535/50039037568_b056825a7d_n.jpg",
    "id_album": "829169633",
    "description": "Cyborg_330040",
    "title": "Cyborg_330040",
    "link_img": "https://live.staticflickr.com/65535/50039037568_f173ef8e58_o.jpg",
    "id_image": "Cyborg_330040",
    "count_view": 0
  },
  {
    "link_thumb": "https://live.staticflickr.com/65535/50040816438_62ec07846d_n.jpg",
    "id_album": "-1177476763",
    "description": "Sunrise_957432",
    "title": "Sunrise_957432",
    "link_img": "https://live.staticflickr.com/65535/50040816438_0d74c92bbd_o.jpg",
    "id_image": "Sunrise_957432",
    "count_view": 0
  },
  {
    "link_thumb": "https://live.staticflickr.com/65535/50040031312_58808e6021_n.jpg",
    "id_album": "-1610342324",
    "description": "Nebula_199821",
    "title": "Nebula_199821",
    "link_img": "https://live.staticflickr.com/65535/50040031312_e35046ee12_o.jpg",
    "id_image": "Nebula_199821",
    "count_view": 0
  },
  {
    "link_thumb": "https://live.staticflickr.com/65535/50039502312_900975e3cf_n.jpg",
    "id_album": "-406145265",
    "description": "Aircraft_403620",
    "title": "Aircraft_403620",
    "link_img": "https://live.staticflickr.com/65535/50039502312_a3c1c51f0c_o.jpg",
    "id_image": "Aircraft_403620",
    "count_view": 0
  },
  {
    "link_thumb": "https://live.staticflickr.com/65535/50039138783_ae7bc6b10a_n.jpg",
    "id_album": "1402713104",
    "description": "Landscape_421187",
    "title": "Landscape_421187",
    "link_img": "https://live.staticflickr.com/65535/50039138783_dd1a4cf43c_o.jpg",
    "id_image": "Landscape_421187",
    "count_view": 0
  },
  {
    "link_thumb": "https://live.staticflickr.com/65535/50040412641_b2a3ef2789_n.jpg",
    "id_album": "779690680",
    "description": "Robot_915573",
    "title": "Robot_915573",
    "link_img": "https://live.staticflickr.com/65535/50040412641_d9b5769d04_o.jpg",
    "id_image": "Robot_915573",
    "count_view": 0
  },
  {
    "link_thumb": "https://live.staticflickr.com/65535/50040684423_0010400ef2_n.jpg",
    "id_album": "-1863373220",
    "description": "StarWars_900345",
    "title": "StarWars_900345",
    "link_img": "https://live.staticflickr.com/65535/50040684423_401dd2e3fa_o.jpg",
    "id_image": "StarWars_900345",
    "count_view": 0
  },
  {
    "link_thumb": "https://live.staticflickr.com/65535/50039890522_4369a3fe3b_n.jpg",
    "id_album": "1204249541",
    "description": "Galaxy_243277",
    "title": "Galaxy_243277",
    "link_img": "https://live.staticflickr.com/65535/50039890522_374c96081f_o.jpg",
    "id_image": "Galaxy_243277",
    "count_view": 0
  },
  {
    "link_thumb": "https://live.staticflickr.com/65535/50039479796_61518ce489_n.jpg",
    "id_album": "-1964113117",
    "description": "City_570221",
    "title": "City_570221",
    "link_img": "https://live.staticflickr.com/65535/50039479796_8cee26ea2d_o.jpg",
    "id_image": "City_570221",
    "count_view": 0
  },
  {
    "link_thumb": "https://live.staticflickr.com/65535/50039883601_5c059b27c4_n.jpg",
    "id_album": "-1862561193",
    "description": "Other_280795",
    "title": "Other_280795",
    "link_img": "https://live.staticflickr.com/65535/50039883601_0c8edf0243_o.jpg",
    "id_image": "Other_280795",
    "count_view": 0
  },
  {
    "link_thumb": "https://live.staticflickr.com/65535/50039244668_2d51bd5e94_n.jpg",
    "id_album": "-1610342324",
    "description": "Nebula_415271",
    "title": "Nebula_415271",
    "link_img": "https://live.staticflickr.com/65535/50039244668_63bcb45f1e_o.jpg",
    "id_image": "Nebula_415271",
    "count_view": 0
  },
  {
    "link_thumb": "https://live.staticflickr.com/65535/50038849063_e9bcfb381b_n.jpg",
    "id_album": "1187037014",
    "description": "Battle_239021",
    "title": "Battle_239021",
    "link_img": "https://live.staticflickr.com/65535/50038849063_d67abedac6_o.jpg",
    "id_image": "Battle_239021",
    "count_view": 0
  },
  {
    "link_thumb": "https://live.staticflickr.com/65535/50039352068_e6bc7b0020_n.jpg",
    "id_album": "395161030",
    "description": "Planet_1007544",
    "title": "Planet_1007544",
    "link_img": "https://live.staticflickr.com/65535/50039352068_27e9192423_o.jpg",
    "id_image": "Planet_1007544",
    "count_view": 0
  },
  {
    "link_thumb": "https://live.staticflickr.com/65535/50040865568_4e1a0c5439_n.jpg",
    "id_album": "2020068132",
    "description": "Vehicle_905102",
    "title": "Vehicle_905102",
    "link_img": "https://live.staticflickr.com/65535/50040865568_33c46fca3f_o.jpg",
    "id_image": "Vehicle_905102",
    "count_view": 0
  },
  {
    "link_thumb": "https://live.staticflickr.com/65535/50039598272_0b4d29ea31_n.jpg",
    "id_album": "523598895",
    "description": "Artistic_447890",
    "title": "Artistic_447890",
    "link_img": "https://live.staticflickr.com/65535/50039598272_2569fd55ce_o.jpg",
    "id_image": "Artistic_447890",
    "count_view": 0
  },
  {
    "link_thumb": "https://live.staticflickr.com/65535/50040298986_7b139c2379_n.jpg",
    "id_album": "779690680",
    "description": "Robot_384097",
    "title": "Robot_384097",
    "link_img": "https://live.staticflickr.com/65535/50040298986_483d221453_o.jpg",
    "id_image": "Robot_384097",
    "count_view": 0
  },
  {
    "link_thumb": "https://live.staticflickr.com/65535/50039764576_fc9951e53d_n.jpg",
    "id_album": "-1610342324",
    "description": "Nebula_175208",
    "title": "Nebula_175208",
    "link_img": "https://live.staticflickr.com/65535/50039764576_da55c34015_o.jpg",
    "id_image": "Nebula_175208",
    "count_view": 0
  },
  {
    "link_thumb": "https://live.staticflickr.com/65535/50041221606_63cd139acb_n.jpg",
    "id_album": "-1863373220",
    "description": "StarWars_757812",
    "title": "StarWars_757812",
    "link_img": "https://live.staticflickr.com/65535/50041221606_2f946b9c67_o.jpg",
    "id_image": "StarWars_757812",
    "count_view": 0
  },
  {
    "link_thumb": "https://live.staticflickr.com/65535/50038806403_74d4b4bdea_n.jpg",
    "id_album": "869545341",
    "description": "Astronaut_388069",
    "title": "Astronaut_388069",
    "link_img": "https://live.staticflickr.com/65535/50038806403_bbcbc258f4_o.jpg",
    "id_image": "Astronaut_388069",
    "count_view": 0
  },
  {
    "link_thumb": "https://live.staticflickr.com/65535/50040460672_98d9654da0_n.jpg",
    "id_album": "-482547208",
    "description": "PostApocalyptic_211836",
    "title": "PostApocalyptic_211836",
    "link_img": "https://live.staticflickr.com/65535/50040460672_315448ff71_o.jpg",
    "id_image": "PostApocalyptic_211836",
    "count_view": 0
  },
  {
    "link_thumb": "https://live.staticflickr.com/65535/50041590377_79ca5c6569_n.jpg",
    "id_album": "1267121215",
    "description": "Steampunk_711576",
    "title": "Steampunk_711576",
    "link_img": "https://live.staticflickr.com/65535/50041590377_627e9a7acc_o.jpg",
    "id_image": "Steampunk_711576",
    "count_view": 0
  },
  {
    "link_thumb": "https://live.staticflickr.com/65535/50039857148_4efa0a06bc_n.jpg",
    "id_album": "779690680",
    "description": "Robot_914051",
    "title": "Robot_914051",
    "link_img": "https://live.staticflickr.com/65535/50039857148_987995cc48_o.jpg",
    "id_image": "Robot_914051",
    "count_view": 0
  },
  {
    "link_thumb": "https://live.staticflickr.com/65535/50040067392_d11e3d98d7_n.jpg",
    "id_album": "-1610342324",
    "description": "Nebula_525904",
    "title": "Nebula_525904",
    "link_img": "https://live.staticflickr.com/65535/50040067392_b671de7fa0_o.jpg",
    "id_image": "Nebula_525904",
    "count_view": 0
  },
  {
    "link_thumb": "https://live.staticflickr.com/65535/50040588698_a5b95d75a7_n.jpg",
    "id_album": "-1863373220",
    "description": "StarWars_226928",
    "title": "StarWars_226928",
    "link_img": "https://live.staticflickr.com/65535/50040588698_b26eb2769b_o.jpg",
    "id_image": "StarWars_226928",
    "count_view": 0
  },
  {
    "link_thumb": "https://live.staticflickr.com/65535/50040639912_ab67f845cc_n.jpg",
    "id_album": "779690680",
    "description": "Robot_857296",
    "title": "Robot_857296",
    "link_img": "https://live.staticflickr.com/65535/50040639912_f96b8c2797_o.jpg",
    "id_image": "Robot_857296",
    "count_view": 0
  },
  {
    "link_thumb": "https://live.staticflickr.com/65535/50039737751_97b9f297da_n.jpg",
    "id_album": "-1388385651",
    "description": "MilkyWay_677843",
    "title": "MilkyWay_677843",
    "link_img": "https://live.staticflickr.com/65535/50039737751_bdb7c1d154_o.jpg",
    "id_image": "MilkyWay_677843",
    "count_view": 0
  },
  {
    "link_thumb": "https://live.staticflickr.com/65535/50039889627_8e5be759d9_n.jpg",
    "id_album": "1204249541",
    "description": "Galaxy_220976",
    "title": "Galaxy_220976",
    "link_img": "https://live.staticflickr.com/65535/50039889627_09867d1699_o.jpg",
    "id_image": "Galaxy_220976",
    "count_view": 0
  },
  {
    "link_thumb": "https://live.staticflickr.com/65535/50038767988_280f8ac4dc_n.jpg",
    "id_album": "523598895",
    "description": "Artistic_218934",
    "title": "Artistic_218934",
    "link_img": "https://live.staticflickr.com/65535/50038767988_0e6ea7f4f9_o.jpg",
    "id_image": "Artistic_218934",
    "count_view": 0
  },
  {
    "link_thumb": "https://live.staticflickr.com/65535/50040782973_cea07782ac_n.jpg",
    "id_album": "-221671103",
    "description": "Sun_106265",
    "title": "Sun_106265",
    "link_img": "https://live.staticflickr.com/65535/50040782973_79779d8a65_o.jpg",
    "id_image": "Sun_106265",
    "count_view": 0
  },
  {
    "link_thumb": "https://live.staticflickr.com/65535/50039809217_d9a69a488b_n.jpg",
    "id_album": "-437872736",
    "description": "Creature_240104",
    "title": "Creature_240104",
    "link_img": "https://live.staticflickr.com/65535/50039809217_dd198565ed_o.jpg",
    "id_image": "Creature_240104",
    "count_view": 0
  },
  {
    "link_thumb": "https://live.staticflickr.com/65535/50040275861_2e677bc3a0_n.jpg",
    "id_album": "779690680",
    "description": "Robot_261149",
    "title": "Robot_261149",
    "link_img": "https://live.staticflickr.com/65535/50040275861_7438aecd48_o.jpg",
    "id_image": "Robot_261149",
    "count_view": 0
  },
  {
    "link_thumb": "https://live.staticflickr.com/65535/50040327887_367a68787f_n.jpg",
    "id_album": "-1102314093",
    "description": "Planets_242673",
    "title": "Planets_242673",
    "link_img": "https://live.staticflickr.com/65535/50040327887_3640b3ddeb_o.jpg",
    "id_image": "Planets_242673",
    "count_view": 0
  },
  {
    "link_thumb": "https://live.staticflickr.com/65535/50038885388_e013fdd53e_n.jpg",
    "id_album": "-1964113117",
    "description": "City_145199",
    "title": "City_145199",
    "link_img": "https://live.staticflickr.com/65535/50038885388_8f56a2ab8d_o.jpg",
    "id_image": "City_145199",
    "count_view": 0
  },
  {
    "link_thumb": "https://live.staticflickr.com/65535/50040554186_cf28a08cf9_n.jpg",
    "id_album": "1613540653",
    "description": "Space_957467",
    "title": "Space_957467",
    "link_img": "https://live.staticflickr.com/65535/50040554186_55f5280697_o.jpg",
    "id_image": "Space_957467",
    "count_view": 0
  },
  {
    "link_thumb": "https://live.staticflickr.com/65535/50040681452_b91c2442cd_n.jpg",
    "id_album": "779690680",
    "description": "Robot_921689",
    "title": "Robot_921689",
    "link_img": "https://live.staticflickr.com/65535/50040681452_39c54ecea5_o.jpg",
    "id_image": "Robot_921689",
    "count_view": 0
  },
  {
    "link_thumb": "https://live.staticflickr.com/65535/50040290611_16bcd724d2_n.jpg",
    "id_album": "779690680",
    "description": "Robot_328255",
    "title": "Robot_328255",
    "link_img": "https://live.staticflickr.com/65535/50040290611_45e3fc58a2_o.jpg",
    "id_image": "Robot_328255",
    "count_view": 0
  },
  {
    "link_thumb": "https://live.staticflickr.com/65535/50039593766_84cf2523a8_n.jpg",
    "id_album": "829169633",
    "description": "Cyborg_562807",
    "title": "Cyborg_562807",
    "link_img": "https://live.staticflickr.com/65535/50039593766_ca74a634ed_o.jpg",
    "id_image": "Cyborg_562807",
    "count_view": 0
  },
  {
    "link_thumb": "https://live.staticflickr.com/65535/50039223973_ff682b100f_n.jpg",
    "id_album": "-1610342324",
    "description": "Nebula_226013",
    "title": "Nebula_226013",
    "link_img": "https://live.staticflickr.com/65535/50039223973_9e6fe1866a_o.jpg",
    "id_image": "Nebula_226013",
    "count_view": 0
  },
  {
    "link_thumb": "https://live.staticflickr.com/65535/50040811703_5b70b510c3_n.jpg",
    "id_album": "-1177476763",
    "description": "Sunrise_429129",
    "title": "Sunrise_429129",
    "link_img": "https://live.staticflickr.com/65535/50040811703_79b6768797_o.jpg",
    "id_image": "Sunrise_429129",
    "count_view": 0
  },
  {
    "link_thumb": "https://live.staticflickr.com/65535/50039402326_e2090342e5_n.jpg",
    "id_album": "1187037014",
    "description": "Battle_509019",
    "title": "Battle_509019",
    "link_img": "https://live.staticflickr.com/65535/50039402326_081ee78a69_o.jpg",
    "id_image": "Battle_509019",
    "count_view": 0
  },
  {
    "link_thumb": "https://live.staticflickr.com/65535/50039846291_470215b6e6_n.jpg",
    "id_album": "-1610342324",
    "description": "Nebula_868972",
    "title": "Nebula_868972",
    "link_img": "https://live.staticflickr.com/65535/50039846291_75549cc0c0_o.jpg",
    "id_image": "Nebula_868972",
    "count_view": 0
  },
  {
    "link_thumb": "https://live.staticflickr.com/65535/50041809577_1bbd861945_n.jpg",
    "id_album": "-1126835654",
    "description": "Women_841607",
    "title": "Women_841607",
    "link_img": "https://live.staticflickr.com/65535/50041809577_5f8d8cd540_o.jpg",
    "id_image": "Women_841607",
    "count_view": 0
  },
  {
    "link_thumb": "https://live.staticflickr.com/65535/50040598656_64edffbc6a_n.jpg",
    "id_album": "2130067313",
    "description": "Spaceship_209958",
    "title": "Spaceship_209958",
    "link_img": "https://live.staticflickr.com/65535/50040598656_80826f7c3c_o.jpg",
    "id_image": "Spaceship_209958",
    "count_view": 0
  },
  {
    "link_thumb": "https://live.staticflickr.com/65535/50039868268_226aac533d_n.jpg",
    "id_album": "779690680",
    "description": "Robot_928557",
    "title": "Robot_928557",
    "link_img": "https://live.staticflickr.com/65535/50039868268_ff4fb242a0_o.jpg",
    "id_image": "Robot_928557",
    "count_view": 0
  },
  {
    "link_thumb": "https://live.staticflickr.com/65535/50039965942_cf3472e9c3_n.jpg",
    "id_album": "1402713104",
    "description": "Landscape_736217",
    "title": "Landscape_736217",
    "link_img": "https://live.staticflickr.com/65535/50039965942_b9a34b3b6d_o.jpg",
    "id_image": "Landscape_736217",
    "count_view": 0
  },
  {
    "link_thumb": "https://live.staticflickr.com/65535/50039567157_a538a132fa_n.jpg",
    "id_album": "523598895",
    "description": "Artistic_178957",
    "title": "Artistic_178957",
    "link_img": "https://live.staticflickr.com/65535/50039567157_f55c53392f_o.jpg",
    "id_image": "Artistic_178957",
    "count_view": 0
  },
  {
    "link_thumb": "https://live.staticflickr.com/65535/50041261826_c8071e3720_n.jpg",
    "id_album": "-1587696329",
    "description": "Stars_290743",
    "title": "Stars_290743",
    "link_img": "https://live.staticflickr.com/65535/50041261826_45dea8e2e2_o.jpg",
    "id_image": "Stars_290743",
    "count_view": 0
  },
  {
    "link_thumb": "https://live.staticflickr.com/65535/50039853527_ae9a1f888f_n.jpg",
    "id_album": "829169633",
    "description": "Cyborg_488054",
    "title": "Cyborg_488054",
    "link_img": "https://live.staticflickr.com/65535/50039853527_b2c571966e_o.jpg",
    "id_image": "Cyborg_488054",
    "count_view": 0
  },
  {
    "link_thumb": "https://live.staticflickr.com/65535/50039003743_660da69a7f_n.jpg",
    "id_album": "-437872736",
    "description": "Creature_323930",
    "title": "Creature_323930",
    "link_img": "https://live.staticflickr.com/65535/50039003743_0cb2b207d3_o.jpg",
    "id_image": "Creature_323930",
    "count_view": 0
  },
  {
    "link_thumb": "https://live.staticflickr.com/65535/50039643182_287fdbc577_n.jpg",
    "id_album": "869545341",
    "description": "Astronaut_923969",
    "title": "Astronaut_923969",
    "link_img": "https://live.staticflickr.com/65535/50039643182_36169e3746_o.jpg",
    "id_image": "Astronaut_923969",
    "count_view": 0
  },
  {
    "link_thumb": "https://live.staticflickr.com/65535/50039712293_0f6761f35e_n.jpg",
    "id_album": "779690680",
    "description": "Robot_207795",
    "title": "Robot_207795",
    "link_img": "https://live.staticflickr.com/65535/50039712293_9c17380744_o.jpg",
    "id_image": "Robot_207795",
    "count_view": 0
  },
  {
    "link_thumb": "https://live.staticflickr.com/65535/50040435672_5d1a6f989a_n.jpg",
    "id_album": "376235057",
    "description": "Planetscape_387291",
    "title": "Planetscape_387291",
    "link_img": "https://live.staticflickr.com/65535/50040435672_d8a17dd3cb_o.jpg",
    "id_image": "Planetscape_387291",
    "count_view": 0
  },
  {
    "link_thumb": "https://live.staticflickr.com/65535/50039576387_81840b56be_n.jpg",
    "id_album": "523598895",
    "description": "Artistic_211370",
    "title": "Artistic_211370",
    "link_img": "https://live.staticflickr.com/65535/50039576387_6a43fea9f1_o.jpg",
    "id_image": "Artistic_211370",
    "count_view": 0
  },
  {
    "link_thumb": "https://live.staticflickr.com/65535/50039828293_577d6ef6aa_n.jpg",
    "id_album": "779690680",
    "description": "Robot_871703",
    "title": "Robot_871703",
    "link_img": "https://live.staticflickr.com/65535/50039828293_c46163a98b_o.jpg",
    "id_image": "Robot_871703",
    "count_view": 0
  },
  {
    "link_thumb": "https://live.staticflickr.com/65535/50039110378_923ae92fba_n.jpg",
    "id_album": "1402713104",
    "description": "Landscape_113753",
    "title": "Landscape_113753",
    "link_img": "https://live.staticflickr.com/65535/50039110378_f189991509_o.jpg",
    "id_image": "Landscape_113753",
    "count_view": 0
  },
  {
    "link_thumb": "https://live.staticflickr.com/65535/50039639716_2a63df62a3_n.jpg",
    "id_album": "1204249541",
    "description": "Galaxy_528619",
    "title": "Galaxy_528619",
    "link_img": "https://live.staticflickr.com/65535/50039639716_64bb37a117_o.jpg",
    "id_image": "Galaxy_528619",
    "count_view": 0
  }
]