[
  {
    "link_thumb": "https://live.staticflickr.com/65535/50039339541_0c1c95d2c3_n.jpg",
    "id_album": "523598895",
    "description": "Artistic_568861",
    "title": "Artistic_568861",
    "link_img": "https://live.staticflickr.com/65535/50039339541_7a19f47172_o.jpg",
    "id_image": "Artistic_568861",
    "count_view": 0
  },
  {
    "link_thumb": "https://live.staticflickr.com/65535/50039546666_af87071235_n.jpg",
    "id_album": "-437872736",
    "description": "Creature_200027",
    "title": "Creature_200027",
    "link_img": "https://live.staticflickr.com/65535/50039546666_d28201c7ae_o.jpg",
    "id_image": "Creature_200027",
    "count_view": 0
  },
  {
    "link_thumb": "https://live.staticflickr.com/65535/50040699522_ba23f77d12_n.jpg",
    "id_album": "779690680",
    "description": "Robot_940955",
    "title": "Robot_940955",
    "link_img": "https://live.staticflickr.com/65535/50040699522_1c5f8fda55_o.jpg",
    "id_image": "Robot_940955",
    "count_view": 0
  },
  {
    "link_thumb": "https://live.staticflickr.com/65535/50041681327_333f318a1f_n.jpg",
    "id_album": "2020068132",
    "description": "Vehicle_896234",
    "title": "Vehicle_896234",
    "link_img": "https://live.staticflickr.com/65535/50041681327_53d1b7909e_o.jpg",
    "id_image": "Vehicle_896234",
    "count_view": 0
  },
  {
    "link_thumb": "https://live.staticflickr.com/65535/50041269281_d02eac25a0_n.jpg",
    "id_album": "-1587696329",
    "description": "Stars_442533",
    "title": "Stars_442533",
    "link_img": "https://live.staticflickr.com/65535/50041269281_b3ab716c7d_o.jpg",
    "id_image": "Stars_442533",
    "count_view": 0
  },
  {
    "link_thumb": "https://live.staticflickr.com/65535/50039275396_c75fe84ae1_n.jpg",
    "id_album": "849020728",
    "description": "Alien_871692",
    "title": "Alien_871692",
    "link_img": "https://live.staticflickr.com/65535/50039275396_0fdb2bbd62_o.jpg",
    "id_image": "Alien_871692",
    "count_view": 0
  },
  {
    "link_thumb": "https://live.staticflickr.com/65535/50039712743_00c9705513_n.jpg",
    "id_album": "779690680",
    "description": "Robot_209420",
    "title": "Robot_209420",
    "link_img": "https://live.staticflickr.com/65535/50039712743_efd5718a80_o.jpg",
    "id_image": "Robot_209420",
    "count_view": 0
  },
  {
    "link_thumb": "https://live.staticflickr.com/65535/50039881938_c3300d6fe0_n.jpg",
    "id_album": "779690680",
    "description": "Robot_940962",
    "title": "Robot_940962",
    "link_img": "https://live.staticflickr.com/65535/50039881938_de3db2b8a3_o.jpg",
    "id_image": "Robot_940962",
    "count_view": 0
  },
  {
    "link_thumb": "https://live.staticflickr.com/65535/50039778161_bfc97faafd_n.jpg",
    "id_album": "-1610342324",
    "description": "Nebula_259385",
    "title": "Nebula_259385",
    "link_img": "https://live.staticflickr.com/65535/50039778161_44676341f0_o.jpg",
    "id_image": "Nebula_259385",
    "count_view": 0
  },
  {
    "link_thumb": "https://live.staticflickr.com/65535/50039817462_8970c3e228_n.jpg",
    "id_album": "-437872736",
    "description": "Creature_401751",
    "title": "Creature_401751",
    "link_img": "https://live.staticflickr.com/65535/50039817462_e7a02c5453_o.jpg",
    "id_image": "Creature_401751",
    "count_view": 0
  },
  {
    "link_thumb": "https://live.staticflickr.com/65535/50039501756_c8d72d593d_n.jpg",
    "id_album": "-1964113117",
    "description": "City_845866",
    "title": "City_845866",
    "link_img": "https://live.staticflickr.com/65535/50039501756_929229266e_o.jpg",
    "id_image": "City_845866",
    "count_view": 0
  },
  {
    "link_thumb": "https://live.staticflickr.com/65535/50039238906_9d98d00270_n.jpg",
    "id_album": "-406145265",
    "description": "Aircraft_341283",
    "title": "Aircraft_341283",
    "link_img": "https://live.staticflickr.com/65535/50039238906_1f3d59a034_o.jpg",
    "id_image": "Aircraft_341283",
    "count_view": 0
  },
  {
    "link_thumb": "https://live.staticflickr.com/65535/50040620871_5caa202e24_n.jpg",
    "id_album": "2130067313",
    "description": "Spaceship_275884",
    "title": "Spaceship_275884",
    "link_img": "https://live.staticflickr.com/65535/50040620871_9219b2d7bf_o.jpg",
    "id_image": "Spaceship_275884",
    "count_view": 0
  },
  {
    "link_thumb": "https://live.staticflickr.com/65535/50040752923_368539a5c1_n.jpg",
    "id_album": "1267121215",
    "description": "Steampunk_239583",
    "title": "Steampunk_239583",
    "link_img": "https://live.staticflickr.com/65535/50040752923_ae1e384daf_o.jpg",
    "id_image": "Steampunk_239583",
    "count_view": 0
  },
  {
    "link_thumb": "https://live.staticflickr.com/65535/50039091888_ff2996cf94_n.jpg",
    "id_album": "1204249541",
    "description": "Galaxy_542729",
    "title": "Galaxy_542729",
    "link_img": "https://live.staticflickr.com/65535/50039091888_fe3745b581_o.jpg",
    "id_image": "Galaxy_542729",
    "count_view": 0
  },
  {
    "link_thumb": "https://live.staticflickr.com/65535/50039718837_c5665e74a4_n.jpg",
    "id_album": "-1964113117",
    "description": "City_269368",
    "title": "City_269368",
    "link_img": "https://live.staticflickr.com/65535/50039718837_b10c22b6fb_o.jpg",
    "id_image": "City_269368",
    "count_view": 0
  },
  {
    "link_thumb": "https://live.staticflickr.com/65535/50039428826_ab8d48383c_n.jpg",
    "id_album": "406431601",
    "description": "Building_972113",
    "title": "Building_972113",
    "link_img": "https://live.staticflickr.com/65535/50039428826_571ef67e06_o.jpg",
    "id_image": "Building_972113",
    "count_view": 0
  },
  {
    "link_thumb": "https://live.staticflickr.com/65535/50039875563_d1d7d73a2d_n.jpg",
    "id_album": "779690680",
    "description": "Robot_933176",
    "title": "Robot_933176",
    "link_img": "https://live.staticflickr.com/65535/50039875563_3fabc64571_o.jpg",
    "id_image": "Robot_933176",
    "count_view": 0
  },
  {
    "link_thumb": "https://live.staticflickr.com/65535/50040509132_bfdc31c2d0_n.jpg",
    "id_album": "-839602625",
    "description": "Predator_494190",
    "title": "Predator_494190",
    "link_img": "https://live.staticflickr.com/65535/50040509132_ed21eed3db_o.jpg",
    "id_image": "Predator_494190",
    "count_view": 0
  },
  {
    "link_thumb": "https://live.staticflickr.com/65535/50040170956_feb4bea691_n.jpg",
    "id_album": "376235057",
    "description": "Planetscape_384301",
    "title": "Planetscape_384301",
    "link_img": "https://live.staticflickr.com/65535/50040170956_be66a43688_o.jpg",
    "id_image": "Planetscape_384301",
    "count_view": 0
  },
  {
    "link_thumb": "https://live.staticflickr.com/65535/50041491691_4e3ae1a524_n.jpg",
    "id_album": "-1261420436",
    "description": "Warrior_891761",
    "title": "Warrior_891761",
    "link_img": "https://live.staticflickr.com/65535/50041491691_ba578ed29d_o.jpg",
    "id_image": "Warrior_891761",
    "count_view": 0
  },
  {
    "link_thumb": "https://live.staticflickr.com/65535/50040595643_9b21035576_n.jpg",
    "id_album": "-1863373220",
    "description": "StarWars_235021",
    "title": "StarWars_235021",
    "link_img": "https://live.staticflickr.com/65535/50040595643_60b68b4786_o.jpg",
    "id_image": "StarWars_235021",
    "count_view": 0
  },
  {
    "link_thumb": "https://live.staticflickr.com/65535/50040876418_4d95380fdf_n.jpg",
    "id_album": "-1261420436",
    "description": "Warrior_112610",
    "title": "Warrior_112610",
    "link_img": "https://live.staticflickr.com/65535/50040876418_6eac8480f4_o.jpg",
    "id_image": "Warrior_112610",
    "count_view": 0
  },
  {
    "link_thumb": "https://live.staticflickr.com/65535/50040674767_5ca881310e_n.jpg",
    "id_album": "779690680",
    "description": "Robot_913020",
    "title": "Robot_913020",
    "link_img": "https://live.staticflickr.com/65535/50040674767_ef084c00e2_o.jpg",
    "id_image": "Robot_913020",
    "count_view": 0
  },
  {
    "link_thumb": "https://live.staticflickr.com/65535/50038808458_81bb64571e_n.jpg",
    "id_album": "869545341",
    "description": "Astronaut_534555",
    "title": "Astronaut_534555",
    "link_img": "https://live.staticflickr.com/65535/50038808458_01433161c0_o.jpg",
    "id_image": "Astronaut_534555",
    "count_view": 0
  },
  {
    "link_thumb": "https://live.staticflickr.com/65535/50039789261_a38b95e74c_n.jpg",
    "id_album": "-1610342324",
    "description": "Nebula_381561",
    "title": "Nebula_381561",
    "link_img": "https://live.staticflickr.com/65535/50039789261_b4a3ce1147_o.jpg",
    "id_image": "Nebula_381561",
    "count_view": 0
  },
  {
    "link_thumb": "https://live.staticflickr.com/65535/50039477603_77e7781630_n.jpg",
    "id_album": "814701616",
    "description": "PlanetaryRing_334274",
    "title": "PlanetaryRing_334274",
    "link_img": "https://live.staticflickr.com/65535/50039477603_a7633c56b4_o.jpg",
    "id_image": "PlanetaryRing_334274",
    "count_view": 0
  },
  {
    "link_thumb": "https://live.staticflickr.com/65535/50039132773_4c727a437b_n.jpg",
    "id_album": "1402713104",
    "description": "Landscape_352870",
    "title": "Landscape_352870",
    "link_img": "https://live.staticflickr.com/65535/50039132773_40189f1811_o.jpg",
    "id_image": "Landscape_352870",
    "count_view": 0
  },
  {
    "link_thumb": "https://live.staticflickr.com/65535/50039872907_f7c63358ce_n.jpg",
    "id_album": "651930207",
    "description": "Explosion_370785",
    "title": "Explosion_370785",
    "link_img": "https://live.staticflickr.com/65535/50039872907_328cae396c_o.jpg",
    "id_image": "Explosion_370785",
    "count_view": 0
  },
  {
    "link_thumb": "https://live.staticflickr.com/65535/50039236163_e868ef5301_n.jpg",
    "id_album": "-1610342324",
    "description": "Nebula_309974",
    "title": "Nebula_309974",
    "link_img": "https://live.staticflickr.com/65535/50039236163_7088d3cede_o.jpg",
    "id_image": "Nebula_309974",
    "count_view": 0
  },
  {
    "link_thumb": "https://live.staticflickr.com/65535/50040395652_040795f178_n.jpg",
    "id_album": "-1102314093",
    "description": "Planets_737709",
    "title": "Planets_737709",
    "link_img": "https://live.staticflickr.com/65535/50040395652_44f53c7234_o.jpg",
    "id_image": "Planets_737709",
    "count_view": 0
  },
  {
    "link_thumb": "https://live.staticflickr.com/65535/50039806627_06c8cc8050_n.jpg",
    "id_album": "894679094",
    "description": "Collision_934138",
    "title": "Collision_934138",
    "link_img": "https://live.staticflickr.com/65535/50039806627_61213fd6f1_o.jpg",
    "id_image": "Collision_934138",
    "count_view": 0
  },
  {
    "link_thumb": "https://live.staticflickr.com/65535/50039751563_23fdd8bc5e_n.jpg",
    "id_album": "779690680",
    "description": "Robot_409697",
    "title": "Robot_409697",
    "link_img": "https://live.staticflickr.com/65535/50039751563_e294763da8_o.jpg",
    "id_image": "Robot_409697",
    "count_view": 0
  },
  {
    "link_thumb": "https://live.staticflickr.com/65535/50040812583_902348c3d1_n.jpg",
    "id_album": "-1177476763",
    "description": "Sunrise_464557",
    "title": "Sunrise_464557",
    "link_img": "https://live.staticflickr.com/65535/50040812583_dca425bf30_o.jpg",
    "id_image": "Sunrise_464557",
    "count_view": 0
  },
  {
    "link_thumb": "https://live.staticflickr.com/65535/50039762517_57ff47b490_n.jpg",
    "id_album": "-1964113117",
    "description": "City_840846",
    "title": "City_840846",
    "link_img": "https://live.staticflickr.com/65535/50039762517_ca6f79ff07_o.jpg",
    "id_image": "City_840846",
    "count_view": 0
  },
  {
    "link_thumb": "https://live.staticflickr.com/65535/50040171327_6463d46639_n.jpg",
    "id_album": "395161030",
    "description": "Planet_1657",
    "title": "Planet_1657",
    "link_img": "https://live.staticflickr.com/65535/50040171327_aaf64dbe47_o.jpg",
    "id_image": "Planet_1657",
    "count_view": 0
  },
  {
    "link_thumb": "https://live.staticflickr.com/65535/50039931896_f272d30857_n.jpg",
    "id_album": "395161030",
    "description": "Planet_347830",
    "title": "Planet_347830",
    "link_img": "https://live.staticflickr.com/65535/50039931896_5b03c12046_o.jpg",
    "id_image": "Planet_347830",
    "count_view": 0
  },
  {
    "link_thumb": "https://live.staticflickr.com/65535/50039313813_265741ff50_n.jpg",
    "id_album": "-1862561193",
    "description": "Other_188911",
    "title": "Other_188911",
    "link_img": "https://live.staticflickr.com/65535/50039313813_3fa28acdb6_o.jpg",
    "id_image": "Other_188911",
    "count_view": 0
  },
  {
    "link_thumb": "https://live.staticflickr.com/65535/50039638048_309138607b_n.jpg",
    "id_album": "-482547208",
    "description": "PostApocalyptic_118740",
    "title": "PostApocalyptic_118740",
    "link_img": "https://live.staticflickr.com/65535/50039638048_c031c8827b_o.jpg",
    "id_image": "PostApocalyptic_118740",
    "count_view": 0
  },
  {
    "link_thumb": "https://live.staticflickr.com/65535/50039871287_117c7750a5_n.jpg",
    "id_album": "651930207",
    "description": "Explosion_2868",
    "title": "Explosion_2868",
    "link_img": "https://live.staticflickr.com/65535/50039871287_1f1c844395_o.jpg",
    "id_image": "Explosion_2868",
    "count_view": 0
  },
  {
    "link_thumb": "https://live.staticflickr.com/65535/50040143076_2727a224f2_n.jpg",
    "id_album": "-1102314093",
    "description": "Planets_867537",
    "title": "Planets_867537",
    "link_img": "https://live.staticflickr.com/65535/50040143076_f98210988b_o.jpg",
    "id_image": "Planets_867537",
    "count_view": 0
  },
  {
    "link_thumb": "https://live.staticflickr.com/65535/50039643638_1b2e3c7d12_n.jpg",
    "id_album": "-482547208",
    "description": "PostApocalyptic_210815",
    "title": "PostApocalyptic_210815",
    "link_img": "https://live.staticflickr.com/65535/50039643638_481e6a5c6e_o.jpg",
    "id_image": "PostApocalyptic_210815",
    "count_view": 0
  },
  {
    "link_thumb": "https://live.staticflickr.com/65535/50039940961_4b47e8fef6_n.jpg",
    "id_album": "395161030",
    "description": "Planet_376380",
    "title": "Planet_376380",
    "link_img": "https://live.staticflickr.com/65535/50039940961_b48404f21f_o.jpg",
    "id_image": "Planet_376380",
    "count_view": 0
  },
  {
    "link_thumb": "https://live.staticflickr.com/65535/50041415572_6b11c3120d_n.jpg",
    "id_album": "-1863373220",
    "description": "StarWars_241448",
    "title": "StarWars_241448",
    "link_img": "https://live.staticflickr.com/65535/50041415572_37e2132737_o.jpg",
    "id_image": "StarWars_241448",
    "count_view": 0
  },
  {
    "link_thumb": "https://live.staticflickr.com/65535/50039869987_d6190761a5_n.jpg",
    "id_album": "651930207",
    "description": "Explosion_163941",
    "title": "Explosion_163941",
    "link_img": "https://live.staticflickr.com/65535/50039869987_ea9899d80f_o.jpg",
    "id_image": "Explosion_163941",
    "count_view": 0
  },
  {
    "link_thumb": "https://live.staticflickr.com/65535/50039613608_9eba5028ce_n.jpg",
    "id_album": "376235057",
    "description": "Planetscape_357197",
    "title": "Planetscape_357197",
    "link_img": "https://live.staticflickr.com/65535/50039613608_f144b12b63_o.jpg",
    "id_image": "Planetscape_357197",
    "count_view": 0
  },
  {
    "link_thumb": "https://live.staticflickr.com/65535/50040769882_065dc48036_n.jpg",
    "id_album": "1613540653",
    "description": "Space_397989",
    "title": "Space_397989",
    "link_img": "https://live.staticflickr.com/65535/50040769882_d29c04d7fc_o.jpg",
    "id_image": "Space_397989",
    "count_view": 0
  },
  {
    "link_thumb": "https://live.staticflickr.com/65535/50040694203_32e9e48062_n.jpg",
    "id_album": "-1863373220",
    "description": "StarWars_980502",
    "title": "StarWars_980502",
    "link_img": "https://live.staticflickr.com/65535/50040694203_f3453b2d1c_o.jpg",
    "id_image": "StarWars_980502",
    "count_view": 0
  },
  {
    "link_thumb": "https://live.staticflickr.com/65535/50039293086_4a155cc712_n.jpg",
    "id_album": "523598895",
    "description": "Artistic_113011",
    "title": "Artistic_113011",
    "link_img": "https://live.staticflickr.com/65535/50039293086_a865f3ca3c_o.jpg",
    "id_image": "Artistic_113011",
    "count_view": 0
  },
  {
    "link_thumb": "https://live.staticflickr.com/65535/50039761576_fc145c7425_n.jpg",
    "id_album": "-1610342324",
    "description": "Nebula_110230",
    "title": "Nebula_110230",
    "link_img": "https://live.staticflickr.com/65535/50039761576_05b6d258d2_o.jpg",
    "id_image": "Nebula_110230",
    "count_view": 0
  },
  {
    "link_thumb": "https://live.staticflickr.com/65535/50039691881_af6410cc4a_n.jpg",
    "id_album": "1402713104",
    "description": "Landscape_529229",
    "title": "Landscape_529229",
    "link_img": "https://live.staticflickr.com/65535/50039691881_399465c1e3_o.jpg",
    "id_image": "Landscape_529229",
    "count_view": 0
  },
  {
    "link_thumb": "https://live.staticflickr.com/65535/50039350968_95fbe45329_n.jpg",
    "id_album": "395161030",
    "description": "Planet_1003035",
    "title": "Planet_1003035",
    "link_img": "https://live.staticflickr.com/65535/50039350968_064a32d958_o.jpg",
    "id_image": "Planet_1003035",
    "count_view": 0
  },
  {
    "link_thumb": "https://live.staticflickr.com/65535/50038878068_7974969e58_n.jpg",
    "id_album": "406431601",
    "description": "Building_920076",
    "title": "Building_920076",
    "link_img": "https://live.staticflickr.com/65535/50038878068_ea366edcbe_o.jpg",
    "id_image": "Building_920076",
    "count_view": 0
  },
  {
    "link_thumb": "https://live.staticflickr.com/65535/50039299923_f921864955_n.jpg",
    "id_album": "-1610342324",
    "description": "Nebula_882498",
    "title": "Nebula_882498",
    "link_img": "https://live.staticflickr.com/65535/50039299923_b0eed2a3d7_o.jpg",
    "id_image": "Nebula_882498",
    "count_view": 0
  },
  {
    "link_thumb": "https://live.staticflickr.com/65535/50039661742_42abb783de_n.jpg",
    "id_album": "1187037014",
    "description": "Battle_269840",
    "title": "Battle_269840",
    "link_img": "https://live.staticflickr.com/65535/50039661742_7273f8ce89_o.jpg",
    "id_image": "Battle_269840",
    "count_view": 0
  },
  {
    "link_thumb": "https://live.staticflickr.com/65535/50040418611_0667982f40_n.jpg",
    "id_album": "779690680",
    "description": "Robot_922857",
    "title": "Robot_922857",
    "link_img": "https://live.staticflickr.com/65535/50040418611_69a35df553_o.jpg",
    "id_image": "Robot_922857",
    "count_view": 0
  },
  {
    "link_thumb": "https://live.staticflickr.com/65535/50040864517_a6d151a54a_n.jpg",
    "id_album": "2130067313",
    "description": "Spaceship_224978",
    "title": "Spaceship_224978",
    "link_img": "https://live.staticflickr.com/65535/50040864517_ca8fa122ca_o.jpg",
    "id_image": "Spaceship_224978",
    "count_view": 0
  },
  {
    "link_thumb": "https://live.staticflickr.com/65535/50040735463_6fff73ff05_n.jpg",
    "id_album": "1267121215",
    "description": "Steampunk_170997",
    "title": "Steampunk_170997",
    "link_img": "https://live.staticflickr.com/65535/50040735463_e7a1007976_o.jpg",
    "id_image": "Steampunk_170997",
    "count_view": 0
  },
  {
    "link_thumb": "https://live.staticflickr.com/65535/50039536351_306e8efd4b_n.jpg",
    "id_album": "894679094",
    "description": "Collision_148874",
    "title": "Collision_148874",
    "link_img": "https://live.staticflickr.com/65535/50039536351_b2e99b111a_o.jpg",
    "id_image": "Collision_148874",
    "count_view": 0
  },
  {
    "link_thumb": "https://live.staticflickr.com/65535/50039606661_db7fabc1ab_n.jpg",
    "id_album": "829169633",
    "description": "Cyborg_992042",
    "title": "Cyborg_992042",
    "link_img": "https://live.staticflickr.com/65535/50039606661_53968fc42f_o.jpg",
    "id_image": "Cyborg_992042",
    "count_view": 0
  },
  {
    "link_thumb": "https://live.staticflickr.com/65535/50038694123_3f80107f92_n.jpg",
    "id_album": "-406145265",
    "description": "Aircraft_66799",
    "title": "Aircraft_66799",
    "link_img": "https://live.staticflickr.com/65535/50038694123_06a3f0a529_o.jpg",
    "id_image": "Aircraft_66799",
    "count_view": 0
  },
  {
    "link_thumb": "https://live.staticflickr.com/65535/50039857033_b0da1286be_n.jpg",
    "id_album": "779690680",
    "description": "Robot_913022",
    "title": "Robot_913022",
    "link_img": "https://live.staticflickr.com/65535/50039857033_dfd553bcbd_o.jpg",
    "id_image": "Robot_913022",
    "count_view": 0
  },
  {
    "link_thumb": "https://live.staticflickr.com/65535/50040986127_6069e41008_n.jpg",
    "id_album": "2130067313",
    "description": "Spaceship_605717",
    "title": "Spaceship_605717",
    "link_img": "https://live.staticflickr.com/65535/50040986127_f1a94e2962_o.jpg",
    "id_image": "Spaceship_605717",
    "count_view": 0
  },
  {
    "link_thumb": "https://live.staticflickr.com/65535/50040246168_f937beb9e3_n.jpg",
    "id_album": "-1449720967",
    "description": "StarTrek_177180",
    "title": "StarTrek_177180",
    "link_img": "https://live.staticflickr.com/65535/50040246168_fdcde32423_o.jpg",
    "id_image": "StarTrek_177180",
    "count_view": 0
  },
  {
    "link_thumb": "https://live.staticflickr.com/65535/50040710741_9a5b9ea642_n.jpg",
    "id_album": "2130067313",
    "description": "Spaceship_532547",
    "title": "Spaceship_532547",
    "link_img": "https://live.staticflickr.com/65535/50040710741_a1ba32cc25_o.jpg",
    "id_image": "Spaceship_532547",
    "count_view": 0
  },
  {
    "link_thumb": "https://live.staticflickr.com/65535/50040157486_8cacb7ed7e_n.jpg",
    "id_album": "376235057",
    "description": "Planetscape_287063",
    "title": "Planetscape_287063",
    "link_img": "https://live.staticflickr.com/65535/50040157486_f935f3b1e9_o.jpg",
    "id_image": "Planetscape_287063",
    "count_view": 0
  },
  {
    "link_thumb": "https://live.staticflickr.com/65535/50040920482_84fcda11e9_n.jpg",
    "id_album": "2130067313",
    "description": "Spaceship_333365",
    "title": "Spaceship_333365",
    "link_img": "https://live.staticflickr.com/65535/50040920482_f19e1ed2f9_o.jpg",
    "id_image": "Spaceship_333365",
    "count_view": 0
  },
  {
    "link_thumb": "https://live.staticflickr.com/65535/50039838873_d36fd853fc_n.jpg",
    "id_album": "779690680",
    "description": "Robot_883164",
    "title": "Robot_883164",
    "link_img": "https://live.staticflickr.com/65535/50039838873_b498581d33_o.jpg",
    "id_image": "Robot_883164",
    "count_view": 0
  },
  {
    "link_thumb": "https://live.staticflickr.com/65535/50039824266_e15252bf19_n.jpg",
    "id_album": "-1610342324",
    "description": "Nebula_701305",
    "title": "Nebula_701305",
    "link_img": "https://live.staticflickr.com/65535/50039824266_b3fc916eae_o.jpg",
    "id_image": "Nebula_701305",
    "count_view": 0
  },
  {
    "link_thumb": "https://live.staticflickr.com/65535/50039789927_3e3acb956c_n.jpg",
    "id_album": "-1964113117",
    "description": "City_959085",
    "title": "City_959085",
    "link_img": "https://live.staticflickr.com/65535/50039789927_3bf1384458_o.jpg",
    "id_image": "City_959085",
    "count_view": 0
  },
  {
    "link_thumb": "https://live.staticflickr.com/65535/50039081373_9b93fd464f_n.jpg",
    "id_album": "1204249541",
    "description": "Galaxy_308301",
    "title": "Galaxy_308301",
    "link_img": "https://live.staticflickr.com/65535/50039081373_7024b729e8_o.jpg",
    "id_image": "Galaxy_308301",
    "count_view": 0
  },
  {
    "link_thumb": "https://live.staticflickr.com/65535/50041256911_864efd6e6b_n.jpg",
    "id_album": "-1587696329",
    "description": "Stars_171521",
    "title": "Stars_171521",
    "link_img": "https://live.staticflickr.com/65535/50041256911_9a927e06f2_o.jpg",
    "id_image": "Stars_171521",
    "count_view": 0
  },
  {
    "link_thumb": "https://live.staticflickr.com/65535/50040556351_14a6b22076_n.jpg",
    "id_album": "-1532370292",
    "description": "SpaceStation_1007078",
    "title": "SpaceStation_1007078",
    "link_img": "https://live.staticflickr.com/65535/50040556351_241aec1500_o.jpg",
    "id_image": "SpaceStation_1007078",
    "count_view": 0
  },
  {
    "link_thumb": "https://live.staticflickr.com/65535/50039806991_772c603269_n.jpg",
    "id_album": "-1610342324",
    "description": "Nebula_548279",
    "title": "Nebula_548279",
    "link_img": "https://live.staticflickr.com/65535/50039806991_1aa265ca3f_o.jpg",
    "id_image": "Nebula_548279",
    "count_view": 0
  },
  {
    "link_thumb": "https://live.staticflickr.com/65535/50039692672_bf57dbaf6a_n.jpg",
    "id_album": "-1964113117",
    "description": "City_1005747",
    "title": "City_1005747",
    "link_img": "https://live.staticflickr.com/65535/50039692672_6db98fe4f9_o.jpg",
    "id_image": "City_1005747",
    "count_view": 0
  },
  {
    "link_thumb": "https://live.staticflickr.com/65535/50041851042_dceabd01d8_n.jpg",
    "id_album": "-1675918237",
    "description": "WomenWarrior_895543",
    "title": "WomenWarrior_895543",
    "link_img": "https://live.staticflickr.com/65535/50041851042_a37c26372d_o.jpg",
    "id_image": "WomenWarrior_895543",
    "count_view": 0
  },
  {
    "link_thumb": "https://live.staticflickr.com/65535/50039585026_c8aca55966_n.jpg",
    "id_album": "829169633",
    "description": "Cyborg_291088",
    "title": "Cyborg_291088",
    "link_img": "https://live.staticflickr.com/65535/50039585026_544b35289f_o.jpg",
    "id_image": "Cyborg_291088",
    "count_view": 0
  },
  {
    "link_thumb": "https://live.staticflickr.com/65535/50038759718_08d8fafd36_n.jpg",
    "id_album": "523598895",
    "description": "Artistic_187047",
    "title": "Artistic_187047",
    "link_img": "https://live.staticflickr.com/65535/50038759718_1b762acc9c_o.jpg",
    "id_image": "Artistic_187047",
    "count_view": 0
  },
  {
    "link_thumb": "https://live.staticflickr.com/65535/50040085728_a616c8d139_n.jpg",
    "id_album": "2130067313",
    "description": "Spaceship_303905",
    "title": "Spaceship_303905",
    "link_img": "https://live.staticflickr.com/65535/50040085728_2a31ecd2d9_o.jpg",
    "id_image": "Spaceship_303905",
    "count_view": 0
  },
  {
    "link_thumb": "https://live.staticflickr.com/65535/50039243956_3a0cb4613d_n.jpg",
    "id_album": "849020728",
    "description": "Alien_108415",
    "title": "Alien_108415",
    "link_img": "https://live.staticflickr.com/65535/50039243956_27320d18bb_o.jpg",
    "id_image": "Alien_108415",
    "count_view": 0
  },
  {
    "link_thumb": "https://live.staticflickr.com/65535/50041027168_3753ca27e9_n.jpg",
    "id_album": "-1675918237",
    "description": "WomenWarrior_566289",
    "title": "WomenWarrior_566289",
    "link_img": "https://live.staticflickr.com/65535/50041027168_7af3fb8886_o.jpg",
    "id_image": "WomenWarrior_566289",
    "count_view": 0
  },
  {
    "link_thumb": "https://live.staticflickr.com/65535/50039444846_b330246ba8_n.jpg",
    "id_album": "-1964113117",
    "description": "City_207646",
    "title": "City_207646",
    "link_img": "https://live.staticflickr.com/65535/50039444846_44a9ebbd57_o.jpg",
    "id_image": "City_207646",
    "count_view": 0
  },
  {
    "link_thumb": "https://live.staticflickr.com/65535/50038992273_332bfc418f_n.jpg",
    "id_album": "894679094",
    "description": "Collision_373127",
    "title": "Collision_373127",
    "link_img": "https://live.staticflickr.com/65535/50038992273_1298b0406c_o.jpg",
    "id_image": "Collision_373127",
    "count_view": 0
  },
  {
    "link_thumb": "https://live.staticflickr.com/65535/50039149188_0fceaab9b7_n.jpg",
    "id_album": "1402713104",
    "description": "Landscape_665168",
    "title": "Landscape_665168",
    "link_img": "https://live.staticflickr.com/65535/50039149188_296f5051cb_o.jpg",
    "id_image": "Landscape_665168",
    "count_view": 0
  },
  {
    "link_thumb": "https://live.staticflickr.com/65535/50039646813_0a42f50b96_n.jpg",
    "id_album": "-482547208",
    "description": "PostApocalyptic_237054",
    "title": "PostApocalyptic_237054",
    "link_img": "https://live.staticflickr.com/65535/50039646813_e28939975b_o.jpg",
    "id_image": "PostApocalyptic_237054",
    "count_view": 0
  },
  {
    "link_thumb": "https://live.staticflickr.com/65535/50038729513_2a2001d0df_n.jpg",
    "id_album": "849020728",
    "description": "Alien_928553",
    "title": "Alien_928553",
    "link_img": "https://live.staticflickr.com/65535/50038729513_d8b8d94b0d_o.jpg",
    "id_image": "Alien_928553",
    "count_view": 0
  },
  {
    "link_thumb": "https://live.staticflickr.com/65535/50039840923_28bd00f6eb_n.jpg",
    "id_album": "779690680",
    "description": "Robot_886629",
    "title": "Robot_886629",
    "link_img": "https://live.staticflickr.com/65535/50039840923_8e7209fba7_o.jpg",
    "id_image": "Robot_886629",
    "count_view": 0
  },
  {
    "link_thumb": "https://live.staticflickr.com/65535/50039419181_7a225039e8_n.jpg",
    "id_album": "-1780971522",
    "description": "Biohazard_577358",
    "title": "Biohazard_577358",
    "link_img": "https://live.staticflickr.com/65535/50039419181_de17edbd4d_o.jpg",
    "id_image": "Biohazard_577358",
    "count_view": 0
  },
  {
    "link_thumb": "https://live.staticflickr.com/65535/50039893642_34837cf893_n.jpg",
    "id_album": "1204249541",
    "description": "Galaxy_324635",
    "title": "Galaxy_324635",
    "link_img": "https://live.staticflickr.com/65535/50039893642_0d48fa95d8_o.jpg",
    "id_image": "Galaxy_324635",
    "count_view": 0
  },
  {
    "link_thumb": "https://live.staticflickr.com/65535/50039818881_f3a8c3d09e_n.jpg",
    "id_album": "-1610342324",
    "description": "Nebula_635944",
    "title": "Nebula_635944",
    "link_img": "https://live.staticflickr.com/65535/50039818881_b6aa025bce_o.jpg",
    "id_image": "Nebula_635944",
    "count_view": 0
  },
  {
    "link_thumb": "https://live.staticflickr.com/65535/50040440072_67d9071678_n.jpg",
    "id_album": "376235057",
    "description": "Planetscape_523425",
    "title": "Planetscape_523425",
    "link_img": "https://live.staticflickr.com/65535/50040440072_180bb8d892_o.jpg",
    "id_image": "Planetscape_523425",
    "count_view": 0
  },
  {
    "link_thumb": "https://live.staticflickr.com/65535/50039476911_d21ca10a08_n.jpg",
    "id_album": "-1964113117",
    "description": "City_542529",
    "title": "City_542529",
    "link_img": "https://live.staticflickr.com/65535/50039476911_928efa3534_o.jpg",
    "id_image": "City_542529",
    "count_view": 0
  },
  {
    "link_thumb": "https://live.staticflickr.com/65535/50039851431_83d364ccd2_n.jpg",
    "id_album": "-1610342324",
    "description": "Nebula_910923",
    "title": "Nebula_910923",
    "link_img": "https://live.staticflickr.com/65535/50039851431_a48ee0214e_o.jpg",
    "id_image": "Nebula_910923",
    "count_view": 0
  },
  {
    "link_thumb": "https://live.staticflickr.com/65535/50039400546_e518557c87_n.jpg",
    "id_album": "1187037014",
    "description": "Battle_310267",
    "title": "Battle_310267",
    "link_img": "https://live.staticflickr.com/65535/50039400546_5f6d30c53f_o.jpg",
    "id_image": "Battle_310267",
    "count_view": 0
  },
  {
    "link_thumb": "https://live.staticflickr.com/65535/50039596212_c636242f32_n.jpg",
    "id_album": "523598895",
    "description": "Artistic_411413",
    "title": "Artistic_411413",
    "link_img": "https://live.staticflickr.com/65535/50039596212_907b54cb7e_o.jpg",
    "id_image": "Artistic_411413",
    "count_view": 0
  },
  {
    "link_thumb": "https://live.staticflickr.com/65535/50039479083_46072790c2_n.jpg",
    "id_album": "814701616",
    "description": "PlanetaryRing_352392",
    "title": "PlanetaryRing_352392",
    "link_img": "https://live.staticflickr.com/65535/50039479083_7ccaa3e4eb_o.jpg",
    "id_image": "PlanetaryRing_352392",
    "count_view": 0
  },
  {
    "link_thumb": "https://live.staticflickr.com/65535/50040633753_3021baf2ce_n.jpg",
    "id_album": "-1863373220",
    "description": "StarWars_497635",
    "title": "StarWars_497635",
    "link_img": "https://live.staticflickr.com/65535/50040633753_2cece27c5c_o.jpg",
    "id_image": "StarWars_497635",
    "count_view": 0
  },
  {
    "link_thumb": "https://live.staticflickr.com/65535/50039107098_02ae317717_n.jpg",
    "id_album": "1204249541",
    "description": "Galaxy_936711",
    "title": "Galaxy_936711",
    "link_img": "https://live.staticflickr.com/65535/50039107098_c19cf67895_o.jpg",
    "id_image": "Galaxy_936711",
    "count_view": 0
  },
  {
    "link_thumb": "https://live.staticflickr.com/65535/50040289811_3e033a6f52_n.jpg",
    "id_album": "779690680",
    "description": "Robot_325652",
    "title": "Robot_325652",
    "link_img": "https://live.staticflickr.com/65535/50040289811_5b522cb06b_o.jpg",
    "id_image": "Robot_325652",
    "count_view": 0
  },
  {
    "link_thumb": "https://live.staticflickr.com/65535/50039919571_0ae7771486_n.jpg",
    "id_album": "395161030",
    "description": "Planet_217475",
    "title": "Planet_217475",
    "link_img": "https://live.staticflickr.com/65535/50039919571_8b859d1238_o.jpg",
    "id_image": "Planet_217475",
    "count_view": 0
  },
  {
    "link_thumb": "https://live.staticflickr.com/65535/50040724718_d7b0bebb36_n.jpg",
    "id_album": "-1587696329",
    "description": "Stars_664350",
    "title": "Stars_664350",
    "link_img": "https://live.staticflickr.com/65535/50040724718_b136808a20_o.jpg",
    "id_image": "Stars_664350",
    "count_view": 0
  },
  {
    "link_thumb": "https://live.staticflickr.com/65535/50039258488_d839decf0a_n.jpg",
    "id_album": "-1610342324",
    "description": "Nebula_550544",
    "title": "Nebula_550544",
    "link_img": "https://live.staticflickr.com/65535/50039258488_967900c28c_o.jpg",
    "id_image": "Nebula_550544",
    "count_view": 0
  },
  {
    "link_thumb": "https://live.staticflickr.com/65535/50039144003_9877b1cee6_n.jpg",
    "id_album": "1402713104",
    "description": "Landscape_549184",
    "title": "Landscape_549184",
    "link_img": "https://live.staticflickr.com/65535/50039144003_a28302d139_o.jpg",
    "id_image": "Landscape_549184",
    "count_view": 0
  },
  {
    "link_thumb": "https://live.staticflickr.com/65535/50039031083_5877f7fcfe_n.jpg",
    "id_album": "829169633",
    "description": "Cyborg_189584",
    "title": "Cyborg_189584",
    "link_img": "https://live.staticflickr.com/65535/50039031083_9df39660fd_o.jpg",
    "id_image": "Cyborg_189584",
    "count_view": 0
  },
  {
    "link_thumb": "https://live.staticflickr.com/65535/50040014346_851808c428_n.jpg",
    "id_album": "1443611160",
    "description": "PlanetRise_777595",
    "title": "PlanetRise_777595",
    "link_img": "https://live.staticflickr.com/65535/50040014346_58266d9997_o.jpg",
    "id_image": "PlanetRise_777595",
    "count_view": 0
  },
  {
    "link_thumb": "https://live.staticflickr.com/65535/50039148938_baf4a72767_n.jpg",
    "id_album": "1402713104",
    "description": "Landscape_662791",
    "title": "Landscape_662791",
    "link_img": "https://live.staticflickr.com/65535/50039148938_70f2509b67_o.jpg",
    "id_image": "Landscape_662791",
    "count_view": 0
  },
  {
    "link_thumb": "https://live.staticflickr.com/65535/50039647956_fba04de01a_n.jpg",
    "id_album": "1204249541",
    "description": "Galaxy_600406",
    "title": "Galaxy_600406",
    "link_img": "https://live.staticflickr.com/65535/50039647956_a6f008dfc1_o.jpg",
    "id_image": "Galaxy_600406",
    "count_view": 0
  },
  {
    "link_thumb": "https://live.staticflickr.com/65535/50039359603_20cacee3fa_n.jpg",
    "id_album": "395161030",
    "description": "Planet_173023",
    "title": "Planet_173023",
    "link_img": "https://live.staticflickr.com/65535/50039359603_ae53f89bd4_o.jpg",
    "id_image": "Planet_173023",
    "count_view": 0
  },
  {
    "link_thumb": "https://live.staticflickr.com/65535/50039633543_dc94140a5b_n.jpg",
    "id_album": "376235057",
    "description": "Planetscape_957403",
    "title": "Planetscape_957403",
    "link_img": "https://live.staticflickr.com/65535/50039633543_b4b988f204_o.jpg",
    "id_image": "Planetscape_957403",
    "count_view": 0
  },
  {
    "link_thumb": "https://live.staticflickr.com/65535/50039820197_fd5d0f6226_n.jpg",
    "id_album": "-437872736",
    "description": "Creature_690959",
    "title": "Creature_690959",
    "link_img": "https://live.staticflickr.com/65535/50039820197_6d3f66a6ce_o.jpg",
    "id_image": "Creature_690959",
    "count_view": 0
  },
  {
    "link_thumb": "https://live.staticflickr.com/65535/50040098347_397951a64b_n.jpg",
    "id_album": "-1610342324",
    "description": "Nebula_772696",
    "title": "Nebula_772696",
    "link_img": "https://live.staticflickr.com/65535/50040098347_78f579b263_o.jpg",
    "id_image": "Nebula_772696",
    "count_view": 0
  },
  {
    "link_thumb": "https://live.staticflickr.com/65535/50040074442_be73a7d952_n.jpg",
    "id_album": "-1610342324",
    "description": "Nebula_560770",
    "title": "Nebula_560770",
    "link_img": "https://live.staticflickr.com/65535/50040074442_cafa578ff8_o.jpg",
    "id_image": "Nebula_560770",
    "count_view": 0
  },
  {
    "link_thumb": "https://live.staticflickr.com/65535/50041331591_28628abdc3_n.jpg",
    "id_album": "1267121215",
    "description": "Steampunk_852657",
    "title": "Steampunk_852657",
    "link_img": "https://live.staticflickr.com/65535/50041331591_cebeefe507_o.jpg",
    "id_image": "Steampunk_852657",
    "count_view": 0
  },
  {
    "link_thumb": "https://live.staticflickr.com/65535/50040622793_d6af99f05d_n.jpg",
    "id_album": "-1863373220",
    "description": "StarWars_398455",
    "title": "StarWars_398455",
    "link_img": "https://live.staticflickr.com/65535/50040622793_42b74e4bf3_o.jpg",
    "id_image": "StarWars_398455",
    "count_view": 0
  },
  {
    "link_thumb": "https://live.staticflickr.com/65535/50040403176_7b0df8c257_n.jpg",
    "id_album": "779690680",
    "description": "Robot_906348",
    "title": "Robot_906348",
    "link_img": "https://live.staticflickr.com/65535/50040403176_a36cf45931_o.jpg",
    "id_image": "Robot_906348",
    "count_view": 0
  },
  {
    "link_thumb": "https://live.staticflickr.com/65535/50040764602_fc8b2e3767_n.jpg",
    "id_album": "1613540653",
    "description": "Space_354876",
    "title": "Space_354876",
    "link_img": "https://live.staticflickr.com/65535/50040764602_cbcace2dc8_o.jpg",
    "id_image": "Space_354876",
    "count_view": 0
  },
  {
    "link_thumb": "https://live.staticflickr.com/65535/50039073328_d162f464ec_n.jpg",
    "id_album": "2104507156",
    "description": "Fantasy_855866",
    "title": "Fantasy_855866",
    "link_img": "https://live.staticflickr.com/65535/50039073328_3376e3563b_o.jpg",
    "id_image": "Fantasy_855866",
    "count_view": 0
  },
  {
    "link_thumb": "https://live.staticflickr.com/65535/50040717536_46e8d5bc09_n.jpg",
    "id_album": "2130067313",
    "description": "Spaceship_563565",
    "title": "Spaceship_563565",
    "link_img": "https://live.staticflickr.com/65535/50040717536_d32ba9ea86_o.jpg",
    "id_image": "Spaceship_563565",
    "count_view": 0
  },
  {
    "link_thumb": "https://live.staticflickr.com/65535/50039581658_2410468e36_n.jpg",
    "id_album": "-1102314093",
    "description": "Planets_738122",
    "title": "Planets_738122",
    "link_img": "https://live.staticflickr.com/65535/50039581658_bbd41132fc_o.jpg",
    "id_image": "Planets_738122",
    "count_view": 0
  },
  {
    "link_thumb": "https://live.staticflickr.com/65535/50040673482_c21774e466_n.jpg",
    "id_album": "779690680",
    "description": "Robot_911879",
    "title": "Robot_911879",
    "link_img": "https://live.staticflickr.com/65535/50040673482_6009da7686_o.jpg",
    "id_image": "Robot_911879",
    "count_view": 0
  },
  {
    "link_thumb": "https://live.staticflickr.com/65535/50038861993_e160d49852_n.jpg",
    "id_album": "1187037014",
    "description": "Battle_975635",
    "title": "Battle_975635",
    "link_img": "https://live.staticflickr.com/65535/50038861993_342ef24dc1_o.jpg",
    "id_image": "Battle_975635",
    "count_view": 0
  },
  {
    "link_thumb": "https://live.staticflickr.com/65535/50039140633_0d2b479920_n.jpg",
    "id_album": "1402713104",
    "description": "Landscape_448946",
    "title": "Landscape_448946",
    "link_img": "https://live.staticflickr.com/65535/50039140633_03cf59fd5d_o.jpg",
    "id_image": "Landscape_448946",
    "count_view": 0
  },
  {
    "link_thumb": "https://live.staticflickr.com/65535/50039636802_57d8928915_n.jpg",
    "id_album": "869545341",
    "description": "Astronaut_863506",
    "title": "Astronaut_863506",
    "link_img": "https://live.staticflickr.com/65535/50039636802_8900faeaea_o.jpg",
    "id_image": "Astronaut_863506",
    "count_view": 0
  },
  {
    "link_thumb": "https://live.staticflickr.com/65535/50039283681_e86d7114dd_n.jpg",
    "id_album": "-419633230",
    "description": "Apocalyptic_363783",
    "title": "Apocalyptic_363783",
    "link_img": "https://live.staticflickr.com/65535/50039283681_2a9a2cc84d_o.jpg",
    "id_image": "Apocalyptic_363783",
    "count_view": 0
  },
  {
    "link_thumb": "https://live.staticflickr.com/65535/50040570537_769bf27b59_n.jpg",
    "id_album": "779690680",
    "description": "Robot_418080",
    "title": "Robot_418080",
    "link_img": "https://live.staticflickr.com/65535/50040570537_47efa793ea_o.jpg",
    "id_image": "Robot_418080",
    "count_view": 0
  },
  {
    "link_thumb": "https://live.staticflickr.com/65535/50040499521_7c6569d350_n.jpg",
    "id_album": "1613540653",
    "description": "Space_354746",
    "title": "Space_354746",
    "link_img": "https://live.staticflickr.com/65535/50040499521_9189d61480_o.jpg",
    "id_image": "Space_354746",
    "count_view": 0
  },
  {
    "link_thumb": "https://live.staticflickr.com/65535/50039864207_4a21a66f08_n.jpg",
    "id_album": "829169633",
    "description": "Cyborg_753464",
    "title": "Cyborg_753464",
    "link_img": "https://live.staticflickr.com/65535/50039864207_ebfb57f9a2_o.jpg",
    "id_image": "Cyborg_753464",
    "count_view": 0
  },
  {
    "link_thumb": "https://live.staticflickr.com/65535/50038935613_51595f7e88_n.jpg",
    "id_album": "-1964113117",
    "description": "City_649520",
    "title": "City_649520",
    "link_img": "https://live.staticflickr.com/65535/50038935613_9e3586dc85_o.jpg",
    "id_image": "City_649520",
    "count_view": 0
  },
  {
    "link_thumb": "https://live.staticflickr.com/65535/50039498482_e033259357_n.jpg",
    "id_album": "-406145265",
    "description": "Aircraft_269915",
    "title": "Aircraft_269915",
    "link_img": "https://live.staticflickr.com/65535/50039498482_7695ea4691_o.jpg",
    "id_image": "Aircraft_269915",
    "count_view": 0
  },
  {
    "link_thumb": "https://live.staticflickr.com/65535/50039097423_df5049442b_n.jpg",
    "id_album": "1204249541",
    "description": "Galaxy_596221",
    "title": "Galaxy_596221",
    "link_img": "https://live.staticflickr.com/65535/50039097423_45874695fb_o.jpg",
    "id_image": "Galaxy_596221",
    "count_view": 0
  },
  {
    "link_thumb": "https://live.staticflickr.com/65535/50041531442_97e795883c_n.jpg",
    "id_album": "-1587696329",
    "description": "Stars_430134",
    "title": "Stars_430134",
    "link_img": "https://live.staticflickr.com/65535/50041531442_968f59ced6_o.jpg",
    "id_image": "Stars_430134",
    "count_view": 0
  },
  {
    "link_thumb": "https://live.staticflickr.com/65535/50039479448_fc3df06820_n.jpg",
    "id_album": "814701616",
    "description": "PlanetaryRing_355071",
    "title": "PlanetaryRing_355071",
    "link_img": "https://live.staticflickr.com/65535/50039479448_36d6908422_o.jpg",
    "id_image": "PlanetaryRing_355071",
    "count_view": 0
  },
  {
    "link_thumb": "https://live.staticflickr.com/65535/50040070033_571778b3c9_n.jpg",
    "id_album": "2130067313",
    "description": "Spaceship_280806",
    "title": "Spaceship_280806",
    "link_img": "https://live.staticflickr.com/65535/50040070033_0d74908764_o.jpg",
    "id_image": "Spaceship_280806",
    "count_view": 0
  },
  {
    "link_thumb": "https://live.staticflickr.com/65535/50040033287_6d460f75b3_n.jpg",
    "id_album": "-1610342324",
    "description": "Nebula_207909",
    "title": "Nebula_207909",
    "link_img": "https://live.staticflickr.com/65535/50040033287_946599128f_o.jpg",
    "id_image": "Nebula_207909",
    "count_view": 0
  },
  {
    "link_thumb": "https://live.staticflickr.com/65535/50039538293_aca9ca6a3d_n.jpg",
    "id_album": "-1102314093",
    "description": "Planets_344254",
    "title": "Planets_344254",
    "link_img": "https://live.staticflickr.com/65535/50039538293_094dd77ae5_o.jpg",
    "id_image": "Planets_344254",
    "count_view": 0
  },
  {
    "link_thumb": "https://live.staticflickr.com/65535/50039602273_824f43111a_n.jpg",
    "id_album": "376235057",
    "description": "Planetscape_106854",
    "title": "Planetscape_106854",
    "link_img": "https://live.staticflickr.com/65535/50039602273_43fd3438da_o.jpg",
    "id_image": "Planetscape_106854",
    "count_view": 0
  },
  {
    "link_thumb": "https://live.staticflickr.com/65535/50040043132_1dd01fdfa3_n.jpg",
    "id_album": "-1610342324",
    "description": "Nebula_265686",
    "title": "Nebula_265686",
    "link_img": "https://live.staticflickr.com/65535/50040043132_553fc7b2ae_o.jpg",
    "id_image": "Nebula_265686",
    "count_view": 0
  },
  {
    "link_thumb": "https://live.staticflickr.com/65535/50040445577_41a17e16db_n.jpg",
    "id_album": "376235057",
    "description": "Planetscape_778700",
    "title": "Planetscape_778700",
    "link_img": "https://live.staticflickr.com/65535/50040445577_a8f9ac3462_o.jpg",
    "id_image": "Planetscape_778700",
    "count_view": 0
  },
  {
    "link_thumb": "https://live.staticflickr.com/65535/50038866368_60e3788223_n.jpg",
    "id_album": "-1780971522",
    "description": "Biohazard_494275",
    "title": "Biohazard_494275",
    "link_img": "https://live.staticflickr.com/65535/50038866368_7c1822af8f_o.jpg",
    "id_image": "Biohazard_494275",
    "count_view": 0
  },
  {
    "link_thumb": "https://live.staticflickr.com/65535/50040144788_94c738a3e7_n.jpg",
    "id_album": "2130067313",
    "description": "Spaceship_446852",
    "title": "Spaceship_446852",
    "link_img": "https://live.staticflickr.com/65535/50040144788_b2d4564bbd_o.jpg",
    "id_image": "Spaceship_446852",
    "count_view": 0
  },
  {
    "link_thumb": "https://live.staticflickr.com/65535/50040290611_16bcd724d2_n.jpg",
    "id_album": "779690680",
    "description": "Robot_328255",
    "title": "Robot_328255",
    "link_img": "https://live.staticflickr.com/65535/50040290611_45e3fc58a2_o.jpg",
    "id_image": "Robot_328255",
    "count_view": 0
  },
  {
    "link_thumb": "https://live.staticflickr.com/65535/50040888767_90625db5bc_n.jpg",
    "id_album": "2130067313",
    "description": "Spaceship_283036",
    "title": "Spaceship_283036",
    "link_img": "https://live.staticflickr.com/65535/50040888767_5cf20c254c_o.jpg",
    "id_image": "Spaceship_283036",
    "count_view": 0
  },
  {
    "link_thumb": "https://live.staticflickr.com/65535/50039766051_826ca7e10e_n.jpg",
    "id_album": "-1610342324",
    "description": "Nebula_179737",
    "title": "Nebula_179737",
    "link_img": "https://live.staticflickr.com/65535/50039766051_e46da0af52_o.jpg",
    "id_image": "Nebula_179737",
    "count_view": 0
  },
  {
    "link_thumb": "https://live.staticflickr.com/65535/50040779802_9c562cf6d6_n.jpg",
    "id_album": "1613540653",
    "description": "Space_577980",
    "title": "Space_577980",
    "link_img": "https://live.staticflickr.com/65535/50040779802_7339767d17_o.jpg",
    "id_image": "Space_577980",
    "count_view": 0
  },
  {
    "link_thumb": "https://live.staticflickr.com/65535/50039582511_523098457b_n.jpg",
    "id_album": "829169633",
    "description": "Cyborg_239897",
    "title": "Cyborg_239897",
    "link_img": "https://live.staticflickr.com/65535/50039582511_6b7fdc7fb4_o.jpg",
    "id_image": "Cyborg_239897",
    "count_view": 0
  },
  {
    "link_thumb": "https://live.staticflickr.com/65535/50040806793_3f6ffc8704_n.jpg",
    "id_album": "-1177476763",
    "description": "Sunrise_350440",
    "title": "Sunrise_350440",
    "link_img": "https://live.staticflickr.com/65535/50040806793_39368c7dbd_o.jpg",
    "id_image": "Sunrise_350440",
    "count_view": 0
  },
  {
    "link_thumb": "https://live.staticflickr.com/65535/50039607112_95b5a6d751_n.jpg",
    "id_album": "523598895",
    "description": "Artistic_857266",
    "title": "Artistic_857266",
    "link_img": "https://live.staticflickr.com/65535/50039607112_1b7fba34c7_o.jpg",
    "id_image": "Artistic_857266",
    "count_view": 0
  },
  {
    "link_thumb": "https://live.staticflickr.com/65535/50039898297_d5da53a109_n.jpg",
    "id_album": "1204249541",
    "description": "Galaxy_441411",
    "title": "Galaxy_441411",
    "link_img": "https://live.staticflickr.com/65535/50039898297_519396b9e7_o.jpg",
    "id_image": "Galaxy_441411",
    "count_view": 0
  },
  {
    "link_thumb": "https://live.staticflickr.com/65535/50040562717_13a48edb0f_n.jpg",
    "id_album": "779690680",
    "description": "Robot_379829",
    "title": "Robot_379829",
    "link_img": "https://live.staticflickr.com/65535/50040562717_ef2b2db8d1_o.jpg",
    "id_image": "Robot_379829",
    "count_view": 0
  },
  {
    "link_thumb": "https://live.staticflickr.com/65535/50039587223_c004c70032_n.jpg",
    "id_album": "-1102314093",
    "description": "Planets_807190",
    "title": "Planets_807190",
    "link_img": "https://live.staticflickr.com/65535/50039587223_d20d29099d_o.jpg",
    "id_image": "Planets_807190",
    "count_view": 0
  },
  {
    "link_thumb": "https://live.staticflickr.com/65535/50038842253_85e000f3ec_n.jpg",
    "id_album": "869545341",
    "description": "Astronaut_987331",
    "title": "Astronaut_987331",
    "link_img": "https://live.staticflickr.com/65535/50038842253_b6b2e51d42_o.jpg",
    "id_image": "Astronaut_987331",
    "count_view": 0
  },
  {
    "link_thumb": "https://live.staticflickr.com/65535/50040244521_9b9bbf6fb6_n.jpg",
    "id_album": "-839602625",
    "description": "Predator_492471",
    "title": "Predator_492471",
    "link_img": "https://live.staticflickr.com/65535/50040244521_04c8e14e2f_o.jpg",
    "id_image": "Predator_492471",
    "count_view": 0
  },
  {
    "link_thumb": "https://live.staticflickr.com/65535/50041469441_d2bdd42cc6_n.jpg",
    "id_album": "-1261420436",
    "description": "Warrior_551686",
    "title": "Warrior_551686",
    "link_img": "https://live.staticflickr.com/65535/50041469441_f8cece0a9d_o.jpg",
    "id_image": "Warrior_551686",
    "count_view": 0
  },
  {
    "link_thumb": "https://live.staticflickr.com/65535/50039520583_8d25929891_n.jpg",
    "id_album": "-1102314093",
    "description": "Planets_274825",
    "title": "Planets_274825",
    "link_img": "https://live.staticflickr.com/65535/50039520583_7dd0e257e3_o.jpg",
    "id_image": "Planets_274825",
    "count_view": 0
  },
  {
    "link_thumb": "https://live.staticflickr.com/65535/50039085923_402d253c42_n.jpg",
    "id_album": "1204249541",
    "description": "Galaxy_441060",
    "title": "Galaxy_441060",
    "link_img": "https://live.staticflickr.com/65535/50039085923_efe8180b57_o.jpg",
    "id_image": "Galaxy_441060",
    "count_view": 0
  },
  {
    "link_thumb": "https://live.staticflickr.com/65535/50038793033_d390b04faa_n.jpg",
    "id_album": "523598895",
    "description": "Artistic_656921",
    "title": "Artistic_656921",
    "link_img": "https://live.staticflickr.com/65535/50038793033_98129bceec_o.jpg",
    "id_image": "Artistic_656921",
    "count_view": 0
  },
  {
    "link_thumb": "https://live.staticflickr.com/65535/50040232021_3cf8ffb799_n.jpg",
    "id_album": "-482547208",
    "description": "PostApocalyptic_929175",
    "title": "PostApocalyptic_929175",
    "link_img": "https://live.staticflickr.com/65535/50040232021_074f77c5c2_o.jpg",
    "id_image": "PostApocalyptic_929175",
    "count_view": 0
  },
  {
    "link_thumb": "https://live.staticflickr.com/65535/50038866263_3a3b22db40_n.jpg",
    "id_album": "-1780971522",
    "description": "Biohazard_494253",
    "title": "Biohazard_494253",
    "link_img": "https://live.staticflickr.com/65535/50038866263_35fde003af_o.jpg",
    "id_image": "Biohazard_494253",
    "count_view": 0
  },
  {
    "link_thumb": "https://live.staticflickr.com/65535/50040440411_632a950ccc_n.jpg",
    "id_album": "779690680",
    "description": "Robot_948243",
    "title": "Robot_948243",
    "link_img": "https://live.staticflickr.com/65535/50040440411_b3a7c47a82_o.jpg",
    "id_image": "Robot_948243",
    "count_view": 0
  },
  {
    "link_thumb": "https://live.staticflickr.com/65535/50041265006_8ac801e027_n.jpg",
    "id_album": "-1587696329",
    "description": "Stars_3979",
    "title": "Stars_3979",
    "link_img": "https://live.staticflickr.com/65535/50041265006_a69ab06147_o.jpg",
    "id_image": "Stars_3979",
    "count_view": 0
  },
  {
    "link_thumb": "https://live.staticflickr.com/65535/50040572883_058dc861a4_n.jpg",
    "id_album": "-1863373220",
    "description": "StarWars_199542",
    "title": "StarWars_199542",
    "link_img": "https://live.staticflickr.com/65535/50040572883_55a5bbd7d1_o.jpg",
    "id_image": "StarWars_199542",
    "count_view": 0
  },
  {
    "link_thumb": "https://live.staticflickr.com/65535/50039286723_f99b3a9bbc_n.jpg",
    "id_album": "-1610342324",
    "description": "Nebula_783901",
    "title": "Nebula_783901",
    "link_img": "https://live.staticflickr.com/65535/50039286723_7846b9c3d1_o.jpg",
    "id_image": "Nebula_783901",
    "count_view": 0
  },
  {
    "link_thumb": "https://live.staticflickr.com/65535/50039197403_123ef97f3a_n.jpg",
    "id_album": "-1388385651",
    "description": "MilkyWay_744017",
    "title": "MilkyWay_744017",
    "link_img": "https://live.staticflickr.com/65535/50039197403_3ea0b6aa85_o.jpg",
    "id_image": "MilkyWay_744017",
    "count_view": 0
  },
  {
    "link_thumb": "https://live.staticflickr.com/65535/50039940037_bc2cb98495_n.jpg",
    "id_album": "1402713104",
    "description": "Landscape_324659",
    "title": "Landscape_324659",
    "link_img": "https://live.staticflickr.com/65535/50039940037_b08fb9e0d8_o.jpg",
    "id_image": "Landscape_324659",
    "count_view": 0
  },
  {
    "link_thumb": "https://live.staticflickr.com/65535/50040441872_0682cedd97_n.jpg",
    "id_album": "376235057",
    "description": "Planetscape_589835",
    "title": "Planetscape_589835",
    "link_img": "https://live.staticflickr.com/65535/50040441872_4213ea89cc_o.jpg",
    "id_image": "Planetscape_589835",
    "count_view": 0
  },
  {
    "link_thumb": "https://live.staticflickr.com/65535/50039655407_b52355070e_n.jpg",
    "id_album": "1187037014",
    "description": "Battle_1005785",
    "title": "Battle_1005785",
    "link_img": "https://live.staticflickr.com/65535/50039655407_cd8530cc6b_o.jpg",
    "id_image": "Battle_1005785",
    "count_view": 0
  },
  {
    "link_thumb": "https://live.staticflickr.com/65535/50038916423_3743de74bb_n.jpg",
    "id_album": "-1964113117",
    "description": "City_345696",
    "title": "City_345696",
    "link_img": "https://live.staticflickr.com/65535/50038916423_e509f31ba1_o.jpg",
    "id_image": "City_345696",
    "count_view": 0
  },
  {
    "link_thumb": "https://live.staticflickr.com/65535/50039668222_d1c1c4257f_n.jpg",
    "id_album": "1187037014",
    "description": "Battle_658757",
    "title": "Battle_658757",
    "link_img": "https://live.staticflickr.com/65535/50039668222_49d8c63e4b_o.jpg",
    "id_image": "Battle_658757",
    "count_view": 0
  },
  {
    "link_thumb": "https://live.staticflickr.com/65535/50041725187_f704358b2a_n.jpg",
    "id_album": "-1261420436",
    "description": "Warrior_446492",
    "title": "Warrior_446492",
    "link_img": "https://live.staticflickr.com/65535/50041725187_25c6f5b00a_o.jpg",
    "id_image": "Warrior_446492",
    "count_view": 0
  },
  {
    "link_thumb": "https://live.staticflickr.com/65535/50039635183_7039c8730b_n.jpg",
    "id_album": "376235057",
    "description": "Planetscape_959121",
    "title": "Planetscape_959121",
    "link_img": "https://live.staticflickr.com/65535/50039635183_62017d1465_o.jpg",
    "id_image": "Planetscape_959121",
    "count_view": 0
  },
  {
    "link_thumb": "https://live.staticflickr.com/65535/50038920473_8f8f0715cc_n.jpg",
    "id_album": "-1964113117",
    "description": "City_403207",
    "title": "City_403207",
    "link_img": "https://live.staticflickr.com/65535/50038920473_f73d9c1f9c_o.jpg",
    "id_image": "City_403207",
    "count_view": 0
  },
  {
    "link_thumb": "https://live.staticflickr.com/65535/50039665102_54501794ec_n.jpg",
    "id_album": "1187037014",
    "description": "Battle_503665",
    "title": "Battle_503665",
    "link_img": "https://live.staticflickr.com/65535/50039665102_251a060ccc_o.jpg",
    "id_image": "Battle_503665",
    "count_view": 0
  },
  {
    "link_thumb": "https://live.staticflickr.com/65535/50038985263_fb9a017570_n.jpg",
    "id_album": "-1964113117",
    "description": "City_996545",
    "title": "City_996545",
    "link_img": "https://live.staticflickr.com/65535/50038985263_7a1f2cdfd0_o.jpg",
    "id_image": "City_996545",
    "count_view": 0
  },
  {
    "link_thumb": "https://live.staticflickr.com/65535/50039643182_287fdbc577_n.jpg",
    "id_album": "869545341",
    "description": "Astronaut_923969",
    "title": "Astronaut_923969",
    "link_img": "https://live.staticflickr.com/65535/50039643182_36169e3746_o.jpg",
    "id_image": "Astronaut_923969",
    "count_view": 0
  },
  {
    "link_thumb": "https://live.staticflickr.com/65535/50041580312_8d4a9bf218_n.jpg",
    "id_album": "1267121215",
    "description": "Steampunk_413258",
    "title": "Steampunk_413258",
    "link_img": "https://live.staticflickr.com/65535/50041580312_f775e3874a_o.jpg",
    "id_image": "Steampunk_413258",
    "count_view": 0
  },
  {
    "link_thumb": "https://live.staticflickr.com/65535/50040392966_3b52cd82d4_n.jpg",
    "id_album": "779690680",
    "description": "Robot_884817",
    "title": "Robot_884817",
    "link_img": "https://live.staticflickr.com/65535/50040392966_db32daf2ff_o.jpg",
    "id_image": "Robot_884817",
    "count_view": 0
  },
  {
    "link_thumb": "https://live.staticflickr.com/65535/50039863317_1126692171_n.jpg",
    "id_album": "829169633",
    "description": "Cyborg_706265",
    "title": "Cyborg_706265",
    "link_img": "https://live.staticflickr.com/65535/50039863317_95582ffcb6_o.jpg",
    "id_image": "Cyborg_706265",
    "count_view": 0
  },
  {
    "link_thumb": "https://live.staticflickr.com/65535/50040123396_fc122e5cb3_n.jpg",
    "id_album": "-1102314093",
    "description": "Planets_533841",
    "title": "Planets_533841",
    "link_img": "https://live.staticflickr.com/65535/50040123396_e8f6a33330_o.jpg",
    "id_image": "Planets_533841",
    "count_view": 0
  },
  {
    "link_thumb": "https://live.staticflickr.com/65535/50039732108_ae1ce57ac5_n.jpg",
    "id_album": "779690680",
    "description": "Robot_307407",
    "title": "Robot_307407",
    "link_img": "https://live.staticflickr.com/65535/50039732108_a9c1aea53e_o.jpg",
    "id_image": "Robot_307407",
    "count_view": 0
  },
  {
    "link_thumb": "https://live.staticflickr.com/65535/50039686906_bf14e49223_n.jpg",
    "id_album": "1402713104",
    "description": "Landscape_409690",
    "title": "Landscape_409690",
    "link_img": "https://live.staticflickr.com/65535/50039686906_f2c3b0c0f9_o.jpg",
    "id_image": "Landscape_409690",
    "count_view": 0
  },
  {
    "link_thumb": "https://live.staticflickr.com/65535/50040899313_0ff4d5ce62_n.jpg",
    "id_album": "-1261420436",
    "description": "Warrior_374946",
    "title": "Warrior_374946",
    "link_img": "https://live.staticflickr.com/65535/50040899313_6d0689c3ca_o.jpg",
    "id_image": "Warrior_374946",
    "count_view": 0
  },
  {
    "link_thumb": "https://live.staticflickr.com/65535/50040084817_34fb9d09fa_n.jpg",
    "id_album": "-1610342324",
    "description": "Nebula_683513",
    "title": "Nebula_683513",
    "link_img": "https://live.staticflickr.com/65535/50040084817_9fda88779e_o.jpg",
    "id_image": "Nebula_683513",
    "count_view": 0
  },
  {
    "link_thumb": "https://live.staticflickr.com/65535/50039916776_055c509689_n.jpg",
    "id_album": "395161030",
    "description": "Planet_193395",
    "title": "Planet_193395",
    "link_img": "https://live.staticflickr.com/65535/50039916776_4927aaf8b8_o.jpg",
    "id_image": "Planet_193395",
    "count_view": 0
  },
  {
    "link_thumb": "https://live.staticflickr.com/65535/50039837506_b04f773966_n.jpg",
    "id_album": "-1610342324",
    "description": "Nebula_792646",
    "title": "Nebula_792646",
    "link_img": "https://live.staticflickr.com/65535/50039837506_63d4131d9d_o.jpg",
    "id_image": "Nebula_792646",
    "count_view": 0
  },
  {
    "link_thumb": "https://live.staticflickr.com/65535/50038884408_5d3d8e4f80_n.jpg",
    "id_album": "-1964113117",
    "description": "City_113812",
    "title": "City_113812",
    "link_img": "https://live.staticflickr.com/65535/50038884408_7bc8c8679a_o.jpg",
    "id_image": "City_113812",
    "count_view": 0
  },
  {
    "link_thumb": "https://live.staticflickr.com/65535/50038765733_eb5a3c3982_n.jpg",
    "id_album": "523598895",
    "description": "Artistic_209957",
    "title": "Artistic_209957",
    "link_img": "https://live.staticflickr.com/65535/50038765733_43ef1e2484_o.jpg",
    "id_image": "Artistic_209957",
    "count_view": 0
  },
  {
    "link_thumb": "https://live.staticflickr.com/65535/50040461891_8914547976_n.jpg",
    "id_album": "1613540653",
    "description": "Space_104944",
    "title": "Space_104944",
    "link_img": "https://live.staticflickr.com/65535/50040461891_1c5a6ca559_o.jpg",
    "id_image": "Space_104944",
    "count_view": 0
  },
  {
    "link_thumb": "https://live.staticflickr.com/65535/50039037568_b056825a7d_n.jpg",
    "id_album": "829169633",
    "description": "Cyborg_330040",
    "title": "Cyborg_330040",
    "link_img": "https://live.staticflickr.com/65535/50039037568_f173ef8e58_o.jpg",
    "id_image": "Cyborg_330040",
    "count_view": 0
  },
  {
    "link_thumb": "https://live.staticflickr.com/65535/50038726178_cf5b828280_n.jpg",
    "id_album": "849020728",
    "description": "Alien_725219",
    "title": "Alien_725219",
    "link_img": "https://live.staticflickr.com/65535/50038726178_de8be8a59c_o.jpg",
    "id_image": "Alien_725219",
    "count_view": 0
  },
  {
    "link_thumb": "https://live.staticflickr.com/65535/50041427437_96371fdb94_n.jpg",
    "id_album": "-1863373220",
    "description": "StarWars_315718",
    "title": "StarWars_315718",
    "link_img": "https://live.staticflickr.com/65535/50041427437_a4e3ebb551_o.jpg",
    "id_image": "StarWars_315718",
    "count_view": 0
  },
  {
    "link_thumb": "https://live.staticflickr.com/65535/50040865568_4e1a0c5439_n.jpg",
    "id_album": "2020068132",
    "description": "Vehicle_905102",
    "title": "Vehicle_905102",
    "link_img": "https://live.staticflickr.com/65535/50040865568_33c46fca3f_o.jpg",
    "id_image": "Vehicle_905102",
    "count_view": 0
  },
  {
    "link_thumb": "https://live.staticflickr.com/65535/50039674967_7851c147a2_n.jpg",
    "id_album": "-1780971522",
    "description": "Biohazard_306971",
    "title": "Biohazard_306971",
    "link_img": "https://live.staticflickr.com/65535/50039674967_ba69541ed3_o.jpg",
    "id_image": "Biohazard_306971",
    "count_view": 0
  },
  {
    "link_thumb": "https://live.staticflickr.com/65535/50040829273_89316a3e19_n.jpg",
    "id_album": "2020068132",
    "description": "Vehicle_285211",
    "title": "Vehicle_285211",
    "link_img": "https://live.staticflickr.com/65535/50040829273_522bd7b837_o.jpg",
    "id_image": "Vehicle_285211",
    "count_view": 0
  },
  {
    "link_thumb": "https://live.staticflickr.com/65535/50040598751_841cf94f6c_n.jpg",
    "id_album": "2130067313",
    "description": "Spaceship_211057",
    "title": "Spaceship_211057",
    "link_img": "https://live.staticflickr.com/65535/50040598751_3e3e0d5bec_o.jpg",
    "id_image": "Spaceship_211057",
    "count_view": 0
  },
  {
    "link_thumb": "https://live.staticflickr.com/65535/50039859122_a4e80b556e_n.jpg",
    "id_album": "829169633",
    "description": "Cyborg_602355",
    "title": "Cyborg_602355",
    "link_img": "https://live.staticflickr.com/65535/50039859122_4465209aa5_o.jpg",
    "id_image": "Cyborg_602355",
    "count_view": 0
  },
  {
    "link_thumb": "https://live.staticflickr.com/65535/50039159053_b339d649f2_n.jpg",
    "id_album": "1402713104",
    "description": "Landscape_80660",
    "title": "Landscape_80660",
    "link_img": "https://live.staticflickr.com/65535/50039159053_3302981f3f_o.jpg",
    "id_image": "Landscape_80660",
    "count_view": 0
  },
  {
    "link_thumb": "https://live.staticflickr.com/65535/50039252231_528ba0524b_n.jpg",
    "id_album": "849020728",
    "description": "Alien_197560",
    "title": "Alien_197560",
    "link_img": "https://live.staticflickr.com/65535/50039252231_2dcdacacd6_o.jpg",
    "id_image": "Alien_197560",
    "count_view": 0
  },
  {
    "link_thumb": "https://live.staticflickr.com/65535/50039314311_8f0f2c6b3d_n.jpg",
    "id_album": "523598895",
    "description": "Artistic_210704",
    "title": "Artistic_210704",
    "link_img": "https://live.staticflickr.com/65535/50039314311_24685474ca_o.jpg",
    "id_image": "Artistic_210704",
    "count_view": 0
  },
  {
    "link_thumb": "https://live.staticflickr.com/65535/50040171917_75406aec22_n.jpg",
    "id_album": "395161030",
    "description": "Planet_167856",
    "title": "Planet_167856",
    "link_img": "https://live.staticflickr.com/65535/50040171917_30a8881d3a_o.jpg",
    "id_image": "Planet_167856",
    "count_view": 0
  },
  {
    "link_thumb": "https://live.staticflickr.com/65535/50041244146_531497f7d5_n.jpg",
    "id_album": "-1863373220",
    "description": "StarWars_942817",
    "title": "StarWars_942817",
    "link_img": "https://live.staticflickr.com/65535/50041244146_d01baed035_o.jpg",
    "id_image": "StarWars_942817",
    "count_view": 0
  },
  {
    "link_thumb": "https://live.staticflickr.com/65535/50039932193_8864912259_n.jpg",
    "id_album": "1613540653",
    "description": "Space_286946",
    "title": "Space_286946",
    "link_img": "https://live.staticflickr.com/65535/50039932193_e837491b76_o.jpg",
    "id_image": "Space_286946",
    "count_view": 0
  },
  {
    "link_thumb": "https://live.staticflickr.com/65535/50040982663_a6336c7c36_n.jpg",
    "id_album": "-1126835654",
    "description": "Women_564421",
    "title": "Women_564421",
    "link_img": "https://live.staticflickr.com/65535/50040982663_c7866b995e_o.jpg",
    "id_image": "Women_564421",
    "count_view": 0
  },
  {
    "link_thumb": "https://live.staticflickr.com/65535/50040116531_9e1cbcc7e5_n.jpg",
    "id_album": "-1102314093",
    "description": "Planets_440957",
    "title": "Planets_440957",
    "link_img": "https://live.staticflickr.com/65535/50040116531_305e5b309f_o.jpg",
    "id_image": "Planets_440957",
    "count_view": 0
  },
  {
    "link_thumb": "https://live.staticflickr.com/65535/50038744353_631b11466e_n.jpg",
    "id_album": "523598895",
    "description": "Artistic_105483",
    "title": "Artistic_105483",
    "link_img": "https://live.staticflickr.com/65535/50038744353_8344190c81_o.jpg",
    "id_image": "Artistic_105483",
    "count_view": 0
  },
  {
    "link_thumb": "https://live.staticflickr.com/65535/50039662092_f640483f96_n.jpg",
    "id_album": "1187037014",
    "description": "Battle_275553",
    "title": "Battle_275553",
    "link_img": "https://live.staticflickr.com/65535/50039662092_06e683d791_o.jpg",
    "id_image": "Battle_275553",
    "count_view": 0
  },
  {
    "link_thumb": "https://live.staticflickr.com/65535/50041754197_3969bb6de9_n.jpg",
    "id_album": "-1261420436",
    "description": "Warrior_877706",
    "title": "Warrior_877706",
    "link_img": "https://live.staticflickr.com/65535/50041754197_6d231afc99_o.jpg",
    "id_image": "Warrior_877706",
    "count_view": 0
  },
  {
    "link_thumb": "https://live.staticflickr.com/65535/50041706317_d0bb8dbe57_n.jpg",
    "id_album": "-1261420436",
    "description": "Warrior_283852",
    "title": "Warrior_283852",
    "link_img": "https://live.staticflickr.com/65535/50041706317_783af978b6_o.jpg",
    "id_image": "Warrior_283852",
    "count_view": 0
  },
  {
    "link_thumb": "https://live.staticflickr.com/65535/50041636037_ee3085ac2e_n.jpg",
    "id_album": "2020068132",
    "description": "Vehicle_161604",
    "title": "Vehicle_161604",
    "link_img": "https://live.staticflickr.com/65535/50041636037_f822fbe164_o.jpg",
    "id_image": "Vehicle_161604",
    "count_view": 0
  },
  {
    "link_thumb": "https://live.staticflickr.com/65535/50039680013_996d9bbb9a_n.jpg",
    "id_album": "-482547208",
    "description": "PostApocalyptic_948245",
    "title": "PostApocalyptic_948245",
    "link_img": "https://live.staticflickr.com/65535/50039680013_65f255246e_o.jpg",
    "id_image": "PostApocalyptic_948245",
    "count_view": 0
  },
  {
    "link_thumb": "https://live.staticflickr.com/65535/50038839448_af80f761ef_n.jpg",
    "id_album": "869545341",
    "description": "Astronaut_970134",
    "title": "Astronaut_970134",
    "link_img": "https://live.staticflickr.com/65535/50038839448_a68e8fed00_o.jpg",
    "id_image": "Astronaut_970134",
    "count_view": 0
  },
  {
    "link_thumb": "https://live.staticflickr.com/65535/50040720691_509776d421_n.jpg",
    "id_album": "2130067313",
    "description": "Spaceship_598169",
    "title": "Spaceship_598169",
    "link_img": "https://live.staticflickr.com/65535/50040720691_be1920aa26_o.jpg",
    "id_image": "Spaceship_598169",
    "count_view": 0
  },
  {
    "link_thumb": "https://live.staticflickr.com/65535/50039423831_ae6ba612f1_n.jpg",
    "id_album": "406431601",
    "description": "Building_827328",
    "title": "Building_827328",
    "link_img": "https://live.staticflickr.com/65535/50039423831_b7877522c3_o.jpg",
    "id_image": "Building_827328",
    "count_view": 0
  },
  {
    "link_thumb": "https://live.staticflickr.com/65535/50038679778_a54e0b8386_n.jpg",
    "id_album": "280884763",
    "description": "Abstract_129854",
    "title": "Abstract_129854",
    "link_img": "https://live.staticflickr.com/65535/50038679778_05b9b30949_o.jpg",
    "id_image": "Abstract_129854",
    "count_view": 0
  },
  {
    "link_thumb": "https://live.staticflickr.com/65535/50039790502_50548e0477_n.jpg",
    "id_album": "-1964113117",
    "description": "City_968741",
    "title": "City_968741",
    "link_img": "https://live.staticflickr.com/65535/50039790502_57b95a9c9a_o.jpg",
    "id_image": "City_968741",
    "count_view": 0
  },
  {
    "link_thumb": "https://live.staticflickr.com/65535/50038974248_2205819762_n.jpg",
    "id_album": "-1964113117",
    "description": "City_925920",
    "title": "City_925920",
    "link_img": "https://live.staticflickr.com/65535/50038974248_fa08f5fb82_o.jpg",
    "id_image": "City_925920",
    "count_view": 0
  },
  {
    "link_thumb": "https://live.staticflickr.com/65535/50040793692_d5f7c8a6da_n.jpg",
    "id_album": "1613540653",
    "description": "Space_694453",
    "title": "Space_694453",
    "link_img": "https://live.staticflickr.com/65535/50040793692_e74c8e60b0_o.jpg",
    "id_image": "Space_694453",
    "count_view": 0
  },
  {
    "link_thumb": "https://live.staticflickr.com/65535/50040408916_08f1c5070b_n.jpg",
    "id_album": "779690680",
    "description": "Robot_911878",
    "title": "Robot_911878",
    "link_img": "https://live.staticflickr.com/65535/50040408916_3924bc84be_o.jpg",
    "id_image": "Robot_911878",
    "count_view": 0
  },
  {
    "link_thumb": "https://live.staticflickr.com/65535/50038823588_547b890969_n.jpg",
    "id_album": "869545341",
    "description": "Astronaut_857741",
    "title": "Astronaut_857741",
    "link_img": "https://live.staticflickr.com/65535/50038823588_42592b09b1_o.jpg",
    "id_image": "Astronaut_857741",
    "count_view": 0
  },
  {
    "link_thumb": "https://live.staticflickr.com/65535/50039597113_53e3d488e8_n.jpg",
    "id_album": "-1102314093",
    "description": "Planets_957334",
    "title": "Planets_957334",
    "link_img": "https://live.staticflickr.com/65535/50039597113_97e63c58b2_o.jpg",
    "id_image": "Planets_957334",
    "count_view": 0
  },
  {
    "link_thumb": "https://live.staticflickr.com/65535/50039913732_eb4bb48072_n.jpg",
    "id_album": "1204249541",
    "description": "Galaxy_688325",
    "title": "Galaxy_688325",
    "link_img": "https://live.staticflickr.com/65535/50039913732_2b09a18ed7_o.jpg",
    "id_image": "Galaxy_688325",
    "count_view": 0
  },
  {
    "link_thumb": "https://live.staticflickr.com/65535/50039534122_c0604ca57b_n.jpg",
    "id_album": "849020728",
    "description": "Alien_609323",
    "title": "Alien_609323",
    "link_img": "https://live.staticflickr.com/65535/50039534122_137e5e1ede_o.jpg",
    "id_image": "Alien_609323",
    "count_view": 0
  },
  {
    "link_thumb": "https://live.staticflickr.com/65535/50039744212_299cfd8944_n.jpg",
    "id_album": "-1964113117",
    "description": "City_616579",
    "title": "City_616579",
    "link_img": "https://live.staticflickr.com/65535/50039744212_8caae0a7a8_o.jpg",
    "id_image": "City_616579",
    "count_view": 0
  },
  {
    "link_thumb": "https://live.staticflickr.com/65535/50039738083_624cf5294d_n.jpg",
    "id_album": "779690680",
    "description": "Robot_330550",
    "title": "Robot_330550",
    "link_img": "https://live.staticflickr.com/65535/50039738083_a710d2f1a1_o.jpg",
    "id_image": "Robot_330550",
    "count_view": 0
  },
  {
    "link_thumb": "https://live.staticflickr.com/65535/50041593306_28a5ce5d90_n.jpg",
    "id_album": "-1675918237",
    "description": "WomenWarrior_982765",
    "title": "WomenWarrior_982765",
    "link_img": "https://live.staticflickr.com/65535/50041593306_94b641de8e_o.jpg",
    "id_image": "WomenWarrior_982765",
    "count_view": 0
  },
  {
    "link_thumb": "https://live.staticflickr.com/65535/50039895387_f2628db708_n.jpg",
    "id_album": "1204249541",
    "description": "Galaxy_400642",
    "title": "Galaxy_400642",
    "link_img": "https://live.staticflickr.com/65535/50039895387_352f9a9aa0_o.jpg",
    "id_image": "Galaxy_400642",
    "count_view": 0
  },
  {
    "link_thumb": "https://live.staticflickr.com/65535/50038996693_2132cb67a1_n.jpg",
    "id_album": "894679094",
    "description": "Collision_956722",
    "title": "Collision_956722",
    "link_img": "https://live.staticflickr.com/65535/50038996693_bc0e78b175_o.jpg",
    "id_image": "Collision_956722",
    "count_view": 0
  },
  {
    "link_thumb": "https://live.staticflickr.com/65535/50039799902_abcc939dea_n.jpg",
    "id_album": "894679094",
    "description": "Collision_2867",
    "title": "Collision_2867",
    "link_img": "https://live.staticflickr.com/65535/50039799902_cff2464fa9_o.jpg",
    "id_image": "Collision_2867",
    "count_view": 0
  },
  {
    "link_thumb": "https://live.staticflickr.com/65535/50040015061_57813fd94a_n.jpg",
    "id_album": "1443611160",
    "description": "PlanetRise_79231",
    "title": "PlanetRise_79231",
    "link_img": "https://live.staticflickr.com/65535/50040015061_92d4cd086e_o.jpg",
    "id_image": "PlanetRise_79231",
    "count_view": 0
  },
  {
    "link_thumb": "https://live.staticflickr.com/65535/50039220793_f3c5264ff3_n.jpg",
    "id_album": "-1610342324",
    "description": "Nebula_212668",
    "title": "Nebula_212668",
    "link_img": "https://live.staticflickr.com/65535/50039220793_aee14a60dd_o.jpg",
    "id_image": "Nebula_212668",
    "count_view": 0
  },
  {
    "link_thumb": "https://live.staticflickr.com/65535/50039092848_f99cb4982e_n.jpg",
    "id_album": "1204249541",
    "description": "Galaxy_549912",
    "title": "Galaxy_549912",
    "link_img": "https://live.staticflickr.com/65535/50039092848_15749f4339_o.jpg",
    "id_image": "Galaxy_549912",
    "count_view": 0
  },
  {
    "link_thumb": "https://live.staticflickr.com/65535/50038996243_43568351de_n.jpg",
    "id_album": "894679094",
    "description": "Collision_925940",
    "title": "Collision_925940",
    "link_img": "https://live.staticflickr.com/65535/50038996243_b4e1f71b4e_o.jpg",
    "id_image": "Collision_925940",
    "count_view": 0
  },
  {
    "link_thumb": "https://live.staticflickr.com/65535/50038691448_9a163fd5fd_n.jpg",
    "id_album": "-406145265",
    "description": "Aircraft_341297",
    "title": "Aircraft_341297",
    "link_img": "https://live.staticflickr.com/65535/50038691448_5a33ac87e3_o.jpg",
    "id_image": "Aircraft_341297",
    "count_view": 0
  },
  {
    "link_thumb": "https://live.staticflickr.com/65535/50038857078_2fd7e1b2ca_n.jpg",
    "id_album": "1187037014",
    "description": "Battle_631688",
    "title": "Battle_631688",
    "link_img": "https://live.staticflickr.com/65535/50038857078_f3b5189e1b_o.jpg",
    "id_image": "Battle_631688",
    "count_view": 0
  },
  {
    "link_thumb": "https://live.staticflickr.com/65535/50041327351_21d2115a24_n.jpg",
    "id_album": "1267121215",
    "description": "Steampunk_703396",
    "title": "Steampunk_703396",
    "link_img": "https://live.staticflickr.com/65535/50041327351_323b197dee_o.jpg",
    "id_image": "Steampunk_703396",
    "count_view": 0
  },
  {
    "link_thumb": "https://live.staticflickr.com/65535/50039896482_18c26f40c5_n.jpg",
    "id_album": "1204249541",
    "description": "Galaxy_427590",
    "title": "Galaxy_427590",
    "link_img": "https://live.staticflickr.com/65535/50039896482_3cacfcbecc_o.jpg",
    "id_image": "Galaxy_427590",
    "count_view": 0
  },
  {
    "link_thumb": "https://live.staticflickr.com/65535/50039790642_dedacd3f9c_n.jpg",
    "id_album": "-1964113117",
    "description": "City_969714",
    "title": "City_969714",
    "link_img": "https://live.staticflickr.com/65535/50039790642_7ee4ce656c_o.jpg",
    "id_image": "City_969714",
    "count_view": 0
  },
  {
    "link_thumb": "https://live.staticflickr.com/65535/50040040542_1941e0d5b4_n.jpg",
    "id_album": "-1610342324",
    "description": "Nebula_252923",
    "title": "Nebula_252923",
    "link_img": "https://live.staticflickr.com/65535/50040040542_c29cf00e15_o.jpg",
    "id_image": "Nebula_252923",
    "count_view": 0
  },
  {
    "link_thumb": "https://live.staticflickr.com/65535/50039586312_0bb72b2888_n.jpg",
    "id_album": "523598895",
    "description": "Artistic_255969",
    "title": "Artistic_255969",
    "link_img": "https://live.staticflickr.com/65535/50039586312_f8071a1661_o.jpg",
    "id_image": "Artistic_255969",
    "count_view": 0
  },
  {
    "link_thumb": "https://live.staticflickr.com/65535/50041719902_cbb29a169e_n.jpg",
    "id_album": "-1261420436",
    "description": "Warrior_393645",
    "title": "Warrior_393645",
    "link_img": "https://live.staticflickr.com/65535/50041719902_78a94b522a_o.jpg",
    "id_image": "Warrior_393645",
    "count_view": 0
  },
  {
    "link_thumb": "https://live.staticflickr.com/65535/50040843238_bd078f3e9e_n.jpg",
    "id_album": "2020068132",
    "description": "Vehicle_410768",
    "title": "Vehicle_410768",
    "link_img": "https://live.staticflickr.com/65535/50040843238_5100bd0946_o.jpg",
    "id_image": "Vehicle_410768",
    "count_view": 0
  },
  {
    "link_thumb": "https://live.staticflickr.com/65535/50039752581_b10a63cba1_n.jpg",
    "id_album": "-1388385651",
    "description": "MilkyWay_928833",
    "title": "MilkyWay_928833",
    "link_img": "https://live.staticflickr.com/65535/50039752581_e611a49e0f_o.jpg",
    "id_image": "MilkyWay_928833",
    "count_view": 0
  },
  {
    "link_thumb": "https://live.staticflickr.com/65535/50040471897_f8282565eb_n.jpg",
    "id_album": "-482547208",
    "description": "PostApocalyptic_339128",
    "title": "PostApocalyptic_339128",
    "link_img": "https://live.staticflickr.com/65535/50040471897_a242d8f679_o.jpg",
    "id_image": "PostApocalyptic_339128",
    "count_view": 0
  },
  {
    "link_thumb": "https://live.staticflickr.com/65535/50039445756_bb6d3a724d_n.jpg",
    "id_album": "-1964113117",
    "description": "City_211072",
    "title": "City_211072",
    "link_img": "https://live.staticflickr.com/65535/50039445756_023e907ce7_o.jpg",
    "id_image": "City_211072",
    "count_view": 0
  },
  {
    "link_thumb": "https://live.staticflickr.com/65535/50038984213_821acf988e_n.jpg",
    "id_album": "-1964113117",
    "description": "City_987261",
    "title": "City_987261",
    "link_img": "https://live.staticflickr.com/65535/50038984213_db29edf7dc_o.jpg",
    "id_image": "City_987261",
    "count_view": 0
  },
  {
    "link_thumb": "https://live.staticflickr.com/65535/50039071633_44d1d631cf_n.jpg",
    "id_album": "2104507156",
    "description": "Fantasy_651323",
    "title": "Fantasy_651323",
    "link_img": "https://live.staticflickr.com/65535/50039071633_44e85c1f45_o.jpg",
    "id_image": "Fantasy_651323",
    "count_view": 0
  },
  {
    "link_thumb": "https://live.staticflickr.com/65535/50040062922_13859f8575_n.jpg",
    "id_album": "-1610342324",
    "description": "Nebula_45819",
    "title": "Nebula_45819",
    "link_img": "https://live.staticflickr.com/65535/50040062922_351788faca_o.jpg",
    "id_image": "Nebula_45819",
    "count_view": 0
  },
  {
    "link_thumb": "https://live.staticflickr.com/65535/50039507491_5fb27267c3_n.jpg",
    "id_album": "-1964113117",
    "description": "City_867429",
    "title": "City_867429",
    "link_img": "https://live.staticflickr.com/65535/50039507491_02d771f09b_o.jpg",
    "id_image": "City_867429",
    "count_view": 0
  },
  {
    "link_thumb": "https://live.staticflickr.com/65535/50040223023_fe23614ab4_n.jpg",
    "id_album": "2130067313",
    "description": "Spaceship_972165",
    "title": "Spaceship_972165",
    "link_img": "https://live.staticflickr.com/65535/50040223023_50830400fa_o.jpg",
    "id_image": "Spaceship_972165",
    "count_view": 0
  },
  {
    "link_thumb": "https://live.staticflickr.com/65535/50038699558_3841090b75_n.jpg",
    "id_album": "849020728",
    "description": "Alien_155208",
    "title": "Alien_155208",
    "link_img": "https://live.staticflickr.com/65535/50038699558_ebd22c481f_o.jpg",
    "id_image": "Alien_155208",
    "count_view": 0
  },
  {
    "link_thumb": "https://live.staticflickr.com/65535/50039728651_4d88852d50_n.jpg",
    "id_album": "1402713104",
    "description": "Landscape_972110",
    "title": "Landscape_972110",
    "link_img": "https://live.staticflickr.com/65535/50039728651_6ab694c831_o.jpg",
    "id_image": "Landscape_972110",
    "count_view": 0
  }
]