[
  {
    "link_thumb": "https://live.staticflickr.com/65535/50039600648_e429bea63e_n.jpg",
    "id_album": "-1102314093",
    "description": "Planets_957534",
    "title": "Planets_957534",
    "link_img": "https://live.staticflickr.com/65535/50039600648_f3aacfb1d0_o.jpg",
    "id_image": "Planets_957534",
    "count_view": 0
  },
  {
    "link_thumb": "https://live.staticflickr.com/65535/50039690756_f035c2ac55_n.jpg",
    "id_album": "1402713104",
    "description": "Landscape_505517",
    "title": "Landscape_505517",
    "link_img": "https://live.staticflickr.com/65535/50039690756_988595c684_o.jpg",
    "id_image": "Landscape_505517",
    "count_view": 0
  },
  {
    "link_thumb": "https://live.staticflickr.com/65535/50041171991_4f4e89cb3f_n.jpg",
    "id_album": "-1863373220",
    "description": "StarWars_379647",
    "title": "StarWars_379647",
    "link_img": "https://live.staticflickr.com/65535/50041171991_290820dcc6_o.jpg",
    "id_image": "StarWars_379647",
    "count_view": 0
  },
  {
    "link_thumb": "https://live.staticflickr.com/65535/50039499067_68c9594ef5_n.jpg",
    "id_album": "-406145265",
    "description": "Aircraft_327270",
    "title": "Aircraft_327270",
    "link_img": "https://live.staticflickr.com/65535/50039499067_33da993d2f_o.jpg",
    "id_image": "Aircraft_327270",
    "count_view": 0
  },
  {
    "link_thumb": "https://live.staticflickr.com/65535/50040047826_166414075c_n.jpg",
    "id_album": "-1102314093",
    "description": "Planets_11371",
    "title": "Planets_11371",
    "link_img": "https://live.staticflickr.com/65535/50040047826_ce6815279a_o.jpg",
    "id_image": "Planets_11371",
    "count_view": 0
  },
  {
    "link_thumb": "https://live.staticflickr.com/65535/50040466151_108a787aa8_n.jpg",
    "id_album": "1613540653",
    "description": "Space_121052",
    "title": "Space_121052",
    "link_img": "https://live.staticflickr.com/65535/50040466151_deabf30a8c_o.jpg",
    "id_image": "Space_121052",
    "count_view": 0
  },
  {
    "link_thumb": "https://live.staticflickr.com/65535/50039826861_f954a09eb6_n.jpg",
    "id_album": "-1610342324",
    "description": "Nebula_728536",
    "title": "Nebula_728536",
    "link_img": "https://live.staticflickr.com/65535/50039826861_b205b03db3_o.jpg",
    "id_image": "Nebula_728536",
    "count_view": 0
  },
  {
    "link_thumb": "https://live.staticflickr.com/65535/50039869392_11dafa62f8_n.jpg",
    "id_album": "651930207",
    "description": "Explosion_108113",
    "title": "Explosion_108113",
    "link_img": "https://live.staticflickr.com/65535/50039869392_32bb8a8c4a_o.jpg",
    "id_image": "Explosion_108113",
    "count_view": 0
  },
  {
    "link_thumb": "https://live.staticflickr.com/65535/50039837506_b04f773966_n.jpg",
    "id_album": "-1610342324",
    "description": "Nebula_792646",
    "title": "Nebula_792646",
    "link_img": "https://live.staticflickr.com/65535/50039837506_63d4131d9d_o.jpg",
    "id_image": "Nebula_792646",
    "count_view": 0
  },
  {
    "link_thumb": "https://live.staticflickr.com/65535/50040420487_826e1346f8_n.jpg",
    "id_album": "376235057",
    "description": "Planetscape_286873",
    "title": "Planetscape_286873",
    "link_img": "https://live.staticflickr.com/65535/50040420487_41851416ec_o.jpg",
    "id_image": "Planetscape_286873",
    "count_view": 0
  },
  {
    "link_thumb": "https://live.staticflickr.com/65535/50041457677_cf4fa487b8_n.jpg",
    "id_album": "-1863373220",
    "description": "StarWars_581222",
    "title": "StarWars_581222",
    "link_img": "https://live.staticflickr.com/65535/50041457677_246eabaeca_o.jpg",
    "id_image": "StarWars_581222",
    "count_view": 0
  },
  {
    "link_thumb": "https://live.staticflickr.com/65535/50040656482_b88b06ec3b_n.jpg",
    "id_album": "779690680",
    "description": "Robot_883165",
    "title": "Robot_883165",
    "link_img": "https://live.staticflickr.com/65535/50040656482_161b5b015b_o.jpg",
    "id_image": "Robot_883165",
    "count_view": 0
  },
  {
    "link_thumb": "https://live.staticflickr.com/65535/50039789021_62efb43dca_n.jpg",
    "id_album": "-1610342324",
    "description": "Nebula_376529",
    "title": "Nebula_376529",
    "link_img": "https://live.staticflickr.com/65535/50039789021_e5ff5b5ddf_o.jpg",
    "id_image": "Nebula_376529",
    "count_view": 0
  },
  {
    "link_thumb": "https://live.staticflickr.com/65535/50040802718_7bec3661a1_n.jpg",
    "id_album": "-1177476763",
    "description": "Sunrise_171464",
    "title": "Sunrise_171464",
    "link_img": "https://live.staticflickr.com/65535/50040802718_737de71b02_o.jpg",
    "id_image": "Sunrise_171464",
    "count_view": 0
  },
  {
    "link_thumb": "https://live.staticflickr.com/65535/50041391786_ce8c83050b_n.jpg",
    "id_album": "2020068132",
    "description": "Vehicle_343994",
    "title": "Vehicle_343994",
    "link_img": "https://live.staticflickr.com/65535/50041391786_f04c29c0b4_o.jpg",
    "id_image": "Vehicle_343994",
    "count_view": 0
  },
  {
    "link_thumb": "https://live.staticflickr.com/65535/50040105557_18ed79ac67_n.jpg",
    "id_album": "-1610342324",
    "description": "Nebula_825559",
    "title": "Nebula_825559",
    "link_img": "https://live.staticflickr.com/65535/50040105557_6c85c59395_o.jpg",
    "id_image": "Nebula_825559",
    "count_view": 0
  },
  {
    "link_thumb": "https://live.staticflickr.com/65535/50039083763_86e4851efa_n.jpg",
    "id_album": "1204249541",
    "description": "Galaxy_421600",
    "title": "Galaxy_421600",
    "link_img": "https://live.staticflickr.com/65535/50039083763_3d38f06d0a_o.jpg",
    "id_image": "Galaxy_421600",
    "count_view": 0
  },
  {
    "link_thumb": "https://live.staticflickr.com/65535/50039344236_9315a41515_n.jpg",
    "id_album": "523598895",
    "description": "Artistic_732814",
    "title": "Artistic_732814",
    "link_img": "https://live.staticflickr.com/65535/50039344236_89137c7bf0_o.jpg",
    "id_image": "Artistic_732814",
    "count_view": 0
  },
  {
    "link_thumb": "https://live.staticflickr.com/65535/50039554651_b9942970fe_n.jpg",
    "id_album": "-437872736",
    "description": "Creature_375609",
    "title": "Creature_375609",
    "link_img": "https://live.staticflickr.com/65535/50039554651_6281ca4442_o.jpg",
    "id_image": "Creature_375609",
    "count_view": 0
  },
  {
    "link_thumb": "https://live.staticflickr.com/65535/50039270908_c5035f0767_n.jpg",
    "id_album": "-1610342324",
    "description": "Nebula_66953",
    "title": "Nebula_66953",
    "link_img": "https://live.staticflickr.com/65535/50039270908_c7a58d43a8_o.jpg",
    "id_image": "Nebula_66953",
    "count_view": 0
  },
  {
    "link_thumb": "https://live.staticflickr.com/65535/50039580366_5588f45d7d_n.jpg",
    "id_album": "829169633",
    "description": "Cyborg_187721",
    "title": "Cyborg_187721",
    "link_img": "https://live.staticflickr.com/65535/50039580366_f812e1e118_o.jpg",
    "id_image": "Cyborg_187721",
    "count_view": 0
  },
  {
    "link_thumb": "https://live.staticflickr.com/65535/50039625263_993f79b79c_n.jpg",
    "id_album": "376235057",
    "description": "Planetscape_559145",
    "title": "Planetscape_559145",
    "link_img": "https://live.staticflickr.com/65535/50039625263_83c0774ed9_o.jpg",
    "id_image": "Planetscape_559145",
    "count_view": 0
  },
  {
    "link_thumb": "https://live.staticflickr.com/65535/50041153906_9006c0eaf3_n.jpg",
    "id_album": "-1863373220",
    "description": "StarWars_246181",
    "title": "StarWars_246181",
    "link_img": "https://live.staticflickr.com/65535/50041153906_ab6b9a5dbb_o.jpg",
    "id_image": "StarWars_246181",
    "count_view": 0
  },
  {
    "link_thumb": "https://live.staticflickr.com/65535/50039461011_e01bf1c217_n.jpg",
    "id_album": "-1964113117",
    "description": "City_301681",
    "title": "City_301681",
    "link_img": "https://live.staticflickr.com/65535/50039461011_a64ced3f84_o.jpg",
    "id_image": "City_301681",
    "count_view": 0
  },
  {
    "link_thumb": "https://live.staticflickr.com/65535/50040290611_16bcd724d2_n.jpg",
    "id_album": "779690680",
    "description": "Robot_328255",
    "title": "Robot_328255",
    "link_img": "https://live.staticflickr.com/65535/50040290611_45e3fc58a2_o.jpg",
    "id_image": "Robot_328255",
    "count_view": 0
  },
  {
    "link_thumb": "https://live.staticflickr.com/65535/50040440931_4745750198_n.jpg",
    "id_album": "779690680",
    "description": "Robot_949787",
    "title": "Robot_949787",
    "link_img": "https://live.staticflickr.com/65535/50040440931_540a47af11_o.jpg",
    "id_image": "Robot_949787",
    "count_view": 0
  },
  {
    "link_thumb": "https://live.staticflickr.com/65535/50039587961_3f355c2d5f_n.jpg",
    "id_album": "829169633",
    "description": "Cyborg_384607",
    "title": "Cyborg_384607",
    "link_img": "https://live.staticflickr.com/65535/50039587961_b05f35c376_o.jpg",
    "id_image": "Cyborg_384607",
    "count_view": 0
  },
  {
    "link_thumb": "https://live.staticflickr.com/65535/50039747612_1d8f2eb968_n.jpg",
    "id_album": "-1964113117",
    "description": "City_671368",
    "title": "City_671368",
    "link_img": "https://live.staticflickr.com/65535/50039747612_8a3372d712_o.jpg",
    "id_image": "City_671368",
    "count_view": 0
  },
  {
    "link_thumb": "https://live.staticflickr.com/65535/50041572327_7791a5c289_n.jpg",
    "id_album": "1267121215",
    "description": "Steampunk_264131",
    "title": "Steampunk_264131",
    "link_img": "https://live.staticflickr.com/65535/50041572327_b1f3491341_o.jpg",
    "id_image": "Steampunk_264131",
    "count_view": 0
  },
  {
    "link_thumb": "https://live.staticflickr.com/65535/50039978913_ff8811870b_n.jpg",
    "id_album": "1613540653",
    "description": "Space_729755",
    "title": "Space_729755",
    "link_img": "https://live.staticflickr.com/65535/50039978913_289c416232_o.jpg",
    "id_image": "Space_729755",
    "count_view": 0
  },
  {
    "link_thumb": "https://live.staticflickr.com/65535/50040143076_2727a224f2_n.jpg",
    "id_album": "-1102314093",
    "description": "Planets_867537",
    "title": "Planets_867537",
    "link_img": "https://live.staticflickr.com/65535/50040143076_f98210988b_o.jpg",
    "id_image": "Planets_867537",
    "count_view": 0
  },
  {
    "link_thumb": "https://live.staticflickr.com/65535/50039970022_51f08f1ac5_n.jpg",
    "id_album": "1402713104",
    "description": "Landscape_782626",
    "title": "Landscape_782626",
    "link_img": "https://live.staticflickr.com/65535/50039970022_ee5b71364e_o.jpg",
    "id_image": "Landscape_782626",
    "count_view": 0
  },
  {
    "link_thumb": "https://live.staticflickr.com/65535/50041035798_18360a4c94_n.jpg",
    "id_album": "-1675918237",
    "description": "WomenWarrior_894427",
    "title": "WomenWarrior_894427",
    "link_img": "https://live.staticflickr.com/65535/50041035798_eb11ea4fc6_o.jpg",
    "id_image": "WomenWarrior_894427",
    "count_view": 0
  },
  {
    "link_thumb": "https://live.staticflickr.com/65535/50040208736_360dafac14_n.jpg",
    "id_album": "-482547208",
    "description": "PostApocalyptic_366242",
    "title": "PostApocalyptic_366242",
    "link_img": "https://live.staticflickr.com/65535/50040208736_03545d8e92_o.jpg",
    "id_image": "PostApocalyptic_366242",
    "count_view": 0
  },
  {
    "link_thumb": "https://live.staticflickr.com/65535/50039778011_54e3b11dc3_n.jpg",
    "id_album": "-1610342324",
    "description": "Nebula_25553",
    "title": "Nebula_25553",
    "link_img": "https://live.staticflickr.com/65535/50039778011_cd041e0962_o.jpg",
    "id_image": "Nebula_25553",
    "count_view": 0
  },
  {
    "link_thumb": "https://live.staticflickr.com/65535/50039230073_a777031e74_n.jpg",
    "id_album": "-1610342324",
    "description": "Nebula_266463",
    "title": "Nebula_266463",
    "link_img": "https://live.staticflickr.com/65535/50039230073_46916cbffb_o.jpg",
    "id_image": "Nebula_266463",
    "count_view": 0
  },
  {
    "link_thumb": "https://live.staticflickr.com/65535/50040542826_5480a42669_n.jpg",
    "id_album": "1613540653",
    "description": "Space_822458",
    "title": "Space_822458",
    "link_img": "https://live.staticflickr.com/65535/50040542826_3e83e3b84d_o.jpg",
    "id_image": "Space_822458",
    "count_view": 0
  },
  {
    "link_thumb": "https://live.staticflickr.com/65535/50039950851_919666e7d3_n.jpg",
    "id_album": "395161030",
    "description": "Planet_463782",
    "title": "Planet_463782",
    "link_img": "https://live.staticflickr.com/65535/50039950851_e501d330c6_o.jpg",
    "id_image": "Planet_463782",
    "count_view": 0
  },
  {
    "link_thumb": "https://live.staticflickr.com/65535/50039885966_06e57e4170_n.jpg",
    "id_album": "-1862561193",
    "description": "Other_289726",
    "title": "Other_289726",
    "link_img": "https://live.staticflickr.com/65535/50039885966_724889f1d4_o.jpg",
    "id_image": "Other_289726",
    "count_view": 0
  },
  {
    "link_thumb": "https://live.staticflickr.com/65535/50039835533_138687a0f4_n.jpg",
    "id_album": "779690680",
    "description": "Robot_878310",
    "title": "Robot_878310",
    "link_img": "https://live.staticflickr.com/65535/50039835533_2eec7d484c_o.jpg",
    "id_image": "Robot_878310",
    "count_view": 0
  },
  {
    "link_thumb": "https://live.staticflickr.com/65535/50041657872_3d5837918c_n.jpg",
    "id_album": "2020068132",
    "description": "Vehicle_387251",
    "title": "Vehicle_387251",
    "link_img": "https://live.staticflickr.com/65535/50041657872_d3f1abebc8_o.jpg",
    "id_image": "Vehicle_387251",
    "count_view": 0
  },
  {
    "link_thumb": "https://live.staticflickr.com/65535/50039606661_db7fabc1ab_n.jpg",
    "id_album": "829169633",
    "description": "Cyborg_992042",
    "title": "Cyborg_992042",
    "link_img": "https://live.staticflickr.com/65535/50039606661_53968fc42f_o.jpg",
    "id_image": "Cyborg_992042",
    "count_view": 0
  },
  {
    "link_thumb": "https://live.staticflickr.com/65535/50039558572_001c6c0ab1_n.jpg",
    "id_album": "523598895",
    "description": "Artistic_151695",
    "title": "Artistic_151695",
    "link_img": "https://live.staticflickr.com/65535/50039558572_6bee2933de_o.jpg",
    "id_image": "Artistic_151695",
    "count_view": 0
  },
  {
    "link_thumb": "https://live.staticflickr.com/65535/50039299923_f921864955_n.jpg",
    "id_album": "-1610342324",
    "description": "Nebula_882498",
    "title": "Nebula_882498",
    "link_img": "https://live.staticflickr.com/65535/50039299923_b0eed2a3d7_o.jpg",
    "id_image": "Nebula_882498",
    "count_view": 0
  },
  {
    "link_thumb": "https://live.staticflickr.com/65535/50038884408_5d3d8e4f80_n.jpg",
    "id_album": "-1964113117",
    "description": "City_113812",
    "title": "City_113812",
    "link_img": "https://live.staticflickr.com/65535/50038884408_7bc8c8679a_o.jpg",
    "id_image": "City_113812",
    "count_view": 0
  },
  {
    "link_thumb": "https://live.staticflickr.com/65535/50039779547_3e004bce36_n.jpg",
    "id_album": "-1964113117",
    "description": "City_906131",
    "title": "City_906131",
    "link_img": "https://live.staticflickr.com/65535/50039779547_c2e3bbaf2b_o.jpg",
    "id_image": "City_906131",
    "count_view": 0
  },
  {
    "link_thumb": "https://live.staticflickr.com/65535/50039687722_bf96a1ddfb_n.jpg",
    "id_album": "406431601",
    "description": "Building_877121",
    "title": "Building_877121",
    "link_img": "https://live.staticflickr.com/65535/50039687722_ebe9e3bcf8_o.jpg",
    "id_image": "Building_877121",
    "count_view": 0
  },
  {
    "link_thumb": "https://live.staticflickr.com/65535/50040710741_9a5b9ea642_n.jpg",
    "id_album": "2130067313",
    "description": "Spaceship_532547",
    "title": "Spaceship_532547",
    "link_img": "https://live.staticflickr.com/65535/50040710741_a1ba32cc25_o.jpg",
    "id_image": "Spaceship_532547",
    "count_view": 0
  },
  {
    "link_thumb": "https://live.staticflickr.com/65535/50040863763_fb7e8a5d25_n.jpg",
    "id_album": "2020068132",
    "description": "Vehicle_879546",
    "title": "Vehicle_879546",
    "link_img": "https://live.staticflickr.com/65535/50040863763_86b7b69a0c_o.jpg",
    "id_image": "Vehicle_879546",
    "count_view": 0
  },
  {
    "link_thumb": "https://live.staticflickr.com/65535/50040157967_e89f00ac2d_n.jpg",
    "id_album": "1896531081",
    "description": "People_285695",
    "title": "People_285695",
    "link_img": "https://live.staticflickr.com/65535/50040157967_d598eab3da_o.jpg",
    "id_image": "People_285695",
    "count_view": 0
  },
  {
    "link_thumb": "https://live.staticflickr.com/65535/50039995402_e84a8eeff5_n.jpg",
    "id_album": "-1388385651",
    "description": "MilkyWay_528668",
    "title": "MilkyWay_528668",
    "link_img": "https://live.staticflickr.com/65535/50039995402_fd41a38416_o.jpg",
    "id_image": "MilkyWay_528668",
    "count_view": 0
  },
  {
    "link_thumb": "https://live.staticflickr.com/65535/50038894908_9904164de4_n.jpg",
    "id_album": "-1964113117",
    "description": "City_205954",
    "title": "City_205954",
    "link_img": "https://live.staticflickr.com/65535/50038894908_a3cafe46f1_o.jpg",
    "id_image": "City_205954",
    "count_view": 0
  },
  {
    "link_thumb": "https://live.staticflickr.com/65535/50039285238_a2b5615b45_n.jpg",
    "id_album": "-1610342324",
    "description": "Nebula_772694",
    "title": "Nebula_772694",
    "link_img": "https://live.staticflickr.com/65535/50039285238_0d8c071f4a_o.jpg",
    "id_image": "Nebula_772694",
    "count_view": 0
  },
  {
    "link_thumb": "https://live.staticflickr.com/65535/50038974398_6c4dee1c1c_n.jpg",
    "id_album": "-1964113117",
    "description": "City_926016",
    "title": "City_926016",
    "link_img": "https://live.staticflickr.com/65535/50038974398_ca64060bf2_o.jpg",
    "id_image": "City_926016",
    "count_view": 0
  },
  {
    "link_thumb": "https://live.staticflickr.com/65535/50039787856_cd07bc55b7_n.jpg",
    "id_album": "-1610342324",
    "description": "Nebula_366886",
    "title": "Nebula_366886",
    "link_img": "https://live.staticflickr.com/65535/50039787856_37a5774baa_o.jpg",
    "id_image": "Nebula_366886",
    "count_view": 0
  },
  {
    "link_thumb": "https://live.staticflickr.com/65535/50039215803_b11b97cb43_n.jpg",
    "id_album": "-1610342324",
    "description": "Nebula_179728",
    "title": "Nebula_179728",
    "link_img": "https://live.staticflickr.com/65535/50039215803_d72b44db82_o.jpg",
    "id_image": "Nebula_179728",
    "count_view": 0
  },
  {
    "link_thumb": "https://live.staticflickr.com/65535/50039701372_e9878ddb9d_n.jpg",
    "id_album": "-1964113117",
    "description": "City_166533",
    "title": "City_166533",
    "link_img": "https://live.staticflickr.com/65535/50039701372_73ed006f4a_o.jpg",
    "id_image": "City_166533",
    "count_view": 0
  },
  {
    "link_thumb": "https://live.staticflickr.com/65535/50038911668_d1f8d28102_n.jpg",
    "id_album": "-1964113117",
    "description": "City_297913",
    "title": "City_297913",
    "link_img": "https://live.staticflickr.com/65535/50038911668_a1f12360f3_o.jpg",
    "id_image": "City_297913",
    "count_view": 0
  },
  {
    "link_thumb": "https://live.staticflickr.com/65535/50038687113_dd31670346_n.jpg",
    "id_album": "-406145265",
    "description": "Aircraft_150249",
    "title": "Aircraft_150249",
    "link_img": "https://live.staticflickr.com/65535/50038687113_413021c4b2_o.jpg",
    "id_image": "Aircraft_150249",
    "count_view": 0
  },
  {
    "link_thumb": "https://live.staticflickr.com/65535/50041466112_4a7077b052_n.jpg",
    "id_album": "-1863373220",
    "description": "StarWars_642168",
    "title": "StarWars_642168",
    "link_img": "https://live.staticflickr.com/65535/50041466112_94d6ce4a67_o.jpg",
    "id_image": "StarWars_642168",
    "count_view": 0
  },
  {
    "link_thumb": "https://live.staticflickr.com/65535/50039257521_67f710c445_n.jpg",
    "id_album": "849020728",
    "description": "Alien_276236",
    "title": "Alien_276236",
    "link_img": "https://live.staticflickr.com/65535/50039257521_2562d9454e_o.jpg",
    "id_image": "Alien_276236",
    "count_view": 0
  },
  {
    "link_thumb": "https://live.staticflickr.com/65535/50039006903_d12e58519c_n.jpg",
    "id_album": "-437872736",
    "description": "Creature_387851",
    "title": "Creature_387851",
    "link_img": "https://live.staticflickr.com/65535/50039006903_1e00b5046a_o.jpg",
    "id_image": "Creature_387851",
    "count_view": 0
  },
  {
    "link_thumb": "https://live.staticflickr.com/65535/50039859122_a4e80b556e_n.jpg",
    "id_album": "829169633",
    "description": "Cyborg_602355",
    "title": "Cyborg_602355",
    "link_img": "https://live.staticflickr.com/65535/50039859122_4465209aa5_o.jpg",
    "id_image": "Cyborg_602355",
    "count_view": 0
  },
  {
    "link_thumb": "https://live.staticflickr.com/65535/50039772998_64e2eaa24c_n.jpg",
    "id_album": "779690680",
    "description": "Robot_497238",
    "title": "Robot_497238",
    "link_img": "https://live.staticflickr.com/65535/50039772998_ff1b156713_o.jpg",
    "id_image": "Robot_497238",
    "count_view": 0
  },
  {
    "link_thumb": "https://live.staticflickr.com/65535/50041042782_050c4dfd96_n.jpg",
    "id_album": "2130067313",
    "description": "Spaceship_972713",
    "title": "Spaceship_972713",
    "link_img": "https://live.staticflickr.com/65535/50041042782_512dc17e78_o.jpg",
    "id_image": "Spaceship_972713",
    "count_view": 0
  },
  {
    "link_thumb": "https://live.staticflickr.com/65535/50039855492_f8cc35f7ef_n.jpg",
    "id_album": "829169633",
    "description": "Cyborg_547371",
    "title": "Cyborg_547371",
    "link_img": "https://live.staticflickr.com/65535/50039855492_dc958a0396_o.jpg",
    "id_image": "Cyborg_547371",
    "count_view": 0
  },
  {
    "link_thumb": "https://live.staticflickr.com/65535/50040178883_0693de2f47_n.jpg",
    "id_album": "2130067313",
    "description": "Spaceship_676807",
    "title": "Spaceship_676807",
    "link_img": "https://live.staticflickr.com/65535/50040178883_eb6c9a9001_o.jpg",
    "id_image": "Spaceship_676807",
    "count_view": 0
  },
  {
    "link_thumb": "https://live.staticflickr.com/65535/50039066248_9b216a22e5_n.jpg",
    "id_album": "2104507156",
    "description": "Fantasy_155966",
    "title": "Fantasy_155966",
    "link_img": "https://live.staticflickr.com/65535/50039066248_b1969a5d83_o.jpg",
    "id_image": "Fantasy_155966",
    "count_view": 0
  },
  {
    "link_thumb": "https://live.staticflickr.com/65535/50039777501_8c1ec506f1_n.jpg",
    "id_album": "-1610342324",
    "description": "Nebula_2541",
    "title": "Nebula_2541",
    "link_img": "https://live.staticflickr.com/65535/50039777501_e1218d1ef7_o.jpg",
    "id_image": "Nebula_2541",
    "count_view": 0
  },
  {
    "link_thumb": "https://live.staticflickr.com/65535/50039098758_880fb546a2_n.jpg",
    "id_album": "1204249541",
    "description": "Galaxy_606742",
    "title": "Galaxy_606742",
    "link_img": "https://live.staticflickr.com/65535/50039098758_620bc386f9_o.jpg",
    "id_image": "Galaxy_606742",
    "count_view": 0
  },
  {
    "link_thumb": "https://live.staticflickr.com/65535/50039148758_841122936a_n.jpg",
    "id_album": "1402713104",
    "description": "Landscape_650217",
    "title": "Landscape_650217",
    "link_img": "https://live.staticflickr.com/65535/50039148758_bd45c469a1_o.jpg",
    "id_image": "Landscape_650217",
    "count_view": 0
  },
  {
    "link_thumb": "https://live.staticflickr.com/65535/50040228612_b498e543b0_n.jpg",
    "id_album": "395161030",
    "description": "Planet_559239",
    "title": "Planet_559239",
    "link_img": "https://live.staticflickr.com/65535/50040228612_ffe392c565_o.jpg",
    "id_image": "Planet_559239",
    "count_view": 0
  },
  {
    "link_thumb": "https://live.staticflickr.com/65535/50039553937_014fe9c47c_n.jpg",
    "id_album": "523598895",
    "description": "Artistic_106052",
    "title": "Artistic_106052",
    "link_img": "https://live.staticflickr.com/65535/50039553937_d699180bd4_o.jpg",
    "id_image": "Artistic_106052",
    "count_view": 0
  },
  {
    "link_thumb": "https://live.staticflickr.com/65535/50039940481_773f889fb2_n.jpg",
    "id_album": "395161030",
    "description": "Planet_375800",
    "title": "Planet_375800",
    "link_img": "https://live.staticflickr.com/65535/50039940481_4deb144a83_o.jpg",
    "id_image": "Planet_375800",
    "count_view": 0
  },
  {
    "link_thumb": "https://live.staticflickr.com/65535/50038694123_3f80107f92_n.jpg",
    "id_album": "-406145265",
    "description": "Aircraft_66799",
    "title": "Aircraft_66799",
    "link_img": "https://live.staticflickr.com/65535/50038694123_06a3f0a529_o.jpg",
    "id_image": "Aircraft_66799",
    "count_view": 0
  },
  {
    "link_thumb": "https://live.staticflickr.com/65535/50039283681_e86d7114dd_n.jpg",
    "id_album": "-419633230",
    "description": "Apocalyptic_363783",
    "title": "Apocalyptic_363783",
    "link_img": "https://live.staticflickr.com/65535/50039283681_2a9a2cc84d_o.jpg",
    "id_image": "Apocalyptic_363783",
    "count_view": 0
  },
  {
    "link_thumb": "https://live.staticflickr.com/65535/50040471897_f8282565eb_n.jpg",
    "id_album": "-482547208",
    "description": "PostApocalyptic_339128",
    "title": "PostApocalyptic_339128",
    "link_img": "https://live.staticflickr.com/65535/50040471897_a242d8f679_o.jpg",
    "id_image": "PostApocalyptic_339128",
    "count_view": 0
  },
  {
    "link_thumb": "https://live.staticflickr.com/65535/50039703168_05333d16ba_n.jpg",
    "id_album": "779690680",
    "description": "Robot_153445",
    "title": "Robot_153445",
    "link_img": "https://live.staticflickr.com/65535/50039703168_1a309fcf98_o.jpg",
    "id_image": "Robot_153445",
    "count_view": 0
  },
  {
    "link_thumb": "https://live.staticflickr.com/65535/50039582173_2677ac82e3_n.jpg",
    "id_album": "-1102314093",
    "description": "Planets_75971",
    "title": "Planets_75971",
    "link_img": "https://live.staticflickr.com/65535/50039582173_cff3ec1831_o.jpg",
    "id_image": "Planets_75971",
    "count_view": 0
  },
  {
    "link_thumb": "https://live.staticflickr.com/65535/50040554947_05015d646b_n.jpg",
    "id_album": "779690680",
    "description": "Robot_328761",
    "title": "Robot_328761",
    "link_img": "https://live.staticflickr.com/65535/50040554947_54505e737b_o.jpg",
    "id_image": "Robot_328761",
    "count_view": 0
  },
  {
    "link_thumb": "https://live.staticflickr.com/65535/50039269753_92549a5e53_n.jpg",
    "id_album": "-1610342324",
    "description": "Nebula_644456",
    "title": "Nebula_644456",
    "link_img": "https://live.staticflickr.com/65535/50039269753_12e78becf1_o.jpg",
    "id_image": "Nebula_644456",
    "count_view": 0
  },
  {
    "link_thumb": "https://live.staticflickr.com/65535/50039924052_5d956c96e7_n.jpg",
    "id_album": "1402713104",
    "description": "Landscape_145400",
    "title": "Landscape_145400",
    "link_img": "https://live.staticflickr.com/65535/50039924052_33c211b49d_o.jpg",
    "id_image": "Landscape_145400",
    "count_view": 0
  },
  {
    "link_thumb": "https://live.staticflickr.com/65535/50038993988_3ca0653db4_n.jpg",
    "id_album": "894679094",
    "description": "Collision_669906",
    "title": "Collision_669906",
    "link_img": "https://live.staticflickr.com/65535/50038993988_2132aa18f1_o.jpg",
    "id_image": "Collision_669906",
    "count_view": 0
  },
  {
    "link_thumb": "https://live.staticflickr.com/65535/50039962217_14d889ae0d_n.jpg",
    "id_album": "1402713104",
    "description": "Landscape_675208",
    "title": "Landscape_675208",
    "link_img": "https://live.staticflickr.com/65535/50039962217_91f56a1c05_o.jpg",
    "id_image": "Landscape_675208",
    "count_view": 0
  },
  {
    "link_thumb": "https://live.staticflickr.com/65535/50040859583_d442ff6e1f_n.jpg",
    "id_album": "2020068132",
    "description": "Vehicle_714774",
    "title": "Vehicle_714774",
    "link_img": "https://live.staticflickr.com/65535/50040859583_b0177ce5d8_o.jpg",
    "id_image": "Vehicle_714774",
    "count_view": 0
  },
  {
    "link_thumb": "https://live.staticflickr.com/65535/50039767126_16c740e46c_n.jpg",
    "id_album": "-1610342324",
    "description": "Nebula_195802",
    "title": "Nebula_195802",
    "link_img": "https://live.staticflickr.com/65535/50039767126_2af15ac996_o.jpg",
    "id_image": "Nebula_195802",
    "count_view": 0
  },
  {
    "link_thumb": "https://live.staticflickr.com/65535/50040057617_c1c34d0aaf_n.jpg",
    "id_album": "-1610342324",
    "description": "Nebula_414621",
    "title": "Nebula_414621",
    "link_img": "https://live.staticflickr.com/65535/50040057617_9024850e5a_o.jpg",
    "id_image": "Nebula_414621",
    "count_view": 0
  },
  {
    "link_thumb": "https://live.staticflickr.com/65535/50039768432_a34fac2911_n.jpg",
    "id_album": "-1964113117",
    "description": "City_864522",
    "title": "City_864522",
    "link_img": "https://live.staticflickr.com/65535/50039768432_defdd3d8d3_o.jpg",
    "id_image": "City_864522",
    "count_view": 0
  },
  {
    "link_thumb": "https://live.staticflickr.com/65535/50038765513_a9c931dc5b_n.jpg",
    "id_album": "523598895",
    "description": "Artistic_208687",
    "title": "Artistic_208687",
    "link_img": "https://live.staticflickr.com/65535/50038765513_6037e79158_o.jpg",
    "id_image": "Artistic_208687",
    "count_view": 0
  },
  {
    "link_thumb": "https://live.staticflickr.com/65535/50039296371_9b89032ea1_n.jpg",
    "id_album": "523598895",
    "description": "Artistic_150991",
    "title": "Artistic_150991",
    "link_img": "https://live.staticflickr.com/65535/50039296371_f8bca3decd_o.jpg",
    "id_image": "Artistic_150991",
    "count_view": 0
  },
  {
    "link_thumb": "https://live.staticflickr.com/65535/50039352521_3ccbdb6d04_n.jpg",
    "id_album": "869545341",
    "description": "Astronaut_256917",
    "title": "Astronaut_256917",
    "link_img": "https://live.staticflickr.com/65535/50039352521_15efe8f093_o.jpg",
    "id_image": "Astronaut_256917",
    "count_view": 0
  },
  {
    "link_thumb": "https://live.staticflickr.com/65535/50039515686_b9261d340d_n.jpg",
    "id_album": "-1964113117",
    "description": "City_898623",
    "title": "City_898623",
    "link_img": "https://live.staticflickr.com/65535/50039515686_dbfaaef92b_o.jpg",
    "id_image": "City_898623",
    "count_view": 0
  },
  {
    "link_thumb": "https://live.staticflickr.com/65535/50040442831_57368eaf1f_n.jpg",
    "id_album": "779690680",
    "description": "Robot_949798",
    "title": "Robot_949798",
    "link_img": "https://live.staticflickr.com/65535/50040442831_1ce6a73244_o.jpg",
    "id_image": "Robot_949798",
    "count_view": 0
  },
  {
    "link_thumb": "https://live.staticflickr.com/65535/50038839168_b76ac3e5ea_n.jpg",
    "id_album": "869545341",
    "description": "Astronaut_969760",
    "title": "Astronaut_969760",
    "link_img": "https://live.staticflickr.com/65535/50038839168_9e51f392b3_o.jpg",
    "id_image": "Astronaut_969760",
    "count_view": 0
  },
  {
    "link_thumb": "https://live.staticflickr.com/65535/50039374816_8263a09e7b_n.jpg",
    "id_album": "869545341",
    "description": "Astronaut_870387",
    "title": "Astronaut_870387",
    "link_img": "https://live.staticflickr.com/65535/50039374816_0c1dd51d14_o.jpg",
    "id_image": "Astronaut_870387",
    "count_view": 0
  },
  {
    "link_thumb": "https://live.staticflickr.com/65535/50039445756_bb6d3a724d_n.jpg",
    "id_album": "-1964113117",
    "description": "City_211072",
    "title": "City_211072",
    "link_img": "https://live.staticflickr.com/65535/50039445756_023e907ce7_o.jpg",
    "id_image": "City_211072",
    "count_view": 0
  },
  {
    "link_thumb": "https://live.staticflickr.com/65535/50039597633_6324214c0f_n.jpg",
    "id_album": "-1102314093",
    "description": "Planets_957377",
    "title": "Planets_957377",
    "link_img": "https://live.staticflickr.com/65535/50039597633_2493201f0e_o.jpg",
    "id_image": "Planets_957377",
    "count_view": 0
  },
  {
    "link_thumb": "https://live.staticflickr.com/65535/50040409786_1014698c6f_n.jpg",
    "id_album": "779690680",
    "description": "Robot_913016",
    "title": "Robot_913016",
    "link_img": "https://live.staticflickr.com/65535/50040409786_052a050818_o.jpg",
    "id_image": "Robot_913016",
    "count_view": 0
  },
  {
    "link_thumb": "https://live.staticflickr.com/65535/50038786063_0d6727158c_n.jpg",
    "id_album": "523598895",
    "description": "Artistic_401760",
    "title": "Artistic_401760",
    "link_img": "https://live.staticflickr.com/65535/50038786063_905765e937_o.jpg",
    "id_image": "Artistic_401760",
    "count_view": 0
  },
  {
    "link_thumb": "https://live.staticflickr.com/65535/50039603208_cc0c285278_n.jpg",
    "id_album": "376235057",
    "description": "Planetscape_261187",
    "title": "Planetscape_261187",
    "link_img": "https://live.staticflickr.com/65535/50039603208_f61873a757_o.jpg",
    "id_image": "Planetscape_261187",
    "count_view": 0
  },
  {
    "link_thumb": "https://live.staticflickr.com/65535/50040567862_788db4a0a3_n.jpg",
    "id_album": "779690680",
    "description": "Robot_404833",
    "title": "Robot_404833",
    "link_img": "https://live.staticflickr.com/65535/50040567862_cd0de7e33b_o.jpg",
    "id_image": "Robot_404833",
    "count_view": 0
  },
  {
    "link_thumb": "https://live.staticflickr.com/65535/50039921052_2acecd1b82_n.jpg",
    "id_album": "1204249541",
    "description": "Galaxy_996255",
    "title": "Galaxy_996255",
    "link_img": "https://live.staticflickr.com/65535/50039921052_a0b3f83fca_o.jpg",
    "id_image": "Galaxy_996255",
    "count_view": 0
  },
  {
    "link_thumb": "https://live.staticflickr.com/65535/50040752923_368539a5c1_n.jpg",
    "id_album": "1267121215",
    "description": "Steampunk_239583",
    "title": "Steampunk_239583",
    "link_img": "https://live.staticflickr.com/65535/50040752923_ae1e384daf_o.jpg",
    "id_image": "Steampunk_239583",
    "count_view": 0
  },
  {
    "link_thumb": "https://live.staticflickr.com/65535/50039924581_41bc2572cf_n.jpg",
    "id_album": "395161030",
    "description": "Planet_287058",
    "title": "Planet_287058",
    "link_img": "https://live.staticflickr.com/65535/50039924581_17281bf4b6_o.jpg",
    "id_image": "Planet_287058",
    "count_view": 0
  },
  {
    "link_thumb": "https://live.staticflickr.com/65535/50040087357_9d3438747f_n.jpg",
    "id_album": "-1610342324",
    "description": "Nebula_702855",
    "title": "Nebula_702855",
    "link_img": "https://live.staticflickr.com/65535/50040087357_087383030c_o.jpg",
    "id_image": "Nebula_702855",
    "count_view": 0
  },
  {
    "link_thumb": "https://live.staticflickr.com/65535/50039593766_84cf2523a8_n.jpg",
    "id_album": "829169633",
    "description": "Cyborg_562807",
    "title": "Cyborg_562807",
    "link_img": "https://live.staticflickr.com/65535/50039593766_ca74a634ed_o.jpg",
    "id_image": "Cyborg_562807",
    "count_view": 0
  },
  {
    "link_thumb": "https://live.staticflickr.com/65535/50040064107_7f96478a5f_n.jpg",
    "id_album": "-1610342324",
    "description": "Nebula_500525",
    "title": "Nebula_500525",
    "link_img": "https://live.staticflickr.com/65535/50040064107_191af60e5e_o.jpg",
    "id_image": "Nebula_500525",
    "count_view": 0
  },
  {
    "link_thumb": "https://live.staticflickr.com/65535/50040258466_a1d8e9e913_n.jpg",
    "id_album": "779690680",
    "description": "Robot_179713",
    "title": "Robot_179713",
    "link_img": "https://live.staticflickr.com/65535/50040258466_c6c0f091b7_o.jpg",
    "id_image": "Robot_179713",
    "count_view": 0
  },
  {
    "link_thumb": "https://live.staticflickr.com/65535/50039552067_069bb29163_n.jpg",
    "id_album": "-419633230",
    "description": "Apocalyptic_957532",
    "title": "Apocalyptic_957532",
    "link_img": "https://live.staticflickr.com/65535/50039552067_df90acfd75_o.jpg",
    "id_image": "Apocalyptic_957532",
    "count_view": 0
  },
  {
    "link_thumb": "https://live.staticflickr.com/65535/50040517567_93b0356ae2_n.jpg",
    "id_album": "779690680",
    "description": "Robot_116309",
    "title": "Robot_116309",
    "link_img": "https://live.staticflickr.com/65535/50040517567_0816b977a4_o.jpg",
    "id_image": "Robot_116309",
    "count_view": 0
  },
  {
    "link_thumb": "https://live.staticflickr.com/65535/50039418781_a7783ffa8a_n.jpg",
    "id_album": "-1780971522",
    "description": "Biohazard_577354",
    "title": "Biohazard_577354",
    "link_img": "https://live.staticflickr.com/65535/50039418781_cff20f2b17_o.jpg",
    "id_image": "Biohazard_577354",
    "count_view": 0
  },
  {
    "link_thumb": "https://live.staticflickr.com/65535/50039490912_d7f5816a69_n.jpg",
    "id_album": "280884763",
    "description": "Abstract_229319",
    "title": "Abstract_229319",
    "link_img": "https://live.staticflickr.com/65535/50039490912_54dcd18721_o.jpg",
    "id_image": "Abstract_229319",
    "count_view": 0
  },
  {
    "link_thumb": "https://live.staticflickr.com/65535/50041360771_2fcd110c6c_n.jpg",
    "id_album": "-1177476763",
    "description": "Sunrise_328902",
    "title": "Sunrise_328902",
    "link_img": "https://live.staticflickr.com/65535/50041360771_ab27eb2004_o.jpg",
    "id_image": "Sunrise_328902",
    "count_view": 0
  },
  {
    "link_thumb": "https://live.staticflickr.com/65535/50041312251_28bb2ddf90_n.jpg",
    "id_album": "1267121215",
    "description": "Steampunk_299926",
    "title": "Steampunk_299926",
    "link_img": "https://live.staticflickr.com/65535/50041312251_dcd7a7bc35_o.jpg",
    "id_image": "Steampunk_299926",
    "count_view": 0
  },
  {
    "link_thumb": "https://live.staticflickr.com/65535/50038812548_0bc4ea5655_n.jpg",
    "id_album": "869545341",
    "description": "Astronaut_602157",
    "title": "Astronaut_602157",
    "link_img": "https://live.staticflickr.com/65535/50038812548_e353cb0c45_o.jpg",
    "id_image": "Astronaut_602157",
    "count_view": 0
  },
  {
    "link_thumb": "https://live.staticflickr.com/65535/50040689237_95d38d605a_n.jpg",
    "id_album": "779690680",
    "description": "Robot_928637",
    "title": "Robot_928637",
    "link_img": "https://live.staticflickr.com/65535/50040689237_5548c8ea02_o.jpg",
    "id_image": "Robot_928637",
    "count_view": 0
  },
  {
    "link_thumb": "https://live.staticflickr.com/65535/50039774087_6f2d66117d_n.jpg",
    "id_album": "-1964113117",
    "description": "City_883152",
    "title": "City_883152",
    "link_img": "https://live.staticflickr.com/65535/50039774087_7c905d4156_o.jpg",
    "id_image": "City_883152",
    "count_view": 0
  },
  {
    "link_thumb": "https://live.staticflickr.com/65535/50038925988_942379008a_n.jpg",
    "id_album": "-1964113117",
    "description": "City_522777",
    "title": "City_522777",
    "link_img": "https://live.staticflickr.com/65535/50038925988_745a2570e2_o.jpg",
    "id_image": "City_522777",
    "count_view": 0
  },
  {
    "link_thumb": "https://live.staticflickr.com/65535/50040885157_35e7da5de9_n.jpg",
    "id_album": "2130067313",
    "description": "Spaceship_280011",
    "title": "Spaceship_280011",
    "link_img": "https://live.staticflickr.com/65535/50040885157_218684762d_o.jpg",
    "id_image": "Spaceship_280011",
    "count_view": 0
  },
  {
    "link_thumb": "https://live.staticflickr.com/65535/50040166562_3d64daaac9_n.jpg",
    "id_album": "395161030",
    "description": "Planet_1011269",
    "title": "Planet_1011269",
    "link_img": "https://live.staticflickr.com/65535/50040166562_64cb5f1b88_o.jpg",
    "id_image": "Planet_1011269",
    "count_view": 0
  },
  {
    "link_thumb": "https://live.staticflickr.com/65535/50039647052_f24f5e12e1_n.jpg",
    "id_album": "869545341",
    "description": "Astronaut_957375",
    "title": "Astronaut_957375",
    "link_img": "https://live.staticflickr.com/65535/50039647052_1bb0945f14_o.jpg",
    "id_image": "Astronaut_957375",
    "count_view": 0
  },
  {
    "link_thumb": "https://live.staticflickr.com/65535/50041217966_01dd46151b_n.jpg",
    "id_album": "-1863373220",
    "description": "StarWars_711088",
    "title": "StarWars_711088",
    "link_img": "https://live.staticflickr.com/65535/50041217966_10b209133b_o.jpg",
    "id_image": "StarWars_711088",
    "count_view": 0
  },
  {
    "link_thumb": "https://live.staticflickr.com/65535/50038987518_2a665c4755_n.jpg",
    "id_album": "894679094",
    "description": "Collision_13253",
    "title": "Collision_13253",
    "link_img": "https://live.staticflickr.com/65535/50038987518_3f981130ae_o.jpg",
    "id_image": "Collision_13253",
    "count_view": 0
  },
  {
    "link_thumb": "https://live.staticflickr.com/65535/50039355338_cb43afdc57_n.jpg",
    "id_album": "395161030",
    "description": "Planet_129689",
    "title": "Planet_129689",
    "link_img": "https://live.staticflickr.com/65535/50039355338_3b207e4c69_o.jpg",
    "id_image": "Planet_129689",
    "count_view": 0
  },
  {
    "link_thumb": "https://live.staticflickr.com/65535/50039583331_06522fb2f4_n.jpg",
    "id_album": "829169633",
    "description": "Cyborg_265063",
    "title": "Cyborg_265063",
    "link_img": "https://live.staticflickr.com/65535/50039583331_bea7fb02ed_o.jpg",
    "id_image": "Cyborg_265063",
    "count_view": 0
  },
  {
    "link_thumb": "https://live.staticflickr.com/65535/50039236163_e868ef5301_n.jpg",
    "id_album": "-1610342324",
    "description": "Nebula_309974",
    "title": "Nebula_309974",
    "link_img": "https://live.staticflickr.com/65535/50039236163_7088d3cede_o.jpg",
    "id_image": "Nebula_309974",
    "count_view": 0
  },
  {
    "link_thumb": "https://live.staticflickr.com/65535/50038988118_a06088e567_n.jpg",
    "id_album": "894679094",
    "description": "Collision_154805",
    "title": "Collision_154805",
    "link_img": "https://live.staticflickr.com/65535/50038988118_57e508dec9_o.jpg",
    "id_image": "Collision_154805",
    "count_view": 0
  },
  {
    "link_thumb": "https://live.staticflickr.com/65535/50039916463_2aa1e99a1c_n.jpg",
    "id_album": "1613540653",
    "description": "Space_167492",
    "title": "Space_167492",
    "link_img": "https://live.staticflickr.com/65535/50039916463_e555283725_o.jpg",
    "id_image": "Space_167492",
    "count_view": 0
  },
  {
    "link_thumb": "https://live.staticflickr.com/65535/50039732931_34ab32f9dc_n.jpg",
    "id_album": "-1388385651",
    "description": "MilkyWay_555448",
    "title": "MilkyWay_555448",
    "link_img": "https://live.staticflickr.com/65535/50039732931_9b03219476_o.jpg",
    "id_image": "MilkyWay_555448",
    "count_view": 0
  },
  {
    "link_thumb": "https://live.staticflickr.com/65535/50039364271_629c2c0a5a_n.jpg",
    "id_album": "869545341",
    "description": "Astronaut_712150",
    "title": "Astronaut_712150",
    "link_img": "https://live.staticflickr.com/65535/50039364271_48bff2895a_o.jpg",
    "id_image": "Astronaut_712150",
    "count_view": 0
  },
  {
    "link_thumb": "https://live.staticflickr.com/65535/50039633796_af539bcf27_n.jpg",
    "id_album": "1204249541",
    "description": "Galaxy_427241",
    "title": "Galaxy_427241",
    "link_img": "https://live.staticflickr.com/65535/50039633796_8ace2040d6_o.jpg",
    "id_image": "Galaxy_427241",
    "count_view": 0
  },
  {
    "link_thumb": "https://live.staticflickr.com/65535/50039889732_c64aa2f89d_n.jpg",
    "id_album": "1204249541",
    "description": "Galaxy_221265",
    "title": "Galaxy_221265",
    "link_img": "https://live.staticflickr.com/65535/50039889732_9d679067ba_o.jpg",
    "id_image": "Galaxy_221265",
    "count_view": 0
  },
  {
    "link_thumb": "https://live.staticflickr.com/65535/50040144788_94c738a3e7_n.jpg",
    "id_album": "2130067313",
    "description": "Spaceship_446852",
    "title": "Spaceship_446852",
    "link_img": "https://live.staticflickr.com/65535/50040144788_b2d4564bbd_o.jpg",
    "id_image": "Spaceship_446852",
    "count_view": 0
  },
  {
    "link_thumb": "https://live.staticflickr.com/65535/50040395652_040795f178_n.jpg",
    "id_album": "-1102314093",
    "description": "Planets_737709",
    "title": "Planets_737709",
    "link_img": "https://live.staticflickr.com/65535/50040395652_44f53c7234_o.jpg",
    "id_image": "Planets_737709",
    "count_view": 0
  },
  {
    "link_thumb": "https://live.staticflickr.com/65535/50039752581_b10a63cba1_n.jpg",
    "id_album": "-1388385651",
    "description": "MilkyWay_928833",
    "title": "MilkyWay_928833",
    "link_img": "https://live.staticflickr.com/65535/50039752581_e611a49e0f_o.jpg",
    "id_image": "MilkyWay_928833",
    "count_view": 0
  },
  {
    "link_thumb": "https://live.staticflickr.com/65535/50040415036_e1d8375185_n.jpg",
    "id_album": "779690680",
    "description": "Robot_917207",
    "title": "Robot_917207",
    "link_img": "https://live.staticflickr.com/65535/50040415036_c1917a5a1a_o.jpg",
    "id_image": "Robot_917207",
    "count_view": 0
  },
  {
    "link_thumb": "https://live.staticflickr.com/65535/50039905922_0e2698a0c4_n.jpg",
    "id_album": "1204249541",
    "description": "Galaxy_555689",
    "title": "Galaxy_555689",
    "link_img": "https://live.staticflickr.com/65535/50039905922_e0ba21bb8d_o.jpg",
    "id_image": "Galaxy_555689",
    "count_view": 0
  },
  {
    "link_thumb": "https://live.staticflickr.com/65535/50040074097_cdd934831d_n.jpg",
    "id_album": "-1610342324",
    "description": "Nebula_560768",
    "title": "Nebula_560768",
    "link_img": "https://live.staticflickr.com/65535/50040074097_3626f6ae67_o.jpg",
    "id_image": "Nebula_560768",
    "count_view": 0
  },
  {
    "link_thumb": "https://live.staticflickr.com/65535/50040349571_a57ee40439_n.jpg",
    "id_album": "779690680",
    "description": "Robot_631694",
    "title": "Robot_631694",
    "link_img": "https://live.staticflickr.com/65535/50040349571_f147f9185c_o.jpg",
    "id_image": "Robot_631694",
    "count_view": 0
  },
  {
    "link_thumb": "https://live.staticflickr.com/65535/50038772318_1c4dda33ba_n.jpg",
    "id_album": "523598895",
    "description": "Artistic_229605",
    "title": "Artistic_229605",
    "link_img": "https://live.staticflickr.com/65535/50038772318_86e1b319f9_o.jpg",
    "id_image": "Artistic_229605",
    "count_view": 0
  },
  {
    "link_thumb": "https://live.staticflickr.com/65535/50040051167_90d3afcffd_n.jpg",
    "id_album": "-1610342324",
    "description": "Nebula_352108",
    "title": "Nebula_352108",
    "link_img": "https://live.staticflickr.com/65535/50040051167_eb871663e8_o.jpg",
    "id_image": "Nebula_352108",
    "count_view": 0
  },
  {
    "link_thumb": "https://live.staticflickr.com/65535/50041288911_f739f3b82e_n.jpg",
    "id_album": "1267121215",
    "description": "Steampunk_157858",
    "title": "Steampunk_157858",
    "link_img": "https://live.staticflickr.com/65535/50041288911_ce917e8c04_o.jpg",
    "id_image": "Steampunk_157858",
    "count_view": 0
  },
  {
    "link_thumb": "https://live.staticflickr.com/65535/50039150033_1383d000c1_n.jpg",
    "id_album": "1402713104",
    "description": "Landscape_676675",
    "title": "Landscape_676675",
    "link_img": "https://live.staticflickr.com/65535/50039150033_5faaaa5140_o.jpg",
    "id_image": "Landscape_676675",
    "count_view": 0
  },
  {
    "link_thumb": "https://live.staticflickr.com/65535/50040756772_965242bc6a_n.jpg",
    "id_album": "1613540653",
    "description": "Space_324430",
    "title": "Space_324430",
    "link_img": "https://live.staticflickr.com/65535/50040756772_ce857cb463_o.jpg",
    "id_image": "Space_324430",
    "count_view": 0
  },
  {
    "link_thumb": "https://live.staticflickr.com/65535/50039576387_81840b56be_n.jpg",
    "id_album": "523598895",
    "description": "Artistic_211370",
    "title": "Artistic_211370",
    "link_img": "https://live.staticflickr.com/65535/50039576387_6a43fea9f1_o.jpg",
    "id_image": "Artistic_211370",
    "count_view": 0
  },
  {
    "link_thumb": "https://live.staticflickr.com/65535/50039385376_60365939f2_n.jpg",
    "id_album": "869545341",
    "description": "Astronaut_957462",
    "title": "Astronaut_957462",
    "link_img": "https://live.staticflickr.com/65535/50039385376_b5a7ccb7a2_o.jpg",
    "id_image": "Astronaut_957462",
    "count_view": 0
  },
  {
    "link_thumb": "https://live.staticflickr.com/65535/50041679587_3197bf43b7_n.jpg",
    "id_album": "2020068132",
    "description": "Vehicle_874023",
    "title": "Vehicle_874023",
    "link_img": "https://live.staticflickr.com/65535/50041679587_a54f58ae3e_o.jpg",
    "id_image": "Vehicle_874023",
    "count_view": 0
  },
  {
    "link_thumb": "https://live.staticflickr.com/65535/50039385076_3b9602b08b_n.jpg",
    "id_album": "869545341",
    "description": "Astronaut_957441",
    "title": "Astronaut_957441",
    "link_img": "https://live.staticflickr.com/65535/50039385076_c253d16127_o.jpg",
    "id_image": "Astronaut_957441",
    "count_view": 0
  },
  {
    "link_thumb": "https://live.staticflickr.com/65535/50039499892_e042354aec_n.jpg",
    "id_album": "-406145265",
    "description": "Aircraft_341261",
    "title": "Aircraft_341261",
    "link_img": "https://live.staticflickr.com/65535/50039499892_deb2b34c4c_o.jpg",
    "id_image": "Aircraft_341261",
    "count_view": 0
  },
  {
    "link_thumb": "https://live.staticflickr.com/65535/50040448151_70b74267cf_n.jpg",
    "id_album": "779690680",
    "description": "Robot_959170",
    "title": "Robot_959170",
    "link_img": "https://live.staticflickr.com/65535/50040448151_65ab59fcfd_o.jpg",
    "id_image": "Robot_959170",
    "count_view": 0
  },
  {
    "link_thumb": "https://live.staticflickr.com/65535/50039463353_168faa7bf1_n.jpg",
    "id_album": "1443611160",
    "description": "PlanetRise_77627",
    "title": "PlanetRise_77627",
    "link_img": "https://live.staticflickr.com/65535/50039463353_0a768379b6_o.jpg",
    "id_image": "PlanetRise_77627",
    "count_view": 0
  },
  {
    "link_thumb": "https://live.staticflickr.com/65535/50040102282_68f9649e9e_n.jpg",
    "id_album": "-1610342324",
    "description": "Nebula_8015",
    "title": "Nebula_8015",
    "link_img": "https://live.staticflickr.com/65535/50040102282_f3d11909ca_o.jpg",
    "id_image": "Nebula_8015",
    "count_view": 0
  },
  {
    "link_thumb": "https://live.staticflickr.com/65535/50039607112_95b5a6d751_n.jpg",
    "id_album": "523598895",
    "description": "Artistic_857266",
    "title": "Artistic_857266",
    "link_img": "https://live.staticflickr.com/65535/50039607112_1b7fba34c7_o.jpg",
    "id_image": "Artistic_857266",
    "count_view": 0
  },
  {
    "link_thumb": "https://live.staticflickr.com/65535/50038856968_21718abd15_n.jpg",
    "id_album": "1187037014",
    "description": "Battle_631687",
    "title": "Battle_631687",
    "link_img": "https://live.staticflickr.com/65535/50038856968_1b20f3c410_o.jpg",
    "id_image": "Battle_631687",
    "count_view": 0
  },
  {
    "link_thumb": "https://live.staticflickr.com/65535/50039751563_23fdd8bc5e_n.jpg",
    "id_album": "779690680",
    "description": "Robot_409697",
    "title": "Robot_409697",
    "link_img": "https://live.staticflickr.com/65535/50039751563_e294763da8_o.jpg",
    "id_image": "Robot_409697",
    "count_view": 0
  },
  {
    "link_thumb": "https://live.staticflickr.com/65535/50041510007_2a12a9b0b5_n.jpg",
    "id_album": "-1863373220",
    "description": "StarWars_976101",
    "title": "StarWars_976101",
    "link_img": "https://live.staticflickr.com/65535/50041510007_6b9d3f7e05_o.jpg",
    "id_image": "StarWars_976101",
    "count_view": 0
  },
  {
    "link_thumb": "https://live.staticflickr.com/65535/50039890637_88d877bc0a_n.jpg",
    "id_album": "1204249541",
    "description": "Galaxy_247445",
    "title": "Galaxy_247445",
    "link_img": "https://live.staticflickr.com/65535/50039890637_06b2ff4a0b_o.jpg",
    "id_image": "Galaxy_247445",
    "count_view": 0
  },
  {
    "link_thumb": "https://live.staticflickr.com/65535/50039439581_3d087a216d_n.jpg",
    "id_album": "-1964113117",
    "description": "City_174082",
    "title": "City_174082",
    "link_img": "https://live.staticflickr.com/65535/50039439581_438403b07e_o.jpg",
    "id_image": "City_174082",
    "count_view": 0
  },
  {
    "link_thumb": "https://live.staticflickr.com/65535/50040325237_26a1067750_n.jpg",
    "id_album": "-1102314093",
    "description": "Planets_22375",
    "title": "Planets_22375",
    "link_img": "https://live.staticflickr.com/65535/50040325237_4fe4a29c54_o.jpg",
    "id_image": "Planets_22375",
    "count_view": 0
  },
  {
    "link_thumb": "https://live.staticflickr.com/65535/50039730751_d952b0df57_n.jpg",
    "id_album": "-1388385651",
    "description": "MilkyWay_153316",
    "title": "MilkyWay_153316",
    "link_img": "https://live.staticflickr.com/65535/50039730751_a09487ae39_o.jpg",
    "id_image": "MilkyWay_153316",
    "count_view": 0
  },
  {
    "link_thumb": "https://live.staticflickr.com/65535/50039246368_309de635cd_n.jpg",
    "id_album": "-1610342324",
    "description": "Nebula_430185",
    "title": "Nebula_430185",
    "link_img": "https://live.staticflickr.com/65535/50039246368_4bffd970d3_o.jpg",
    "id_image": "Nebula_430185",
    "count_view": 0
  },
  {
    "link_thumb": "https://live.staticflickr.com/65535/50041566282_dd8d917598_n.jpg",
    "id_album": "1267121215",
    "description": "Steampunk_236458",
    "title": "Steampunk_236458",
    "link_img": "https://live.staticflickr.com/65535/50041566282_d7c05eaa0a_o.jpg",
    "id_image": "Steampunk_236458",
    "count_view": 0
  },
  {
    "link_thumb": "https://live.staticflickr.com/65535/50039491837_89371c0d2f_n.jpg",
    "id_album": "280884763",
    "description": "Abstract_286952",
    "title": "Abstract_286952",
    "link_img": "https://live.staticflickr.com/65535/50039491837_a201e18886_o.jpg",
    "id_image": "Abstract_286952",
    "count_view": 0
  },
  {
    "link_thumb": "https://live.staticflickr.com/65535/50040739207_df788592ce_n.jpg",
    "id_album": "1613540653",
    "description": "Space_181319",
    "title": "Space_181319",
    "link_img": "https://live.staticflickr.com/65535/50040739207_fde5e84dd5_o.jpg",
    "id_image": "Space_181319",
    "count_view": 0
  },
  {
    "link_thumb": "https://live.staticflickr.com/65535/50040599676_7ed842bcf8_n.jpg",
    "id_album": "2130067313",
    "description": "Spaceship_215129",
    "title": "Spaceship_215129",
    "link_img": "https://live.staticflickr.com/65535/50040599676_789dd29d26_o.jpg",
    "id_image": "Spaceship_215129",
    "count_view": 0
  },
  {
    "link_thumb": "https://live.staticflickr.com/65535/50039530286_df2a07dac6_n.jpg",
    "id_album": "-1964113117",
    "description": "City_974925",
    "title": "City_974925",
    "link_img": "https://live.staticflickr.com/65535/50039530286_c3e6aeaf8c_o.jpg",
    "id_image": "City_974925",
    "count_view": 0
  },
  {
    "link_thumb": "https://live.staticflickr.com/65535/50038840983_36dd88061e_n.jpg",
    "id_album": "869545341",
    "description": "Astronaut_979106",
    "title": "Astronaut_979106",
    "link_img": "https://live.staticflickr.com/65535/50038840983_5ff9f98903_o.jpg",
    "id_image": "Astronaut_979106",
    "count_view": 0
  },
  {
    "link_thumb": "https://live.staticflickr.com/65535/50039130268_08d946947b_n.jpg",
    "id_album": "1402713104",
    "description": "Landscape_335535",
    "title": "Landscape_335535",
    "link_img": "https://live.staticflickr.com/65535/50039130268_32b0b07567_o.jpg",
    "id_image": "Landscape_335535",
    "count_view": 0
  },
  {
    "link_thumb": "https://live.staticflickr.com/65535/50039519856_a36aa2aa61_n.jpg",
    "id_album": "-1964113117",
    "description": "City_914000",
    "title": "City_914000",
    "link_img": "https://live.staticflickr.com/65535/50039519856_a9f9e82301_o.jpg",
    "id_image": "City_914000",
    "count_view": 0
  },
  {
    "link_thumb": "https://live.staticflickr.com/65535/50039496802_9b1632990d_n.jpg",
    "id_album": "-406145265",
    "description": "Aircraft_237854",
    "title": "Aircraft_237854",
    "link_img": "https://live.staticflickr.com/65535/50039496802_27a9911b25_o.jpg",
    "id_image": "Aircraft_237854",
    "count_view": 0
  },
  {
    "link_thumb": "https://live.staticflickr.com/65535/50040639912_ab67f845cc_n.jpg",
    "id_album": "779690680",
    "description": "Robot_857296",
    "title": "Robot_857296",
    "link_img": "https://live.staticflickr.com/65535/50040639912_f96b8c2797_o.jpg",
    "id_image": "Robot_857296",
    "count_view": 0
  },
  {
    "link_thumb": "https://live.staticflickr.com/65535/50040113671_d537c478f9_n.jpg",
    "id_album": "-1102314093",
    "description": "Planets_426127",
    "title": "Planets_426127",
    "link_img": "https://live.staticflickr.com/65535/50040113671_d1cdd7fc6d_o.jpg",
    "id_image": "Planets_426127",
    "count_view": 0
  },
  {
    "link_thumb": "https://live.staticflickr.com/65535/50040299813_9491c7e14d_n.jpg",
    "id_album": "-1449720967",
    "description": "StarTrek_337654",
    "title": "StarTrek_337654",
    "link_img": "https://live.staticflickr.com/65535/50040299813_ed6919f9fc_o.jpg",
    "id_image": "StarTrek_337654",
    "count_view": 0
  },
  {
    "link_thumb": "https://live.staticflickr.com/65535/50041549062_e7a24e2eb6_n.jpg",
    "id_album": "1267121215",
    "description": "Steampunk_107174",
    "title": "Steampunk_107174",
    "link_img": "https://live.staticflickr.com/65535/50041549062_3c2d580e6b_o.jpg",
    "id_image": "Steampunk_107174",
    "count_view": 0
  },
  {
    "link_thumb": "https://live.staticflickr.com/65535/50039323541_4bd3ff0ab7_n.jpg",
    "id_album": "523598895",
    "description": "Artistic_244220",
    "title": "Artistic_244220",
    "link_img": "https://live.staticflickr.com/65535/50039323541_6c8b4cd9c1_o.jpg",
    "id_image": "Artistic_244220",
    "count_view": 0
  },
  {
    "link_thumb": "https://live.staticflickr.com/65535/50041245706_12f7858be4_n.jpg",
    "id_album": "-1863373220",
    "description": "StarWars_965772",
    "title": "StarWars_965772",
    "link_img": "https://live.staticflickr.com/65535/50041245706_c6d299dc19_o.jpg",
    "id_image": "StarWars_965772",
    "count_view": 0
  },
  {
    "link_thumb": "https://live.staticflickr.com/65535/50040432197_b774f42a3c_n.jpg",
    "id_album": "376235057",
    "description": "Planetscape_370827",
    "title": "Planetscape_370827",
    "link_img": "https://live.staticflickr.com/65535/50040432197_769590a38c_o.jpg",
    "id_image": "Planetscape_370827",
    "count_view": 0
  },
  {
    "link_thumb": "https://live.staticflickr.com/65535/50038721758_5aeda8d848_n.jpg",
    "id_album": "849020728",
    "description": "Alien_556059",
    "title": "Alien_556059",
    "link_img": "https://live.staticflickr.com/65535/50038721758_ba2b32158e_o.jpg",
    "id_image": "Alien_556059",
    "count_view": 0
  },
  {
    "link_thumb": "https://live.staticflickr.com/65535/50041622647_3d911b35d2_n.jpg",
    "id_album": "-1177476763",
    "description": "Sunrise_324435",
    "title": "Sunrise_324435",
    "link_img": "https://live.staticflickr.com/65535/50041622647_a3e83a4598_o.jpg",
    "id_image": "Sunrise_324435",
    "count_view": 0
  },
  {
    "link_thumb": "https://live.staticflickr.com/65535/50038714273_5dd9901730_n.jpg",
    "id_album": "849020728",
    "description": "Alien_393508",
    "title": "Alien_393508",
    "link_img": "https://live.staticflickr.com/65535/50038714273_d698b3ea54_o.jpg",
    "id_image": "Alien_393508",
    "count_view": 0
  },
  {
    "link_thumb": "https://live.staticflickr.com/65535/50039681462_e6dda5f651_n.jpg",
    "id_album": "-1780971522",
    "description": "Biohazard_577357",
    "title": "Biohazard_577357",
    "link_img": "https://live.staticflickr.com/65535/50039681462_1481798f23_o.jpg",
    "id_image": "Biohazard_577357",
    "count_view": 0
  },
  {
    "link_thumb": "https://live.staticflickr.com/65535/50040863583_a6a51548b3_n.jpg",
    "id_album": "2020068132",
    "description": "Vehicle_879537",
    "title": "Vehicle_879537",
    "link_img": "https://live.staticflickr.com/65535/50040863583_d5207bd673_o.jpg",
    "id_image": "Vehicle_879537",
    "count_view": 0
  },
  {
    "link_thumb": "https://live.staticflickr.com/65535/50040717536_46e8d5bc09_n.jpg",
    "id_album": "2130067313",
    "description": "Spaceship_563565",
    "title": "Spaceship_563565",
    "link_img": "https://live.staticflickr.com/65535/50040717536_d32ba9ea86_o.jpg",
    "id_image": "Spaceship_563565",
    "count_view": 0
  },
  {
    "link_thumb": "https://live.staticflickr.com/65535/50039229378_5edcd77c16_n.jpg",
    "id_album": "-1610342324",
    "description": "Nebula_264727",
    "title": "Nebula_264727",
    "link_img": "https://live.staticflickr.com/65535/50039229378_880e13c148_o.jpg",
    "id_image": "Nebula_264727",
    "count_view": 0
  },
  {
    "link_thumb": "https://live.staticflickr.com/65535/50039625166_a8df5ea624_n.jpg",
    "id_album": "1204249541",
    "description": "Galaxy_165217",
    "title": "Galaxy_165217",
    "link_img": "https://live.staticflickr.com/65535/50039625166_20c71e67d0_o.jpg",
    "id_image": "Galaxy_165217",
    "count_view": 0
  },
  {
    "link_thumb": "https://live.staticflickr.com/65535/50039619822_818f4f8534_n.jpg",
    "id_album": "869545341",
    "description": "Astronaut_556960",
    "title": "Astronaut_556960",
    "link_img": "https://live.staticflickr.com/65535/50039619822_5907c63979_o.jpg",
    "id_image": "Astronaut_556960",
    "count_view": 0
  },
  {
    "link_thumb": "https://live.staticflickr.com/65535/50039879283_fa3ebb8bb9_n.jpg",
    "id_album": "779690680",
    "description": "Robot_937810",
    "title": "Robot_937810",
    "link_img": "https://live.staticflickr.com/65535/50039879283_7ecfd142d9_o.jpg",
    "id_image": "Robot_937810",
    "count_view": 0
  },
  {
    "link_thumb": "https://live.staticflickr.com/65535/50040033681_76bc6008dc_n.jpg",
    "id_album": "814701616",
    "description": "PlanetaryRing_419630",
    "title": "PlanetaryRing_419630",
    "link_img": "https://live.staticflickr.com/65535/50040033681_097eb6d3dd_o.jpg",
    "id_image": "PlanetaryRing_419630",
    "count_view": 0
  },
  {
    "link_thumb": "https://live.staticflickr.com/65535/50040057867_91e2cd3e56_n.jpg",
    "id_album": "-1610342324",
    "description": "Nebula_415323",
    "title": "Nebula_415323",
    "link_img": "https://live.staticflickr.com/65535/50040057867_1b9cc99204_o.jpg",
    "id_image": "Nebula_415323",
    "count_view": 0
  },
  {
    "link_thumb": "https://live.staticflickr.com/65535/50038766428_55ceb30895_n.jpg",
    "id_album": "523598895",
    "description": "Artistic_211079",
    "title": "Artistic_211079",
    "link_img": "https://live.staticflickr.com/65535/50038766428_17e743104f_o.jpg",
    "id_image": "Artistic_211079",
    "count_view": 0
  },
  {
    "link_thumb": "https://live.staticflickr.com/65535/50040787308_701b50564a_n.jpg",
    "id_album": "-221671103",
    "description": "Sun_223222",
    "title": "Sun_223222",
    "link_img": "https://live.staticflickr.com/65535/50040787308_8e93af61dd_o.jpg",
    "id_image": "Sun_223222",
    "count_view": 0
  },
  {
    "link_thumb": "https://live.staticflickr.com/65535/50038848888_8c7757f9a7_n.jpg",
    "id_album": "1187037014",
    "description": "Battle_233996",
    "title": "Battle_233996",
    "link_img": "https://live.staticflickr.com/65535/50038848888_ca8aefc61b_o.jpg",
    "id_image": "Battle_233996",
    "count_view": 0
  },
  {
    "link_thumb": "https://live.staticflickr.com/65535/50039540046_3e8a3123ac_n.jpg",
    "id_album": "894679094",
    "description": "Collision_353147",
    "title": "Collision_353147",
    "link_img": "https://live.staticflickr.com/65535/50039540046_dbc4804e44_o.jpg",
    "id_image": "Collision_353147",
    "count_view": 0
  },
  {
    "link_thumb": "https://live.staticflickr.com/65535/50039276221_869b666fe1_n.jpg",
    "id_album": "849020728",
    "description": "Alien_907089",
    "title": "Alien_907089",
    "link_img": "https://live.staticflickr.com/65535/50039276221_d85b50a5f7_o.jpg",
    "id_image": "Alien_907089",
    "count_view": 0
  },
  {
    "link_thumb": "https://live.staticflickr.com/65535/50040577688_b9a804907f_n.jpg",
    "id_album": "-1863373220",
    "description": "StarWars_215773",
    "title": "StarWars_215773",
    "link_img": "https://live.staticflickr.com/65535/50040577688_141a8f4a67_o.jpg",
    "id_image": "StarWars_215773",
    "count_view": 0
  },
  {
    "link_thumb": "https://live.staticflickr.com/65535/50039407283_06a2cda10b_n.jpg",
    "id_album": "395161030",
    "description": "Planet_526200",
    "title": "Planet_526200",
    "link_img": "https://live.staticflickr.com/65535/50039407283_3d79f041ec_o.jpg",
    "id_image": "Planet_526200",
    "count_view": 0
  },
  {
    "link_thumb": "https://live.staticflickr.com/65535/50041547042_495c6001bf_n.jpg",
    "id_album": "-1587696329",
    "description": "Stars_947554",
    "title": "Stars_947554",
    "link_img": "https://live.staticflickr.com/65535/50041547042_b1822768e8_o.jpg",
    "id_image": "Stars_947554",
    "count_view": 0
  },
  {
    "link_thumb": "https://live.staticflickr.com/65535/50039319846_3aa334d004_n.jpg",
    "id_album": "523598895",
    "description": "Artistic_225568",
    "title": "Artistic_225568",
    "link_img": "https://live.staticflickr.com/65535/50039319846_4ee7d1dcfe_o.jpg",
    "id_image": "Artistic_225568",
    "count_view": 0
  },
  {
    "link_thumb": "https://live.staticflickr.com/65535/50039590623_a5397f89db_n.jpg",
    "id_album": "-1102314093",
    "description": "Planets_83658",
    "title": "Planets_83658",
    "link_img": "https://live.staticflickr.com/65535/50039590623_8d154ef6de_o.jpg",
    "id_image": "Planets_83658",
    "count_view": 0
  },
  {
    "link_thumb": "https://live.staticflickr.com/65535/50040297451_a4358d555b_n.jpg",
    "id_album": "779690680",
    "description": "Robot_373439",
    "title": "Robot_373439",
    "link_img": "https://live.staticflickr.com/65535/50040297451_e5c8147826_o.jpg",
    "id_image": "Robot_373439",
    "count_view": 0
  },
  {
    "link_thumb": "https://live.staticflickr.com/65535/50039960422_74bdbfb36f_n.jpg",
    "id_album": "1402713104",
    "description": "Landscape_640451",
    "title": "Landscape_640451",
    "link_img": "https://live.staticflickr.com/65535/50039960422_5d24f72f22_o.jpg",
    "id_image": "Landscape_640451",
    "count_view": 0
  },
  {
    "link_thumb": "https://live.staticflickr.com/65535/50040003618_737999d851_n.jpg",
    "id_album": "-1532370292",
    "description": "SpaceStation_329832",
    "title": "SpaceStation_329832",
    "link_img": "https://live.staticflickr.com/65535/50040003618_960f4226bc_o.jpg",
    "id_image": "SpaceStation_329832",
    "count_view": 0
  },
  {
    "link_thumb": "https://live.staticflickr.com/65535/50040998868_c8f81440c6_n.jpg",
    "id_album": "-1126835654",
    "description": "Women_967449",
    "title": "Women_967449",
    "link_img": "https://live.staticflickr.com/65535/50040998868_1282e76f56_o.jpg",
    "id_image": "Women_967449",
    "count_view": 0
  },
  {
    "link_thumb": "https://live.staticflickr.com/65535/50041591326_3b263aeaa9_n.jpg",
    "id_album": "-1675918237",
    "description": "WomenWarrior_932181",
    "title": "WomenWarrior_932181",
    "link_img": "https://live.staticflickr.com/65535/50041591326_68a2ce4cae_o.jpg",
    "id_image": "WomenWarrior_932181",
    "count_view": 0
  },
  {
    "link_thumb": "https://live.staticflickr.com/65535/50039248726_17ab597e17_n.jpg",
    "id_album": "849020728",
    "description": "Alien_178710",
    "title": "Alien_178710",
    "link_img": "https://live.staticflickr.com/65535/50039248726_51fc613551_o.jpg",
    "id_image": "Alien_178710",
    "count_view": 0
  },
  {
    "link_thumb": "https://live.staticflickr.com/65535/50041807297_45949eef19_n.jpg",
    "id_album": "-1126835654",
    "description": "Women_721560",
    "title": "Women_721560",
    "link_img": "https://live.staticflickr.com/65535/50041807297_23977b9dd4_o.jpg",
    "id_image": "Women_721560",
    "count_view": 0
  },
  {
    "link_thumb": "https://live.staticflickr.com/65535/50040925803_c0cbf7d138_n.jpg",
    "id_album": "-1261420436",
    "description": "Warrior_649049",
    "title": "Warrior_649049",
    "link_img": "https://live.staticflickr.com/65535/50040925803_2a06f15c00_o.jpg",
    "id_image": "Warrior_649049",
    "count_view": 0
  },
  {
    "link_thumb": "https://live.staticflickr.com/65535/50039938091_dc8ac0d01a_n.jpg",
    "id_album": "395161030",
    "description": "Planet_372303",
    "title": "Planet_372303",
    "link_img": "https://live.staticflickr.com/65535/50039938091_eb251b81d3_o.jpg",
    "id_image": "Planet_372303",
    "count_view": 0
  },
  {
    "link_thumb": "https://live.staticflickr.com/65535/50039511598_cb80b055ee_n.jpg",
    "id_album": "-1102314093",
    "description": "Planets_221961",
    "title": "Planets_221961",
    "link_img": "https://live.staticflickr.com/65535/50039511598_b7bb8b3c80_o.jpg",
    "id_image": "Planets_221961",
    "count_view": 0
  },
  {
    "link_thumb": "https://live.staticflickr.com/65535/50039355396_217798c324_n.jpg",
    "id_album": "869545341",
    "description": "Astronaut_422156",
    "title": "Astronaut_422156",
    "link_img": "https://live.staticflickr.com/65535/50039355396_778c1e6764_o.jpg",
    "id_image": "Astronaut_422156",
    "count_view": 0
  },
  {
    "link_thumb": "https://live.staticflickr.com/65535/50038679693_a35264e421_n.jpg",
    "id_album": "280884763",
    "description": "Abstract_123869",
    "title": "Abstract_123869",
    "link_img": "https://live.staticflickr.com/65535/50038679693_38997663ae_o.jpg",
    "id_image": "Abstract_123869",
    "count_view": 0
  },
  {
    "link_thumb": "https://live.staticflickr.com/65535/50041462466_483e7f8eec_n.jpg",
    "id_album": "-1261420436",
    "description": "Warrior_450058",
    "title": "Warrior_450058",
    "link_img": "https://live.staticflickr.com/65535/50041462466_03764027dd_o.jpg",
    "id_image": "Warrior_450058",
    "count_view": 0
  },
  {
    "link_thumb": "https://live.staticflickr.com/65535/50039840071_3e1b57f89a_n.jpg",
    "id_album": "-1610342324",
    "description": "Nebula_814609",
    "title": "Nebula_814609",
    "link_img": "https://live.staticflickr.com/65535/50039840071_85fcc32ddf_o.jpg",
    "id_image": "Nebula_814609",
    "count_view": 0
  },
  {
    "link_thumb": "https://live.staticflickr.com/65535/50041155591_4a670fc97a_n.jpg",
    "id_album": "-1863373220",
    "description": "StarWars_254395",
    "title": "StarWars_254395",
    "link_img": "https://live.staticflickr.com/65535/50041155591_190bcdb23b_o.jpg",
    "id_image": "StarWars_254395",
    "count_view": 0
  },
  {
    "link_thumb": "https://live.staticflickr.com/65535/50040299096_fb25238c29_n.jpg",
    "id_album": "779690680",
    "description": "Robot_386112",
    "title": "Robot_386112",
    "link_img": "https://live.staticflickr.com/65535/50040299096_700c7272e5_o.jpg",
    "id_image": "Robot_386112",
    "count_view": 0
  },
  {
    "link_thumb": "https://live.staticflickr.com/65535/50041196911_0cdfc2cf81_n.jpg",
    "id_album": "-1863373220",
    "description": "StarWars_584833",
    "title": "StarWars_584833",
    "link_img": "https://live.staticflickr.com/65535/50041196911_628197da34_o.jpg",
    "id_image": "StarWars_584833",
    "count_view": 0
  },
  {
    "link_thumb": "https://live.staticflickr.com/65535/50040670242_66e0a7aeb7_n.jpg",
    "id_album": "779690680",
    "description": "Robot_909550",
    "title": "Robot_909550",
    "link_img": "https://live.staticflickr.com/65535/50040670242_c7183a6df8_o.jpg",
    "id_image": "Robot_909550",
    "count_view": 0
  },
  {
    "link_thumb": "https://live.staticflickr.com/65535/50039742542_870655067e_n.jpg",
    "id_album": "-1964113117",
    "description": "City_587717",
    "title": "City_587717",
    "link_img": "https://live.staticflickr.com/65535/50039742542_e942f5ee32_o.jpg",
    "id_image": "City_587717",
    "count_view": 0
  },
  {
    "link_thumb": "https://live.staticflickr.com/65535/50040720691_509776d421_n.jpg",
    "id_album": "2130067313",
    "description": "Spaceship_598169",
    "title": "Spaceship_598169",
    "link_img": "https://live.staticflickr.com/65535/50040720691_be1920aa26_o.jpg",
    "id_image": "Spaceship_598169",
    "count_view": 0
  },
  {
    "link_thumb": "https://live.staticflickr.com/65535/50039883788_f6a607cb32_n.jpg",
    "id_album": "779690680",
    "description": "Robot_944753",
    "title": "Robot_944753",
    "link_img": "https://live.staticflickr.com/65535/50039883788_c185283332_o.jpg",
    "id_image": "Robot_944753",
    "count_view": 0
  },
  {
    "link_thumb": "https://live.staticflickr.com/65535/50040943893_dbf5086cc1_n.jpg",
    "id_album": "-1261420436",
    "description": "Warrior_972019",
    "title": "Warrior_972019",
    "link_img": "https://live.staticflickr.com/65535/50040943893_fe78fc4c93_o.jpg",
    "id_image": "Warrior_972019",
    "count_view": 0
  },
  {
    "link_thumb": "https://live.staticflickr.com/65535/50041288216_f0b65ac18a_n.jpg",
    "id_album": "1267121215",
    "description": "Steampunk_149854",
    "title": "Steampunk_149854",
    "link_img": "https://live.staticflickr.com/65535/50041288216_8c84ba55c5_o.jpg",
    "id_image": "Steampunk_149854",
    "count_view": 0
  },
  {
    "link_thumb": "https://live.staticflickr.com/65535/50040562547_51d3432fef_n.jpg",
    "id_album": "779690680",
    "description": "Robot_376314",
    "title": "Robot_376314",
    "link_img": "https://live.staticflickr.com/65535/50040562547_409a137410_o.jpg",
    "id_image": "Robot_376314",
    "count_view": 0
  },
  {
    "link_thumb": "https://live.staticflickr.com/65535/50041848252_5e08623c96_n.jpg",
    "id_album": "-1675918237",
    "description": "WomenWarrior_715632",
    "title": "WomenWarrior_715632",
    "link_img": "https://live.staticflickr.com/65535/50041848252_97e118d151_o.jpg",
    "id_image": "WomenWarrior_715632",
    "count_view": 0
  },
  {
    "link_thumb": "https://live.staticflickr.com/65535/50041638192_65b7f5f552_n.jpg",
    "id_album": "2020068132",
    "description": "Vehicle_192943",
    "title": "Vehicle_192943",
    "link_img": "https://live.staticflickr.com/65535/50041638192_680655783d_o.jpg",
    "id_image": "Vehicle_192943",
    "count_view": 0
  },
  {
    "link_thumb": "https://live.staticflickr.com/65535/50039358356_d0f51753b5_n.jpg",
    "id_album": "869545341",
    "description": "Astronaut_567047",
    "title": "Astronaut_567047",
    "link_img": "https://live.staticflickr.com/65535/50039358356_07c858b9a8_o.jpg",
    "id_image": "Astronaut_567047",
    "count_view": 0
  },
  {
    "link_thumb": "https://live.staticflickr.com/65535/50039973972_d4b00b275f_n.jpg",
    "id_album": "1402713104",
    "description": "Landscape_851427",
    "title": "Landscape_851427",
    "link_img": "https://live.staticflickr.com/65535/50039973972_d76a8a250b_o.jpg",
    "id_image": "Landscape_851427",
    "count_view": 0
  },
  {
    "link_thumb": "https://live.staticflickr.com/65535/50039717503_c063842eeb_n.jpg",
    "id_album": "779690680",
    "description": "Robot_245595",
    "title": "Robot_245595",
    "link_img": "https://live.staticflickr.com/65535/50039717503_b2358b2398_o.jpg",
    "id_image": "Robot_245595",
    "count_view": 0
  },
  {
    "link_thumb": "https://live.staticflickr.com/65535/50041592861_41046debf3_n.jpg",
    "id_album": "-1675918237",
    "description": "WomenWarrior_981207",
    "title": "WomenWarrior_981207",
    "link_img": "https://live.staticflickr.com/65535/50041592861_d8449773b1_o.jpg",
    "id_image": "WomenWarrior_981207",
    "count_view": 0
  },
  {
    "link_thumb": "https://live.staticflickr.com/65535/50039835161_045746440b_n.jpg",
    "id_album": "-1610342324",
    "description": "Nebula_77316",
    "title": "Nebula_77316",
    "link_img": "https://live.staticflickr.com/65535/50039835161_56d24d7d99_o.jpg",
    "id_image": "Nebula_77316",
    "count_view": 0
  },
  {
    "link_thumb": "https://live.staticflickr.com/65535/50039369868_1e6c3b2e35_n.jpg",
    "id_album": "395161030",
    "description": "Planet_206087",
    "title": "Planet_206087",
    "link_img": "https://live.staticflickr.com/65535/50039369868_2c81d7a794_o.jpg",
    "id_image": "Planet_206087",
    "count_view": 0
  },
  {
    "link_thumb": "https://live.staticflickr.com/65535/50039852963_4b0eafcea6_n.jpg",
    "id_album": "779690680",
    "description": "Robot_910928",
    "title": "Robot_910928",
    "link_img": "https://live.staticflickr.com/65535/50039852963_2e43908fc9_o.jpg",
    "id_image": "Robot_910928",
    "count_view": 0
  },
  {
    "link_thumb": "https://live.staticflickr.com/65535/50041309121_602b0246e0_n.jpg",
    "id_album": "1267121215",
    "description": "Steampunk_258451",
    "title": "Steampunk_258451",
    "link_img": "https://live.staticflickr.com/65535/50041309121_48e6e2c6b6_o.jpg",
    "id_image": "Steampunk_258451",
    "count_view": 0
  },
  {
    "link_thumb": "https://live.staticflickr.com/65535/50039718777_161b49fc9a_n.jpg",
    "id_album": "-1964113117",
    "description": "City_269325",
    "title": "City_269325",
    "link_img": "https://live.staticflickr.com/65535/50039718777_64ff7dec03_o.jpg",
    "id_image": "City_269325",
    "count_view": 0
  },
  {
    "link_thumb": "https://live.staticflickr.com/65535/50039479083_46072790c2_n.jpg",
    "id_album": "814701616",
    "description": "PlanetaryRing_352392",
    "title": "PlanetaryRing_352392",
    "link_img": "https://live.staticflickr.com/65535/50039479083_7ccaa3e4eb_o.jpg",
    "id_image": "PlanetaryRing_352392",
    "count_view": 0
  },
  {
    "link_thumb": "https://live.staticflickr.com/65535/50041482851_e604e9b6f4_n.jpg",
    "id_album": "-1261420436",
    "description": "Warrior_677695",
    "title": "Warrior_677695",
    "link_img": "https://live.staticflickr.com/65535/50041482851_b46af6f7ee_o.jpg",
    "id_image": "Warrior_677695",
    "count_view": 0
  },
  {
    "link_thumb": "https://live.staticflickr.com/65535/50040209106_07fc87bde5_n.jpg",
    "id_album": "-482547208",
    "description": "PostApocalyptic_373107",
    "title": "PostApocalyptic_373107",
    "link_img": "https://live.staticflickr.com/65535/50040209106_be423b5919_o.jpg",
    "id_image": "PostApocalyptic_373107",
    "count_view": 0
  },
  {
    "link_thumb": "https://live.staticflickr.com/65535/50038850328_1cfdeaf044_n.jpg",
    "id_album": "1187037014",
    "description": "Battle_264430",
    "title": "Battle_264430",
    "link_img": "https://live.staticflickr.com/65535/50038850328_64a139e3e6_o.jpg",
    "id_image": "Battle_264430",
    "count_view": 0
  },
  {
    "link_thumb": "https://live.staticflickr.com/65535/50039530577_796ed0aca4_n.jpg",
    "id_album": "849020728",
    "description": "Alien_512820",
    "title": "Alien_512820",
    "link_img": "https://live.staticflickr.com/65535/50039530577_d2143ed795_o.jpg",
    "id_image": "Alien_512820",
    "count_view": 0
  },
  {
    "link_thumb": "https://live.staticflickr.com/65535/50039076288_2429be4535_n.jpg",
    "id_album": "1204249541",
    "description": "Galaxy_187095",
    "title": "Galaxy_187095",
    "link_img": "https://live.staticflickr.com/65535/50039076288_62962671b6_o.jpg",
    "id_image": "Galaxy_187095",
    "count_view": 0
  },
  {
    "link_thumb": "https://live.staticflickr.com/65535/50040148041_ffb014df61_n.jpg",
    "id_album": "-1102314093",
    "description": "Planets_957339",
    "title": "Planets_957339",
    "link_img": "https://live.staticflickr.com/65535/50040148041_bc2a1fa023_o.jpg",
    "id_image": "Planets_957339",
    "count_view": 0
  },
  {
    "link_thumb": "https://live.staticflickr.com/65535/50040437146_6a3dcdc530_n.jpg",
    "id_album": "779690680",
    "description": "Robot_941229",
    "title": "Robot_941229",
    "link_img": "https://live.staticflickr.com/65535/50040437146_e548f027e2_o.jpg",
    "id_image": "Robot_941229",
    "count_view": 0
  },
  {
    "link_thumb": "https://live.staticflickr.com/65535/50039789986_539f6e0629_n.jpg",
    "id_album": "-1610342324",
    "description": "Nebula_393940",
    "title": "Nebula_393940",
    "link_img": "https://live.staticflickr.com/65535/50039789986_4301ffbcce_o.jpg",
    "id_image": "Nebula_393940",
    "count_view": 0
  },
  {
    "link_thumb": "https://live.staticflickr.com/65535/50038926378_9c8e9c282e_n.jpg",
    "id_album": "-1964113117",
    "description": "City_527907",
    "title": "City_527907",
    "link_img": "https://live.staticflickr.com/65535/50038926378_ba02af5fac_o.jpg",
    "id_image": "City_527907",
    "count_view": 0
  },
  {
    "link_thumb": "https://live.staticflickr.com/65535/50041251121_371f8c98e0_n.jpg",
    "id_album": "-1863373220",
    "description": "StarWars_983265",
    "title": "StarWars_983265",
    "link_img": "https://live.staticflickr.com/65535/50041251121_aa0aefc096_o.jpg",
    "id_image": "StarWars_983265",
    "count_view": 0
  },
  {
    "link_thumb": "https://live.staticflickr.com/65535/50039617881_bf43412254_n.jpg",
    "id_album": "2104507156",
    "description": "Fantasy_177853",
    "title": "Fantasy_177853",
    "link_img": "https://live.staticflickr.com/65535/50039617881_b6fbebab5d_o.jpg",
    "id_image": "Fantasy_177853",
    "count_view": 0
  },
  {
    "link_thumb": "https://live.staticflickr.com/65535/50040514812_71fe5b86c1_n.jpg",
    "id_album": "779690680",
    "description": "Robot_107012",
    "title": "Robot_107012",
    "link_img": "https://live.staticflickr.com/65535/50040514812_9ac6b5a993_o.jpg",
    "id_image": "Robot_107012",
    "count_view": 0
  },
  {
    "link_thumb": "https://live.staticflickr.com/65535/50039903496_4460e06453_n.jpg",
    "id_album": "395161030",
    "description": "Planet_106114",
    "title": "Planet_106114",
    "link_img": "https://live.staticflickr.com/65535/50039903496_9b51bc6347_o.jpg",
    "id_image": "Planet_106114",
    "count_view": 0
  },
  {
    "link_thumb": "https://live.staticflickr.com/65535/50039515568_90877dcae4_n.jpg",
    "id_album": "-1102314093",
    "description": "Planets_247212",
    "title": "Planets_247212",
    "link_img": "https://live.staticflickr.com/65535/50039515568_54b620c07f_o.jpg",
    "id_image": "Planets_247212",
    "count_view": 0
  },
  {
    "link_thumb": "https://live.staticflickr.com/65535/50039633543_dc94140a5b_n.jpg",
    "id_album": "376235057",
    "description": "Planetscape_957403",
    "title": "Planetscape_957403",
    "link_img": "https://live.staticflickr.com/65535/50039633543_b4b988f204_o.jpg",
    "id_image": "Planetscape_957403",
    "count_view": 0
  }
]