[
  {
    "link_thumb": "https://live.staticflickr.com/65535/50040944158_dafbbffd74_n.jpg",
    "id_album": "-1261420436",
    "description": "Warrior_979752",
    "title": "Warrior_979752",
    "link_img": "https://live.staticflickr.com/65535/50040944158_78dcf3d3ca_o.jpg",
    "id_image": "Warrior_979752",
    "count_view": 0
  },
  {
    "link_thumb": "https://live.staticflickr.com/65535/50039136608_811a56867d_n.jpg",
    "id_album": "1402713104",
    "description": "Landscape_390838",
    "title": "Landscape_390838",
    "link_img": "https://live.staticflickr.com/65535/50039136608_46b3b34040_o.jpg",
    "id_image": "Landscape_390838",
    "count_view": 0
  },
  {
    "link_thumb": "https://live.staticflickr.com/65535/50040063481_a79749ee49_n.jpg",
    "id_album": "-1102314093",
    "description": "Planets_234863",
    "title": "Planets_234863",
    "link_img": "https://live.staticflickr.com/65535/50040063481_a384937cef_o.jpg",
    "id_image": "Planets_234863",
    "count_view": 0
  },
  {
    "link_thumb": "https://live.staticflickr.com/65535/50040532661_f77d812c8f_n.jpg",
    "id_album": "1613540653",
    "description": "Space_70937",
    "title": "Space_70937",
    "link_img": "https://live.staticflickr.com/65535/50040532661_1a1a217ba1_o.jpg",
    "id_image": "Space_70937",
    "count_view": 0
  },
  {
    "link_thumb": "https://live.staticflickr.com/65535/50038895223_30abec8f0d_n.jpg",
    "id_album": "-1964113117",
    "description": "City_206125",
    "title": "City_206125",
    "link_img": "https://live.staticflickr.com/65535/50038895223_037e147f21_o.jpg",
    "id_image": "City_206125",
    "count_view": 0
  },
  {
    "link_thumb": "https://live.staticflickr.com/65535/50038836523_33779ed440_n.jpg",
    "id_album": "869545341",
    "description": "Astronaut_957407",
    "title": "Astronaut_957407",
    "link_img": "https://live.staticflickr.com/65535/50038836523_ec364a912f_o.jpg",
    "id_image": "Astronaut_957407",
    "count_view": 0
  },
  {
    "link_thumb": "https://live.staticflickr.com/65535/50041656462_e7f0a5c662_n.jpg",
    "id_album": "2020068132",
    "description": "Vehicle_367",
    "title": "Vehicle_367",
    "link_img": "https://live.staticflickr.com/65535/50041656462_5b38ffeed0_o.jpg",
    "id_image": "Vehicle_367",
    "count_view": 0
  },
  {
    "link_thumb": "https://live.staticflickr.com/65535/50040155861_71f994293a_n.jpg",
    "id_album": "376235057",
    "description": "Planetscape_286797",
    "title": "Planetscape_286797",
    "link_img": "https://live.staticflickr.com/65535/50040155861_006fae08e1_o.jpg",
    "id_image": "Planetscape_286797",
    "count_view": 0
  },
  {
    "link_thumb": "https://live.staticflickr.com/65535/50040268252_be4745d358_n.jpg",
    "id_album": "1443611160",
    "description": "PlanetRise_383204",
    "title": "PlanetRise_383204",
    "link_img": "https://live.staticflickr.com/65535/50040268252_e223aaa1a8_o.jpg",
    "id_image": "PlanetRise_383204",
    "count_view": 0
  },
  {
    "link_thumb": "https://live.staticflickr.com/65535/50039708747_250e4661b0_n.jpg",
    "id_album": "-1964113117",
    "description": "City_213527",
    "title": "City_213527",
    "link_img": "https://live.staticflickr.com/65535/50039708747_6a37194e44_o.jpg",
    "id_image": "City_213527",
    "count_view": 0
  },
  {
    "link_thumb": "https://live.staticflickr.com/65535/50039457618_3eb4d1e348_n.jpg",
    "id_album": "1443611160",
    "description": "PlanetRise_472335",
    "title": "PlanetRise_472335",
    "link_img": "https://live.staticflickr.com/65535/50039457618_e1fdbeba91_o.jpg",
    "id_image": "PlanetRise_472335",
    "count_view": 0
  },
  {
    "link_thumb": "https://live.staticflickr.com/65535/50039886737_94af319445_n.jpg",
    "id_album": "1204249541",
    "description": "Galaxy_107614",
    "title": "Galaxy_107614",
    "link_img": "https://live.staticflickr.com/65535/50039886737_dfc9497c61_o.jpg",
    "id_image": "Galaxy_107614",
    "count_view": 0
  },
  {
    "link_thumb": "https://live.staticflickr.com/65535/50039918802_e987155e6f_n.jpg",
    "id_album": "1204249541",
    "description": "Galaxy_901163",
    "title": "Galaxy_901163",
    "link_img": "https://live.staticflickr.com/65535/50039918802_9b9656af81_o.jpg",
    "id_image": "Galaxy_901163",
    "count_view": 0
  },
  {
    "link_thumb": "https://live.staticflickr.com/65535/50038852028_7fb34a00f8_n.jpg",
    "id_album": "1187037014",
    "description": "Battle_298861",
    "title": "Battle_298861",
    "link_img": "https://live.staticflickr.com/65535/50038852028_6cd2a25f23_o.jpg",
    "id_image": "Battle_298861",
    "count_view": 0
  },
  {
    "link_thumb": "https://live.staticflickr.com/65535/50040101042_26b4895c52_n.jpg",
    "id_album": "-1610342324",
    "description": "Nebula_790646",
    "title": "Nebula_790646",
    "link_img": "https://live.staticflickr.com/65535/50040101042_799687acac_o.jpg",
    "id_image": "Nebula_790646",
    "count_view": 0
  },
  {
    "link_thumb": "https://live.staticflickr.com/65535/50039552432_b9f08e0a74_n.jpg",
    "id_album": "-419633230",
    "description": "Apocalyptic_997968",
    "title": "Apocalyptic_997968",
    "link_img": "https://live.staticflickr.com/65535/50039552432_4002d7efe0_o.jpg",
    "id_image": "Apocalyptic_997968",
    "count_view": 0
  },
  {
    "link_thumb": "https://live.staticflickr.com/65535/50040089096_cc2de463a6_n.jpg",
    "id_album": "-1102314093",
    "description": "Planets_346529",
    "title": "Planets_346529",
    "link_img": "https://live.staticflickr.com/65535/50040089096_77848d2598_o.jpg",
    "id_image": "Planets_346529",
    "count_view": 0
  },
  {
    "link_thumb": "https://live.staticflickr.com/65535/50039883601_5c059b27c4_n.jpg",
    "id_album": "-1862561193",
    "description": "Other_280795",
    "title": "Other_280795",
    "link_img": "https://live.staticflickr.com/65535/50039883601_0c8edf0243_o.jpg",
    "id_image": "Other_280795",
    "count_view": 0
  },
  {
    "link_thumb": "https://live.staticflickr.com/65535/50039412001_f9748f26a2_n.jpg",
    "id_album": "-1780971522",
    "description": "Biohazard_300094",
    "title": "Biohazard_300094",
    "link_img": "https://live.staticflickr.com/65535/50039412001_455d6f90a6_o.jpg",
    "id_image": "Biohazard_300094",
    "count_view": 0
  },
  {
    "link_thumb": "https://live.staticflickr.com/65535/50040697188_2defc81c95_n.jpg",
    "id_album": "-1863373220",
    "description": "StarWars_981663",
    "title": "StarWars_981663",
    "link_img": "https://live.staticflickr.com/65535/50040697188_7117af20a6_o.jpg",
    "id_image": "StarWars_981663",
    "count_view": 0
  },
  {
    "link_thumb": "https://live.staticflickr.com/65535/50039296721_5ff1aecc03_n.jpg",
    "id_album": "523598895",
    "description": "Artistic_151473",
    "title": "Artistic_151473",
    "link_img": "https://live.staticflickr.com/65535/50039296721_380a591684_o.jpg",
    "id_image": "Artistic_151473",
    "count_view": 0
  },
  {
    "link_thumb": "https://live.staticflickr.com/65535/50039733686_afb3fcbc5c_n.jpg",
    "id_album": "-1388385651",
    "description": "MilkyWay_555693",
    "title": "MilkyWay_555693",
    "link_img": "https://live.staticflickr.com/65535/50039733686_6491480d2f_o.jpg",
    "id_image": "MilkyWay_555693",
    "count_view": 0
  },
  {
    "link_thumb": "https://live.staticflickr.com/65535/50039406901_922577001f_n.jpg",
    "id_album": "1187037014",
    "description": "Battle_793102",
    "title": "Battle_793102",
    "link_img": "https://live.staticflickr.com/65535/50039406901_a3b3d3cee0_o.jpg",
    "id_image": "Battle_793102",
    "count_view": 0
  },
  {
    "link_thumb": "https://live.staticflickr.com/65535/50040072037_8b9d7d5048_n.jpg",
    "id_album": "-1610342324",
    "description": "Nebula_555187",
    "title": "Nebula_555187",
    "link_img": "https://live.staticflickr.com/65535/50040072037_04ff30503a_o.jpg",
    "id_image": "Nebula_555187",
    "count_view": 0
  },
  {
    "link_thumb": "https://live.staticflickr.com/65535/50039679096_a84298d51a_n.jpg",
    "id_album": "1402713104",
    "description": "Landscape_335794",
    "title": "Landscape_335794",
    "link_img": "https://live.staticflickr.com/65535/50039679096_1037051916_o.jpg",
    "id_image": "Landscape_335794",
    "count_view": 0
  },
  {
    "link_thumb": "https://live.staticflickr.com/65535/50039788888_a6990485d1_n.jpg",
    "id_album": "779690680",
    "description": "Robot_599649",
    "title": "Robot_599649",
    "link_img": "https://live.staticflickr.com/65535/50039788888_4bb2b71bf9_o.jpg",
    "id_image": "Robot_599649",
    "count_view": 0
  },
  {
    "link_thumb": "https://live.staticflickr.com/65535/50040286386_59f1ec3ae1_n.jpg",
    "id_album": "779690680",
    "description": "Robot_309940",
    "title": "Robot_309940",
    "link_img": "https://live.staticflickr.com/65535/50040286386_efa91b9ed3_o.jpg",
    "id_image": "Robot_309940",
    "count_view": 0
  },
  {
    "link_thumb": "https://live.staticflickr.com/65535/50040857678_40f1dbcd8e_n.jpg",
    "id_album": "2020068132",
    "description": "Vehicle_685084",
    "title": "Vehicle_685084",
    "link_img": "https://live.staticflickr.com/65535/50040857678_3d0676e967_o.jpg",
    "id_image": "Vehicle_685084",
    "count_view": 0
  },
  {
    "link_thumb": "https://live.staticflickr.com/65535/50039243956_3a0cb4613d_n.jpg",
    "id_album": "849020728",
    "description": "Alien_108415",
    "title": "Alien_108415",
    "link_img": "https://live.staticflickr.com/65535/50039243956_27320d18bb_o.jpg",
    "id_image": "Alien_108415",
    "count_view": 0
  },
  {
    "link_thumb": "https://live.staticflickr.com/65535/50039817831_6b11ebfbc7_n.jpg",
    "id_album": "-1610342324",
    "description": "Nebula_608330",
    "title": "Nebula_608330",
    "link_img": "https://live.staticflickr.com/65535/50039817831_999bc1dc5a_o.jpg",
    "id_image": "Nebula_608330",
    "count_view": 0
  },
  {
    "link_thumb": "https://live.staticflickr.com/65535/50039520458_a32a05c6b1_n.jpg",
    "id_album": "-1102314093",
    "description": "Planets_274645",
    "title": "Planets_274645",
    "link_img": "https://live.staticflickr.com/65535/50039520458_454cc6c6a1_o.jpg",
    "id_image": "Planets_274645",
    "count_view": 0
  },
  {
    "link_thumb": "https://live.staticflickr.com/65535/50039616002_8cd0cd2cdf_n.jpg",
    "id_album": "869545341",
    "description": "Astronaut_344894",
    "title": "Astronaut_344894",
    "link_img": "https://live.staticflickr.com/65535/50039616002_49444b0671_o.jpg",
    "id_image": "Astronaut_344894",
    "count_view": 0
  },
  {
    "link_thumb": "https://live.staticflickr.com/65535/50039505486_417670b1cf_n.jpg",
    "id_album": "-1964113117",
    "description": "City_862704",
    "title": "City_862704",
    "link_img": "https://live.staticflickr.com/65535/50039505486_9ca3973435_o.jpg",
    "id_image": "City_862704",
    "count_view": 0
  },
  {
    "link_thumb": "https://live.staticflickr.com/65535/50040277576_dfabeefa1f_n.jpg",
    "id_album": "779690680",
    "description": "Robot_267709",
    "title": "Robot_267709",
    "link_img": "https://live.staticflickr.com/65535/50040277576_32845d8c24_o.jpg",
    "id_image": "Robot_267709",
    "count_view": 0
  },
  {
    "link_thumb": "https://live.staticflickr.com/65535/50039857148_4efa0a06bc_n.jpg",
    "id_album": "779690680",
    "description": "Robot_914051",
    "title": "Robot_914051",
    "link_img": "https://live.staticflickr.com/65535/50039857148_987995cc48_o.jpg",
    "id_image": "Robot_914051",
    "count_view": 0
  },
  {
    "link_thumb": "https://live.staticflickr.com/65535/50039904501_8a802b8335_n.jpg",
    "id_album": "395161030",
    "description": "Planet_115813",
    "title": "Planet_115813",
    "link_img": "https://live.staticflickr.com/65535/50039904501_f96579ec80_o.jpg",
    "id_image": "Planet_115813",
    "count_view": 0
  },
  {
    "link_thumb": "https://live.staticflickr.com/65535/50039703068_b81521f01d_n.jpg",
    "id_album": "779690680",
    "description": "Robot_152156",
    "title": "Robot_152156",
    "link_img": "https://live.staticflickr.com/65535/50039703068_ba76896543_o.jpg",
    "id_image": "Robot_152156",
    "count_view": 0
  },
  {
    "link_thumb": "https://live.staticflickr.com/65535/50039773401_a78d8b2db0_n.jpg",
    "id_album": "-1610342324",
    "description": "Nebula_225904",
    "title": "Nebula_225904",
    "link_img": "https://live.staticflickr.com/65535/50039773401_f76bef9e82_o.jpg",
    "id_image": "Nebula_225904",
    "count_view": 0
  },
  {
    "link_thumb": "https://live.staticflickr.com/65535/50040034042_5e8a2e72a3_n.jpg",
    "id_album": "-1610342324",
    "description": "Nebula_214557",
    "title": "Nebula_214557",
    "link_img": "https://live.staticflickr.com/65535/50040034042_a101ce50ee_o.jpg",
    "id_image": "Nebula_214557",
    "count_view": 0
  },
  {
    "link_thumb": "https://live.staticflickr.com/65535/50039096248_7eb05a4357_n.jpg",
    "id_album": "1204249541",
    "description": "Galaxy_590646",
    "title": "Galaxy_590646",
    "link_img": "https://live.staticflickr.com/65535/50039096248_34a1b15141_o.jpg",
    "id_image": "Galaxy_590646",
    "count_view": 0
  },
  {
    "link_thumb": "https://live.staticflickr.com/65535/50039798761_95b4197085_n.jpg",
    "id_album": "-1610342324",
    "description": "Nebula_453086",
    "title": "Nebula_453086",
    "link_img": "https://live.staticflickr.com/65535/50039798761_5eec1daee7_o.jpg",
    "id_image": "Nebula_453086",
    "count_view": 0
  },
  {
    "link_thumb": "https://live.staticflickr.com/65535/50041754197_3969bb6de9_n.jpg",
    "id_album": "-1261420436",
    "description": "Warrior_877706",
    "title": "Warrior_877706",
    "link_img": "https://live.staticflickr.com/65535/50041754197_6d231afc99_o.jpg",
    "id_image": "Warrior_877706",
    "count_view": 0
  },
  {
    "link_thumb": "https://live.staticflickr.com/65535/50040452672_fd861f117a_n.jpg",
    "id_album": "-482547208",
    "description": "PostApocalyptic_103035",
    "title": "PostApocalyptic_103035",
    "link_img": "https://live.staticflickr.com/65535/50040452672_0ef2490ebb_o.jpg",
    "id_image": "PostApocalyptic_103035",
    "count_view": 0
  },
  {
    "link_thumb": "https://live.staticflickr.com/65535/50038854778_ce6fe0f324_n.jpg",
    "id_album": "1187037014",
    "description": "Battle_528305",
    "title": "Battle_528305",
    "link_img": "https://live.staticflickr.com/65535/50038854778_7a331d936b_o.jpg",
    "id_image": "Battle_528305",
    "count_view": 0
  },
  {
    "link_thumb": "https://live.staticflickr.com/65535/50039778103_5e8c9be036_n.jpg",
    "id_album": "779690680",
    "description": "Robot_530263",
    "title": "Robot_530263",
    "link_img": "https://live.staticflickr.com/65535/50039778103_b5399058bf_o.jpg",
    "id_image": "Robot_530263",
    "count_view": 0
  },
  {
    "link_thumb": "https://live.staticflickr.com/65535/50039654822_c7c20a6833_n.jpg",
    "id_album": "869545341",
    "description": "Astronaut_995511",
    "title": "Astronaut_995511",
    "link_img": "https://live.staticflickr.com/65535/50039654822_8fea0b8a7c_o.jpg",
    "id_image": "Astronaut_995511",
    "count_view": 0
  },
  {
    "link_thumb": "https://live.staticflickr.com/65535/50040865147_9f5dc8f6bc_n.jpg",
    "id_album": "2130067313",
    "description": "Spaceship_235124",
    "title": "Spaceship_235124",
    "link_img": "https://live.staticflickr.com/65535/50040865147_9fa98a3e00_o.jpg",
    "id_image": "Spaceship_235124",
    "count_view": 0
  },
  {
    "link_thumb": "https://live.staticflickr.com/65535/50039339541_0c1c95d2c3_n.jpg",
    "id_album": "523598895",
    "description": "Artistic_568861",
    "title": "Artistic_568861",
    "link_img": "https://live.staticflickr.com/65535/50039339541_7a19f47172_o.jpg",
    "id_image": "Artistic_568861",
    "count_view": 0
  },
  {
    "link_thumb": "https://live.staticflickr.com/65535/50039075483_f7ef8d773b_n.jpg",
    "id_album": "1204249541",
    "description": "Galaxy_155639",
    "title": "Galaxy_155639",
    "link_img": "https://live.staticflickr.com/65535/50039075483_1199cc5d07_o.jpg",
    "id_image": "Galaxy_155639",
    "count_view": 0
  },
  {
    "link_thumb": "https://live.staticflickr.com/65535/50040074442_be73a7d952_n.jpg",
    "id_album": "-1610342324",
    "description": "Nebula_560770",
    "title": "Nebula_560770",
    "link_img": "https://live.staticflickr.com/65535/50040074442_cafa578ff8_o.jpg",
    "id_image": "Nebula_560770",
    "count_view": 0
  },
  {
    "link_thumb": "https://live.staticflickr.com/65535/50040401451_60a1a6ff57_n.jpg",
    "id_album": "779690680",
    "description": "Robot_903928",
    "title": "Robot_903928",
    "link_img": "https://live.staticflickr.com/65535/50040401451_074e15775d_o.jpg",
    "id_image": "Robot_903928",
    "count_view": 0
  },
  {
    "link_thumb": "https://live.staticflickr.com/65535/50039682231_56a202d870_n.jpg",
    "id_album": "1402713104",
    "description": "Landscape_363625",
    "title": "Landscape_363625",
    "link_img": "https://live.staticflickr.com/65535/50039682231_ffac8aaf69_o.jpg",
    "id_image": "Landscape_363625",
    "count_view": 0
  },
  {
    "link_thumb": "https://live.staticflickr.com/65535/50040014346_851808c428_n.jpg",
    "id_album": "1443611160",
    "description": "PlanetRise_777595",
    "title": "PlanetRise_777595",
    "link_img": "https://live.staticflickr.com/65535/50040014346_58266d9997_o.jpg",
    "id_image": "PlanetRise_777595",
    "count_view": 0
  },
  {
    "link_thumb": "https://live.staticflickr.com/65535/50040062536_1f3a47b520_n.jpg",
    "id_album": "-1102314093",
    "description": "Planets_225063",
    "title": "Planets_225063",
    "link_img": "https://live.staticflickr.com/65535/50040062536_3959b3d6ae_o.jpg",
    "id_image": "Planets_225063",
    "count_view": 0
  },
  {
    "link_thumb": "https://live.staticflickr.com/65535/50040909293_8f6f519bff_n.jpg",
    "id_album": "-1261420436",
    "description": "Warrior_484316",
    "title": "Warrior_484316",
    "link_img": "https://live.staticflickr.com/65535/50040909293_720f809d89_o.jpg",
    "id_image": "Warrior_484316",
    "count_view": 0
  },
  {
    "link_thumb": "https://live.staticflickr.com/65535/50039295718_035cfb1ac7_n.jpg",
    "id_album": "-1610342324",
    "description": "Nebula_864570",
    "title": "Nebula_864570",
    "link_img": "https://live.staticflickr.com/65535/50039295718_18b1f45c9a_o.jpg",
    "id_image": "Nebula_864570",
    "count_view": 0
  },
  {
    "link_thumb": "https://live.staticflickr.com/65535/50039149473_a4ca28aba7_n.jpg",
    "id_album": "1402713104",
    "description": "Landscape_672639",
    "title": "Landscape_672639",
    "link_img": "https://live.staticflickr.com/65535/50039149473_35589c6864_o.jpg",
    "id_image": "Landscape_672639",
    "count_view": 0
  },
  {
    "link_thumb": "https://live.staticflickr.com/65535/50039765346_3d4a0d7a09_n.jpg",
    "id_album": "-1610342324",
    "description": "Nebula_179723",
    "title": "Nebula_179723",
    "link_img": "https://live.staticflickr.com/65535/50039765346_02eb265f58_o.jpg",
    "id_image": "Nebula_179723",
    "count_view": 0
  },
  {
    "link_thumb": "https://live.staticflickr.com/65535/50040103067_ed379f3380_n.jpg",
    "id_album": "-1610342324",
    "description": "Nebula_807540",
    "title": "Nebula_807540",
    "link_img": "https://live.staticflickr.com/65535/50040103067_b69c61c1f4_o.jpg",
    "id_image": "Nebula_807540",
    "count_view": 0
  },
  {
    "link_thumb": "https://live.staticflickr.com/65535/50041282851_33c2dae988_n.jpg",
    "id_album": "-1587696329",
    "description": "Stars_80996",
    "title": "Stars_80996",
    "link_img": "https://live.staticflickr.com/65535/50041282851_c449ce5833_o.jpg",
    "id_image": "Stars_80996",
    "count_view": 0
  },
  {
    "link_thumb": "https://live.staticflickr.com/65535/50041222271_93cdbe8db0_n.jpg",
    "id_album": "-1863373220",
    "description": "StarWars_771099",
    "title": "StarWars_771099",
    "link_img": "https://live.staticflickr.com/65535/50041222271_45f105dd8d_o.jpg",
    "id_image": "StarWars_771099",
    "count_view": 0
  },
  {
    "link_thumb": "https://live.staticflickr.com/65535/50040440411_632a950ccc_n.jpg",
    "id_album": "779690680",
    "description": "Robot_948243",
    "title": "Robot_948243",
    "link_img": "https://live.staticflickr.com/65535/50040440411_b3a7c47a82_o.jpg",
    "id_image": "Robot_948243",
    "count_view": 0
  },
  {
    "link_thumb": "https://live.staticflickr.com/65535/50041594807_2b44957d30_n.jpg",
    "id_album": "1267121215",
    "description": "Steampunk_867813",
    "title": "Steampunk_867813",
    "link_img": "https://live.staticflickr.com/65535/50041594807_7b3e253895_o.jpg",
    "id_image": "Steampunk_867813",
    "count_view": 0
  },
  {
    "link_thumb": "https://live.staticflickr.com/65535/50039930596_336c7b308f_n.jpg",
    "id_album": "395161030",
    "description": "Planet_343743",
    "title": "Planet_343743",
    "link_img": "https://live.staticflickr.com/65535/50039930596_e683d4a767_o.jpg",
    "id_image": "Planet_343743",
    "count_view": 0
  },
  {
    "link_thumb": "https://live.staticflickr.com/65535/50040085728_a616c8d139_n.jpg",
    "id_album": "2130067313",
    "description": "Spaceship_303905",
    "title": "Spaceship_303905",
    "link_img": "https://live.staticflickr.com/65535/50040085728_2a31ecd2d9_o.jpg",
    "id_image": "Spaceship_303905",
    "count_view": 0
  },
  {
    "link_thumb": "https://live.staticflickr.com/65535/50039631687_7461c53a77_n.jpg",
    "id_album": "869545341",
    "description": "Astronaut_848687",
    "title": "Astronaut_848687",
    "link_img": "https://live.staticflickr.com/65535/50039631687_79211002ed_o.jpg",
    "id_image": "Astronaut_848687",
    "count_view": 0
  },
  {
    "link_thumb": "https://live.staticflickr.com/65535/50039433301_24b6aaedc2_n.jpg",
    "id_album": "-1964113117",
    "description": "City_115838",
    "title": "City_115838",
    "link_img": "https://live.staticflickr.com/65535/50039433301_376300abe1_o.jpg",
    "id_image": "City_115838",
    "count_view": 0
  },
  {
    "link_thumb": "https://live.staticflickr.com/65535/50040297682_22aa2b7033_n.jpg",
    "id_album": "814701616",
    "description": "PlanetaryRing_426257",
    "title": "PlanetaryRing_426257",
    "link_img": "https://live.staticflickr.com/65535/50040297682_b2586db2f7_o.jpg",
    "id_image": "PlanetaryRing_426257",
    "count_view": 0
  },
  {
    "link_thumb": "https://live.staticflickr.com/65535/50038868178_056266e835_n.jpg",
    "id_album": "-1780971522",
    "description": "Biohazard_566062",
    "title": "Biohazard_566062",
    "link_img": "https://live.staticflickr.com/65535/50038868178_59e96c3e1c_o.jpg",
    "id_image": "Biohazard_566062",
    "count_view": 0
  },
  {
    "link_thumb": "https://live.staticflickr.com/65535/50040681452_b91c2442cd_n.jpg",
    "id_album": "779690680",
    "description": "Robot_921689",
    "title": "Robot_921689",
    "link_img": "https://live.staticflickr.com/65535/50040681452_39c54ecea5_o.jpg",
    "id_image": "Robot_921689",
    "count_view": 0
  },
  {
    "link_thumb": "https://live.staticflickr.com/65535/50040518912_a5c280a258_n.jpg",
    "id_album": "779690680",
    "description": "Robot_133819",
    "title": "Robot_133819",
    "link_img": "https://live.staticflickr.com/65535/50040518912_8ca229d6d7_o.jpg",
    "id_image": "Robot_133819",
    "count_view": 0
  },
  {
    "link_thumb": "https://live.staticflickr.com/65535/50039887288_18e3f741b1_n.jpg",
    "id_album": "779690680",
    "description": "Robot_949796",
    "title": "Robot_949796",
    "link_img": "https://live.staticflickr.com/65535/50039887288_9ceee63af9_o.jpg",
    "id_image": "Robot_949796",
    "count_view": 0
  },
  {
    "link_thumb": "https://live.staticflickr.com/65535/50041647857_3b93de573e_n.jpg",
    "id_album": "2020068132",
    "description": "Vehicle_302374",
    "title": "Vehicle_302374",
    "link_img": "https://live.staticflickr.com/65535/50041647857_d266e9ec9e_o.jpg",
    "id_image": "Vehicle_302374",
    "count_view": 0
  },
  {
    "link_thumb": "https://live.staticflickr.com/65535/50041550656_aa4cb95652_n.jpg",
    "id_album": "-1126835654",
    "description": "Women_911000",
    "title": "Women_911000",
    "link_img": "https://live.staticflickr.com/65535/50041550656_251482dd1f_o.jpg",
    "id_image": "Women_911000",
    "count_view": 0
  },
  {
    "link_thumb": "https://live.staticflickr.com/65535/50039759782_85a85e8165_n.jpg",
    "id_album": "-1964113117",
    "description": "City_793615",
    "title": "City_793615",
    "link_img": "https://live.staticflickr.com/65535/50039759782_3b535ab60a_o.jpg",
    "id_image": "City_793615",
    "count_view": 0
  },
  {
    "link_thumb": "https://live.staticflickr.com/65535/50041218681_8e7295e89e_n.jpg",
    "id_album": "-1863373220",
    "description": "StarWars_714561",
    "title": "StarWars_714561",
    "link_img": "https://live.staticflickr.com/65535/50041218681_2131b43da0_o.jpg",
    "id_image": "StarWars_714561",
    "count_view": 0
  },
  {
    "link_thumb": "https://live.staticflickr.com/65535/50039625061_70010a2952_n.jpg",
    "id_album": "1204249541",
    "description": "Galaxy_163506",
    "title": "Galaxy_163506",
    "link_img": "https://live.staticflickr.com/65535/50039625061_a16c2ba85f_o.jpg",
    "id_image": "Galaxy_163506",
    "count_view": 0
  },
  {
    "link_thumb": "https://live.staticflickr.com/65535/50040353661_7a7b63d4a3_n.jpg",
    "id_album": "779690680",
    "description": "Robot_658830",
    "title": "Robot_658830",
    "link_img": "https://live.staticflickr.com/65535/50040353661_c603f441f9_o.jpg",
    "id_image": "Robot_658830",
    "count_view": 0
  },
  {
    "link_thumb": "https://live.staticflickr.com/65535/50039319846_3aa334d004_n.jpg",
    "id_album": "523598895",
    "description": "Artistic_225568",
    "title": "Artistic_225568",
    "link_img": "https://live.staticflickr.com/65535/50039319846_4ee7d1dcfe_o.jpg",
    "id_image": "Artistic_225568",
    "count_view": 0
  },
  {
    "link_thumb": "https://live.staticflickr.com/65535/50040155381_0145e2797d_n.jpg",
    "id_album": "376235057",
    "description": "Planetscape_284410",
    "title": "Planetscape_284410",
    "link_img": "https://live.staticflickr.com/65535/50040155381_4d711a724f_o.jpg",
    "id_image": "Planetscape_284410",
    "count_view": 0
  },
  {
    "link_thumb": "https://live.staticflickr.com/65535/50040532762_a089be458a_n.jpg",
    "id_album": "779690680",
    "description": "Robot_237202",
    "title": "Robot_237202",
    "link_img": "https://live.staticflickr.com/65535/50040532762_1f80b08813_o.jpg",
    "id_image": "Robot_237202",
    "count_view": 0
  },
  {
    "link_thumb": "https://live.staticflickr.com/65535/50039218103_d35c428187_n.jpg",
    "id_album": "-1610342324",
    "description": "Nebula_198230",
    "title": "Nebula_198230",
    "link_img": "https://live.staticflickr.com/65535/50039218103_6465e5b6c1_o.jpg",
    "id_image": "Nebula_198230",
    "count_view": 0
  },
  {
    "link_thumb": "https://live.staticflickr.com/65535/50040734442_70c36b6815_n.jpg",
    "id_album": "1613540653",
    "description": "Space_152143",
    "title": "Space_152143",
    "link_img": "https://live.staticflickr.com/65535/50040734442_a25933a6e2_o.jpg",
    "id_image": "Space_152143",
    "count_view": 0
  },
  {
    "link_thumb": "https://live.staticflickr.com/65535/50038901823_311e1293e8_n.jpg",
    "id_album": "-1964113117",
    "description": "City_229237",
    "title": "City_229237",
    "link_img": "https://live.staticflickr.com/65535/50038901823_5b0012060e_o.jpg",
    "id_image": "City_229237",
    "count_view": 0
  },
  {
    "link_thumb": "https://live.staticflickr.com/65535/50041415182_bfc9efac1f_n.jpg",
    "id_album": "-1863373220",
    "description": "StarWars_238888",
    "title": "StarWars_238888",
    "link_img": "https://live.staticflickr.com/65535/50041415182_47061c5cc8_o.jpg",
    "id_image": "StarWars_238888",
    "count_view": 0
  },
  {
    "link_thumb": "https://live.staticflickr.com/65535/50040094737_04abf96663_n.jpg",
    "id_album": "-1610342324",
    "description": "Nebula_754658",
    "title": "Nebula_754658",
    "link_img": "https://live.staticflickr.com/65535/50040094737_bc8f85c8de_o.jpg",
    "id_image": "Nebula_754658",
    "count_view": 0
  },
  {
    "link_thumb": "https://live.staticflickr.com/65535/50039883613_38cf62970d_n.jpg",
    "id_album": "779690680",
    "description": "Robot_944752",
    "title": "Robot_944752",
    "link_img": "https://live.staticflickr.com/65535/50039883613_05b6c9fb95_o.jpg",
    "id_image": "Robot_944752",
    "count_view": 0
  },
  {
    "link_thumb": "https://live.staticflickr.com/65535/50041251121_371f8c98e0_n.jpg",
    "id_album": "-1863373220",
    "description": "StarWars_983265",
    "title": "StarWars_983265",
    "link_img": "https://live.staticflickr.com/65535/50041251121_aa0aefc096_o.jpg",
    "id_image": "StarWars_983265",
    "count_view": 0
  },
  {
    "link_thumb": "https://live.staticflickr.com/65535/50039548948_43d1f1b0d7_n.jpg",
    "id_album": "-1102314093",
    "description": "Planets_363081",
    "title": "Planets_363081",
    "link_img": "https://live.staticflickr.com/65535/50039548948_db7a32716e_o.jpg",
    "id_image": "Planets_363081",
    "count_view": 0
  },
  {
    "link_thumb": "https://live.staticflickr.com/65535/50038800258_c15c95bc3f_n.jpg",
    "id_album": "869545341",
    "description": "Astronaut_1009318",
    "title": "Astronaut_1009318",
    "link_img": "https://live.staticflickr.com/65535/50038800258_450d7089d2_o.jpg",
    "id_image": "Astronaut_1009318",
    "count_view": 0
  },
  {
    "link_thumb": "https://live.staticflickr.com/65535/50040191017_c4701877a3_n.jpg",
    "id_album": "395161030",
    "description": "Planet_320548",
    "title": "Planet_320548",
    "link_img": "https://live.staticflickr.com/65535/50040191017_aedb5e8f67_o.jpg",
    "id_image": "Planet_320548",
    "count_view": 0
  },
  {
    "link_thumb": "https://live.staticflickr.com/65535/50039874433_f90047f51f_n.jpg",
    "id_album": "779690680",
    "description": "Robot_931798",
    "title": "Robot_931798",
    "link_img": "https://live.staticflickr.com/65535/50039874433_f233546d15_o.jpg",
    "id_image": "Robot_931798",
    "count_view": 0
  },
  {
    "link_thumb": "https://live.staticflickr.com/65535/50039077088_6d7db12d15_n.jpg",
    "id_album": "1204249541",
    "description": "Galaxy_202391",
    "title": "Galaxy_202391",
    "link_img": "https://live.staticflickr.com/65535/50039077088_4492600740_o.jpg",
    "id_image": "Galaxy_202391",
    "count_view": 0
  },
  {
    "link_thumb": "https://live.staticflickr.com/65535/50039872113_142d9e857d_n.jpg",
    "id_album": "779690680",
    "description": "Robot_928645",
    "title": "Robot_928645",
    "link_img": "https://live.staticflickr.com/65535/50039872113_3fc60675f3_o.jpg",
    "id_image": "Robot_928645",
    "count_view": 0
  },
  {
    "link_thumb": "https://live.staticflickr.com/65535/50039660942_c2b0ccb530_n.jpg",
    "id_album": "1187037014",
    "description": "Battle_262558",
    "title": "Battle_262558",
    "link_img": "https://live.staticflickr.com/65535/50039660942_c68fcff771_o.jpg",
    "id_image": "Battle_262558",
    "count_view": 0
  },
  {
    "link_thumb": "https://live.staticflickr.com/65535/50039076053_7936b92c96_n.jpg",
    "id_album": "1204249541",
    "description": "Galaxy_175134",
    "title": "Galaxy_175134",
    "link_img": "https://live.staticflickr.com/65535/50039076053_a56c2dd4ff_o.jpg",
    "id_image": "Galaxy_175134",
    "count_view": 0
  },
  {
    "link_thumb": "https://live.staticflickr.com/65535/50039886927_db42a99c16_n.jpg",
    "id_album": "1204249541",
    "description": "Galaxy_110263",
    "title": "Galaxy_110263",
    "link_img": "https://live.staticflickr.com/65535/50039886927_9e288ca1d7_o.jpg",
    "id_image": "Galaxy_110263",
    "count_view": 0
  },
  {
    "link_thumb": "https://live.staticflickr.com/65535/50040589491_59e7f6a175_n.jpg",
    "id_album": "2130067313",
    "description": "Spaceship_179010",
    "title": "Spaceship_179010",
    "link_img": "https://live.staticflickr.com/65535/50040589491_c33829dda3_o.jpg",
    "id_image": "Spaceship_179010",
    "count_view": 0
  },
  {
    "link_thumb": "https://live.staticflickr.com/65535/50039085923_402d253c42_n.jpg",
    "id_album": "1204249541",
    "description": "Galaxy_441060",
    "title": "Galaxy_441060",
    "link_img": "https://live.staticflickr.com/65535/50039085923_efe8180b57_o.jpg",
    "id_image": "Galaxy_441060",
    "count_view": 0
  },
  {
    "link_thumb": "https://live.staticflickr.com/65535/50039995517_52048e9f84_n.jpg",
    "id_album": "-1388385651",
    "description": "MilkyWay_546608",
    "title": "MilkyWay_546608",
    "link_img": "https://live.staticflickr.com/65535/50039995517_f74c160645_o.jpg",
    "id_image": "MilkyWay_546608",
    "count_view": 0
  },
  {
    "link_thumb": "https://live.staticflickr.com/65535/50039859741_041770b567_n.jpg",
    "id_album": "-1862561193",
    "description": "Other_102563",
    "title": "Other_102563",
    "link_img": "https://live.staticflickr.com/65535/50039859741_219f454284_o.jpg",
    "id_image": "Other_102563",
    "count_view": 0
  },
  {
    "link_thumb": "https://live.staticflickr.com/65535/50039890047_52bb2e8956_n.jpg",
    "id_album": "1204249541",
    "description": "Galaxy_225607",
    "title": "Galaxy_225607",
    "link_img": "https://live.staticflickr.com/65535/50039890047_d2ceaf3cf9_o.jpg",
    "id_image": "Galaxy_225607",
    "count_view": 0
  },
  {
    "link_thumb": "https://live.staticflickr.com/65535/50040027167_15bbd3d787_n.jpg",
    "id_album": "-1610342324",
    "description": "Nebula_166114",
    "title": "Nebula_166114",
    "link_img": "https://live.staticflickr.com/65535/50040027167_0a642cd744_o.jpg",
    "id_image": "Nebula_166114",
    "count_view": 0
  },
  {
    "link_thumb": "https://live.staticflickr.com/65535/50038975123_e146523da8_n.jpg",
    "id_album": "-1964113117",
    "description": "City_931875",
    "title": "City_931875",
    "link_img": "https://live.staticflickr.com/65535/50038975123_c40ea215a0_o.jpg",
    "id_image": "City_931875",
    "count_view": 0
  },
  {
    "link_thumb": "https://live.staticflickr.com/65535/50040388841_83be8303af_n.jpg",
    "id_album": "779690680",
    "description": "Robot_878418",
    "title": "Robot_878418",
    "link_img": "https://live.staticflickr.com/65535/50040388841_cf8c1547e3_o.jpg",
    "id_image": "Robot_878418",
    "count_view": 0
  },
  {
    "link_thumb": "https://live.staticflickr.com/65535/50039978913_ff8811870b_n.jpg",
    "id_album": "1613540653",
    "description": "Space_729755",
    "title": "Space_729755",
    "link_img": "https://live.staticflickr.com/65535/50039978913_289c416232_o.jpg",
    "id_image": "Space_729755",
    "count_view": 0
  },
  {
    "link_thumb": "https://live.staticflickr.com/65535/50039676087_9f077851ba_n.jpg",
    "id_album": "-1780971522",
    "description": "Biohazard_339231",
    "title": "Biohazard_339231",
    "link_img": "https://live.staticflickr.com/65535/50039676087_600e8a7b9f_o.jpg",
    "id_image": "Biohazard_339231",
    "count_view": 0
  },
  {
    "link_thumb": "https://live.staticflickr.com/65535/50039823912_ff9d5aff92_n.jpg",
    "id_album": "-1372247677",
    "description": "Cyberpunk_735467",
    "title": "Cyberpunk_735467",
    "link_img": "https://live.staticflickr.com/65535/50039823912_c2f61a5865_o.jpg",
    "id_image": "Cyberpunk_735467",
    "count_view": 0
  },
  {
    "link_thumb": "https://live.staticflickr.com/65535/50041547042_495c6001bf_n.jpg",
    "id_album": "-1587696329",
    "description": "Stars_947554",
    "title": "Stars_947554",
    "link_img": "https://live.staticflickr.com/65535/50041547042_b1822768e8_o.jpg",
    "id_image": "Stars_947554",
    "count_view": 0
  },
  {
    "link_thumb": "https://live.staticflickr.com/65535/50038843673_1deb7d6c35_n.jpg",
    "id_album": "869545341",
    "description": "Astronaut_992537",
    "title": "Astronaut_992537",
    "link_img": "https://live.staticflickr.com/65535/50038843673_bd7a1fa430_o.jpg",
    "id_image": "Astronaut_992537",
    "count_view": 0
  },
  {
    "link_thumb": "https://live.staticflickr.com/65535/50039674967_7851c147a2_n.jpg",
    "id_album": "-1780971522",
    "description": "Biohazard_306971",
    "title": "Biohazard_306971",
    "link_img": "https://live.staticflickr.com/65535/50039674967_ba69541ed3_o.jpg",
    "id_image": "Biohazard_306971",
    "count_view": 0
  },
  {
    "link_thumb": "https://live.staticflickr.com/65535/50039951792_6733306867_n.jpg",
    "id_album": "1402713104",
    "description": "Landscape_4283",
    "title": "Landscape_4283",
    "link_img": "https://live.staticflickr.com/65535/50039951792_a4ab39176a_o.jpg",
    "id_image": "Landscape_4283",
    "count_view": 0
  },
  {
    "link_thumb": "https://live.staticflickr.com/65535/50040188396_c951e8cf0a_n.jpg",
    "id_album": "-482547208",
    "description": "PostApocalyptic_106770",
    "title": "PostApocalyptic_106770",
    "link_img": "https://live.staticflickr.com/65535/50040188396_24a49a4bf9_o.jpg",
    "id_image": "PostApocalyptic_106770",
    "count_view": 0
  },
  {
    "link_thumb": "https://live.staticflickr.com/65535/50038856438_2e1bfc93f1_n.jpg",
    "id_album": "1187037014",
    "description": "Battle_602698",
    "title": "Battle_602698",
    "link_img": "https://live.staticflickr.com/65535/50038856438_a1d3c44d84_o.jpg",
    "id_image": "Battle_602698",
    "count_view": 0
  },
  {
    "link_thumb": "https://live.staticflickr.com/65535/50039356306_35f3681bc2_n.jpg",
    "id_album": "869545341",
    "description": "Astronaut_529979",
    "title": "Astronaut_529979",
    "link_img": "https://live.staticflickr.com/65535/50039356306_4b2d3df63d_o.jpg",
    "id_image": "Astronaut_529979",
    "count_view": 0
  },
  {
    "link_thumb": "https://live.staticflickr.com/65535/50039463353_168faa7bf1_n.jpg",
    "id_album": "1443611160",
    "description": "PlanetRise_77627",
    "title": "PlanetRise_77627",
    "link_img": "https://live.staticflickr.com/65535/50039463353_0a768379b6_o.jpg",
    "id_image": "PlanetRise_77627",
    "count_view": 0
  },
  {
    "link_thumb": "https://live.staticflickr.com/65535/50041552641_4fe4c5682e_n.jpg",
    "id_album": "-1126835654",
    "description": "Women_981418",
    "title": "Women_981418",
    "link_img": "https://live.staticflickr.com/65535/50041552641_28700dc9a7_o.jpg",
    "id_image": "Women_981418",
    "count_view": 0
  },
  {
    "link_thumb": "https://live.staticflickr.com/65535/50039582173_2677ac82e3_n.jpg",
    "id_album": "-1102314093",
    "description": "Planets_75971",
    "title": "Planets_75971",
    "link_img": "https://live.staticflickr.com/65535/50039582173_cff3ec1831_o.jpg",
    "id_image": "Planets_75971",
    "count_view": 0
  },
  {
    "link_thumb": "https://live.staticflickr.com/65535/50040063007_8b5414d57d_n.jpg",
    "id_album": "-1610342324",
    "description": "Nebula_459200",
    "title": "Nebula_459200",
    "link_img": "https://live.staticflickr.com/65535/50040063007_45af30bbfd_o.jpg",
    "id_image": "Nebula_459200",
    "count_view": 0
  },
  {
    "link_thumb": "https://live.staticflickr.com/65535/50039495998_3fa8988fb4_n.jpg",
    "id_album": "-1102314093",
    "description": "Planets_111481",
    "title": "Planets_111481",
    "link_img": "https://live.staticflickr.com/65535/50039495998_e515228c01_o.jpg",
    "id_image": "Planets_111481",
    "count_view": 0
  },
  {
    "link_thumb": "https://live.staticflickr.com/65535/50040408201_a4617195df_n.jpg",
    "id_album": "779690680",
    "description": "Robot_911868",
    "title": "Robot_911868",
    "link_img": "https://live.staticflickr.com/65535/50040408201_7af0d4aa36_o.jpg",
    "id_image": "Robot_911868",
    "count_view": 0
  },
  {
    "link_thumb": "https://live.staticflickr.com/65535/50040634398_30e0ecf8db_n.jpg",
    "id_album": "-1863373220",
    "description": "StarWars_497641",
    "title": "StarWars_497641",
    "link_img": "https://live.staticflickr.com/65535/50040634398_82b57c6b64_o.jpg",
    "id_image": "StarWars_497641",
    "count_view": 0
  },
  {
    "link_thumb": "https://live.staticflickr.com/65535/50039221243_6b295e1ddb_n.jpg",
    "id_album": "-1610342324",
    "description": "Nebula_215037",
    "title": "Nebula_215037",
    "link_img": "https://live.staticflickr.com/65535/50039221243_b6e4234987_o.jpg",
    "id_image": "Nebula_215037",
    "count_view": 0
  },
  {
    "link_thumb": "https://live.staticflickr.com/65535/50038930488_0b0e904bdd_n.jpg",
    "id_album": "-1964113117",
    "description": "City_565078",
    "title": "City_565078",
    "link_img": "https://live.staticflickr.com/65535/50038930488_6dfc6f320a_o.jpg",
    "id_image": "City_565078",
    "count_view": 0
  },
  {
    "link_thumb": "https://live.staticflickr.com/65535/50039535842_b777cc8dc1_n.jpg",
    "id_album": "849020728",
    "description": "Alien_715693",
    "title": "Alien_715693",
    "link_img": "https://live.staticflickr.com/65535/50039535842_547c8ee14f_o.jpg",
    "id_image": "Alien_715693",
    "count_view": 0
  },
  {
    "link_thumb": "https://live.staticflickr.com/65535/50039650871_16ff53767b_n.jpg",
    "id_album": "1204249541",
    "description": "Galaxy_689585",
    "title": "Galaxy_689585",
    "link_img": "https://live.staticflickr.com/65535/50039650871_8543ec0f33_o.jpg",
    "id_image": "Galaxy_689585",
    "count_view": 0
  },
  {
    "link_thumb": "https://live.staticflickr.com/65535/50039524366_8bfcb1ea61_n.jpg",
    "id_album": "-1964113117",
    "description": "City_937241",
    "title": "City_937241",
    "link_img": "https://live.staticflickr.com/65535/50039524366_354ba57a38_o.jpg",
    "id_image": "City_937241",
    "count_view": 0
  },
  {
    "link_thumb": "https://live.staticflickr.com/65535/50040454211_847f2114c8_n.jpg",
    "id_album": "779690680",
    "description": "Robot_990152",
    "title": "Robot_990152",
    "link_img": "https://live.staticflickr.com/65535/50040454211_a22ff56103_o.jpg",
    "id_image": "Robot_990152",
    "count_view": 0
  },
  {
    "link_thumb": "https://live.staticflickr.com/65535/50039807081_1fb4da4527_n.jpg",
    "id_album": "-1610342324",
    "description": "Nebula_548311",
    "title": "Nebula_548311",
    "link_img": "https://live.staticflickr.com/65535/50039807081_d28e460ffd_o.jpg",
    "id_image": "Nebula_548311",
    "count_view": 0
  },
  {
    "link_thumb": "https://live.staticflickr.com/65535/50039598176_8c9a691cf7_n.jpg",
    "id_album": "829169633",
    "description": "Cyborg_602359",
    "title": "Cyborg_602359",
    "link_img": "https://live.staticflickr.com/65535/50039598176_7385be5871_o.jpg",
    "id_image": "Cyborg_602359",
    "count_view": 0
  },
  {
    "link_thumb": "https://live.staticflickr.com/65535/50041438147_7477c36315_n.jpg",
    "id_album": "-1863373220",
    "description": "StarWars_389121",
    "title": "StarWars_389121",
    "link_img": "https://live.staticflickr.com/65535/50041438147_d9f9d6621b_o.jpg",
    "id_image": "StarWars_389121",
    "count_view": 0
  },
  {
    "link_thumb": "https://live.staticflickr.com/65535/50040704026_be383098b9_n.jpg",
    "id_album": "2130067313",
    "description": "Spaceship_500732",
    "title": "Spaceship_500732",
    "link_img": "https://live.staticflickr.com/65535/50040704026_c5b1061f3e_o.jpg",
    "id_image": "Spaceship_500732",
    "count_view": 0
  },
  {
    "link_thumb": "https://live.staticflickr.com/65535/50040596603_56a3cbc31b_n.jpg",
    "id_album": "-1863373220",
    "description": "StarWars_236266",
    "title": "StarWars_236266",
    "link_img": "https://live.staticflickr.com/65535/50040596603_a970aa8498_o.jpg",
    "id_image": "StarWars_236266",
    "count_view": 0
  },
  {
    "link_thumb": "https://live.staticflickr.com/65535/50040441872_0682cedd97_n.jpg",
    "id_album": "376235057",
    "description": "Planetscape_589835",
    "title": "Planetscape_589835",
    "link_img": "https://live.staticflickr.com/65535/50040441872_4213ea89cc_o.jpg",
    "id_image": "Planetscape_589835",
    "count_view": 0
  },
  {
    "link_thumb": "https://live.staticflickr.com/65535/50041534947_fe70e54667_n.jpg",
    "id_album": "-1587696329",
    "description": "Stars_477456",
    "title": "Stars_477456",
    "link_img": "https://live.staticflickr.com/65535/50041534947_9b29b35ecd_o.jpg",
    "id_image": "Stars_477456",
    "count_view": 0
  },
  {
    "link_thumb": "https://live.staticflickr.com/65535/50040462237_eab648c418_n.jpg",
    "id_album": "-482547208",
    "description": "PostApocalyptic_231176",
    "title": "PostApocalyptic_231176",
    "link_img": "https://live.staticflickr.com/65535/50040462237_78e22231ac_o.jpg",
    "id_image": "PostApocalyptic_231176",
    "count_view": 0
  },
  {
    "link_thumb": "https://live.staticflickr.com/65535/50039942297_4657322142_n.jpg",
    "id_album": "1402713104",
    "description": "Landscape_332267",
    "title": "Landscape_332267",
    "link_img": "https://live.staticflickr.com/65535/50039942297_d1aa51fc07_o.jpg",
    "id_image": "Landscape_332267",
    "count_view": 0
  },
  {
    "link_thumb": "https://live.staticflickr.com/65535/50040760957_6304788c9a_n.jpg",
    "id_album": "1613540653",
    "description": "Space_335428",
    "title": "Space_335428",
    "link_img": "https://live.staticflickr.com/65535/50040760957_bd1ba9a476_o.jpg",
    "id_image": "Space_335428",
    "count_view": 0
  },
  {
    "link_thumb": "https://live.staticflickr.com/65535/50039532406_c5a6c41bdd_n.jpg",
    "id_album": "-1964113117",
    "description": "City_984558",
    "title": "City_984558",
    "link_img": "https://live.staticflickr.com/65535/50039532406_fa1d7b9e8a_o.jpg",
    "id_image": "City_984558",
    "count_view": 0
  },
  {
    "link_thumb": "https://live.staticflickr.com/65535/50039015418_d5a7a41381_n.jpg",
    "id_album": "-1372247677",
    "description": "Cyberpunk_872307",
    "title": "Cyberpunk_872307",
    "link_img": "https://live.staticflickr.com/65535/50039015418_af7b16e04a_o.jpg",
    "id_image": "Cyberpunk_872307",
    "count_view": 0
  },
  {
    "link_thumb": "https://live.staticflickr.com/65535/50038849063_e9bcfb381b_n.jpg",
    "id_album": "1187037014",
    "description": "Battle_239021",
    "title": "Battle_239021",
    "link_img": "https://live.staticflickr.com/65535/50038849063_d67abedac6_o.jpg",
    "id_image": "Battle_239021",
    "count_view": 0
  },
  {
    "link_thumb": "https://live.staticflickr.com/65535/50039231908_bd325a0b80_n.jpg",
    "id_album": "-1610342324",
    "description": "Nebula_285226",
    "title": "Nebula_285226",
    "link_img": "https://live.staticflickr.com/65535/50039231908_bf29b7564f_o.jpg",
    "id_image": "Nebula_285226",
    "count_view": 0
  },
  {
    "link_thumb": "https://live.staticflickr.com/65535/50039788098_de2d12a5fa_n.jpg",
    "id_album": "779690680",
    "description": "Robot_599641",
    "title": "Robot_599641",
    "link_img": "https://live.staticflickr.com/65535/50039788098_d71abd6084_o.jpg",
    "id_image": "Robot_599641",
    "count_view": 0
  },
  {
    "link_thumb": "https://live.staticflickr.com/65535/50039655493_3d87492b7d_n.jpg",
    "id_album": "-482547208",
    "description": "PostApocalyptic_344996",
    "title": "PostApocalyptic_344996",
    "link_img": "https://live.staticflickr.com/65535/50039655493_fd2bdf9e03_o.jpg",
    "id_image": "PostApocalyptic_344996",
    "count_view": 0
  },
  {
    "link_thumb": "https://live.staticflickr.com/65535/50039829477_25f147e123_n.jpg",
    "id_album": "-1372247677",
    "description": "Cyberpunk_931367",
    "title": "Cyberpunk_931367",
    "link_img": "https://live.staticflickr.com/65535/50039829477_02aa12d727_o.jpg",
    "id_image": "Cyberpunk_931367",
    "count_view": 0
  },
  {
    "link_thumb": "https://live.staticflickr.com/65535/50041586146_f6fa1899e0_n.jpg",
    "id_album": "-1675918237",
    "description": "WomenWarrior_669482",
    "title": "WomenWarrior_669482",
    "link_img": "https://live.staticflickr.com/65535/50041586146_5e2d09c025_o.jpg",
    "id_image": "WomenWarrior_669482",
    "count_view": 0
  },
  {
    "link_thumb": "https://live.staticflickr.com/65535/50041413836_d334e04a81_n.jpg",
    "id_album": "2020068132",
    "description": "Vehicle_749561",
    "title": "Vehicle_749561",
    "link_img": "https://live.staticflickr.com/65535/50041413836_28c0c1f2a6_o.jpg",
    "id_image": "Vehicle_749561",
    "count_view": 0
  },
  {
    "link_thumb": "https://live.staticflickr.com/65535/50040477206_617c6209f5_n.jpg",
    "id_album": "1613540653",
    "description": "Space_192927",
    "title": "Space_192927",
    "link_img": "https://live.staticflickr.com/65535/50040477206_5c84a7fc2f_o.jpg",
    "id_image": "Space_192927",
    "count_view": 0
  },
  {
    "link_thumb": "https://live.staticflickr.com/65535/50040232021_3cf8ffb799_n.jpg",
    "id_album": "-482547208",
    "description": "PostApocalyptic_929175",
    "title": "PostApocalyptic_929175",
    "link_img": "https://live.staticflickr.com/65535/50040232021_074f77c5c2_o.jpg",
    "id_image": "PostApocalyptic_929175",
    "count_view": 0
  },
  {
    "link_thumb": "https://live.staticflickr.com/65535/50040017913_35a9e5e9d8_n.jpg",
    "id_album": "2130067313",
    "description": "Spaceship_111950",
    "title": "Spaceship_111950",
    "link_img": "https://live.staticflickr.com/65535/50040017913_3cb71d422f_o.jpg",
    "id_image": "Spaceship_111950",
    "count_view": 0
  },
  {
    "link_thumb": "https://live.staticflickr.com/65535/50038719048_8f2c7b8d99_n.jpg",
    "id_album": "849020728",
    "description": "Alien_481291",
    "title": "Alien_481291",
    "link_img": "https://live.staticflickr.com/65535/50038719048_f378914e03_o.jpg",
    "id_image": "Alien_481291",
    "count_view": 0
  },
  {
    "link_thumb": "https://live.staticflickr.com/65535/50039906176_661676bac0_n.jpg",
    "id_album": "395161030",
    "description": "Planet_155148",
    "title": "Planet_155148",
    "link_img": "https://live.staticflickr.com/65535/50039906176_ace3a8ed61_o.jpg",
    "id_image": "Planet_155148",
    "count_view": 0
  },
  {
    "link_thumb": "https://live.staticflickr.com/65535/50039316366_135e3d9ce4_n.jpg",
    "id_album": "523598895",
    "description": "Artistic_220485",
    "title": "Artistic_220485",
    "link_img": "https://live.staticflickr.com/65535/50039316366_e75c97f956_o.jpg",
    "id_image": "Artistic_220485",
    "count_view": 0
  },
  {
    "link_thumb": "https://live.staticflickr.com/65535/50040694203_32e9e48062_n.jpg",
    "id_album": "-1863373220",
    "description": "StarWars_980502",
    "title": "StarWars_980502",
    "link_img": "https://live.staticflickr.com/65535/50040694203_f3453b2d1c_o.jpg",
    "id_image": "StarWars_980502",
    "count_view": 0
  },
  {
    "link_thumb": "https://live.staticflickr.com/65535/50039271118_f996f8b585_n.jpg",
    "id_album": "-1610342324",
    "description": "Nebula_67202",
    "title": "Nebula_67202",
    "link_img": "https://live.staticflickr.com/65535/50039271118_28ff4dc9a8_o.jpg",
    "id_image": "Nebula_67202",
    "count_view": 0
  },
  {
    "link_thumb": "https://live.staticflickr.com/65535/50039342901_59f3d55cfd_n.jpg",
    "id_album": "523598895",
    "description": "Artistic_712822",
    "title": "Artistic_712822",
    "link_img": "https://live.staticflickr.com/65535/50039342901_1b87507f30_o.jpg",
    "id_image": "Artistic_712822",
    "count_view": 0
  },
  {
    "link_thumb": "https://live.staticflickr.com/65535/50040440931_4745750198_n.jpg",
    "id_album": "779690680",
    "description": "Robot_949787",
    "title": "Robot_949787",
    "link_img": "https://live.staticflickr.com/65535/50040440931_540a47af11_o.jpg",
    "id_image": "Robot_949787",
    "count_view": 0
  },
  {
    "link_thumb": "https://live.staticflickr.com/65535/50039395206_2948d9cc40_n.jpg",
    "id_album": "1187037014",
    "description": "Battle_173806",
    "title": "Battle_173806",
    "link_img": "https://live.staticflickr.com/65535/50039395206_f65349ac5a_o.jpg",
    "id_image": "Battle_173806",
    "count_view": 0
  },
  {
    "link_thumb": "https://live.staticflickr.com/65535/50039853432_bb2969ab30_n.jpg",
    "id_album": "829169633",
    "description": "Cyborg_488050",
    "title": "Cyborg_488050",
    "link_img": "https://live.staticflickr.com/65535/50039853432_311cc64368_o.jpg",
    "id_image": "Cyborg_488050",
    "count_view": 0
  },
  {
    "link_thumb": "https://live.staticflickr.com/65535/50039986522_15712bc631_n.jpg",
    "id_album": "1402713104",
    "description": "Landscape_917847",
    "title": "Landscape_917847",
    "link_img": "https://live.staticflickr.com/65535/50039986522_a87384a6bd_o.jpg",
    "id_image": "Landscape_917847",
    "count_view": 0
  },
  {
    "link_thumb": "https://live.staticflickr.com/65535/50040898648_7bda980552_n.jpg",
    "id_album": "-1261420436",
    "description": "Warrior_373907",
    "title": "Warrior_373907",
    "link_img": "https://live.staticflickr.com/65535/50040898648_6d84609be8_o.jpg",
    "id_image": "Warrior_373907",
    "count_view": 0
  },
  {
    "link_thumb": "https://live.staticflickr.com/65535/50039752418_9ba5f06753_n.jpg",
    "id_album": "779690680",
    "description": "Robot_412738",
    "title": "Robot_412738",
    "link_img": "https://live.staticflickr.com/65535/50039752418_21ebf8738c_o.jpg",
    "id_image": "Robot_412738",
    "count_view": 0
  },
  {
    "link_thumb": "https://live.staticflickr.com/65535/50038800043_3ce15a44b8_n.jpg",
    "id_album": "869545341",
    "description": "Astronaut_1008400",
    "title": "Astronaut_1008400",
    "link_img": "https://live.staticflickr.com/65535/50038800043_b9b3a00eff_o.jpg",
    "id_image": "Astronaut_1008400",
    "count_view": 0
  },
  {
    "link_thumb": "https://live.staticflickr.com/65535/50040412641_b2a3ef2789_n.jpg",
    "id_album": "779690680",
    "description": "Robot_915573",
    "title": "Robot_915573",
    "link_img": "https://live.staticflickr.com/65535/50040412641_d9b5769d04_o.jpg",
    "id_image": "Robot_915573",
    "count_view": 0
  },
  {
    "link_thumb": "https://live.staticflickr.com/65535/50039957822_85805278a3_n.jpg",
    "id_album": "1402713104",
    "description": "Landscape_559159",
    "title": "Landscape_559159",
    "link_img": "https://live.staticflickr.com/65535/50039957822_6c2c7a5e86_o.jpg",
    "id_image": "Landscape_559159",
    "count_view": 0
  },
  {
    "link_thumb": "https://live.staticflickr.com/65535/50041423262_89d16c1247_n.jpg",
    "id_album": "-1863373220",
    "description": "StarWars_286350",
    "title": "StarWars_286350",
    "link_img": "https://live.staticflickr.com/65535/50041423262_5feb5812f8_o.jpg",
    "id_image": "StarWars_286350",
    "count_view": 0
  },
  {
    "link_thumb": "https://live.staticflickr.com/65535/50039144003_9877b1cee6_n.jpg",
    "id_album": "1402713104",
    "description": "Landscape_549184",
    "title": "Landscape_549184",
    "link_img": "https://live.staticflickr.com/65535/50039144003_a28302d139_o.jpg",
    "id_image": "Landscape_549184",
    "count_view": 0
  },
  {
    "link_thumb": "https://live.staticflickr.com/65535/50038745453_26c37e10f6_n.jpg",
    "id_album": "523598895",
    "description": "Artistic_112397",
    "title": "Artistic_112397",
    "link_img": "https://live.staticflickr.com/65535/50038745453_ccf7d1e445_o.jpg",
    "id_image": "Artistic_112397",
    "count_view": 0
  },
  {
    "link_thumb": "https://live.staticflickr.com/65535/50039647052_f24f5e12e1_n.jpg",
    "id_album": "869545341",
    "description": "Astronaut_957375",
    "title": "Astronaut_957375",
    "link_img": "https://live.staticflickr.com/65535/50039647052_1bb0945f14_o.jpg",
    "id_image": "Astronaut_957375",
    "count_view": 0
  },
  {
    "link_thumb": "https://live.staticflickr.com/65535/50040565162_ed1dd55dfc_n.jpg",
    "id_album": "779690680",
    "description": "Robot_391641",
    "title": "Robot_391641",
    "link_img": "https://live.staticflickr.com/65535/50040565162_6694c4ae6a_o.jpg",
    "id_image": "Robot_391641",
    "count_view": 0
  },
  {
    "link_thumb": "https://live.staticflickr.com/65535/50040919398_622971862d_n.jpg",
    "id_album": "-1261420436",
    "description": "Warrior_572845",
    "title": "Warrior_572845",
    "link_img": "https://live.staticflickr.com/65535/50040919398_a73b2dd3a2_o.jpg",
    "id_image": "Warrior_572845",
    "count_view": 0
  },
  {
    "link_thumb": "https://live.staticflickr.com/65535/50041277051_81789ed1e8_n.jpg",
    "id_album": "-1587696329",
    "description": "Stars_548447",
    "title": "Stars_548447",
    "link_img": "https://live.staticflickr.com/65535/50041277051_27a20e0e7c_o.jpg",
    "id_image": "Stars_548447",
    "count_view": 0
  },
  {
    "link_thumb": "https://live.staticflickr.com/65535/50039549157_71b11dd497_n.jpg",
    "id_album": "-419633230",
    "description": "Apocalyptic_777057",
    "title": "Apocalyptic_777057",
    "link_img": "https://live.staticflickr.com/65535/50039549157_1683dbecf0_o.jpg",
    "id_image": "Apocalyptic_777057",
    "count_view": 0
  },
  {
    "link_thumb": "https://live.staticflickr.com/65535/50040656482_b88b06ec3b_n.jpg",
    "id_album": "779690680",
    "description": "Robot_883165",
    "title": "Robot_883165",
    "link_img": "https://live.staticflickr.com/65535/50040656482_161b5b015b_o.jpg",
    "id_image": "Robot_883165",
    "count_view": 0
  },
  {
    "link_thumb": "https://live.staticflickr.com/65535/50039764767_9ff6029ef4_n.jpg",
    "id_album": "-1964113117",
    "description": "City_857253",
    "title": "City_857253",
    "link_img": "https://live.staticflickr.com/65535/50039764767_1b774d7ee1_o.jpg",
    "id_image": "City_857253",
    "count_view": 0
  },
  {
    "link_thumb": "https://live.staticflickr.com/65535/50039293406_1572a4aa30_n.jpg",
    "id_album": "523598895",
    "description": "Artistic_114133",
    "title": "Artistic_114133",
    "link_img": "https://live.staticflickr.com/65535/50039293406_c717bce632_o.jpg",
    "id_image": "Artistic_114133",
    "count_view": 0
  },
  {
    "link_thumb": "https://live.staticflickr.com/65535/50039921052_2acecd1b82_n.jpg",
    "id_album": "1204249541",
    "description": "Galaxy_996255",
    "title": "Galaxy_996255",
    "link_img": "https://live.staticflickr.com/65535/50039921052_a0b3f83fca_o.jpg",
    "id_image": "Galaxy_996255",
    "count_view": 0
  },
  {
    "link_thumb": "https://live.staticflickr.com/65535/50041027168_3753ca27e9_n.jpg",
    "id_album": "-1675918237",
    "description": "WomenWarrior_566289",
    "title": "WomenWarrior_566289",
    "link_img": "https://live.staticflickr.com/65535/50041027168_7af3fb8886_o.jpg",
    "id_image": "WomenWarrior_566289",
    "count_view": 0
  },
  {
    "link_thumb": "https://live.staticflickr.com/65535/50039705278_55e6b83aa3_n.jpg",
    "id_album": "779690680",
    "description": "Robot_173373",
    "title": "Robot_173373",
    "link_img": "https://live.staticflickr.com/65535/50039705278_844f7fea72_o.jpg",
    "id_image": "Robot_173373",
    "count_view": 0
  },
  {
    "link_thumb": "https://live.staticflickr.com/65535/50039930952_692d89ccc8_n.jpg",
    "id_album": "1402713104",
    "description": "Landscape_257685",
    "title": "Landscape_257685",
    "link_img": "https://live.staticflickr.com/65535/50039930952_ac2cce2be4_o.jpg",
    "id_image": "Landscape_257685",
    "count_view": 0
  },
  {
    "link_thumb": "https://live.staticflickr.com/65535/50041386516_184b52f8c3_n.jpg",
    "id_album": "2020068132",
    "description": "Vehicle_311985",
    "title": "Vehicle_311985",
    "link_img": "https://live.staticflickr.com/65535/50041386516_45c9812985_o.jpg",
    "id_image": "Vehicle_311985",
    "count_view": 0
  },
  {
    "link_thumb": "https://live.staticflickr.com/65535/50041030073_1305bb5fa6_n.jpg",
    "id_album": "-1675918237",
    "description": "WomenWarrior_602059",
    "title": "WomenWarrior_602059",
    "link_img": "https://live.staticflickr.com/65535/50041030073_1476ef39fe_o.jpg",
    "id_image": "WomenWarrior_602059",
    "count_view": 0
  },
  {
    "link_thumb": "https://live.staticflickr.com/65535/50040222852_744ee7804c_n.jpg",
    "id_album": "395161030",
    "description": "Planet_539302",
    "title": "Planet_539302",
    "link_img": "https://live.staticflickr.com/65535/50040222852_d874893703_o.jpg",
    "id_image": "Planet_539302",
    "count_view": 0
  },
  {
    "link_thumb": "https://live.staticflickr.com/65535/50039773156_e7155e3f5b_n.jpg",
    "id_album": "-1610342324",
    "description": "Nebula_224956",
    "title": "Nebula_224956",
    "link_img": "https://live.staticflickr.com/65535/50039773156_e5c3223701_o.jpg",
    "id_image": "Nebula_224956",
    "count_view": 0
  },
  {
    "link_thumb": "https://live.staticflickr.com/65535/50039263683_c4254d0cd9_n.jpg",
    "id_album": "-1610342324",
    "description": "Nebula_585161",
    "title": "Nebula_585161",
    "link_img": "https://live.staticflickr.com/65535/50039263683_eed89b839b_o.jpg",
    "id_image": "Nebula_585161",
    "count_view": 0
  },
  {
    "link_thumb": "https://live.staticflickr.com/65535/50039616693_ba804308e4_n.jpg",
    "id_album": "376235057",
    "description": "Planetscape_372285",
    "title": "Planetscape_372285",
    "link_img": "https://live.staticflickr.com/65535/50039616693_d8b865fa47_o.jpg",
    "id_image": "Planetscape_372285",
    "count_view": 0
  },
  {
    "link_thumb": "https://live.staticflickr.com/65535/50040682502_63b9193612_n.jpg",
    "id_album": "779690680",
    "description": "Robot_922855",
    "title": "Robot_922855",
    "link_img": "https://live.staticflickr.com/65535/50040682502_45ecf0230f_o.jpg",
    "id_image": "Robot_922855",
    "count_view": 0
  },
  {
    "link_thumb": "https://live.staticflickr.com/65535/50038984288_08d32ff75c_n.jpg",
    "id_album": "-1964113117",
    "description": "City_988763",
    "title": "City_988763",
    "link_img": "https://live.staticflickr.com/65535/50038984288_0ab8eb6b0e_o.jpg",
    "id_image": "City_988763",
    "count_view": 0
  },
  {
    "link_thumb": "https://live.staticflickr.com/65535/50039383321_925f5ec24a_n.jpg",
    "id_album": "869545341",
    "description": "Astronaut_950863",
    "title": "Astronaut_950863",
    "link_img": "https://live.staticflickr.com/65535/50039383321_d03b4ed0cd_o.jpg",
    "id_image": "Astronaut_950863",
    "count_view": 0
  },
  {
    "link_thumb": "https://live.staticflickr.com/65535/50039762517_57ff47b490_n.jpg",
    "id_album": "-1964113117",
    "description": "City_840846",
    "title": "City_840846",
    "link_img": "https://live.staticflickr.com/65535/50039762517_ca6f79ff07_o.jpg",
    "id_image": "City_840846",
    "count_view": 0
  },
  {
    "link_thumb": "https://live.staticflickr.com/65535/50039571382_a18eed57d4_n.jpg",
    "id_album": "523598895",
    "description": "Artistic_191740",
    "title": "Artistic_191740",
    "link_img": "https://live.staticflickr.com/65535/50039571382_91ceba7069_o.jpg",
    "id_image": "Artistic_191740",
    "count_view": 0
  },
  {
    "link_thumb": "https://live.staticflickr.com/65535/50039661742_42abb783de_n.jpg",
    "id_album": "1187037014",
    "description": "Battle_269840",
    "title": "Battle_269840",
    "link_img": "https://live.staticflickr.com/65535/50039661742_7273f8ce89_o.jpg",
    "id_image": "Battle_269840",
    "count_view": 0
  },
  {
    "link_thumb": "https://live.staticflickr.com/65535/50040473846_9edaa166c7_n.jpg",
    "id_album": "1613540653",
    "description": "Space_179703",
    "title": "Space_179703",
    "link_img": "https://live.staticflickr.com/65535/50040473846_d62777f88c_o.jpg",
    "id_image": "Space_179703",
    "count_view": 0
  },
  {
    "link_thumb": "https://live.staticflickr.com/65535/50039414756_f0fcc16be6_n.jpg",
    "id_album": "-1780971522",
    "description": "Biohazard_484912",
    "title": "Biohazard_484912",
    "link_img": "https://live.staticflickr.com/65535/50039414756_ba99d5da45_o.jpg",
    "id_image": "Biohazard_484912",
    "count_view": 0
  },
  {
    "link_thumb": "https://live.staticflickr.com/65535/50040750496_4e5263dae1_n.jpg",
    "id_album": "2130067313",
    "description": "Spaceship_81619",
    "title": "Spaceship_81619",
    "link_img": "https://live.staticflickr.com/65535/50040750496_e6e5266fb8_o.jpg",
    "id_image": "Spaceship_81619",
    "count_view": 0
  },
  {
    "link_thumb": "https://live.staticflickr.com/65535/50040727772_3c026f59f0_n.jpg",
    "id_album": "1613540653",
    "description": "Space_110229",
    "title": "Space_110229",
    "link_img": "https://live.staticflickr.com/65535/50040727772_dc3a4d2bec_o.jpg",
    "id_image": "Space_110229",
    "count_view": 0
  },
  {
    "link_thumb": "https://live.staticflickr.com/65535/50039902732_a29157ac93_n.jpg",
    "id_album": "1204249541",
    "description": "Galaxy_529455",
    "title": "Galaxy_529455",
    "link_img": "https://live.staticflickr.com/65535/50039902732_21b73e2afe_o.jpg",
    "id_image": "Galaxy_529455",
    "count_view": 0
  },
  {
    "link_thumb": "https://live.staticflickr.com/65535/50039782016_c046844804_n.jpg",
    "id_album": "-1610342324",
    "description": "Nebula_286770",
    "title": "Nebula_286770",
    "link_img": "https://live.staticflickr.com/65535/50039782016_9c9f82bdd9_o.jpg",
    "id_image": "Nebula_286770",
    "count_view": 0
  },
  {
    "link_thumb": "https://live.staticflickr.com/65535/50040695528_32e8dc5c01_n.jpg",
    "id_album": "-1863373220",
    "description": "StarWars_980532",
    "title": "StarWars_980532",
    "link_img": "https://live.staticflickr.com/65535/50040695528_f344620172_o.jpg",
    "id_image": "StarWars_980532",
    "count_view": 0
  },
  {
    "link_thumb": "https://live.staticflickr.com/65535/50039962217_14d889ae0d_n.jpg",
    "id_album": "1402713104",
    "description": "Landscape_675208",
    "title": "Landscape_675208",
    "link_img": "https://live.staticflickr.com/65535/50039962217_91f56a1c05_o.jpg",
    "id_image": "Landscape_675208",
    "count_view": 0
  },
  {
    "link_thumb": "https://live.staticflickr.com/65535/50040695273_693dd03db2_n.jpg",
    "id_album": "-1863373220",
    "description": "StarWars_980528",
    "title": "StarWars_980528",
    "link_img": "https://live.staticflickr.com/65535/50040695273_c0e6749399_o.jpg",
    "id_image": "StarWars_980528",
    "count_view": 0
  },
  {
    "link_thumb": "https://live.staticflickr.com/65535/50039754392_5d309dd950_n.jpg",
    "id_album": "-1964113117",
    "description": "City_711666",
    "title": "City_711666",
    "link_img": "https://live.staticflickr.com/65535/50039754392_97366ba4fd_o.jpg",
    "id_image": "City_711666",
    "count_view": 0
  },
  {
    "link_thumb": "https://live.staticflickr.com/65535/50038972998_63d96a61aa_n.jpg",
    "id_album": "-1964113117",
    "description": "City_920075",
    "title": "City_920075",
    "link_img": "https://live.staticflickr.com/65535/50038972998_6e5b7028c5_o.jpg",
    "id_image": "City_920075",
    "count_view": 0
  },
  {
    "link_thumb": "https://live.staticflickr.com/65535/50038900308_502e7e5aa5_n.jpg",
    "id_album": "-1964113117",
    "description": "City_220203",
    "title": "City_220203",
    "link_img": "https://live.staticflickr.com/65535/50038900308_367e43586b_o.jpg",
    "id_image": "City_220203",
    "count_view": 0
  },
  {
    "link_thumb": "https://live.staticflickr.com/65535/50039316021_3ecf6a27c3_n.jpg",
    "id_album": "523598895",
    "description": "Artistic_219904",
    "title": "Artistic_219904",
    "link_img": "https://live.staticflickr.com/65535/50039316021_5a2838ce48_o.jpg",
    "id_image": "Artistic_219904",
    "count_view": 0
  },
  {
    "link_thumb": "https://live.staticflickr.com/65535/50039323541_4bd3ff0ab7_n.jpg",
    "id_album": "523598895",
    "description": "Artistic_244220",
    "title": "Artistic_244220",
    "link_img": "https://live.staticflickr.com/65535/50039323541_6c8b4cd9c1_o.jpg",
    "id_image": "Artistic_244220",
    "count_view": 0
  },
  {
    "link_thumb": "https://live.staticflickr.com/65535/50040431781_3c1ee96913_n.jpg",
    "id_album": "779690680",
    "description": "Robot_934616",
    "title": "Robot_934616",
    "link_img": "https://live.staticflickr.com/65535/50040431781_a6bb19ae7f_o.jpg",
    "id_image": "Robot_934616",
    "count_view": 0
  },
  {
    "link_thumb": "https://live.staticflickr.com/65535/50038858893_c4f649b965_n.jpg",
    "id_album": "1187037014",
    "description": "Battle_790113",
    "title": "Battle_790113",
    "link_img": "https://live.staticflickr.com/65535/50038858893_8d91e7d6b9_o.jpg",
    "id_image": "Battle_790113",
    "count_view": 0
  },
  {
    "link_thumb": "https://live.staticflickr.com/65535/50040542826_5480a42669_n.jpg",
    "id_album": "1613540653",
    "description": "Space_822458",
    "title": "Space_822458",
    "link_img": "https://live.staticflickr.com/65535/50040542826_3e83e3b84d_o.jpg",
    "id_image": "Space_822458",
    "count_view": 0
  },
  {
    "link_thumb": "https://live.staticflickr.com/65535/50038853688_f6ff7ee335_n.jpg",
    "id_album": "1187037014",
    "description": "Battle_371409",
    "title": "Battle_371409",
    "link_img": "https://live.staticflickr.com/65535/50038853688_c8fa623a39_o.jpg",
    "id_image": "Battle_371409",
    "count_view": 0
  },
  {
    "link_thumb": "https://live.staticflickr.com/65535/50040636288_a2b4c83ffa_n.jpg",
    "id_album": "-1863373220",
    "description": "StarWars_517138",
    "title": "StarWars_517138",
    "link_img": "https://live.staticflickr.com/65535/50040636288_10b35d50c4_o.jpg",
    "id_image": "StarWars_517138",
    "count_view": 0
  },
  {
    "link_thumb": "https://live.staticflickr.com/65535/50040392966_3b52cd82d4_n.jpg",
    "id_album": "779690680",
    "description": "Robot_884817",
    "title": "Robot_884817",
    "link_img": "https://live.staticflickr.com/65535/50040392966_db32daf2ff_o.jpg",
    "id_image": "Robot_884817",
    "count_view": 0
  },
  {
    "link_thumb": "https://live.staticflickr.com/65535/50039629922_73bf3b2918_n.jpg",
    "id_album": "869545341",
    "description": "Astronaut_801382",
    "title": "Astronaut_801382",
    "link_img": "https://live.staticflickr.com/65535/50039629922_83a3c844f7_o.jpg",
    "id_image": "Astronaut_801382",
    "count_view": 0
  },
  {
    "link_thumb": "https://live.staticflickr.com/65535/50040417956_e992bce8a8_n.jpg",
    "id_album": "779690680",
    "description": "Robot_921713",
    "title": "Robot_921713",
    "link_img": "https://live.staticflickr.com/65535/50040417956_7cdcc76808_o.jpg",
    "id_image": "Robot_921713",
    "count_view": 0
  },
  {
    "link_thumb": "https://live.staticflickr.com/65535/50039749617_b57e1ddccf_n.jpg",
    "id_album": "-1964113117",
    "description": "City_681245",
    "title": "City_681245",
    "link_img": "https://live.staticflickr.com/65535/50039749617_536c1cede9_o.jpg",
    "id_image": "City_681245",
    "count_view": 0
  },
  {
    "link_thumb": "https://live.staticflickr.com/65535/50040395091_f865f50c00_n.jpg",
    "id_album": "779690680",
    "description": "Robot_887980",
    "title": "Robot_887980",
    "link_img": "https://live.staticflickr.com/65535/50040395091_5458e30cea_o.jpg",
    "id_image": "Robot_887980",
    "count_view": 0
  },
  {
    "link_thumb": "https://live.staticflickr.com/65535/50039078368_b24e5a7e8f_n.jpg",
    "id_album": "1204249541",
    "description": "Galaxy_235286",
    "title": "Galaxy_235286",
    "link_img": "https://live.staticflickr.com/65535/50039078368_df6d0a6632_o.jpg",
    "id_image": "Galaxy_235286",
    "count_view": 0
  },
  {
    "link_thumb": "https://live.staticflickr.com/65535/50040177897_61398b4343_n.jpg",
    "id_album": "395161030",
    "description": "Planet_187130",
    "title": "Planet_187130",
    "link_img": "https://live.staticflickr.com/65535/50040177897_014946eefe_o.jpg",
    "id_image": "Planet_187130",
    "count_view": 0
  },
  {
    "link_thumb": "https://live.staticflickr.com/65535/50039624726_813e695278_n.jpg",
    "id_album": "1204249541",
    "description": "Galaxy_153503",
    "title": "Galaxy_153503",
    "link_img": "https://live.staticflickr.com/65535/50039624726_8531389bd2_o.jpg",
    "id_image": "Galaxy_153503",
    "count_view": 0
  },
  {
    "link_thumb": "https://live.staticflickr.com/65535/50040023112_3e4705693c_n.jpg",
    "id_album": "-1610342324",
    "description": "Nebula_1000994",
    "title": "Nebula_1000994",
    "link_img": "https://live.staticflickr.com/65535/50040023112_0b6dcfaaaf_o.jpg",
    "id_image": "Nebula_1000994",
    "count_view": 0
  },
  {
    "link_thumb": "https://live.staticflickr.com/65535/50041607907_2fcbc32cc3_n.jpg",
    "id_album": "-221671103",
    "description": "Sun_286806",
    "title": "Sun_286806",
    "link_img": "https://live.staticflickr.com/65535/50041607907_451be4c970_o.jpg",
    "id_image": "Sun_286806",
    "count_view": 0
  },
  {
    "link_thumb": "https://live.staticflickr.com/65535/50039934901_aabe100fff_n.jpg",
    "id_album": "395161030",
    "description": "Planet_359430",
    "title": "Planet_359430",
    "link_img": "https://live.staticflickr.com/65535/50039934901_5c8b89e73e_o.jpg",
    "id_image": "Planet_359430",
    "count_view": 0
  },
  {
    "link_thumb": "https://live.staticflickr.com/65535/50039628668_9112ebe46d_n.jpg",
    "id_album": "376235057",
    "description": "Planetscape_694465",
    "title": "Planetscape_694465",
    "link_img": "https://live.staticflickr.com/65535/50039628668_57b7ea11db_o.jpg",
    "id_image": "Planetscape_694465",
    "count_view": 0
  },
  {
    "link_thumb": "https://live.staticflickr.com/65535/50041689247_bd3208ae0d_n.jpg",
    "id_album": "2020068132",
    "description": "Vehicle_967968",
    "title": "Vehicle_967968",
    "link_img": "https://live.staticflickr.com/65535/50041689247_daf8ce2e92_o.jpg",
    "id_image": "Vehicle_967968",
    "count_view": 0
  },
  {
    "link_thumb": "https://live.staticflickr.com/65535/50038948688_a0d795b177_n.jpg",
    "id_album": "-1964113117",
    "description": "City_784095",
    "title": "City_784095",
    "link_img": "https://live.staticflickr.com/65535/50038948688_1b10df14a3_o.jpg",
    "id_image": "City_784095",
    "count_view": 0
  },
  {
    "link_thumb": "https://live.staticflickr.com/65535/50039371826_8b8a1a0d4a_n.jpg",
    "id_album": "869545341",
    "description": "Astronaut_857743",
    "title": "Astronaut_857743",
    "link_img": "https://live.staticflickr.com/65535/50039371826_6204000759_o.jpg",
    "id_image": "Astronaut_857743",
    "count_view": 0
  },
  {
    "link_thumb": "https://live.staticflickr.com/65535/50040364796_9aa3733c0e_n.jpg",
    "id_album": "779690680",
    "description": "Robot_752684",
    "title": "Robot_752684",
    "link_img": "https://live.staticflickr.com/65535/50040364796_d5ba87b817_o.jpg",
    "id_image": "Robot_752684",
    "count_view": 0
  },
  {
    "link_thumb": "https://live.staticflickr.com/65535/50038993503_eeef56a677_n.jpg",
    "id_album": "894679094",
    "description": "Collision_517482",
    "title": "Collision_517482",
    "link_img": "https://live.staticflickr.com/65535/50038993503_cca1719472_o.jpg",
    "id_image": "Collision_517482",
    "count_view": 0
  },
  {
    "link_thumb": "https://live.staticflickr.com/65535/50040420487_826e1346f8_n.jpg",
    "id_album": "376235057",
    "description": "Planetscape_286873",
    "title": "Planetscape_286873",
    "link_img": "https://live.staticflickr.com/65535/50040420487_41851416ec_o.jpg",
    "id_image": "Planetscape_286873",
    "count_view": 0
  },
  {
    "link_thumb": "https://live.staticflickr.com/65535/50040201657_346430a541_n.jpg",
    "id_album": "395161030",
    "description": "Planet_363682",
    "title": "Planet_363682",
    "link_img": "https://live.staticflickr.com/65535/50040201657_b2ccbe537b_o.jpg",
    "id_image": "Planet_363682",
    "count_view": 0
  },
  {
    "link_thumb": "https://live.staticflickr.com/65535/50039676206_08d624ccc0_n.jpg",
    "id_album": "1402713104",
    "description": "Landscape_324617",
    "title": "Landscape_324617",
    "link_img": "https://live.staticflickr.com/65535/50039676206_d9bfc81894_o.jpg",
    "id_image": "Landscape_324617",
    "count_view": 0
  },
  {
    "link_thumb": "https://live.staticflickr.com/65535/50039693287_b222d1bce8_n.jpg",
    "id_album": "-1964113117",
    "description": "City_1007983",
    "title": "City_1007983",
    "link_img": "https://live.staticflickr.com/65535/50039693287_f863b1ddc7_o.jpg",
    "id_image": "City_1007983",
    "count_view": 0
  },
  {
    "link_thumb": "https://live.staticflickr.com/65535/50041460387_0a44a2954b_n.jpg",
    "id_album": "-1863373220",
    "description": "StarWars_584843",
    "title": "StarWars_584843",
    "link_img": "https://live.staticflickr.com/65535/50041460387_737c33118e_o.jpg",
    "id_image": "StarWars_584843",
    "count_view": 0
  },
  {
    "link_thumb": "https://live.staticflickr.com/65535/50039789986_539f6e0629_n.jpg",
    "id_album": "-1610342324",
    "description": "Nebula_393940",
    "title": "Nebula_393940",
    "link_img": "https://live.staticflickr.com/65535/50039789986_4301ffbcce_o.jpg",
    "id_image": "Nebula_393940",
    "count_view": 0
  },
  {
    "link_thumb": "https://live.staticflickr.com/65535/50040543766_122e399caa_n.jpg",
    "id_album": "1613540653",
    "description": "Space_822474",
    "title": "Space_822474",
    "link_img": "https://live.staticflickr.com/65535/50040543766_04bfdc74f0_o.jpg",
    "id_image": "Space_822474",
    "count_view": 0
  },
  {
    "link_thumb": "https://live.staticflickr.com/65535/50040287446_f2327c5e8d_n.jpg",
    "id_album": "779690680",
    "description": "Robot_314998",
    "title": "Robot_314998",
    "link_img": "https://live.staticflickr.com/65535/50040287446_9f11c3aa50_o.jpg",
    "id_image": "Robot_314998",
    "count_view": 0
  },
  {
    "link_thumb": "https://live.staticflickr.com/65535/50039878627_a5f7fc4285_n.jpg",
    "id_album": "2104507156",
    "description": "Fantasy_160387",
    "title": "Fantasy_160387",
    "link_img": "https://live.staticflickr.com/65535/50039878627_03ef2a0ac8_o.jpg",
    "id_image": "Fantasy_160387",
    "count_view": 0
  },
  {
    "link_thumb": "https://live.staticflickr.com/65535/50041526811_809eda8220_n.jpg",
    "id_album": "-1126835654",
    "description": "Women_374516",
    "title": "Women_374516",
    "link_img": "https://live.staticflickr.com/65535/50041526811_c95b78059e_o.jpg",
    "id_image": "Women_374516",
    "count_view": 0
  },
  {
    "link_thumb": "https://live.staticflickr.com/65535/50040172226_c86ba5044b_n.jpg",
    "id_album": "376235057",
    "description": "Planetscape_419635",
    "title": "Planetscape_419635",
    "link_img": "https://live.staticflickr.com/65535/50040172226_0dc57714ec_o.jpg",
    "id_image": "Planetscape_419635",
    "count_view": 0
  },
  {
    "link_thumb": "https://live.staticflickr.com/65535/50039721711_d47b2d461c_n.jpg",
    "id_album": "1402713104",
    "description": "Landscape_912378",
    "title": "Landscape_912378",
    "link_img": "https://live.staticflickr.com/65535/50039721711_7a33306519_o.jpg",
    "id_image": "Landscape_912378",
    "count_view": 0
  },
  {
    "link_thumb": "https://live.staticflickr.com/65535/50039400403_cc7d3200e0_n.jpg",
    "id_album": "395161030",
    "description": "Planet_436170",
    "title": "Planet_436170",
    "link_img": "https://live.staticflickr.com/65535/50039400403_7663b0511a_o.jpg",
    "id_image": "Planet_436170",
    "count_view": 0
  },
  {
    "link_thumb": "https://live.staticflickr.com/65535/50040977812_32b5f93e0b_n.jpg",
    "id_album": "2130067313",
    "description": "Spaceship_552094",
    "title": "Spaceship_552094",
    "link_img": "https://live.staticflickr.com/65535/50040977812_574e950736_o.jpg",
    "id_image": "Spaceship_552094",
    "count_view": 0
  },
  {
    "link_thumb": "https://live.staticflickr.com/65535/50040693527_792aeb6970_n.jpg",
    "id_album": "779690680",
    "description": "Robot_931804",
    "title": "Robot_931804",
    "link_img": "https://live.staticflickr.com/65535/50040693527_3407c501f3_o.jpg",
    "id_image": "Robot_931804",
    "count_view": 0
  },
  {
    "link_thumb": "https://live.staticflickr.com/65535/50040043132_1dd01fdfa3_n.jpg",
    "id_album": "-1610342324",
    "description": "Nebula_265686",
    "title": "Nebula_265686",
    "link_img": "https://live.staticflickr.com/65535/50040043132_553fc7b2ae_o.jpg",
    "id_image": "Nebula_265686",
    "count_view": 0
  },
  {
    "link_thumb": "https://live.staticflickr.com/65535/50039940961_4b47e8fef6_n.jpg",
    "id_album": "395161030",
    "description": "Planet_376380",
    "title": "Planet_376380",
    "link_img": "https://live.staticflickr.com/65535/50039940961_b48404f21f_o.jpg",
    "id_image": "Planet_376380",
    "count_view": 0
  },
  {
    "link_thumb": "https://live.staticflickr.com/65535/50039821258_71e6d41ec2_n.jpg",
    "id_album": "779690680",
    "description": "Robot_857288",
    "title": "Robot_857288",
    "link_img": "https://live.staticflickr.com/65535/50039821258_db8467512f_o.jpg",
    "id_image": "Robot_857288",
    "count_view": 0
  },
  {
    "link_thumb": "https://live.staticflickr.com/65535/50039626691_9e9d8da910_n.jpg",
    "id_album": "1204249541",
    "description": "Galaxy_206132",
    "title": "Galaxy_206132",
    "link_img": "https://live.staticflickr.com/65535/50039626691_3425d2584f_o.jpg",
    "id_image": "Galaxy_206132",
    "count_view": 0
  },
  {
    "link_thumb": "https://live.staticflickr.com/65535/50039698722_20b604bf5c_n.jpg",
    "id_album": "-1964113117",
    "description": "City_152003",
    "title": "City_152003",
    "link_img": "https://live.staticflickr.com/65535/50039698722_9ed90111d4_o.jpg",
    "id_image": "City_152003",
    "count_view": 0
  },
  {
    "link_thumb": "https://live.staticflickr.com/65535/50039680013_996d9bbb9a_n.jpg",
    "id_album": "-482547208",
    "description": "PostApocalyptic_948245",
    "title": "PostApocalyptic_948245",
    "link_img": "https://live.staticflickr.com/65535/50039680013_65f255246e_o.jpg",
    "id_image": "PostApocalyptic_948245",
    "count_view": 0
  },
  {
    "link_thumb": "https://live.staticflickr.com/65535/50039059733_6a549704db_n.jpg",
    "id_album": "651930207",
    "description": "Explosion_325892",
    "title": "Explosion_325892",
    "link_img": "https://live.staticflickr.com/65535/50039059733_3e74f47e09_o.jpg",
    "id_image": "Explosion_325892",
    "count_view": 0
  },
  {
    "link_thumb": "https://live.staticflickr.com/65535/50040390357_3e582b67b9_n.jpg",
    "id_album": "-1102314093",
    "description": "Planets_596027",
    "title": "Planets_596027",
    "link_img": "https://live.staticflickr.com/65535/50040390357_6fb11583df_o.jpg",
    "id_image": "Planets_596027",
    "count_view": 0
  },
  {
    "link_thumb": "https://live.staticflickr.com/65535/50039522887_57f54f1536_n.jpg",
    "id_album": "849020728",
    "description": "Alien_327579",
    "title": "Alien_327579",
    "link_img": "https://live.staticflickr.com/65535/50039522887_2dbd16f7ba_o.jpg",
    "id_image": "Alien_327579",
    "count_view": 0
  },
  {
    "link_thumb": "https://live.staticflickr.com/65535/50039775581_0075d43cc5_n.jpg",
    "id_album": "-1610342324",
    "description": "Nebula_246275",
    "title": "Nebula_246275",
    "link_img": "https://live.staticflickr.com/65535/50039775581_2892094443_o.jpg",
    "id_image": "Nebula_246275",
    "count_view": 0
  },
  {
    "link_thumb": "https://live.staticflickr.com/65535/50041459731_2ee3baa194_n.jpg",
    "id_album": "-1261420436",
    "description": "Warrior_409691",
    "title": "Warrior_409691",
    "link_img": "https://live.staticflickr.com/65535/50041459731_7aa44bb43e_o.jpg",
    "id_image": "Warrior_409691",
    "count_view": 0
  },
  {
    "link_thumb": "https://live.staticflickr.com/65535/50039271391_17aa0ba07b_n.jpg",
    "id_album": "849020728",
    "description": "Alien_599877",
    "title": "Alien_599877",
    "link_img": "https://live.staticflickr.com/65535/50039271391_2e6a81543e_o.jpg",
    "id_image": "Alien_599877",
    "count_view": 0
  },
  {
    "link_thumb": "https://live.staticflickr.com/65535/50039703168_05333d16ba_n.jpg",
    "id_album": "779690680",
    "description": "Robot_153445",
    "title": "Robot_153445",
    "link_img": "https://live.staticflickr.com/65535/50039703168_1a309fcf98_o.jpg",
    "id_image": "Robot_153445",
    "count_view": 0
  },
  {
    "link_thumb": "https://live.staticflickr.com/65535/50039701858_76760212f5_n.jpg",
    "id_album": "779690680",
    "description": "Robot_145924",
    "title": "Robot_145924",
    "link_img": "https://live.staticflickr.com/65535/50039701858_cbdbae8548_o.jpg",
    "id_image": "Robot_145924",
    "count_view": 0
  },
  {
    "link_thumb": "https://live.staticflickr.com/65535/50039247473_ca36d71f58_n.jpg",
    "id_album": "-1610342324",
    "description": "Nebula_440486",
    "title": "Nebula_440486",
    "link_img": "https://live.staticflickr.com/65535/50039247473_e53cc56381_o.jpg",
    "id_image": "Nebula_440486",
    "count_view": 0
  },
  {
    "link_thumb": "https://live.staticflickr.com/65535/50039642291_0042308154_n.jpg",
    "id_album": "1204249541",
    "description": "Galaxy_550128",
    "title": "Galaxy_550128",
    "link_img": "https://live.staticflickr.com/65535/50039642291_05a56058a5_o.jpg",
    "id_image": "Galaxy_550128",
    "count_view": 0
  },
  {
    "link_thumb": "https://live.staticflickr.com/65535/50039226691_95c3d32a43_n.jpg",
    "id_album": "280884763",
    "description": "Abstract_123843",
    "title": "Abstract_123843",
    "link_img": "https://live.staticflickr.com/65535/50039226691_7638ca1d6d_o.jpg",
    "id_image": "Abstract_123843",
    "count_view": 0
  },
  {
    "link_thumb": "https://live.staticflickr.com/65535/50039067238_908e76b0c0_n.jpg",
    "id_album": "2104507156",
    "description": "Fantasy_169050",
    "title": "Fantasy_169050",
    "link_img": "https://live.staticflickr.com/65535/50039067238_cac9fa0e25_o.jpg",
    "id_image": "Fantasy_169050",
    "count_view": 0
  },
  {
    "link_thumb": "https://live.staticflickr.com/65535/50040640217_d428c0a825_n.jpg",
    "id_album": "779690680",
    "description": "Robot_857298",
    "title": "Robot_857298",
    "link_img": "https://live.staticflickr.com/65535/50040640217_95ef776b8e_o.jpg",
    "id_image": "Robot_857298",
    "count_view": 0
  },
  {
    "link_thumb": "https://live.staticflickr.com/65535/50039409266_9ee1190df3_n.jpg",
    "id_album": "1187037014",
    "description": "Battle_957796",
    "title": "Battle_957796",
    "link_img": "https://live.staticflickr.com/65535/50039409266_a576a93bf6_o.jpg",
    "id_image": "Battle_957796",
    "count_view": 0
  },
  {
    "link_thumb": "https://live.staticflickr.com/65535/50039077158_b4afbcd16e_n.jpg",
    "id_album": "1204249541",
    "description": "Galaxy_203954",
    "title": "Galaxy_203954",
    "link_img": "https://live.staticflickr.com/65535/50039077158_19fe3956f9_o.jpg",
    "id_image": "Galaxy_203954",
    "count_view": 0
  },
  {
    "link_thumb": "https://live.staticflickr.com/65535/50040438146_46a7f0b560_n.jpg",
    "id_album": "779690680",
    "description": "Robot_944751",
    "title": "Robot_944751",
    "link_img": "https://live.staticflickr.com/65535/50040438146_d838feb504_o.jpg",
    "id_image": "Robot_944751",
    "count_view": 0
  },
  {
    "link_thumb": "https://live.staticflickr.com/65535/50040251697_da51773fc8_n.jpg",
    "id_album": "395161030",
    "description": "Planet_957424",
    "title": "Planet_957424",
    "link_img": "https://live.staticflickr.com/65535/50040251697_62e109065f_o.jpg",
    "id_image": "Planet_957424",
    "count_view": 0
  },
  {
    "link_thumb": "https://live.staticflickr.com/65535/50039776031_c3e58e60f7_n.jpg",
    "id_album": "-1610342324",
    "description": "Nebula_248963",
    "title": "Nebula_248963",
    "link_img": "https://live.staticflickr.com/65535/50039776031_d6f22b1086_o.jpg",
    "id_image": "Nebula_248963",
    "count_view": 0
  },
  {
    "link_thumb": "https://live.staticflickr.com/65535/50041572327_7791a5c289_n.jpg",
    "id_album": "1267121215",
    "description": "Steampunk_264131",
    "title": "Steampunk_264131",
    "link_img": "https://live.staticflickr.com/65535/50041572327_b1f3491341_o.jpg",
    "id_image": "Steampunk_264131",
    "count_view": 0
  },
  {
    "link_thumb": "https://live.staticflickr.com/65535/50039644902_82c057ffa1_n.jpg",
    "id_album": "869545341",
    "description": "Astronaut_931163",
    "title": "Astronaut_931163",
    "link_img": "https://live.staticflickr.com/65535/50039644902_c32ca24ed8_o.jpg",
    "id_image": "Astronaut_931163",
    "count_view": 0
  },
  {
    "link_thumb": "https://live.staticflickr.com/65535/50039235398_4c75d4d376_n.jpg",
    "id_album": "-1610342324",
    "description": "Nebula_304913",
    "title": "Nebula_304913",
    "link_img": "https://live.staticflickr.com/65535/50039235398_4bd58af705_o.jpg",
    "id_image": "Nebula_304913",
    "count_view": 0
  },
  {
    "link_thumb": "https://live.staticflickr.com/65535/50040298001_7cf81c54e2_n.jpg",
    "id_album": "779690680",
    "description": "Robot_375790",
    "title": "Robot_375790",
    "link_img": "https://live.staticflickr.com/65535/50040298001_6f69a2eb31_o.jpg",
    "id_image": "Robot_375790",
    "count_view": 0
  },
  {
    "link_thumb": "https://live.staticflickr.com/65535/50039251316_b697f4c5f9_n.jpg",
    "id_album": "849020728",
    "description": "Alien_187019",
    "title": "Alien_187019",
    "link_img": "https://live.staticflickr.com/65535/50039251316_abbba787cc_o.jpg",
    "id_image": "Alien_187019",
    "count_view": 0
  },
  {
    "link_thumb": "https://live.staticflickr.com/65535/50040680277_d6a7581ab1_n.jpg",
    "id_album": "779690680",
    "description": "Robot_918800",
    "title": "Robot_918800",
    "link_img": "https://live.staticflickr.com/65535/50040680277_5e9144c39d_o.jpg",
    "id_image": "Robot_918800",
    "count_view": 0
  },
  {
    "link_thumb": "https://live.staticflickr.com/65535/50040144782_fe867d058e_n.jpg",
    "id_album": "-1862561193",
    "description": "Other_266919",
    "title": "Other_266919",
    "link_img": "https://live.staticflickr.com/65535/50040144782_d726009e3d_o.jpg",
    "id_image": "Other_266919",
    "count_view": 0
  },
  {
    "link_thumb": "https://live.staticflickr.com/65535/50039476911_d21ca10a08_n.jpg",
    "id_album": "-1964113117",
    "description": "City_542529",
    "title": "City_542529",
    "link_img": "https://live.staticflickr.com/65535/50039476911_928efa3534_o.jpg",
    "id_image": "City_542529",
    "count_view": 0
  },
  {
    "link_thumb": "https://live.staticflickr.com/65535/50038856968_21718abd15_n.jpg",
    "id_album": "1187037014",
    "description": "Battle_631687",
    "title": "Battle_631687",
    "link_img": "https://live.staticflickr.com/65535/50038856968_1b20f3c410_o.jpg",
    "id_image": "Battle_631687",
    "count_view": 0
  },
  {
    "link_thumb": "https://live.staticflickr.com/65535/50039687552_ed07c947d4_n.jpg",
    "id_album": "406431601",
    "description": "Building_873147",
    "title": "Building_873147",
    "link_img": "https://live.staticflickr.com/65535/50039687552_41047c2368_o.jpg",
    "id_image": "Building_873147",
    "count_view": 0
  },
  {
    "link_thumb": "https://live.staticflickr.com/65535/50040078206_b71e45a38b_n.jpg",
    "id_album": "-1102314093",
    "description": "Planets_291226",
    "title": "Planets_291226",
    "link_img": "https://live.staticflickr.com/65535/50040078206_2f09e40cc6_o.jpg",
    "id_image": "Planets_291226",
    "count_view": 0
  },
  {
    "link_thumb": "https://live.staticflickr.com/65535/50039941752_28bce55d7a_n.jpg",
    "id_album": "1402713104",
    "description": "Landscape_330988",
    "title": "Landscape_330988",
    "link_img": "https://live.staticflickr.com/65535/50039941752_589700d3c9_o.jpg",
    "id_image": "Landscape_330988",
    "count_view": 0
  },
  {
    "link_thumb": "https://live.staticflickr.com/65535/50039761227_6d64370923_n.jpg",
    "id_album": "-1964113117",
    "description": "City_819046",
    "title": "City_819046",
    "link_img": "https://live.staticflickr.com/65535/50039761227_61727c0eb7_o.jpg",
    "id_image": "City_819046",
    "count_view": 0
  },
  {
    "link_thumb": "https://live.staticflickr.com/65535/50039386546_929cdece6f_n.jpg",
    "id_album": "869545341",
    "description": "Astronaut_965900",
    "title": "Astronaut_965900",
    "link_img": "https://live.staticflickr.com/65535/50039386546_f848d53bc1_o.jpg",
    "id_image": "Astronaut_965900",
    "count_view": 0
  },
  {
    "link_thumb": "https://live.staticflickr.com/65535/50040396191_7289506732_n.jpg",
    "id_album": "779690680",
    "description": "Robot_889657",
    "title": "Robot_889657",
    "link_img": "https://live.staticflickr.com/65535/50040396191_aa0860cd5c_o.jpg",
    "id_image": "Robot_889657",
    "count_view": 0
  },
  {
    "link_thumb": "https://live.staticflickr.com/65535/50040416802_b19915cb50_n.jpg",
    "id_album": "376235057",
    "description": "Planetscape_1009887",
    "title": "Planetscape_1009887",
    "link_img": "https://live.staticflickr.com/65535/50040416802_48018e620b_o.jpg",
    "id_image": "Planetscape_1009887",
    "count_view": 0
  },
  {
    "link_thumb": "https://live.staticflickr.com/65535/50039183448_bd47fd7b79_n.jpg",
    "id_album": "-1388385651",
    "description": "MilkyWay_550926",
    "title": "MilkyWay_550926",
    "link_img": "https://live.staticflickr.com/65535/50039183448_4bc8ed835e_o.jpg",
    "id_image": "MilkyWay_550926",
    "count_view": 0
  },
  {
    "link_thumb": "https://live.staticflickr.com/65535/50039314311_8f0f2c6b3d_n.jpg",
    "id_album": "523598895",
    "description": "Artistic_210704",
    "title": "Artistic_210704",
    "link_img": "https://live.staticflickr.com/65535/50039314311_24685474ca_o.jpg",
    "id_image": "Artistic_210704",
    "count_view": 0
  },
  {
    "link_thumb": "https://live.staticflickr.com/65535/50039623611_283cc89fb9_n.jpg",
    "id_album": "1204249541",
    "description": "Galaxy_1006931",
    "title": "Galaxy_1006931",
    "link_img": "https://live.staticflickr.com/65535/50039623611_2e06dbaa88_o.jpg",
    "id_image": "Galaxy_1006931",
    "count_view": 0
  },
  {
    "link_thumb": "https://live.staticflickr.com/65535/50041327351_21d2115a24_n.jpg",
    "id_album": "1267121215",
    "description": "Steampunk_703396",
    "title": "Steampunk_703396",
    "link_img": "https://live.staticflickr.com/65535/50041327351_323b197dee_o.jpg",
    "id_image": "Steampunk_703396",
    "count_view": 0
  },
  {
    "link_thumb": "https://live.staticflickr.com/65535/50041340232_e307d0a462_n.jpg",
    "id_album": "-1863373220",
    "description": "StarWars_103480",
    "title": "StarWars_103480",
    "link_img": "https://live.staticflickr.com/65535/50041340232_5220ef7836_o.jpg",
    "id_image": "StarWars_103480",
    "count_view": 0
  },
  {
    "link_thumb": "https://live.staticflickr.com/65535/50038863058_74f234ff1d_n.jpg",
    "id_album": "-1780971522",
    "description": "Biohazard_274059",
    "title": "Biohazard_274059",
    "link_img": "https://live.staticflickr.com/65535/50038863058_08c7c56404_o.jpg",
    "id_image": "Biohazard_274059",
    "count_view": 0
  },
  {
    "link_thumb": "https://live.staticflickr.com/65535/50040530471_e0d531acaa_n.jpg",
    "id_album": "1613540653",
    "description": "Space_694467",
    "title": "Space_694467",
    "link_img": "https://live.staticflickr.com/65535/50040530471_4a1440dbea_o.jpg",
    "id_image": "Space_694467",
    "count_view": 0
  },
  {
    "link_thumb": "https://live.staticflickr.com/65535/50039424466_99f845e182_n.jpg",
    "id_album": "406431601",
    "description": "Building_867735",
    "title": "Building_867735",
    "link_img": "https://live.staticflickr.com/65535/50039424466_902f774290_o.jpg",
    "id_image": "Building_867735",
    "count_view": 0
  },
  {
    "link_thumb": "https://live.staticflickr.com/65535/50039893182_e636ba3c38_n.jpg",
    "id_album": "1204249541",
    "description": "Galaxy_305308",
    "title": "Galaxy_305308",
    "link_img": "https://live.staticflickr.com/65535/50039893182_89dfddf850_o.jpg",
    "id_image": "Galaxy_305308",
    "count_view": 0
  },
  {
    "link_thumb": "https://live.staticflickr.com/65535/50040113671_d537c478f9_n.jpg",
    "id_album": "-1102314093",
    "description": "Planets_426127",
    "title": "Planets_426127",
    "link_img": "https://live.staticflickr.com/65535/50040113671_d1cdd7fc6d_o.jpg",
    "id_image": "Planets_426127",
    "count_view": 0
  },
  {
    "link_thumb": "https://live.staticflickr.com/65535/50041580312_8d4a9bf218_n.jpg",
    "id_album": "1267121215",
    "description": "Steampunk_413258",
    "title": "Steampunk_413258",
    "link_img": "https://live.staticflickr.com/65535/50041580312_f775e3874a_o.jpg",
    "id_image": "Steampunk_413258",
    "count_view": 0
  },
  {
    "link_thumb": "https://live.staticflickr.com/65535/50041295486_4e59330704_n.jpg",
    "id_album": "1267121215",
    "description": "Steampunk_190407",
    "title": "Steampunk_190407",
    "link_img": "https://live.staticflickr.com/65535/50041295486_69c01222c7_o.jpg",
    "id_image": "Steampunk_190407",
    "count_view": 0
  },
  {
    "link_thumb": "https://live.staticflickr.com/65535/50039646492_750ed147ed_n.jpg",
    "id_album": "869545341",
    "description": "Astronaut_955691",
    "title": "Astronaut_955691",
    "link_img": "https://live.staticflickr.com/65535/50039646492_9c2b5fac20_o.jpg",
    "id_image": "Astronaut_955691",
    "count_view": 0
  },
  {
    "link_thumb": "https://live.staticflickr.com/65535/50039029538_900c5caa3c_n.jpg",
    "id_album": "829169633",
    "description": "Cyborg_177109",
    "title": "Cyborg_177109",
    "link_img": "https://live.staticflickr.com/65535/50039029538_67cdaa4354_o.jpg",
    "id_image": "Cyborg_177109",
    "count_view": 0
  },
  {
    "link_thumb": "https://live.staticflickr.com/65535/50041035043_42ebabeff4_n.jpg",
    "id_album": "-1675918237",
    "description": "WomenWarrior_849366",
    "title": "WomenWarrior_849366",
    "link_img": "https://live.staticflickr.com/65535/50041035043_0c2d31a4df_o.jpg",
    "id_image": "WomenWarrior_849366",
    "count_view": 0
  },
  {
    "link_thumb": "https://live.staticflickr.com/65535/50038848888_8c7757f9a7_n.jpg",
    "id_album": "1187037014",
    "description": "Battle_233996",
    "title": "Battle_233996",
    "link_img": "https://live.staticflickr.com/65535/50038848888_ca8aefc61b_o.jpg",
    "id_image": "Battle_233996",
    "count_view": 0
  },
  {
    "link_thumb": "https://live.staticflickr.com/65535/50040425491_5f6449827a_n.jpg",
    "id_album": "779690680",
    "description": "Robot_928639",
    "title": "Robot_928639",
    "link_img": "https://live.staticflickr.com/65535/50040425491_08fbc1b27f_o.jpg",
    "id_image": "Robot_928639",
    "count_view": 0
  }
]