[
  {
    "link_thumb": "https://live.staticflickr.com/65535/50038881848_0cc0ed1f45_n.jpg",
    "id_album": "-1964113117",
    "description": "City_1008908",
    "title": "City_1008908",
    "link_img": "https://live.staticflickr.com/65535/50038881848_8801abbb1f_o.jpg",
    "id_image": "City_1008908",
    "count_view": 0
  },
  {
    "link_thumb": "https://live.staticflickr.com/65535/50039899687_00df7c69fa_n.jpg",
    "id_album": "1204249541",
    "description": "Galaxy_454253",
    "title": "Galaxy_454253",
    "link_img": "https://live.staticflickr.com/65535/50039899687_c52c024539_o.jpg",
    "id_image": "Galaxy_454253",
    "count_view": 0
  },
  {
    "link_thumb": "https://live.staticflickr.com/65535/50039940037_bc2cb98495_n.jpg",
    "id_album": "1402713104",
    "description": "Landscape_324659",
    "title": "Landscape_324659",
    "link_img": "https://live.staticflickr.com/65535/50039940037_b08fb9e0d8_o.jpg",
    "id_image": "Landscape_324659",
    "count_view": 0
  },
  {
    "link_thumb": "https://live.staticflickr.com/65535/50040401291_c9f30aceaa_n.jpg",
    "id_album": "779690680",
    "description": "Robot_903926",
    "title": "Robot_903926",
    "link_img": "https://live.staticflickr.com/65535/50040401291_ed8bbddb79_o.jpg",
    "id_image": "Robot_903926",
    "count_view": 0
  },
  {
    "link_thumb": "https://live.staticflickr.com/65535/50041586146_f6fa1899e0_n.jpg",
    "id_album": "-1675918237",
    "description": "WomenWarrior_669482",
    "title": "WomenWarrior_669482",
    "link_img": "https://live.staticflickr.com/65535/50041586146_5e2d09c025_o.jpg",
    "id_image": "WomenWarrior_669482",
    "count_view": 0
  },
  {
    "link_thumb": "https://live.staticflickr.com/65535/50039855492_f8cc35f7ef_n.jpg",
    "id_album": "829169633",
    "description": "Cyborg_547371",
    "title": "Cyborg_547371",
    "link_img": "https://live.staticflickr.com/65535/50039855492_dc958a0396_o.jpg",
    "id_image": "Cyborg_547371",
    "count_view": 0
  },
  {
    "link_thumb": "https://live.staticflickr.com/65535/50040625123_f3b8035da6_n.jpg",
    "id_album": "-1863373220",
    "description": "StarWars_412935",
    "title": "StarWars_412935",
    "link_img": "https://live.staticflickr.com/65535/50040625123_e9d0a0485b_o.jpg",
    "id_image": "StarWars_412935",
    "count_view": 0
  },
  {
    "link_thumb": "https://live.staticflickr.com/65535/50040311427_23f130f2bd_n.jpg",
    "id_album": "-1102314093",
    "description": "Planets_114752",
    "title": "Planets_114752",
    "link_img": "https://live.staticflickr.com/65535/50040311427_1b4ca11c44_o.jpg",
    "id_image": "Planets_114752",
    "count_view": 0
  },
  {
    "link_thumb": "https://live.staticflickr.com/65535/50039360858_f9d5248887_n.jpg",
    "id_album": "395161030",
    "description": "Planet_175704",
    "title": "Planet_175704",
    "link_img": "https://live.staticflickr.com/65535/50039360858_8e3fd2a32e_o.jpg",
    "id_image": "Planet_175704",
    "count_view": 0
  },
  {
    "link_thumb": "https://live.staticflickr.com/65535/50039285638_d627146b02_n.jpg",
    "id_album": "-1610342324",
    "description": "Nebula_772698",
    "title": "Nebula_772698",
    "link_img": "https://live.staticflickr.com/65535/50039285638_019232b02a_o.jpg",
    "id_image": "Nebula_772698",
    "count_view": 0
  },
  {
    "link_thumb": "https://live.staticflickr.com/65535/50039676743_b0caa5fd0f_n.jpg",
    "id_album": "-482547208",
    "description": "PostApocalyptic_877859",
    "title": "PostApocalyptic_877859",
    "link_img": "https://live.staticflickr.com/65535/50039676743_9ebcc09b98_o.jpg",
    "id_image": "PostApocalyptic_877859",
    "count_view": 0
  },
  {
    "link_thumb": "https://live.staticflickr.com/65535/50041639322_82093aeb78_n.jpg",
    "id_album": "2020068132",
    "description": "Vehicle_211341",
    "title": "Vehicle_211341",
    "link_img": "https://live.staticflickr.com/65535/50041639322_c860e2374e_o.jpg",
    "id_image": "Vehicle_211341",
    "count_view": 0
  },
  {
    "link_thumb": "https://live.staticflickr.com/65535/50039419181_7a225039e8_n.jpg",
    "id_album": "-1780971522",
    "description": "Biohazard_577358",
    "title": "Biohazard_577358",
    "link_img": "https://live.staticflickr.com/65535/50039419181_de17edbd4d_o.jpg",
    "id_image": "Biohazard_577358",
    "count_view": 0
  },
  {
    "link_thumb": "https://live.staticflickr.com/65535/50039587223_c004c70032_n.jpg",
    "id_album": "-1102314093",
    "description": "Planets_807190",
    "title": "Planets_807190",
    "link_img": "https://live.staticflickr.com/65535/50039587223_d20d29099d_o.jpg",
    "id_image": "Planets_807190",
    "count_view": 0
  },
  {
    "link_thumb": "https://live.staticflickr.com/65535/50040293452_11e204a47d_n.jpg",
    "id_album": "814701616",
    "description": "PlanetaryRing_360079",
    "title": "PlanetaryRing_360079",
    "link_img": "https://live.staticflickr.com/65535/50040293452_49a09ff95d_o.jpg",
    "id_image": "PlanetaryRing_360079",
    "count_view": 0
  },
  {
    "link_thumb": "https://live.staticflickr.com/65535/50039490912_d7f5816a69_n.jpg",
    "id_album": "280884763",
    "description": "Abstract_229319",
    "title": "Abstract_229319",
    "link_img": "https://live.staticflickr.com/65535/50039490912_54dcd18721_o.jpg",
    "id_image": "Abstract_229319",
    "count_view": 0
  },
  {
    "link_thumb": "https://live.staticflickr.com/65535/50039000558_56c14c35eb_n.jpg",
    "id_album": "-437872736",
    "description": "Creature_289945",
    "title": "Creature_289945",
    "link_img": "https://live.staticflickr.com/65535/50039000558_13521c72ba_o.jpg",
    "id_image": "Creature_289945",
    "count_view": 0
  },
  {
    "link_thumb": "https://live.staticflickr.com/65535/50039909386_a4d7df414d_n.jpg",
    "id_album": "395161030",
    "description": "Planet_174641",
    "title": "Planet_174641",
    "link_img": "https://live.staticflickr.com/65535/50039909386_660a925afc_o.jpg",
    "id_image": "Planet_174641",
    "count_view": 0
  },
  {
    "link_thumb": "https://live.staticflickr.com/65535/50040905618_f7d94c13fb_n.jpg",
    "id_album": "-1261420436",
    "description": "Warrior_412737",
    "title": "Warrior_412737",
    "link_img": "https://live.staticflickr.com/65535/50040905618_9d26b37d3e_o.jpg",
    "id_image": "Warrior_412737",
    "count_view": 0
  },
  {
    "link_thumb": "https://live.staticflickr.com/65535/50040053327_c8c0ac95cb_n.jpg",
    "id_album": "-1610342324",
    "description": "Nebula_38847",
    "title": "Nebula_38847",
    "link_img": "https://live.staticflickr.com/65535/50040053327_8256c2d53e_o.jpg",
    "id_image": "Nebula_38847",
    "count_view": 0
  },
  {
    "link_thumb": "https://live.staticflickr.com/65535/50039903496_4460e06453_n.jpg",
    "id_album": "395161030",
    "description": "Planet_106114",
    "title": "Planet_106114",
    "link_img": "https://live.staticflickr.com/65535/50039903496_9b51bc6347_o.jpg",
    "id_image": "Planet_106114",
    "count_view": 0
  },
  {
    "link_thumb": "https://live.staticflickr.com/65535/50040765902_94cb502b5f_n.jpg",
    "id_album": "1613540653",
    "description": "Space_368406",
    "title": "Space_368406",
    "link_img": "https://live.staticflickr.com/65535/50040765902_7ae0c889be_o.jpg",
    "id_image": "Space_368406",
    "count_view": 0
  },
  {
    "link_thumb": "https://live.staticflickr.com/65535/50041012427_cdbd33bdc7_n.jpg",
    "id_album": "2130067313",
    "description": "Spaceship_778587",
    "title": "Spaceship_778587",
    "link_img": "https://live.staticflickr.com/65535/50041012427_42733f353f_o.jpg",
    "id_image": "Spaceship_778587",
    "count_view": 0
  },
  {
    "link_thumb": "https://live.staticflickr.com/65535/50040012796_baa5d909a7_n.jpg",
    "id_album": "1443611160",
    "description": "PlanetRise_76944",
    "title": "PlanetRise_76944",
    "link_img": "https://live.staticflickr.com/65535/50040012796_83f0305a18_o.jpg",
    "id_image": "PlanetRise_76944",
    "count_view": 0
  },
  {
    "link_thumb": "https://live.staticflickr.com/65535/50039871287_117c7750a5_n.jpg",
    "id_album": "651930207",
    "description": "Explosion_2868",
    "title": "Explosion_2868",
    "link_img": "https://live.staticflickr.com/65535/50039871287_1f1c844395_o.jpg",
    "id_image": "Explosion_2868",
    "count_view": 0
  },
  {
    "link_thumb": "https://live.staticflickr.com/65535/50039780367_7e1b84899f_n.jpg",
    "id_album": "-1964113117",
    "description": "City_906337",
    "title": "City_906337",
    "link_img": "https://live.staticflickr.com/65535/50039780367_6ec599353f_o.jpg",
    "id_image": "City_906337",
    "count_view": 0
  },
  {
    "link_thumb": "https://live.staticflickr.com/65535/50039846291_470215b6e6_n.jpg",
    "id_album": "-1610342324",
    "description": "Nebula_868972",
    "title": "Nebula_868972",
    "link_img": "https://live.staticflickr.com/65535/50039846291_75549cc0c0_o.jpg",
    "id_image": "Nebula_868972",
    "count_view": 0
  },
  {
    "link_thumb": "https://live.staticflickr.com/65535/50038845073_be22c4fb78_n.jpg",
    "id_album": "1187037014",
    "description": "Battle_115138",
    "title": "Battle_115138",
    "link_img": "https://live.staticflickr.com/65535/50038845073_3159070565_o.jpg",
    "id_image": "Battle_115138",
    "count_view": 0
  },
  {
    "link_thumb": "https://live.staticflickr.com/65535/50039604208_04a3ec8ff5_n.jpg",
    "id_album": "376235057",
    "description": "Planetscape_280012",
    "title": "Planetscape_280012",
    "link_img": "https://live.staticflickr.com/65535/50039604208_0d4789ca3e_o.jpg",
    "id_image": "Planetscape_280012",
    "count_view": 0
  },
  {
    "link_thumb": "https://live.staticflickr.com/65535/50038838643_c142c234f3_n.jpg",
    "id_album": "869545341",
    "description": "Astronaut_967447",
    "title": "Astronaut_967447",
    "link_img": "https://live.staticflickr.com/65535/50038838643_b8b03c9360_o.jpg",
    "id_image": "Astronaut_967447",
    "count_view": 0
  },
  {
    "link_thumb": "https://live.staticflickr.com/65535/50040433697_13c391efd5_n.jpg",
    "id_album": "376235057",
    "description": "Planetscape_376297",
    "title": "Planetscape_376297",
    "link_img": "https://live.staticflickr.com/65535/50040433697_ef3b9f2ea2_o.jpg",
    "id_image": "Planetscape_376297",
    "count_view": 0
  },
  {
    "link_thumb": "https://live.staticflickr.com/65535/50039909437_e2263a1674_n.jpg",
    "id_album": "1204249541",
    "description": "Galaxy_593259",
    "title": "Galaxy_593259",
    "link_img": "https://live.staticflickr.com/65535/50039909437_f23b6319c6_o.jpg",
    "id_image": "Galaxy_593259",
    "count_view": 0
  },
  {
    "link_thumb": "https://live.staticflickr.com/65535/50038745618_2ca7baf052_n.jpg",
    "id_album": "523598895",
    "description": "Artistic_112792",
    "title": "Artistic_112792",
    "link_img": "https://live.staticflickr.com/65535/50038745618_a88bd00852_o.jpg",
    "id_image": "Artistic_112792",
    "count_view": 0
  },
  {
    "link_thumb": "https://live.staticflickr.com/65535/50040465737_d02ba43512_n.jpg",
    "id_album": "-482547208",
    "description": "PostApocalyptic_242352",
    "title": "PostApocalyptic_242352",
    "link_img": "https://live.staticflickr.com/65535/50040465737_4dbae4cc91_o.jpg",
    "id_image": "PostApocalyptic_242352",
    "count_view": 0
  },
  {
    "link_thumb": "https://live.staticflickr.com/65535/50039804676_93bbc5a417_n.jpg",
    "id_album": "-1610342324",
    "description": "Nebula_533752",
    "title": "Nebula_533752",
    "link_img": "https://live.staticflickr.com/65535/50039804676_c6edec128d_o.jpg",
    "id_image": "Nebula_533752",
    "count_view": 0
  },
  {
    "link_thumb": "https://live.staticflickr.com/65535/50039563683_227420d3b4_n.jpg",
    "id_album": "-1102314093",
    "description": "Planets_426318",
    "title": "Planets_426318",
    "link_img": "https://live.staticflickr.com/65535/50039563683_a671e38d82_o.jpg",
    "id_image": "Planets_426318",
    "count_view": 0
  },
  {
    "link_thumb": "https://live.staticflickr.com/65535/50039034553_a7d296a05e_n.jpg",
    "id_album": "829169633",
    "description": "Cyborg_282884",
    "title": "Cyborg_282884",
    "link_img": "https://live.staticflickr.com/65535/50039034553_0563fb8a4d_o.jpg",
    "id_image": "Cyborg_282884",
    "count_view": 0
  },
  {
    "link_thumb": "https://live.staticflickr.com/65535/50039669338_8678901538_n.jpg",
    "id_album": "-482547208",
    "description": "PostApocalyptic_717812",
    "title": "PostApocalyptic_717812",
    "link_img": "https://live.staticflickr.com/65535/50039669338_9dfdae034b_o.jpg",
    "id_image": "PostApocalyptic_717812",
    "count_view": 0
  },
  {
    "link_thumb": "https://live.staticflickr.com/65535/50039507062_e422f401e9_n.jpg",
    "id_album": "849020728",
    "description": "Alien_120337",
    "title": "Alien_120337",
    "link_img": "https://live.staticflickr.com/65535/50039507062_2051e8b2b5_o.jpg",
    "id_image": "Alien_120337",
    "count_view": 0
  },
  {
    "link_thumb": "https://live.staticflickr.com/65535/50039850791_4dc5fe251e_n.jpg",
    "id_album": "-1610342324",
    "description": "Nebula_899656",
    "title": "Nebula_899656",
    "link_img": "https://live.staticflickr.com/65535/50039850791_4cb9ea2e3d_o.jpg",
    "id_image": "Nebula_899656",
    "count_view": 0
  },
  {
    "link_thumb": "https://live.staticflickr.com/65535/50040033287_6d460f75b3_n.jpg",
    "id_album": "-1610342324",
    "description": "Nebula_207909",
    "title": "Nebula_207909",
    "link_img": "https://live.staticflickr.com/65535/50040033287_946599128f_o.jpg",
    "id_image": "Nebula_207909",
    "count_view": 0
  },
  {
    "link_thumb": "https://live.staticflickr.com/65535/50039457618_3eb4d1e348_n.jpg",
    "id_album": "1443611160",
    "description": "PlanetRise_472335",
    "title": "PlanetRise_472335",
    "link_img": "https://live.staticflickr.com/65535/50039457618_e1fdbeba91_o.jpg",
    "id_image": "PlanetRise_472335",
    "count_view": 0
  },
  {
    "link_thumb": "https://live.staticflickr.com/65535/50040233336_bec2aba565_n.jpg",
    "id_album": "-482547208",
    "description": "PostApocalyptic_954006",
    "title": "PostApocalyptic_954006",
    "link_img": "https://live.staticflickr.com/65535/50040233336_792af9fd23_o.jpg",
    "id_image": "PostApocalyptic_954006",
    "count_view": 0
  },
  {
    "link_thumb": "https://live.staticflickr.com/65535/50039290251_e2fecbde54_n.jpg",
    "id_album": "-419633230",
    "description": "Apocalyptic_959087",
    "title": "Apocalyptic_959087",
    "link_img": "https://live.staticflickr.com/65535/50039290251_71fffb9a87_o.jpg",
    "id_image": "Apocalyptic_959087",
    "count_view": 0
  },
  {
    "link_thumb": "https://live.staticflickr.com/65535/50041590426_1cc438f0f6_n.jpg",
    "id_album": "-1675918237",
    "description": "WomenWarrior_920517",
    "title": "WomenWarrior_920517",
    "link_img": "https://live.staticflickr.com/65535/50041590426_5ebf193420_o.jpg",
    "id_image": "WomenWarrior_920517",
    "count_view": 0
  },
  {
    "link_thumb": "https://live.staticflickr.com/65535/50040282571_49416b28f9_n.jpg",
    "id_album": "779690680",
    "description": "Robot_291074",
    "title": "Robot_291074",
    "link_img": "https://live.staticflickr.com/65535/50040282571_3527398830_o.jpg",
    "id_image": "Robot_291074",
    "count_view": 0
  },
  {
    "link_thumb": "https://live.staticflickr.com/65535/50039240283_02f50ff7f2_n.jpg",
    "id_album": "-1610342324",
    "description": "Nebula_383694",
    "title": "Nebula_383694",
    "link_img": "https://live.staticflickr.com/65535/50039240283_374d3b14b1_o.jpg",
    "id_image": "Nebula_383694",
    "count_view": 0
  },
  {
    "link_thumb": "https://live.staticflickr.com/65535/50040395386_fe6b66f96c_n.jpg",
    "id_album": "779690680",
    "description": "Robot_887982",
    "title": "Robot_887982",
    "link_img": "https://live.staticflickr.com/65535/50040395386_09b0f5988c_o.jpg",
    "id_image": "Robot_887982",
    "count_view": 0
  },
  {
    "link_thumb": "https://live.staticflickr.com/65535/50039729417_cc7c36b25d_n.jpg",
    "id_album": "-1964113117",
    "description": "City_384781",
    "title": "City_384781",
    "link_img": "https://live.staticflickr.com/65535/50039729417_0c21b550d9_o.jpg",
    "id_image": "City_384781",
    "count_view": 0
  },
  {
    "link_thumb": "https://live.staticflickr.com/65535/50039756406_df22c0b5f7_n.jpg",
    "id_album": "416351698",
    "description": "Moon_480018",
    "title": "Moon_480018",
    "link_img": "https://live.staticflickr.com/65535/50039756406_8c8e21edc2_o.jpg",
    "id_image": "Moon_480018",
    "count_view": 0
  },
  {
    "link_thumb": "https://live.staticflickr.com/65535/50040064107_7f96478a5f_n.jpg",
    "id_album": "-1610342324",
    "description": "Nebula_500525",
    "title": "Nebula_500525",
    "link_img": "https://live.staticflickr.com/65535/50040064107_191af60e5e_o.jpg",
    "id_image": "Nebula_500525",
    "count_view": 0
  },
  {
    "link_thumb": "https://live.staticflickr.com/65535/50040238816_74b6576306_n.jpg",
    "id_album": "-839602625",
    "description": "Predator_27651",
    "title": "Predator_27651",
    "link_img": "https://live.staticflickr.com/65535/50040238816_36fc3fce1d_o.jpg",
    "id_image": "Predator_27651",
    "count_view": 0
  },
  {
    "link_thumb": "https://live.staticflickr.com/65535/50039658363_f8ec6339e9_n.jpg",
    "id_album": "-482547208",
    "description": "PostApocalyptic_424402",
    "title": "PostApocalyptic_424402",
    "link_img": "https://live.staticflickr.com/65535/50039658363_4e368b56f6_o.jpg",
    "id_image": "PostApocalyptic_424402",
    "count_view": 0
  },
  {
    "link_thumb": "https://live.staticflickr.com/65535/50039765096_cc700b1bde_n.jpg",
    "id_album": "-1610342324",
    "description": "Nebula_178027",
    "title": "Nebula_178027",
    "link_img": "https://live.staticflickr.com/65535/50039765096_3e82a1754d_o.jpg",
    "id_image": "Nebula_178027",
    "count_view": 0
  },
  {
    "link_thumb": "https://live.staticflickr.com/65535/50039994567_e4cf7ebd09_n.jpg",
    "id_album": "-1388385651",
    "description": "MilkyWay_153319",
    "title": "MilkyWay_153319",
    "link_img": "https://live.staticflickr.com/65535/50039994567_015966671f_o.jpg",
    "id_image": "MilkyWay_153319",
    "count_view": 0
  },
  {
    "link_thumb": "https://live.staticflickr.com/65535/50040435282_d7ddb374cf_n.jpg",
    "id_album": "376235057",
    "description": "Planetscape_383294",
    "title": "Planetscape_383294",
    "link_img": "https://live.staticflickr.com/65535/50040435282_617a5e9243_o.jpg",
    "id_image": "Planetscape_383294",
    "count_view": 0
  },
  {
    "link_thumb": "https://live.staticflickr.com/65535/50039645323_c4bd850fb6_n.jpg",
    "id_album": "-482547208",
    "description": "PostApocalyptic_231171",
    "title": "PostApocalyptic_231171",
    "link_img": "https://live.staticflickr.com/65535/50039645323_49c25946ec_o.jpg",
    "id_image": "PostApocalyptic_231171",
    "count_view": 0
  },
  {
    "link_thumb": "https://live.staticflickr.com/65535/50039892822_b593f6a04e_n.jpg",
    "id_album": "1204249541",
    "description": "Galaxy_293560",
    "title": "Galaxy_293560",
    "link_img": "https://live.staticflickr.com/65535/50039892822_8f8f8e5c32_o.jpg",
    "id_image": "Galaxy_293560",
    "count_view": 0
  },
  {
    "link_thumb": "https://live.staticflickr.com/65535/50041554092_27c3cd6730_n.jpg",
    "id_album": "1267121215",
    "description": "Steampunk_184480",
    "title": "Steampunk_184480",
    "link_img": "https://live.staticflickr.com/65535/50041554092_1f9d033136_o.jpg",
    "id_image": "Steampunk_184480",
    "count_view": 0
  },
  {
    "link_thumb": "https://live.staticflickr.com/65535/50041241146_bae6f29631_n.jpg",
    "id_album": "-1863373220",
    "description": "StarWars_916314",
    "title": "StarWars_916314",
    "link_img": "https://live.staticflickr.com/65535/50041241146_9b1eda3aa1_o.jpg",
    "id_image": "StarWars_916314",
    "count_view": 0
  },
  {
    "link_thumb": "https://live.staticflickr.com/65535/50039808806_18e464961a_n.jpg",
    "id_album": "-1610342324",
    "description": "Nebula_555192",
    "title": "Nebula_555192",
    "link_img": "https://live.staticflickr.com/65535/50039808806_cb01bc4a6f_o.jpg",
    "id_image": "Nebula_555192",
    "count_view": 0
  },
  {
    "link_thumb": "https://live.staticflickr.com/65535/50041610242_78be89bf9e_n.jpg",
    "id_album": "-221671103",
    "description": "Sun_373740",
    "title": "Sun_373740",
    "link_img": "https://live.staticflickr.com/65535/50041610242_504537e91e_o.jpg",
    "id_image": "Sun_373740",
    "count_view": 0
  },
  {
    "link_thumb": "https://live.staticflickr.com/65535/50040972882_cf1a89ab2b_n.jpg",
    "id_album": "2130067313",
    "description": "Spaceship_530267",
    "title": "Spaceship_530267",
    "link_img": "https://live.staticflickr.com/65535/50040972882_7e61524343_o.jpg",
    "id_image": "Spaceship_530267",
    "count_view": 0
  },
  {
    "link_thumb": "https://live.staticflickr.com/65535/50039495186_6c612f2636_n.jpg",
    "id_album": "-1964113117",
    "description": "City_750010",
    "title": "City_750010",
    "link_img": "https://live.staticflickr.com/65535/50039495186_d25d19e942_o.jpg",
    "id_image": "City_750010",
    "count_view": 0
  },
  {
    "link_thumb": "https://live.staticflickr.com/65535/50039227576_6f2f6a6d46_n.jpg",
    "id_album": "280884763",
    "description": "Abstract_213828",
    "title": "Abstract_213828",
    "link_img": "https://live.staticflickr.com/65535/50039227576_8d2e8aa4af_o.jpg",
    "id_image": "Abstract_213828",
    "count_view": 0
  },
  {
    "link_thumb": "https://live.staticflickr.com/65535/50041494447_e386f641b7_n.jpg",
    "id_album": "-1863373220",
    "description": "StarWars_868333",
    "title": "StarWars_868333",
    "link_img": "https://live.staticflickr.com/65535/50041494447_c3d2f08097_o.jpg",
    "id_image": "StarWars_868333",
    "count_view": 0
  },
  {
    "link_thumb": "https://live.staticflickr.com/65535/50040655997_737e3286e7_n.jpg",
    "id_album": "779690680",
    "description": "Robot_883159",
    "title": "Robot_883159",
    "link_img": "https://live.staticflickr.com/65535/50040655997_6f73399a42_o.jpg",
    "id_image": "Robot_883159",
    "count_view": 0
  },
  {
    "link_thumb": "https://live.staticflickr.com/65535/50038744983_ab7bb8c314_n.jpg",
    "id_album": "523598895",
    "description": "Artistic_108619",
    "title": "Artistic_108619",
    "link_img": "https://live.staticflickr.com/65535/50038744983_78600e8574_o.jpg",
    "id_image": "Artistic_108619",
    "count_view": 0
  },
  {
    "link_thumb": "https://live.staticflickr.com/65535/50040817888_2639998c75_n.jpg",
    "id_album": "2020068132",
    "description": "Vehicle_118042",
    "title": "Vehicle_118042",
    "link_img": "https://live.staticflickr.com/65535/50040817888_4454d8f6ae_o.jpg",
    "id_image": "Vehicle_118042",
    "count_view": 0
  },
  {
    "link_thumb": "https://live.staticflickr.com/65535/50040454242_71ed43fb5b_n.jpg",
    "id_album": "-482547208",
    "description": "PostApocalyptic_118751",
    "title": "PostApocalyptic_118751",
    "link_img": "https://live.staticflickr.com/65535/50040454242_01c9c5432b_o.jpg",
    "id_image": "PostApocalyptic_118751",
    "count_view": 0
  },
  {
    "link_thumb": "https://live.staticflickr.com/65535/50039800037_37fdd21a9d_n.jpg",
    "id_album": "894679094",
    "description": "Collision_286791",
    "title": "Collision_286791",
    "link_img": "https://live.staticflickr.com/65535/50039800037_5d8c62b31a_o.jpg",
    "id_image": "Collision_286791",
    "count_view": 0
  },
  {
    "link_thumb": "https://live.staticflickr.com/65535/50039239438_0d01b7ff46_n.jpg",
    "id_album": "-1610342324",
    "description": "Nebula_374907",
    "title": "Nebula_374907",
    "link_img": "https://live.staticflickr.com/65535/50039239438_7e12912bb6_o.jpg",
    "id_image": "Nebula_374907",
    "count_view": 0
  },
  {
    "link_thumb": "https://live.staticflickr.com/65535/50038909273_8c0820a258_n.jpg",
    "id_album": "-1964113117",
    "description": "City_282520",
    "title": "City_282520",
    "link_img": "https://live.staticflickr.com/65535/50038909273_c411ece272_o.jpg",
    "id_image": "City_282520",
    "count_view": 0
  },
  {
    "link_thumb": "https://live.staticflickr.com/65535/50039107673_47b5c11a14_n.jpg",
    "id_album": "1204249541",
    "description": "Galaxy_948044",
    "title": "Galaxy_948044",
    "link_img": "https://live.staticflickr.com/65535/50039107673_89a0a3fcaa_o.jpg",
    "id_image": "Galaxy_948044",
    "count_view": 0
  },
  {
    "link_thumb": "https://live.staticflickr.com/65535/50039330736_1e80cccd75_n.jpg",
    "id_album": "523598895",
    "description": "Artistic_347038",
    "title": "Artistic_347038",
    "link_img": "https://live.staticflickr.com/65535/50039330736_9a245ae235_o.jpg",
    "id_image": "Artistic_347038",
    "count_view": 0
  },
  {
    "link_thumb": "https://live.staticflickr.com/65535/50039196378_1c3ca97449_n.jpg",
    "id_album": "-1388385651",
    "description": "MilkyWay_720169",
    "title": "MilkyWay_720169",
    "link_img": "https://live.staticflickr.com/65535/50039196378_56d0e4fdaa_o.jpg",
    "id_image": "MilkyWay_720169",
    "count_view": 0
  },
  {
    "link_thumb": "https://live.staticflickr.com/65535/50041684232_9e2343ce16_n.jpg",
    "id_album": "2020068132",
    "description": "Vehicle_944731",
    "title": "Vehicle_944731",
    "link_img": "https://live.staticflickr.com/65535/50041684232_56b2c0ca91_o.jpg",
    "id_image": "Vehicle_944731",
    "count_view": 0
  },
  {
    "link_thumb": "https://live.staticflickr.com/65535/50039573927_c880ea8136_n.jpg",
    "id_album": "523598895",
    "description": "Artistic_205968",
    "title": "Artistic_205968",
    "link_img": "https://live.staticflickr.com/65535/50039573927_207891e34e_o.jpg",
    "id_image": "Artistic_205968",
    "count_view": 0
  },
  {
    "link_thumb": "https://live.staticflickr.com/65535/50040685842_10878fcac6_n.jpg",
    "id_album": "779690680",
    "description": "Robot_928550",
    "title": "Robot_928550",
    "link_img": "https://live.staticflickr.com/65535/50040685842_558bc1b795_o.jpg",
    "id_image": "Robot_928550",
    "count_view": 0
  },
  {
    "link_thumb": "https://live.staticflickr.com/65535/50040184377_a6050ec649_n.jpg",
    "id_album": "395161030",
    "description": "Planet_221802",
    "title": "Planet_221802",
    "link_img": "https://live.staticflickr.com/65535/50040184377_5d01884436_o.jpg",
    "id_image": "Planet_221802",
    "count_view": 0
  },
  {
    "link_thumb": "https://live.staticflickr.com/65535/50039615427_fa433ee923_n.jpg",
    "id_album": "869545341",
    "description": "Astronaut_314713",
    "title": "Astronaut_314713",
    "link_img": "https://live.staticflickr.com/65535/50039615427_fbb6417f9a_o.jpg",
    "id_image": "Astronaut_314713",
    "count_view": 0
  },
  {
    "link_thumb": "https://live.staticflickr.com/65535/50040050137_50a3453056_n.jpg",
    "id_album": "-1610342324",
    "description": "Nebula_314910",
    "title": "Nebula_314910",
    "link_img": "https://live.staticflickr.com/65535/50040050137_bb92c33810_o.jpg",
    "id_image": "Nebula_314910",
    "count_view": 0
  },
  {
    "link_thumb": "https://live.staticflickr.com/65535/50039961097_85b2f4dd0d_n.jpg",
    "id_album": "1402713104",
    "description": "Landscape_648845",
    "title": "Landscape_648845",
    "link_img": "https://live.staticflickr.com/65535/50039961097_2a9bf52185_o.jpg",
    "id_image": "Landscape_648845",
    "count_view": 0
  },
  {
    "link_thumb": "https://live.staticflickr.com/65535/50039219743_a3fdf41784_n.jpg",
    "id_album": "-1610342324",
    "description": "Nebula_205922",
    "title": "Nebula_205922",
    "link_img": "https://live.staticflickr.com/65535/50039219743_d0c47ccebe_o.jpg",
    "id_image": "Nebula_205922",
    "count_view": 0
  },
  {
    "link_thumb": "https://live.staticflickr.com/65535/50040554186_cf28a08cf9_n.jpg",
    "id_album": "1613540653",
    "description": "Space_957467",
    "title": "Space_957467",
    "link_img": "https://live.staticflickr.com/65535/50040554186_55f5280697_o.jpg",
    "id_image": "Space_957467",
    "count_view": 0
  },
  {
    "link_thumb": "https://live.staticflickr.com/65535/50039530621_199ccd41b0_n.jpg",
    "id_album": "-1964113117",
    "description": "City_976909",
    "title": "City_976909",
    "link_img": "https://live.staticflickr.com/65535/50039530621_5395835ac4_o.jpg",
    "id_image": "City_976909",
    "count_view": 0
  },
  {
    "link_thumb": "https://live.staticflickr.com/65535/50039931896_f272d30857_n.jpg",
    "id_album": "395161030",
    "description": "Planet_347830",
    "title": "Planet_347830",
    "link_img": "https://live.staticflickr.com/65535/50039931896_5b03c12046_o.jpg",
    "id_image": "Planet_347830",
    "count_view": 0
  },
  {
    "link_thumb": "https://live.staticflickr.com/65535/50038945718_23a800956a_n.jpg",
    "id_album": "-1964113117",
    "description": "City_741189",
    "title": "City_741189",
    "link_img": "https://live.staticflickr.com/65535/50038945718_da69657171_o.jpg",
    "id_image": "City_741189",
    "count_view": 0
  },
  {
    "link_thumb": "https://live.staticflickr.com/65535/50040870268_fb46576ccf_n.jpg",
    "id_album": "2020068132",
    "description": "Vehicle_958228",
    "title": "Vehicle_958228",
    "link_img": "https://live.staticflickr.com/65535/50040870268_2f661616ae_o.jpg",
    "id_image": "Vehicle_958228",
    "count_view": 0
  },
  {
    "link_thumb": "https://live.staticflickr.com/65535/50039078368_b24e5a7e8f_n.jpg",
    "id_album": "1204249541",
    "description": "Galaxy_235286",
    "title": "Galaxy_235286",
    "link_img": "https://live.staticflickr.com/65535/50039078368_df6d0a6632_o.jpg",
    "id_image": "Galaxy_235286",
    "count_view": 0
  },
  {
    "link_thumb": "https://live.staticflickr.com/65535/50038679073_dfa488d1dd_n.jpg",
    "id_album": "280884763",
    "description": "Abstract_120530",
    "title": "Abstract_120530",
    "link_img": "https://live.staticflickr.com/65535/50038679073_ccbb4a6b20_o.jpg",
    "id_image": "Abstract_120530",
    "count_view": 0
  },
  {
    "link_thumb": "https://live.staticflickr.com/65535/50039237708_1f54d94c5e_n.jpg",
    "id_album": "-1610342324",
    "description": "Nebula_330818",
    "title": "Nebula_330818",
    "link_img": "https://live.staticflickr.com/65535/50039237708_b57ef1f3d9_o.jpg",
    "id_image": "Nebula_330818",
    "count_view": 0
  },
  {
    "link_thumb": "https://live.staticflickr.com/65535/50039677437_84e5a6ae5f_n.jpg",
    "id_album": "-1780971522",
    "description": "Biohazard_494274",
    "title": "Biohazard_494274",
    "link_img": "https://live.staticflickr.com/65535/50039677437_9953ffb040_o.jpg",
    "id_image": "Biohazard_494274",
    "count_view": 0
  },
  {
    "link_thumb": "https://live.staticflickr.com/65535/50038986788_e1099c1f34_n.jpg",
    "id_album": "-1964113117",
    "description": "City_999423",
    "title": "City_999423",
    "link_img": "https://live.staticflickr.com/65535/50038986788_172392eb08_o.jpg",
    "id_image": "City_999423",
    "count_view": 0
  },
  {
    "link_thumb": "https://live.staticflickr.com/65535/50041788012_d4e9e3e4a7_n.jpg",
    "id_album": "-1126835654",
    "description": "Women_347710",
    "title": "Women_347710",
    "link_img": "https://live.staticflickr.com/65535/50041788012_df982f882f_o.jpg",
    "id_image": "Women_347710",
    "count_view": 0
  },
  {
    "link_thumb": "https://live.staticflickr.com/65535/50039308946_919a93598c_n.jpg",
    "id_album": "523598895",
    "description": "Artistic_191526",
    "title": "Artistic_191526",
    "link_img": "https://live.staticflickr.com/65535/50039308946_f478a99abf_o.jpg",
    "id_image": "Artistic_191526",
    "count_view": 0
  },
  {
    "link_thumb": "https://live.staticflickr.com/65535/50039689167_53645053d3_n.jpg",
    "id_album": "406431601",
    "description": "Building_912993",
    "title": "Building_912993",
    "link_img": "https://live.staticflickr.com/65535/50039689167_81c882ab1c_o.jpg",
    "id_image": "Building_912993",
    "count_view": 0
  },
  {
    "link_thumb": "https://live.staticflickr.com/65535/50039473636_666ec171db_n.jpg",
    "id_album": "-1964113117",
    "description": "City_499355",
    "title": "City_499355",
    "link_img": "https://live.staticflickr.com/65535/50039473636_2fdc1ea29c_o.jpg",
    "id_image": "City_499355",
    "count_view": 0
  },
  {
    "link_thumb": "https://live.staticflickr.com/65535/50038725658_434f282407_n.jpg",
    "id_album": "849020728",
    "description": "Alien_709717",
    "title": "Alien_709717",
    "link_img": "https://live.staticflickr.com/65535/50038725658_beea5bb32c_o.jpg",
    "id_image": "Alien_709717",
    "count_view": 0
  },
  {
    "link_thumb": "https://live.staticflickr.com/65535/50039010773_f5450cb403_n.jpg",
    "id_album": "-437872736",
    "description": "Creature_881685",
    "title": "Creature_881685",
    "link_img": "https://live.staticflickr.com/65535/50039010773_0d120dcbd3_o.jpg",
    "id_image": "Creature_881685",
    "count_view": 0
  },
  {
    "link_thumb": "https://live.staticflickr.com/65535/50040977812_32b5f93e0b_n.jpg",
    "id_album": "2130067313",
    "description": "Spaceship_552094",
    "title": "Spaceship_552094",
    "link_img": "https://live.staticflickr.com/65535/50040977812_574e950736_o.jpg",
    "id_image": "Spaceship_552094",
    "count_view": 0
  },
  {
    "link_thumb": "https://live.staticflickr.com/65535/50040375882_7d2da23e67_n.jpg",
    "id_album": "-1102314093",
    "description": "Planets_419628",
    "title": "Planets_419628",
    "link_img": "https://live.staticflickr.com/65535/50040375882_4caf62078f_o.jpg",
    "id_image": "Planets_419628",
    "count_view": 0
  },
  {
    "link_thumb": "https://live.staticflickr.com/65535/50040613762_859be96c2e_n.jpg",
    "id_album": "779690680",
    "description": "Robot_631684",
    "title": "Robot_631684",
    "link_img": "https://live.staticflickr.com/65535/50040613762_967e3c42b8_o.jpg",
    "id_image": "Robot_631684",
    "count_view": 0
  },
  {
    "link_thumb": "https://live.staticflickr.com/65535/50041181281_6a892ee6af_n.jpg",
    "id_album": "-1863373220",
    "description": "StarWars_476360",
    "title": "StarWars_476360",
    "link_img": "https://live.staticflickr.com/65535/50041181281_9a3af2a9b5_o.jpg",
    "id_image": "StarWars_476360",
    "count_view": 0
  },
  {
    "link_thumb": "https://live.staticflickr.com/65535/50040027672_54944249fb_n.jpg",
    "id_album": "-1610342324",
    "description": "Nebula_171930",
    "title": "Nebula_171930",
    "link_img": "https://live.staticflickr.com/65535/50040027672_27ed10c88f_o.jpg",
    "id_image": "Nebula_171930",
    "count_view": 0
  },
  {
    "link_thumb": "https://live.staticflickr.com/65535/50039827508_3836695fab_n.jpg",
    "id_album": "779690680",
    "description": "Robot_870411",
    "title": "Robot_870411",
    "link_img": "https://live.staticflickr.com/65535/50039827508_9b6014904f_o.jpg",
    "id_image": "Robot_870411",
    "count_view": 0
  },
  {
    "link_thumb": "https://live.staticflickr.com/65535/50039966036_05a62e82f7_n.jpg",
    "id_album": "395161030",
    "description": "Planet_581547",
    "title": "Planet_581547",
    "link_img": "https://live.staticflickr.com/65535/50039966036_26c625ca38_o.jpg",
    "id_image": "Planet_581547",
    "count_view": 0
  },
  {
    "link_thumb": "https://live.staticflickr.com/65535/50039639361_86286b0af7_n.jpg",
    "id_album": "1204249541",
    "description": "Galaxy_526202",
    "title": "Galaxy_526202",
    "link_img": "https://live.staticflickr.com/65535/50039639361_051349ba14_o.jpg",
    "id_image": "Galaxy_526202",
    "count_view": 0
  },
  {
    "link_thumb": "https://live.staticflickr.com/65535/50039342131_45b442d5d6_n.jpg",
    "id_album": "523598895",
    "description": "Artistic_675210",
    "title": "Artistic_675210",
    "link_img": "https://live.staticflickr.com/65535/50039342131_cd61de146e_o.jpg",
    "id_image": "Artistic_675210",
    "count_view": 0
  },
  {
    "link_thumb": "https://live.staticflickr.com/65535/50039266463_e1bd6e2755_n.jpg",
    "id_album": "-1610342324",
    "description": "Nebula_594626",
    "title": "Nebula_594626",
    "link_img": "https://live.staticflickr.com/65535/50039266463_8cc435596e_o.jpg",
    "id_image": "Nebula_594626",
    "count_view": 0
  },
  {
    "link_thumb": "https://live.staticflickr.com/65535/50040305591_682a47debc_n.jpg",
    "id_album": "779690680",
    "description": "Robot_413349",
    "title": "Robot_413349",
    "link_img": "https://live.staticflickr.com/65535/50040305591_63b44394c4_o.jpg",
    "id_image": "Robot_413349",
    "count_view": 0
  },
  {
    "link_thumb": "https://live.staticflickr.com/65535/50039673032_0832781dba_n.jpg",
    "id_album": "1187037014",
    "description": "Battle_991376",
    "title": "Battle_991376",
    "link_img": "https://live.staticflickr.com/65535/50039673032_cc9bddf7b4_o.jpg",
    "id_image": "Battle_991376",
    "count_view": 0
  },
  {
    "link_thumb": "https://live.staticflickr.com/65535/50040776807_8a0b86e4f4_n.jpg",
    "id_album": "1613540653",
    "description": "Space_560775",
    "title": "Space_560775",
    "link_img": "https://live.staticflickr.com/65535/50040776807_0da1156ccb_o.jpg",
    "id_image": "Space_560775",
    "count_view": 0
  },
  {
    "link_thumb": "https://live.staticflickr.com/65535/50040237947_f9df3c29b9_n.jpg",
    "id_album": "395161030",
    "description": "Planet_720708",
    "title": "Planet_720708",
    "link_img": "https://live.staticflickr.com/65535/50040237947_a76f394dfb_o.jpg",
    "id_image": "Planet_720708",
    "count_view": 0
  },
  {
    "link_thumb": "https://live.staticflickr.com/65535/50040867048_2e9290dc4e_n.jpg",
    "id_album": "2020068132",
    "description": "Vehicle_937790",
    "title": "Vehicle_937790",
    "link_img": "https://live.staticflickr.com/65535/50040867048_df299a208b_o.jpg",
    "id_image": "Vehicle_937790",
    "count_view": 0
  },
  {
    "link_thumb": "https://live.staticflickr.com/65535/50041250401_1742b4fe2a_n.jpg",
    "id_album": "-1863373220",
    "description": "StarWars_980565",
    "title": "StarWars_980565",
    "link_img": "https://live.staticflickr.com/65535/50041250401_a7d6c4fed1_o.jpg",
    "id_image": "StarWars_980565",
    "count_view": 0
  },
  {
    "link_thumb": "https://live.staticflickr.com/65535/50039382566_2856543f9c_n.jpg",
    "id_album": "869545341",
    "description": "Astronaut_938823",
    "title": "Astronaut_938823",
    "link_img": "https://live.staticflickr.com/65535/50039382566_5c0f7b6f88_o.jpg",
    "id_image": "Astronaut_938823",
    "count_view": 0
  },
  {
    "link_thumb": "https://live.staticflickr.com/65535/50039841026_f40df8df65_n.jpg",
    "id_album": "-1610342324",
    "description": "Nebula_824817",
    "title": "Nebula_824817",
    "link_img": "https://live.staticflickr.com/65535/50039841026_8be40764ed_o.jpg",
    "id_image": "Nebula_824817",
    "count_view": 0
  },
  {
    "link_thumb": "https://live.staticflickr.com/65535/50040204187_e526bfc836_n.jpg",
    "id_album": "395161030",
    "description": "Planet_373659",
    "title": "Planet_373659",
    "link_img": "https://live.staticflickr.com/65535/50040204187_a7dbae2de7_o.jpg",
    "id_image": "Planet_373659",
    "count_view": 0
  },
  {
    "link_thumb": "https://live.staticflickr.com/65535/50039692672_bf57dbaf6a_n.jpg",
    "id_album": "-1964113117",
    "description": "City_1005747",
    "title": "City_1005747",
    "link_img": "https://live.staticflickr.com/65535/50039692672_6db98fe4f9_o.jpg",
    "id_image": "City_1005747",
    "count_view": 0
  },
  {
    "link_thumb": "https://live.staticflickr.com/65535/50039932193_8864912259_n.jpg",
    "id_album": "1613540653",
    "description": "Space_286946",
    "title": "Space_286946",
    "link_img": "https://live.staticflickr.com/65535/50039932193_e837491b76_o.jpg",
    "id_image": "Space_286946",
    "count_view": 0
  },
  {
    "link_thumb": "https://live.staticflickr.com/65535/50040786548_5723ef7142_n.jpg",
    "id_album": "-221671103",
    "description": "Sun_193008",
    "title": "Sun_193008",
    "link_img": "https://live.staticflickr.com/65535/50040786548_382113ae14_o.jpg",
    "id_image": "Sun_193008",
    "count_view": 0
  },
  {
    "link_thumb": "https://live.staticflickr.com/65535/50039287176_19abcdd680_n.jpg",
    "id_album": "-419633230",
    "description": "Apocalyptic_716245",
    "title": "Apocalyptic_716245",
    "link_img": "https://live.staticflickr.com/65535/50039287176_15c40e686d_o.jpg",
    "id_image": "Apocalyptic_716245",
    "count_view": 0
  },
  {
    "link_thumb": "https://live.staticflickr.com/65535/50039403266_5096c64643_n.jpg",
    "id_album": "1187037014",
    "description": "Battle_564424",
    "title": "Battle_564424",
    "link_img": "https://live.staticflickr.com/65535/50039403266_c1dd95a89e_o.jpg",
    "id_image": "Battle_564424",
    "count_view": 0
  },
  {
    "link_thumb": "https://live.staticflickr.com/65535/50039549157_71b11dd497_n.jpg",
    "id_album": "-419633230",
    "description": "Apocalyptic_777057",
    "title": "Apocalyptic_777057",
    "link_img": "https://live.staticflickr.com/65535/50039549157_1683dbecf0_o.jpg",
    "id_image": "Apocalyptic_777057",
    "count_view": 0
  },
  {
    "link_thumb": "https://live.staticflickr.com/65535/50039677727_dd477e0c53_n.jpg",
    "id_album": "-1780971522",
    "description": "Biohazard_494279",
    "title": "Biohazard_494279",
    "link_img": "https://live.staticflickr.com/65535/50039677727_5213f9f4f4_o.jpg",
    "id_image": "Biohazard_494279",
    "count_view": 0
  },
  {
    "link_thumb": "https://live.staticflickr.com/65535/50039171473_1b7a2f843e_n.jpg",
    "id_album": "1402713104",
    "description": "Landscape_906137",
    "title": "Landscape_906137",
    "link_img": "https://live.staticflickr.com/65535/50039171473_795d1a99e0_o.jpg",
    "id_image": "Landscape_906137",
    "count_view": 0
  },
  {
    "link_thumb": "https://live.staticflickr.com/65535/50040184022_73ae9ce7ca_n.jpg",
    "id_album": "395161030",
    "description": "Planet_220189",
    "title": "Planet_220189",
    "link_img": "https://live.staticflickr.com/65535/50040184022_acfa8eb5ce_o.jpg",
    "id_image": "Planet_220189",
    "count_view": 0
  },
  {
    "link_thumb": "https://live.staticflickr.com/65535/50040100302_23c1a5f3d4_n.jpg",
    "id_album": "-1610342324",
    "description": "Nebula_786599",
    "title": "Nebula_786599",
    "link_img": "https://live.staticflickr.com/65535/50040100302_1fa8f0a5cb_o.jpg",
    "id_image": "Nebula_786599",
    "count_view": 0
  },
  {
    "link_thumb": "https://live.staticflickr.com/65535/50039644902_82c057ffa1_n.jpg",
    "id_album": "869545341",
    "description": "Astronaut_931163",
    "title": "Astronaut_931163",
    "link_img": "https://live.staticflickr.com/65535/50039644902_c32ca24ed8_o.jpg",
    "id_image": "Astronaut_931163",
    "count_view": 0
  },
  {
    "link_thumb": "https://live.staticflickr.com/65535/50040364732_3de065b040_n.jpg",
    "id_album": "-1102314093",
    "description": "Planets_364385",
    "title": "Planets_364385",
    "link_img": "https://live.staticflickr.com/65535/50040364732_ce7bc45fae_o.jpg",
    "id_image": "Planets_364385",
    "count_view": 0
  },
  {
    "link_thumb": "https://live.staticflickr.com/65535/50040298947_6bfb3b0494_n.jpg",
    "id_album": "814701616",
    "description": "PlanetaryRing_514552",
    "title": "PlanetaryRing_514552",
    "link_img": "https://live.staticflickr.com/65535/50040298947_e0d0d78fb2_o.jpg",
    "id_image": "PlanetaryRing_514552",
    "count_view": 0
  },
  {
    "link_thumb": "https://live.staticflickr.com/65535/50039183803_4b66855098_n.jpg",
    "id_album": "-1388385651",
    "description": "MilkyWay_555449",
    "title": "MilkyWay_555449",
    "link_img": "https://live.staticflickr.com/65535/50039183803_26df7aec03_o.jpg",
    "id_image": "MilkyWay_555449",
    "count_view": 0
  },
  {
    "link_thumb": "https://live.staticflickr.com/65535/50038871963_54039a5527_n.jpg",
    "id_album": "406431601",
    "description": "Building_209401",
    "title": "Building_209401",
    "link_img": "https://live.staticflickr.com/65535/50038871963_b62fbc703b_o.jpg",
    "id_image": "Building_209401",
    "count_view": 0
  },
  {
    "link_thumb": "https://live.staticflickr.com/65535/50040223852_3b6e9c7fd2_n.jpg",
    "id_album": "395161030",
    "description": "Planet_558454",
    "title": "Planet_558454",
    "link_img": "https://live.staticflickr.com/65535/50040223852_1ac1b80057_o.jpg",
    "id_image": "Planet_558454",
    "count_view": 0
  },
  {
    "link_thumb": "https://live.staticflickr.com/65535/50040499882_8167e192f7_n.jpg",
    "id_album": "-482547208",
    "description": "PostApocalyptic_969641",
    "title": "PostApocalyptic_969641",
    "link_img": "https://live.staticflickr.com/65535/50040499882_cc639842b6_o.jpg",
    "id_image": "PostApocalyptic_969641",
    "count_view": 0
  },
  {
    "link_thumb": "https://live.staticflickr.com/65535/50039077158_b4afbcd16e_n.jpg",
    "id_album": "1204249541",
    "description": "Galaxy_203954",
    "title": "Galaxy_203954",
    "link_img": "https://live.staticflickr.com/65535/50039077158_19fe3956f9_o.jpg",
    "id_image": "Galaxy_203954",
    "count_view": 0
  },
  {
    "link_thumb": "https://live.staticflickr.com/65535/50041572327_7791a5c289_n.jpg",
    "id_album": "1267121215",
    "description": "Steampunk_264131",
    "title": "Steampunk_264131",
    "link_img": "https://live.staticflickr.com/65535/50041572327_b1f3491341_o.jpg",
    "id_image": "Steampunk_264131",
    "count_view": 0
  },
  {
    "link_thumb": "https://live.staticflickr.com/65535/50039848777_92e937cfd5_n.jpg",
    "id_album": "829169633",
    "description": "Cyborg_310019",
    "title": "Cyborg_310019",
    "link_img": "https://live.staticflickr.com/65535/50039848777_49ef274bd7_o.jpg",
    "id_image": "Cyborg_310019",
    "count_view": 0
  },
  {
    "link_thumb": "https://live.staticflickr.com/65535/50039556016_0d6426cbd6_n.jpg",
    "id_album": "-437872736",
    "description": "Creature_401981",
    "title": "Creature_401981",
    "link_img": "https://live.staticflickr.com/65535/50039556016_2679f226f2_o.jpg",
    "id_image": "Creature_401981",
    "count_view": 0
  },
  {
    "link_thumb": "https://live.staticflickr.com/65535/50039761676_0d136f6607_n.jpg",
    "id_album": "-1610342324",
    "description": "Nebula_110233",
    "title": "Nebula_110233",
    "link_img": "https://live.staticflickr.com/65535/50039761676_e2a4be9073_o.jpg",
    "id_image": "Nebula_110233",
    "count_view": 0
  },
  {
    "link_thumb": "https://live.staticflickr.com/65535/50039794822_e12cb4a02e_n.jpg",
    "id_album": "-1964113117",
    "description": "City_993693",
    "title": "City_993693",
    "link_img": "https://live.staticflickr.com/65535/50039794822_4d59a8fd31_o.jpg",
    "id_image": "City_993693",
    "count_view": 0
  },
  {
    "link_thumb": "https://live.staticflickr.com/65535/50039915807_3440870b0f_n.jpg",
    "id_album": "1204249541",
    "description": "Galaxy_746412",
    "title": "Galaxy_746412",
    "link_img": "https://live.staticflickr.com/65535/50039915807_055d3eec38_o.jpg",
    "id_image": "Galaxy_746412",
    "count_view": 0
  },
  {
    "link_thumb": "https://live.staticflickr.com/65535/50039870392_f09f20aaf3_n.jpg",
    "id_album": "651930207",
    "description": "Explosion_225990",
    "title": "Explosion_225990",
    "link_img": "https://live.staticflickr.com/65535/50039870392_02ac62cb82_o.jpg",
    "id_image": "Explosion_225990",
    "count_view": 0
  },
  {
    "link_thumb": "https://live.staticflickr.com/65535/50040724576_eed21e059e_n.jpg",
    "id_album": "2130067313",
    "description": "Spaceship_613078",
    "title": "Spaceship_613078",
    "link_img": "https://live.staticflickr.com/65535/50040724576_a657c1b767_o.jpg",
    "id_image": "Spaceship_613078",
    "count_view": 0
  },
  {
    "link_thumb": "https://live.staticflickr.com/65535/50038847288_4c6ec24f9a_n.jpg",
    "id_album": "1187037014",
    "description": "Battle_173777",
    "title": "Battle_173777",
    "link_img": "https://live.staticflickr.com/65535/50038847288_4b7667c0cd_o.jpg",
    "id_image": "Battle_173777",
    "count_view": 0
  },
  {
    "link_thumb": "https://live.staticflickr.com/65535/50039827953_a4a481d507_n.jpg",
    "id_album": "779690680",
    "description": "Robot_871701",
    "title": "Robot_871701",
    "link_img": "https://live.staticflickr.com/65535/50039827953_7ee7bce919_o.jpg",
    "id_image": "Robot_871701",
    "count_view": 0
  },
  {
    "link_thumb": "https://live.staticflickr.com/65535/50039666147_e2bd0a9e87_n.jpg",
    "id_album": "1187037014",
    "description": "Battle_581300",
    "title": "Battle_581300",
    "link_img": "https://live.staticflickr.com/65535/50039666147_203e3c4d01_o.jpg",
    "id_image": "Battle_581300",
    "count_view": 0
  },
  {
    "link_thumb": "https://live.staticflickr.com/65535/50039787391_b2d8cb877a_n.jpg",
    "id_album": "-1610342324",
    "description": "Nebula_357577",
    "title": "Nebula_357577",
    "link_img": "https://live.staticflickr.com/65535/50039787391_9e2be356b7_o.jpg",
    "id_image": "Nebula_357577",
    "count_view": 0
  },
  {
    "link_thumb": "https://live.staticflickr.com/65535/50040214056_40d9496ef7_n.jpg",
    "id_album": "-482547208",
    "description": "PostApocalyptic_560033",
    "title": "PostApocalyptic_560033",
    "link_img": "https://live.staticflickr.com/65535/50040214056_a592c57739_o.jpg",
    "id_image": "PostApocalyptic_560033",
    "count_view": 0
  },
  {
    "link_thumb": "https://live.staticflickr.com/65535/50039927502_f56867f9f5_n.jpg",
    "id_album": "1402713104",
    "description": "Landscape_188210",
    "title": "Landscape_188210",
    "link_img": "https://live.staticflickr.com/65535/50039927502_577f31fddd_o.jpg",
    "id_image": "Landscape_188210",
    "count_view": 0
  },
  {
    "link_thumb": "https://live.staticflickr.com/65535/50040367052_e8de176005_n.jpg",
    "id_album": "-1102314093",
    "description": "Planets_377117",
    "title": "Planets_377117",
    "link_img": "https://live.staticflickr.com/65535/50040367052_28929ce335_o.jpg",
    "id_image": "Planets_377117",
    "count_view": 0
  },
  {
    "link_thumb": "https://live.staticflickr.com/65535/50040554947_05015d646b_n.jpg",
    "id_album": "779690680",
    "description": "Robot_328761",
    "title": "Robot_328761",
    "link_img": "https://live.staticflickr.com/65535/50040554947_54505e737b_o.jpg",
    "id_image": "Robot_328761",
    "count_view": 0
  },
  {
    "link_thumb": "https://live.staticflickr.com/65535/50039628668_9112ebe46d_n.jpg",
    "id_album": "376235057",
    "description": "Planetscape_694465",
    "title": "Planetscape_694465",
    "link_img": "https://live.staticflickr.com/65535/50039628668_57b7ea11db_o.jpg",
    "id_image": "Planetscape_694465",
    "count_view": 0
  },
  {
    "link_thumb": "https://live.staticflickr.com/65535/50039285238_a2b5615b45_n.jpg",
    "id_album": "-1610342324",
    "description": "Nebula_772694",
    "title": "Nebula_772694",
    "link_img": "https://live.staticflickr.com/65535/50039285238_0d8c071f4a_o.jpg",
    "id_image": "Nebula_772694",
    "count_view": 0
  },
  {
    "link_thumb": "https://live.staticflickr.com/65535/50039629951_0f5e3e9cbd_n.jpg",
    "id_album": "1204249541",
    "description": "Galaxy_286765",
    "title": "Galaxy_286765",
    "link_img": "https://live.staticflickr.com/65535/50039629951_07369883f5_o.jpg",
    "id_image": "Galaxy_286765",
    "count_view": 0
  },
  {
    "link_thumb": "https://live.staticflickr.com/65535/50038825478_6a765c4d40_n.jpg",
    "id_album": "869545341",
    "description": "Astronaut_857750",
    "title": "Astronaut_857750",
    "link_img": "https://live.staticflickr.com/65535/50038825478_7514389747_o.jpg",
    "id_image": "Astronaut_857750",
    "count_view": 0
  },
  {
    "link_thumb": "https://live.staticflickr.com/65535/50041513202_bd3ba83950_n.jpg",
    "id_album": "-1863373220",
    "description": "StarWars_980562",
    "title": "StarWars_980562",
    "link_img": "https://live.staticflickr.com/65535/50041513202_48cc296dcf_o.jpg",
    "id_image": "StarWars_980562",
    "count_view": 0
  },
  {
    "link_thumb": "https://live.staticflickr.com/65535/50039917867_e3412c1ac5_n.jpg",
    "id_album": "1204249541",
    "description": "Galaxy_864037",
    "title": "Galaxy_864037",
    "link_img": "https://live.staticflickr.com/65535/50039917867_a1216c32ce_o.jpg",
    "id_image": "Galaxy_864037",
    "count_view": 0
  },
  {
    "link_thumb": "https://live.staticflickr.com/65535/50038747103_28d7bb27f9_n.jpg",
    "id_album": "523598895",
    "description": "Artistic_116288",
    "title": "Artistic_116288",
    "link_img": "https://live.staticflickr.com/65535/50038747103_3656f952f8_o.jpg",
    "id_image": "Artistic_116288",
    "count_view": 0
  },
  {
    "link_thumb": "https://live.staticflickr.com/65535/50040227387_60721d45f7_n.jpg",
    "id_album": "395161030",
    "description": "Planet_559142",
    "title": "Planet_559142",
    "link_img": "https://live.staticflickr.com/65535/50040227387_c4fd0eb29b_o.jpg",
    "id_image": "Planet_559142",
    "count_view": 0
  },
  {
    "link_thumb": "https://live.staticflickr.com/65535/50041790442_82d3013970_n.jpg",
    "id_album": "-1126835654",
    "description": "Women_389470",
    "title": "Women_389470",
    "link_img": "https://live.staticflickr.com/65535/50041790442_3e856f8894_o.jpg",
    "id_image": "Women_389470",
    "count_view": 0
  },
  {
    "link_thumb": "https://live.staticflickr.com/65535/50040261297_5994d0ac1c_n.jpg",
    "id_album": "1443611160",
    "description": "PlanetRise_210467",
    "title": "PlanetRise_210467",
    "link_img": "https://live.staticflickr.com/65535/50040261297_0a635f0a19_o.jpg",
    "id_image": "PlanetRise_210467",
    "count_view": 0
  },
  {
    "link_thumb": "https://live.staticflickr.com/65535/50039245426_0d752812e5_n.jpg",
    "id_album": "849020728",
    "description": "Alien_133339",
    "title": "Alien_133339",
    "link_img": "https://live.staticflickr.com/65535/50039245426_831d62c485_o.jpg",
    "id_image": "Alien_133339",
    "count_view": 0
  },
  {
    "link_thumb": "https://live.staticflickr.com/65535/50040208736_360dafac14_n.jpg",
    "id_album": "-482547208",
    "description": "PostApocalyptic_366242",
    "title": "PostApocalyptic_366242",
    "link_img": "https://live.staticflickr.com/65535/50040208736_03545d8e92_o.jpg",
    "id_image": "PostApocalyptic_366242",
    "count_view": 0
  },
  {
    "link_thumb": "https://live.staticflickr.com/65535/50038716848_e7330b74d1_n.jpg",
    "id_album": "849020728",
    "description": "Alien_41623",
    "title": "Alien_41623",
    "link_img": "https://live.staticflickr.com/65535/50038716848_4ea3f5ec66_o.jpg",
    "id_image": "Alien_41623",
    "count_view": 0
  },
  {
    "link_thumb": "https://live.staticflickr.com/65535/50040176552_8e5e3005e9_n.jpg",
    "id_album": "395161030",
    "description": "Planet_182327",
    "title": "Planet_182327",
    "link_img": "https://live.staticflickr.com/65535/50040176552_98875384ba_o.jpg",
    "id_image": "Planet_182327",
    "count_view": 0
  },
  {
    "link_thumb": "https://live.staticflickr.com/65535/50040039557_f2246bfa81_n.jpg",
    "id_album": "-1610342324",
    "description": "Nebula_249135",
    "title": "Nebula_249135",
    "link_img": "https://live.staticflickr.com/65535/50040039557_a292e7109e_o.jpg",
    "id_image": "Nebula_249135",
    "count_view": 0
  },
  {
    "link_thumb": "https://live.staticflickr.com/65535/50041593306_28a5ce5d90_n.jpg",
    "id_album": "-1675918237",
    "description": "WomenWarrior_982765",
    "title": "WomenWarrior_982765",
    "link_img": "https://live.staticflickr.com/65535/50041593306_94b641de8e_o.jpg",
    "id_image": "WomenWarrior_982765",
    "count_view": 0
  },
  {
    "link_thumb": "https://live.staticflickr.com/65535/50039626691_9e9d8da910_n.jpg",
    "id_album": "1204249541",
    "description": "Galaxy_206132",
    "title": "Galaxy_206132",
    "link_img": "https://live.staticflickr.com/65535/50039626691_3425d2584f_o.jpg",
    "id_image": "Galaxy_206132",
    "count_view": 0
  },
  {
    "link_thumb": "https://live.staticflickr.com/65535/50039536883_fffca836ca_n.jpg",
    "id_album": "-1102314093",
    "description": "Planets_335816",
    "title": "Planets_335816",
    "link_img": "https://live.staticflickr.com/65535/50039536883_c2bf9c3d75_o.jpg",
    "id_image": "Planets_335816",
    "count_view": 0
  },
  {
    "link_thumb": "https://live.staticflickr.com/65535/50040608088_049114f041_n.jpg",
    "id_album": "-1863373220",
    "description": "StarWars_296347",
    "title": "StarWars_296347",
    "link_img": "https://live.staticflickr.com/65535/50040608088_9321894a23_o.jpg",
    "id_image": "StarWars_296347",
    "count_view": 0
  },
  {
    "link_thumb": "https://live.staticflickr.com/65535/50038802308_7e5228f86b_n.jpg",
    "id_album": "869545341",
    "description": "Astronaut_220570",
    "title": "Astronaut_220570",
    "link_img": "https://live.staticflickr.com/65535/50038802308_6999f91e22_o.jpg",
    "id_image": "Astronaut_220570",
    "count_view": 0
  },
  {
    "link_thumb": "https://live.staticflickr.com/65535/50039804946_69e6185bc0_n.jpg",
    "id_album": "-1610342324",
    "description": "Nebula_533763",
    "title": "Nebula_533763",
    "link_img": "https://live.staticflickr.com/65535/50039804946_b6aceb2513_o.jpg",
    "id_image": "Nebula_533763",
    "count_view": 0
  },
  {
    "link_thumb": "https://live.staticflickr.com/65535/50039857373_f86542642e_n.jpg",
    "id_album": "779690680",
    "description": "Robot_914390",
    "title": "Robot_914390",
    "link_img": "https://live.staticflickr.com/65535/50039857373_c8669ec296_o.jpg",
    "id_image": "Robot_914390",
    "count_view": 0
  },
  {
    "link_thumb": "https://live.staticflickr.com/65535/50038996003_39e9f230f8_n.jpg",
    "id_album": "894679094",
    "description": "Collision_913000",
    "title": "Collision_913000",
    "link_img": "https://live.staticflickr.com/65535/50038996003_53a594d53d_o.jpg",
    "id_image": "Collision_913000",
    "count_view": 0
  },
  {
    "link_thumb": "https://live.staticflickr.com/65535/50039410941_27e0b117b3_n.jpg",
    "id_album": "-1780971522",
    "description": "Biohazard_189834",
    "title": "Biohazard_189834",
    "link_img": "https://live.staticflickr.com/65535/50039410941_11d852306e_o.jpg",
    "id_image": "Biohazard_189834",
    "count_view": 0
  },
  {
    "link_thumb": "https://live.staticflickr.com/65535/50039213683_8d6fa42b9c_n.jpg",
    "id_album": "-1610342324",
    "description": "Nebula_15041",
    "title": "Nebula_15041",
    "link_img": "https://live.staticflickr.com/65535/50039213683_f766180341_o.jpg",
    "id_image": "Nebula_15041",
    "count_view": 0
  },
  {
    "link_thumb": "https://live.staticflickr.com/65535/50040124187_09d7b9139c_n.jpg",
    "id_album": "-1862561193",
    "description": "Other_112262",
    "title": "Other_112262",
    "link_img": "https://live.staticflickr.com/65535/50040124187_51af650199_o.jpg",
    "id_image": "Other_112262",
    "count_view": 0
  },
  {
    "link_thumb": "https://live.staticflickr.com/65535/50040655868_d067904ecd_n.jpg",
    "id_album": "-1863373220",
    "description": "StarWars_669714",
    "title": "StarWars_669714",
    "link_img": "https://live.staticflickr.com/65535/50040655868_4b1e2f1b66_o.jpg",
    "id_image": "StarWars_669714",
    "count_view": 0
  },
  {
    "link_thumb": "https://live.staticflickr.com/65535/50039372913_d5ae4fa902_n.jpg",
    "id_album": "395161030",
    "description": "Planet_286757",
    "title": "Planet_286757",
    "link_img": "https://live.staticflickr.com/65535/50039372913_81e525ec23_o.jpg",
    "id_image": "Planet_286757",
    "count_view": 0
  },
  {
    "link_thumb": "https://live.staticflickr.com/65535/50039914497_273e931738_n.jpg",
    "id_album": "1204249541",
    "description": "Galaxy_689590",
    "title": "Galaxy_689590",
    "link_img": "https://live.staticflickr.com/65535/50039914497_2a1e96cd54_o.jpg",
    "id_image": "Galaxy_689590",
    "count_view": 0
  },
  {
    "link_thumb": "https://live.staticflickr.com/65535/50039489946_827f6934fe_n.jpg",
    "id_album": "-1964113117",
    "description": "City_701040",
    "title": "City_701040",
    "link_img": "https://live.staticflickr.com/65535/50039489946_01f16ee265_o.jpg",
    "id_image": "City_701040",
    "count_view": 0
  },
  {
    "link_thumb": "https://live.staticflickr.com/65535/50039433301_24b6aaedc2_n.jpg",
    "id_album": "-1964113117",
    "description": "City_115838",
    "title": "City_115838",
    "link_img": "https://live.staticflickr.com/65535/50039433301_376300abe1_o.jpg",
    "id_image": "City_115838",
    "count_view": 0
  },
  {
    "link_thumb": "https://live.staticflickr.com/65535/50039835533_138687a0f4_n.jpg",
    "id_album": "779690680",
    "description": "Robot_878310",
    "title": "Robot_878310",
    "link_img": "https://live.staticflickr.com/65535/50039835533_2eec7d484c_o.jpg",
    "id_image": "Robot_878310",
    "count_view": 0
  },
  {
    "link_thumb": "https://live.staticflickr.com/65535/50038870583_abdbc85fab_n.jpg",
    "id_album": "-1780971522",
    "description": "Biohazard_586129",
    "title": "Biohazard_586129",
    "link_img": "https://live.staticflickr.com/65535/50038870583_d9181d7a6c_o.jpg",
    "id_image": "Biohazard_586129",
    "count_view": 0
  },
  {
    "link_thumb": "https://live.staticflickr.com/65535/50039147858_0cbb306eea_n.jpg",
    "id_album": "1402713104",
    "description": "Landscape_640396",
    "title": "Landscape_640396",
    "link_img": "https://live.staticflickr.com/65535/50039147858_5d54fab202_o.jpg",
    "id_image": "Landscape_640396",
    "count_view": 0
  },
  {
    "link_thumb": "https://live.staticflickr.com/65535/50039541896_4192f5028e_n.jpg",
    "id_album": "894679094",
    "description": "Collision_595263",
    "title": "Collision_595263",
    "link_img": "https://live.staticflickr.com/65535/50039541896_ea2177b451_o.jpg",
    "id_image": "Collision_595263",
    "count_view": 0
  },
  {
    "link_thumb": "https://live.staticflickr.com/65535/50039895547_c89cdc4339_n.jpg",
    "id_album": "1204249541",
    "description": "Galaxy_413607",
    "title": "Galaxy_413607",
    "link_img": "https://live.staticflickr.com/65535/50039895547_2a37c2d209_o.jpg",
    "id_image": "Galaxy_413607",
    "count_view": 0
  },
  {
    "link_thumb": "https://live.staticflickr.com/65535/50039624593_9887abaff3_n.jpg",
    "id_album": "376235057",
    "description": "Planetscape_529578",
    "title": "Planetscape_529578",
    "link_img": "https://live.staticflickr.com/65535/50039624593_9df5a7c284_o.jpg",
    "id_image": "Planetscape_529578",
    "count_view": 0
  },
  {
    "link_thumb": "https://live.staticflickr.com/65535/50039486871_fec50cd95a_n.jpg",
    "id_album": "-1964113117",
    "description": "City_677201",
    "title": "City_677201",
    "link_img": "https://live.staticflickr.com/65535/50039486871_a448c83a24_o.jpg",
    "id_image": "City_677201",
    "count_view": 0
  },
  {
    "link_thumb": "https://live.staticflickr.com/65535/50041589527_8f72bf6a05_n.jpg",
    "id_album": "1267121215",
    "description": "Steampunk_695773",
    "title": "Steampunk_695773",
    "link_img": "https://live.staticflickr.com/65535/50041589527_39e8be2f44_o.jpg",
    "id_image": "Steampunk_695773",
    "count_view": 0
  },
  {
    "link_thumb": "https://live.staticflickr.com/65535/50039278903_1ede999b3e_n.jpg",
    "id_album": "-1610342324",
    "description": "Nebula_747001",
    "title": "Nebula_747001",
    "link_img": "https://live.staticflickr.com/65535/50039278903_356300dfa1_o.jpg",
    "id_image": "Nebula_747001",
    "count_view": 0
  },
  {
    "link_thumb": "https://live.staticflickr.com/65535/50039660656_b1967767fe_n.jpg",
    "id_album": "1402713104",
    "description": "Landscape_146032",
    "title": "Landscape_146032",
    "link_img": "https://live.staticflickr.com/65535/50039660656_f0bcc06d6d_o.jpg",
    "id_image": "Landscape_146032",
    "count_view": 0
  },
  {
    "link_thumb": "https://live.staticflickr.com/65535/50039405271_93bfbba597_n.jpg",
    "id_album": "1187037014",
    "description": "Battle_635655",
    "title": "Battle_635655",
    "link_img": "https://live.staticflickr.com/65535/50039405271_90ec578759_o.jpg",
    "id_image": "Battle_635655",
    "count_view": 0
  },
  {
    "link_thumb": "https://live.staticflickr.com/65535/50040739207_df788592ce_n.jpg",
    "id_album": "1613540653",
    "description": "Space_181319",
    "title": "Space_181319",
    "link_img": "https://live.staticflickr.com/65535/50040739207_fde5e84dd5_o.jpg",
    "id_image": "Space_181319",
    "count_view": 0
  },
  {
    "link_thumb": "https://live.staticflickr.com/65535/50039739922_153d8d4283_n.jpg",
    "id_album": "-1964113117",
    "description": "City_551908",
    "title": "City_551908",
    "link_img": "https://live.staticflickr.com/65535/50039739922_55178e6179_o.jpg",
    "id_image": "City_551908",
    "count_view": 0
  },
  {
    "link_thumb": "https://live.staticflickr.com/65535/50040013952_02a0535b2e_n.jpg",
    "id_album": "-1388385651",
    "description": "MilkyWay_827413",
    "title": "MilkyWay_827413",
    "link_img": "https://live.staticflickr.com/65535/50040013952_1c21068520_o.jpg",
    "id_image": "MilkyWay_827413",
    "count_view": 0
  },
  {
    "link_thumb": "https://live.staticflickr.com/65535/50039962217_14d889ae0d_n.jpg",
    "id_album": "1402713104",
    "description": "Landscape_675208",
    "title": "Landscape_675208",
    "link_img": "https://live.staticflickr.com/65535/50039962217_91f56a1c05_o.jpg",
    "id_image": "Landscape_675208",
    "count_view": 0
  },
  {
    "link_thumb": "https://live.staticflickr.com/65535/50039447036_f2c0c2c122_n.jpg",
    "id_album": "-1964113117",
    "description": "City_213563",
    "title": "City_213563",
    "link_img": "https://live.staticflickr.com/65535/50039447036_61a03a201e_o.jpg",
    "id_image": "City_213563",
    "count_view": 0
  },
  {
    "link_thumb": "https://live.staticflickr.com/65535/50041191626_0db83cdd74_n.jpg",
    "id_album": "-1863373220",
    "description": "StarWars_559762",
    "title": "StarWars_559762",
    "link_img": "https://live.staticflickr.com/65535/50041191626_eb40939082_o.jpg",
    "id_image": "StarWars_559762",
    "count_view": 0
  },
  {
    "link_thumb": "https://live.staticflickr.com/65535/50039683812_7bc7f86f91_n.jpg",
    "id_album": "406431601",
    "description": "Building_298622",
    "title": "Building_298622",
    "link_img": "https://live.staticflickr.com/65535/50039683812_765f758cbf_o.jpg",
    "id_image": "Building_298622",
    "count_view": 0
  },
  {
    "link_thumb": "https://live.staticflickr.com/65535/50041411601_246a303350_n.jpg",
    "id_album": "2020068132",
    "description": "Vehicle_694112",
    "title": "Vehicle_694112",
    "link_img": "https://live.staticflickr.com/65535/50041411601_c2d0a18fef_o.jpg",
    "id_image": "Vehicle_694112",
    "count_view": 0
  },
  {
    "link_thumb": "https://live.staticflickr.com/65535/50040817478_f360d9f51b_n.jpg",
    "id_album": "2020068132",
    "description": "Vehicle_102860",
    "title": "Vehicle_102860",
    "link_img": "https://live.staticflickr.com/65535/50040817478_d9693e414d_o.jpg",
    "id_image": "Vehicle_102860",
    "count_view": 0
  },
  {
    "link_thumb": "https://live.staticflickr.com/65535/50039402326_e2090342e5_n.jpg",
    "id_album": "1187037014",
    "description": "Battle_509019",
    "title": "Battle_509019",
    "link_img": "https://live.staticflickr.com/65535/50039402326_081ee78a69_o.jpg",
    "id_image": "Battle_509019",
    "count_view": 0
  },
  {
    "link_thumb": "https://live.staticflickr.com/65535/50040290748_830d5627fb_n.jpg",
    "id_album": "-1449720967",
    "description": "StarTrek_334105",
    "title": "StarTrek_334105",
    "link_img": "https://live.staticflickr.com/65535/50040290748_147f3e9e8a_o.jpg",
    "id_image": "StarTrek_334105",
    "count_view": 0
  },
  {
    "link_thumb": "https://live.staticflickr.com/65535/50039273741_bf90710f10_n.jpg",
    "id_album": "849020728",
    "description": "Alien_72043",
    "title": "Alien_72043",
    "link_img": "https://live.staticflickr.com/65535/50039273741_9e5c8aa68c_o.jpg",
    "id_image": "Alien_72043",
    "count_view": 0
  },
  {
    "link_thumb": "https://live.staticflickr.com/65535/50040890227_7f1793b6c4_n.jpg",
    "id_album": "2130067313",
    "description": "Spaceship_284589",
    "title": "Spaceship_284589",
    "link_img": "https://live.staticflickr.com/65535/50040890227_fa55ba9c10_o.jpg",
    "id_image": "Spaceship_284589",
    "count_view": 0
  },
  {
    "link_thumb": "https://live.staticflickr.com/65535/50039795957_e3f6aedda6_n.jpg",
    "id_album": "-1964113117",
    "description": "City_997271",
    "title": "City_997271",
    "link_img": "https://live.staticflickr.com/65535/50039795957_f3d4634362_o.jpg",
    "id_image": "City_997271",
    "count_view": 0
  },
  {
    "link_thumb": "https://live.staticflickr.com/65535/50039358126_f4f3b47977_n.jpg",
    "id_album": "869545341",
    "description": "Astronaut_567012",
    "title": "Astronaut_567012",
    "link_img": "https://live.staticflickr.com/65535/50039358126_1d9aa996f4_o.jpg",
    "id_image": "Astronaut_567012",
    "count_view": 0
  },
  {
    "link_thumb": "https://live.staticflickr.com/65535/50039312196_3dfb1382bc_n.jpg",
    "id_album": "523598895",
    "description": "Artistic_206027",
    "title": "Artistic_206027",
    "link_img": "https://live.staticflickr.com/65535/50039312196_3fa1df6574_o.jpg",
    "id_image": "Artistic_206027",
    "count_view": 0
  },
  {
    "link_thumb": "https://live.staticflickr.com/65535/50039856883_a70363721b_n.jpg",
    "id_album": "779690680",
    "description": "Robot_913021",
    "title": "Robot_913021",
    "link_img": "https://live.staticflickr.com/65535/50039856883_d3fbdbe07c_o.jpg",
    "id_image": "Robot_913021",
    "count_view": 0
  },
  {
    "link_thumb": "https://live.staticflickr.com/65535/50040344992_1be4094a48_n.jpg",
    "id_album": "-1102314093",
    "description": "Planets_32584",
    "title": "Planets_32584",
    "link_img": "https://live.staticflickr.com/65535/50040344992_cc8f427e07_o.jpg",
    "id_image": "Planets_32584",
    "count_view": 0
  },
  {
    "link_thumb": "https://live.staticflickr.com/65535/50040909293_8f6f519bff_n.jpg",
    "id_album": "-1261420436",
    "description": "Warrior_484316",
    "title": "Warrior_484316",
    "link_img": "https://live.staticflickr.com/65535/50040909293_720f809d89_o.jpg",
    "id_image": "Warrior_484316",
    "count_view": 0
  },
  {
    "link_thumb": "https://live.staticflickr.com/65535/50039299641_a11c6b6e40_n.jpg",
    "id_album": "523598895",
    "description": "Artistic_162949",
    "title": "Artistic_162949",
    "link_img": "https://live.staticflickr.com/65535/50039299641_265e6ce5b5_o.jpg",
    "id_image": "Artistic_162949",
    "count_view": 0
  },
  {
    "link_thumb": "https://live.staticflickr.com/65535/50040807867_6bb9db9e1d_n.jpg",
    "id_album": "1613540653",
    "description": "Space_822464",
    "title": "Space_822464",
    "link_img": "https://live.staticflickr.com/65535/50040807867_53d4c3aa32_o.jpg",
    "id_image": "Space_822464",
    "count_view": 0
  },
  {
    "link_thumb": "https://live.staticflickr.com/65535/50038843763_4165e50028_n.jpg",
    "id_album": "869545341",
    "description": "Astronaut_992597",
    "title": "Astronaut_992597",
    "link_img": "https://live.staticflickr.com/65535/50038843763_45723f6874_o.jpg",
    "id_image": "Astronaut_992597",
    "count_view": 0
  },
  {
    "link_thumb": "https://live.staticflickr.com/65535/50040255056_7b3de9414a_n.jpg",
    "id_album": "779690680",
    "description": "Robot_150258",
    "title": "Robot_150258",
    "link_img": "https://live.staticflickr.com/65535/50040255056_06be209a1c_o.jpg",
    "id_image": "Robot_150258",
    "count_view": 0
  },
  {
    "link_thumb": "https://live.staticflickr.com/65535/50038900478_17de58b3dd_n.jpg",
    "id_album": "-1964113117",
    "description": "City_220572",
    "title": "City_220572",
    "link_img": "https://live.staticflickr.com/65535/50038900478_c510b96934_o.jpg",
    "id_image": "City_220572",
    "count_view": 0
  },
  {
    "link_thumb": "https://live.staticflickr.com/65535/50040184807_bcc207409d_n.jpg",
    "id_album": "395161030",
    "description": "Planet_239641",
    "title": "Planet_239641",
    "link_img": "https://live.staticflickr.com/65535/50040184807_454ec994ed_o.jpg",
    "id_image": "Planet_239641",
    "count_view": 0
  },
  {
    "link_thumb": "https://live.staticflickr.com/65535/50039491462_f44802d3c4_n.jpg",
    "id_album": "280884763",
    "description": "Abstract_286792",
    "title": "Abstract_286792",
    "link_img": "https://live.staticflickr.com/65535/50039491462_9ac75134d8_o.jpg",
    "id_image": "Abstract_286792",
    "count_view": 0
  },
  {
    "link_thumb": "https://live.staticflickr.com/65535/50039812338_90b23430ed_n.jpg",
    "id_album": "779690680",
    "description": "Robot_763233",
    "title": "Robot_763233",
    "link_img": "https://live.staticflickr.com/65535/50039812338_0538a5e033_o.jpg",
    "id_image": "Robot_763233",
    "count_view": 0
  },
  {
    "link_thumb": "https://live.staticflickr.com/65535/50040563196_02acc03050_n.jpg",
    "id_album": "-1532370292",
    "description": "SpaceStation_776575",
    "title": "SpaceStation_776575",
    "link_img": "https://live.staticflickr.com/65535/50040563196_1e2168327e_o.jpg",
    "id_image": "SpaceStation_776575",
    "count_view": 0
  },
  {
    "link_thumb": "https://live.staticflickr.com/65535/50038831068_49718945d0_n.jpg",
    "id_album": "869545341",
    "description": "Astronaut_923964",
    "title": "Astronaut_923964",
    "link_img": "https://live.staticflickr.com/65535/50038831068_862b9fc374_o.jpg",
    "id_image": "Astronaut_923964",
    "count_view": 0
  },
  {
    "link_thumb": "https://live.staticflickr.com/65535/50040734627_ef99d0d673_n.jpg",
    "id_album": "1613540653",
    "description": "Space_152721",
    "title": "Space_152721",
    "link_img": "https://live.staticflickr.com/65535/50040734627_b86f5c4655_o.jpg",
    "id_image": "Space_152721",
    "count_view": 0
  },
  {
    "link_thumb": "https://live.staticflickr.com/65535/50040658913_e50dc31a69_n.jpg",
    "id_album": "-1863373220",
    "description": "StarWars_670125",
    "title": "StarWars_670125",
    "link_img": "https://live.staticflickr.com/65535/50040658913_f3a72b9cf4_o.jpg",
    "id_image": "StarWars_670125",
    "count_view": 0
  },
  {
    "link_thumb": "https://live.staticflickr.com/65535/50039744573_68a9c671d0_n.jpg",
    "id_album": "779690680",
    "description": "Robot_375017",
    "title": "Robot_375017",
    "link_img": "https://live.staticflickr.com/65535/50039744573_7845f5fdc4_o.jpg",
    "id_image": "Robot_375017",
    "count_view": 0
  },
  {
    "link_thumb": "https://live.staticflickr.com/65535/50039989128_57442d4d20_n.jpg",
    "id_album": "1613540653",
    "description": "Space_822471",
    "title": "Space_822471",
    "link_img": "https://live.staticflickr.com/65535/50039989128_5b33a5b0be_o.jpg",
    "id_image": "Space_822471",
    "count_view": 0
  },
  {
    "link_thumb": "https://live.staticflickr.com/65535/50039587687_0180ce96bf_n.jpg",
    "id_album": "523598895",
    "description": "Artistic_268293",
    "title": "Artistic_268293",
    "link_img": "https://live.staticflickr.com/65535/50039587687_96342d4d9a_o.jpg",
    "id_image": "Artistic_268293",
    "count_view": 0
  },
  {
    "link_thumb": "https://live.staticflickr.com/65535/50040695528_32e8dc5c01_n.jpg",
    "id_album": "-1863373220",
    "description": "StarWars_980532",
    "title": "StarWars_980532",
    "link_img": "https://live.staticflickr.com/65535/50040695528_f344620172_o.jpg",
    "id_image": "StarWars_980532",
    "count_view": 0
  },
  {
    "link_thumb": "https://live.staticflickr.com/65535/50040432197_b774f42a3c_n.jpg",
    "id_album": "376235057",
    "description": "Planetscape_370827",
    "title": "Planetscape_370827",
    "link_img": "https://live.staticflickr.com/65535/50040432197_769590a38c_o.jpg",
    "id_image": "Planetscape_370827",
    "count_view": 0
  },
  {
    "link_thumb": "https://live.staticflickr.com/65535/50039799487_ed67133297_n.jpg",
    "id_album": "894679094",
    "description": "Collision_233934",
    "title": "Collision_233934",
    "link_img": "https://live.staticflickr.com/65535/50039799487_ecc17690b2_o.jpg",
    "id_image": "Collision_233934",
    "count_view": 0
  },
  {
    "link_thumb": "https://live.staticflickr.com/65535/50040528351_0307e85bf1_n.jpg",
    "id_album": "1613540653",
    "description": "Space_694447",
    "title": "Space_694447",
    "link_img": "https://live.staticflickr.com/65535/50040528351_8266d2c22c_o.jpg",
    "id_image": "Space_694447",
    "count_view": 0
  },
  {
    "link_thumb": "https://live.staticflickr.com/65535/50039077973_ea23f8e747_n.jpg",
    "id_album": "1204249541",
    "description": "Galaxy_223111",
    "title": "Galaxy_223111",
    "link_img": "https://live.staticflickr.com/65535/50039077973_9f2642f458_o.jpg",
    "id_image": "Galaxy_223111",
    "count_view": 0
  },
  {
    "link_thumb": "https://live.staticflickr.com/65535/50039627676_d56f7d14f0_n.jpg",
    "id_album": "1204249541",
    "description": "Galaxy_234006",
    "title": "Galaxy_234006",
    "link_img": "https://live.staticflickr.com/65535/50039627676_689c82df54_o.jpg",
    "id_image": "Galaxy_234006",
    "count_view": 0
  },
  {
    "link_thumb": "https://live.staticflickr.com/65535/50040252846_61b724538f_n.jpg",
    "id_album": "779690680",
    "description": "Robot_115817",
    "title": "Robot_115817",
    "link_img": "https://live.staticflickr.com/65535/50040252846_3e2a9460b1_o.jpg",
    "id_image": "Robot_115817",
    "count_view": 0
  },
  {
    "link_thumb": "https://live.staticflickr.com/65535/50039840523_f3dd3a6586_n.jpg",
    "id_album": "779690680",
    "description": "Robot_884819",
    "title": "Robot_884819",
    "link_img": "https://live.staticflickr.com/65535/50039840523_269305a324_o.jpg",
    "id_image": "Robot_884819",
    "count_view": 0
  },
  {
    "link_thumb": "https://live.staticflickr.com/65535/50040639912_ab67f845cc_n.jpg",
    "id_album": "779690680",
    "description": "Robot_857296",
    "title": "Robot_857296",
    "link_img": "https://live.staticflickr.com/65535/50040639912_f96b8c2797_o.jpg",
    "id_image": "Robot_857296",
    "count_view": 0
  },
  {
    "link_thumb": "https://live.staticflickr.com/65535/50038760498_5a939a838f_n.jpg",
    "id_album": "523598895",
    "description": "Artistic_188867",
    "title": "Artistic_188867",
    "link_img": "https://live.staticflickr.com/65535/50038760498_71c83c043b_o.jpg",
    "id_image": "Artistic_188867",
    "count_view": 0
  },
  {
    "link_thumb": "https://live.staticflickr.com/65535/50040752742_a04cbb89b2_n.jpg",
    "id_album": "1613540653",
    "description": "Space_287004",
    "title": "Space_287004",
    "link_img": "https://live.staticflickr.com/65535/50040752742_92ae3d72b1_o.jpg",
    "id_image": "Space_287004",
    "count_view": 0
  },
  {
    "link_thumb": "https://live.staticflickr.com/65535/50041273386_0eb82f4cd4_n.jpg",
    "id_album": "-1587696329",
    "description": "Stars_528241",
    "title": "Stars_528241",
    "link_img": "https://live.staticflickr.com/65535/50041273386_9118a7c6fe_o.jpg",
    "id_image": "Stars_528241",
    "count_view": 0
  },
  {
    "link_thumb": "https://live.staticflickr.com/65535/50039808526_05da88f98d_n.jpg",
    "id_album": "-1610342324",
    "description": "Nebula_552350",
    "title": "Nebula_552350",
    "link_img": "https://live.staticflickr.com/65535/50039808526_6fb9f14188_o.jpg",
    "id_image": "Nebula_552350",
    "count_view": 0
  },
  {
    "link_thumb": "https://live.staticflickr.com/65535/50039372003_0840424668_n.jpg",
    "id_album": "395161030",
    "description": "Planet_248751",
    "title": "Planet_248751",
    "link_img": "https://live.staticflickr.com/65535/50039372003_be16860678_o.jpg",
    "id_image": "Planet_248751",
    "count_view": 0
  },
  {
    "link_thumb": "https://live.staticflickr.com/65535/50039033328_ef4b5e2963_n.jpg",
    "id_album": "829169633",
    "description": "Cyborg_247814",
    "title": "Cyborg_247814",
    "link_img": "https://live.staticflickr.com/65535/50039033328_c4378603d6_o.jpg",
    "id_image": "Cyborg_247814",
    "count_view": 0
  },
  {
    "link_thumb": "https://live.staticflickr.com/65535/50039295296_2a3ca42d4a_n.jpg",
    "id_album": "523598895",
    "description": "Artistic_122396",
    "title": "Artistic_122396",
    "link_img": "https://live.staticflickr.com/65535/50039295296_a7c7aa8a3a_o.jpg",
    "id_image": "Artistic_122396",
    "count_view": 0
  },
  {
    "link_thumb": "https://live.staticflickr.com/65535/50039985912_5f00d34cc0_n.jpg",
    "id_album": "1402713104",
    "description": "Landscape_913623",
    "title": "Landscape_913623",
    "link_img": "https://live.staticflickr.com/65535/50039985912_9996607a8c_o.jpg",
    "id_image": "Landscape_913623",
    "count_view": 0
  },
  {
    "link_thumb": "https://live.staticflickr.com/65535/50039881938_c3300d6fe0_n.jpg",
    "id_album": "779690680",
    "description": "Robot_940962",
    "title": "Robot_940962",
    "link_img": "https://live.staticflickr.com/65535/50039881938_de3db2b8a3_o.jpg",
    "id_image": "Robot_940962",
    "count_view": 0
  },
  {
    "link_thumb": "https://live.staticflickr.com/65535/50040843238_bd078f3e9e_n.jpg",
    "id_album": "2020068132",
    "description": "Vehicle_410768",
    "title": "Vehicle_410768",
    "link_img": "https://live.staticflickr.com/65535/50040843238_5100bd0946_o.jpg",
    "id_image": "Vehicle_410768",
    "count_view": 0
  },
  {
    "link_thumb": "https://live.staticflickr.com/65535/50038814173_be2ed81301_n.jpg",
    "id_album": "869545341",
    "description": "Astronaut_675851",
    "title": "Astronaut_675851",
    "link_img": "https://live.staticflickr.com/65535/50038814173_3b82da9693_o.jpg",
    "id_image": "Astronaut_675851",
    "count_view": 0
  },
  {
    "link_thumb": "https://live.staticflickr.com/65535/50039293158_e6e0ed76b8_n.jpg",
    "id_album": "-1610342324",
    "description": "Nebula_835408",
    "title": "Nebula_835408",
    "link_img": "https://live.staticflickr.com/65535/50039293158_789777a19c_o.jpg",
    "id_image": "Nebula_835408",
    "count_view": 0
  },
  {
    "link_thumb": "https://live.staticflickr.com/65535/50039873708_e9ded4b9c6_n.jpg",
    "id_album": "779690680",
    "description": "Robot_930303",
    "title": "Robot_930303",
    "link_img": "https://live.staticflickr.com/65535/50039873708_f1d4ba1866_o.jpg",
    "id_image": "Robot_930303",
    "count_view": 0
  },
  {
    "link_thumb": "https://live.staticflickr.com/65535/50039857148_4efa0a06bc_n.jpg",
    "id_album": "779690680",
    "description": "Robot_914051",
    "title": "Robot_914051",
    "link_img": "https://live.staticflickr.com/65535/50039857148_987995cc48_o.jpg",
    "id_image": "Robot_914051",
    "count_view": 0
  },
  {
    "link_thumb": "https://live.staticflickr.com/65535/50039085388_a184271118_n.jpg",
    "id_album": "1204249541",
    "description": "Galaxy_441050",
    "title": "Galaxy_441050",
    "link_img": "https://live.staticflickr.com/65535/50039085388_2882b4f43c_o.jpg",
    "id_image": "Galaxy_441050",
    "count_view": 0
  },
  {
    "link_thumb": "https://live.staticflickr.com/65535/50039515686_b9261d340d_n.jpg",
    "id_album": "-1964113117",
    "description": "City_898623",
    "title": "City_898623",
    "link_img": "https://live.staticflickr.com/65535/50039515686_dbfaaef92b_o.jpg",
    "id_image": "City_898623",
    "count_view": 0
  },
  {
    "link_thumb": "https://live.staticflickr.com/65535/50041718477_98d2279614_n.jpg",
    "id_album": "-1261420436",
    "description": "Warrior_386973",
    "title": "Warrior_386973",
    "link_img": "https://live.staticflickr.com/65535/50041718477_9f3a1fc707_o.jpg",
    "id_image": "Warrior_386973",
    "count_view": 0
  },
  {
    "link_thumb": "https://live.staticflickr.com/65535/50039603483_25505e4d24_n.jpg",
    "id_album": "376235057",
    "description": "Planetscape_264508",
    "title": "Planetscape_264508",
    "link_img": "https://live.staticflickr.com/65535/50039603483_d6218be7bb_o.jpg",
    "id_image": "Planetscape_264508",
    "count_view": 0
  },
  {
    "link_thumb": "https://live.staticflickr.com/65535/50038942843_15b4322392_n.jpg",
    "id_album": "-1964113117",
    "description": "City_711407",
    "title": "City_711407",
    "link_img": "https://live.staticflickr.com/65535/50038942843_c8dc3a691e_o.jpg",
    "id_image": "City_711407",
    "count_view": 0
  },
  {
    "link_thumb": "https://live.staticflickr.com/65535/50039413206_4d82ea1f2a_n.jpg",
    "id_album": "-1780971522",
    "description": "Biohazard_332959",
    "title": "Biohazard_332959",
    "link_img": "https://live.staticflickr.com/65535/50039413206_81fc0b585f_o.jpg",
    "id_image": "Biohazard_332959",
    "count_view": 0
  },
  {
    "link_thumb": "https://live.staticflickr.com/65535/50039616411_4c916eed81_n.jpg",
    "id_album": "2104507156",
    "description": "Fantasy_162707",
    "title": "Fantasy_162707",
    "link_img": "https://live.staticflickr.com/65535/50039616411_bf4f33fa32_o.jpg",
    "id_image": "Fantasy_162707",
    "count_view": 0
  },
  {
    "link_thumb": "https://live.staticflickr.com/65535/50040009792_5266c9b18d_n.jpg",
    "id_album": "-1388385651",
    "description": "MilkyWay_740492",
    "title": "MilkyWay_740492",
    "link_img": "https://live.staticflickr.com/65535/50040009792_88e655f688_o.jpg",
    "id_image": "MilkyWay_740492",
    "count_view": 0
  },
  {
    "link_thumb": "https://live.staticflickr.com/65535/50039234223_ba04df02fc_n.jpg",
    "id_album": "-1610342324",
    "description": "Nebula_291109",
    "title": "Nebula_291109",
    "link_img": "https://live.staticflickr.com/65535/50039234223_af54406c6c_o.jpg",
    "id_image": "Nebula_291109",
    "count_view": 0
  },
  {
    "link_thumb": "https://live.staticflickr.com/65535/50040251666_341d31e986_n.jpg",
    "id_album": "779690680",
    "description": "Robot_112407",
    "title": "Robot_112407",
    "link_img": "https://live.staticflickr.com/65535/50040251666_23ccaf6ceb_o.jpg",
    "id_image": "Robot_112407",
    "count_view": 0
  },
  {
    "link_thumb": "https://live.staticflickr.com/65535/50039824581_f2d1310c5e_n.jpg",
    "id_album": "-1610342324",
    "description": "Nebula_703317",
    "title": "Nebula_703317",
    "link_img": "https://live.staticflickr.com/65535/50039824581_fb10323851_o.jpg",
    "id_image": "Nebula_703317",
    "count_view": 0
  },
  {
    "link_thumb": "https://live.staticflickr.com/65535/50039315421_2ecd41c29a_n.jpg",
    "id_album": "523598895",
    "description": "Artistic_217641",
    "title": "Artistic_217641",
    "link_img": "https://live.staticflickr.com/65535/50039315421_b4b2c5a372_o.jpg",
    "id_image": "Artistic_217641",
    "count_view": 0
  },
  {
    "link_thumb": "https://live.staticflickr.com/65535/50039532296_7a9f90bbb0_n.jpg",
    "id_album": "-1964113117",
    "description": "City_983864",
    "title": "City_983864",
    "link_img": "https://live.staticflickr.com/65535/50039532296_54fe6d37e1_o.jpg",
    "id_image": "City_983864",
    "count_view": 0
  },
  {
    "link_thumb": "https://live.staticflickr.com/65535/50039598138_52929bb971_n.jpg",
    "id_album": "-1102314093",
    "description": "Planets_957406",
    "title": "Planets_957406",
    "link_img": "https://live.staticflickr.com/65535/50039598138_cd21d933fe_o.jpg",
    "id_image": "Planets_957406",
    "count_view": 0
  },
  {
    "link_thumb": "https://live.staticflickr.com/65535/50039598833_63d6368744_n.jpg",
    "id_album": "-1102314093",
    "description": "Planets_957456",
    "title": "Planets_957456",
    "link_img": "https://live.staticflickr.com/65535/50039598833_9a86db98a6_o.jpg",
    "id_image": "Planets_957456",
    "count_view": 0
  },
  {
    "link_thumb": "https://live.staticflickr.com/65535/50041383026_5e9057bb1e_n.jpg",
    "id_album": "2020068132",
    "description": "Vehicle_269848",
    "title": "Vehicle_269848",
    "link_img": "https://live.staticflickr.com/65535/50041383026_a2eb76c669_o.jpg",
    "id_image": "Vehicle_269848",
    "count_view": 0
  },
  {
    "link_thumb": "https://live.staticflickr.com/65535/50039768486_d44883d0d6_n.jpg",
    "id_album": "-1610342324",
    "description": "Nebula_203964",
    "title": "Nebula_203964",
    "link_img": "https://live.staticflickr.com/65535/50039768486_1db6635367_o.jpg",
    "id_image": "Nebula_203964",
    "count_view": 0
  },
  {
    "link_thumb": "https://live.staticflickr.com/65535/50039395011_b7d61a96a4_n.jpg",
    "id_album": "1187037014",
    "description": "Battle_167739",
    "title": "Battle_167739",
    "link_img": "https://live.staticflickr.com/65535/50039395011_6dbf955145_o.jpg",
    "id_image": "Battle_167739",
    "count_view": 0
  },
  {
    "link_thumb": "https://live.staticflickr.com/65535/50040123396_fc122e5cb3_n.jpg",
    "id_album": "-1102314093",
    "description": "Planets_533841",
    "title": "Planets_533841",
    "link_img": "https://live.staticflickr.com/65535/50040123396_e8f6a33330_o.jpg",
    "id_image": "Planets_533841",
    "count_view": 0
  },
  {
    "link_thumb": "https://live.staticflickr.com/65535/50039893707_27a10ce67b_n.jpg",
    "id_album": "1204249541",
    "description": "Galaxy_324687",
    "title": "Galaxy_324687",
    "link_img": "https://live.staticflickr.com/65535/50039893707_d8bc3a3072_o.jpg",
    "id_image": "Galaxy_324687",
    "count_view": 0
  },
  {
    "link_thumb": "https://live.staticflickr.com/65535/50040146337_df9a7a2c97_n.jpg",
    "id_album": "-1862561193",
    "description": "Other_269524",
    "title": "Other_269524",
    "link_img": "https://live.staticflickr.com/65535/50040146337_c0d8d588f8_o.jpg",
    "id_image": "Other_269524",
    "count_view": 0
  },
  {
    "link_thumb": "https://live.staticflickr.com/65535/50041179866_87006da4c2_n.jpg",
    "id_album": "-1863373220",
    "description": "StarWars_438735",
    "title": "StarWars_438735",
    "link_img": "https://live.staticflickr.com/65535/50041179866_c21b62a264_o.jpg",
    "id_image": "StarWars_438735",
    "count_view": 0
  },
  {
    "link_thumb": "https://live.staticflickr.com/65535/50039739627_bf2bd9defe_n.jpg",
    "id_album": "-1964113117",
    "description": "City_550166",
    "title": "City_550166",
    "link_img": "https://live.staticflickr.com/65535/50039739627_4841f7527f_o.jpg",
    "id_image": "City_550166",
    "count_view": 0
  },
  {
    "link_thumb": "https://live.staticflickr.com/65535/50038999178_5d0a41eb3b_n.jpg",
    "id_album": "-437872736",
    "description": "Creature_232439",
    "title": "Creature_232439",
    "link_img": "https://live.staticflickr.com/65535/50038999178_230a9cb878_o.jpg",
    "id_image": "Creature_232439",
    "count_view": 0
  },
  {
    "link_thumb": "https://live.staticflickr.com/65535/50039882507_92176d490f_n.jpg",
    "id_album": "2104507156",
    "description": "Fantasy_200405",
    "title": "Fantasy_200405",
    "link_img": "https://live.staticflickr.com/65535/50039882507_db38cf739b_o.jpg",
    "id_image": "Fantasy_200405",
    "count_view": 0
  },
  {
    "link_thumb": "https://live.staticflickr.com/65535/50040865273_742989e5ac_n.jpg",
    "id_album": "2020068132",
    "description": "Vehicle_902916",
    "title": "Vehicle_902916",
    "link_img": "https://live.staticflickr.com/65535/50040865273_2804b430e1_o.jpg",
    "id_image": "Vehicle_902916",
    "count_view": 0
  },
  {
    "link_thumb": "https://live.staticflickr.com/65535/50040627921_3fb1a8f06a_n.jpg",
    "id_album": "2130067313",
    "description": "Spaceship_286820",
    "title": "Spaceship_286820",
    "link_img": "https://live.staticflickr.com/65535/50040627921_9d86198483_o.jpg",
    "id_image": "Spaceship_286820",
    "count_view": 0
  },
  {
    "link_thumb": "https://live.staticflickr.com/65535/50039220708_589d06abed_n.jpg",
    "id_album": "-1610342324",
    "description": "Nebula_211858",
    "title": "Nebula_211858",
    "link_img": "https://live.staticflickr.com/65535/50039220708_e3530b0e4d_o.jpg",
    "id_image": "Nebula_211858",
    "count_view": 0
  },
  {
    "link_thumb": "https://live.staticflickr.com/65535/50039988213_0c1bb94def_n.jpg",
    "id_album": "1613540653",
    "description": "Space_822456",
    "title": "Space_822456",
    "link_img": "https://live.staticflickr.com/65535/50039988213_af63c25a55_o.jpg",
    "id_image": "Space_822456",
    "count_view": 0
  },
  {
    "link_thumb": "https://live.staticflickr.com/65535/50039895287_d398bf1d5d_n.jpg",
    "id_album": "1204249541",
    "description": "Galaxy_400007",
    "title": "Galaxy_400007",
    "link_img": "https://live.staticflickr.com/65535/50039895287_b9f22211a4_o.jpg",
    "id_image": "Galaxy_400007",
    "count_view": 0
  },
  {
    "link_thumb": "https://live.staticflickr.com/65535/50039624488_49b12f31ef_n.jpg",
    "id_album": "376235057",
    "description": "Planetscape_529573",
    "title": "Planetscape_529573",
    "link_img": "https://live.staticflickr.com/65535/50039624488_28c27b2856_o.jpg",
    "id_image": "Planetscape_529573",
    "count_view": 0
  },
  {
    "link_thumb": "https://live.staticflickr.com/65535/50040465951_f31854b5e1_n.jpg",
    "id_album": "1613540653",
    "description": "Space_121041",
    "title": "Space_121041",
    "link_img": "https://live.staticflickr.com/65535/50040465951_3fb47c76dc_o.jpg",
    "id_image": "Space_121041",
    "count_view": 0
  },
  {
    "link_thumb": "https://live.staticflickr.com/65535/50041629317_f5ae289678_n.jpg",
    "id_album": "-1177476763",
    "description": "Sunrise_464101",
    "title": "Sunrise_464101",
    "link_img": "https://live.staticflickr.com/65535/50041629317_4aac5c40f0_o.jpg",
    "id_image": "Sunrise_464101",
    "count_view": 0
  },
  {
    "link_thumb": "https://live.staticflickr.com/65535/50040529007_90ec0874ed_n.jpg",
    "id_album": "779690680",
    "description": "Robot_20567",
    "title": "Robot_20567",
    "link_img": "https://live.staticflickr.com/65535/50040529007_d413658751_o.jpg",
    "id_image": "Robot_20567",
    "count_view": 0
  },
  {
    "link_thumb": "https://live.staticflickr.com/65535/50039838758_fef02c71ba_n.jpg",
    "id_album": "779690680",
    "description": "Robot_883162",
    "title": "Robot_883162",
    "link_img": "https://live.staticflickr.com/65535/50039838758_a4bfe445c5_o.jpg",
    "id_image": "Robot_883162",
    "count_view": 0
  },
  {
    "link_thumb": "https://live.staticflickr.com/65535/50040648988_82a0b09406_n.jpg",
    "id_album": "-1863373220",
    "description": "StarWars_639744",
    "title": "StarWars_639744",
    "link_img": "https://live.staticflickr.com/65535/50040648988_3942c5ca72_o.jpg",
    "id_image": "StarWars_639744",
    "count_view": 0
  },
  {
    "link_thumb": "https://live.staticflickr.com/65535/50040570537_769bf27b59_n.jpg",
    "id_album": "779690680",
    "description": "Robot_418080",
    "title": "Robot_418080",
    "link_img": "https://live.staticflickr.com/65535/50040570537_47efa793ea_o.jpg",
    "id_image": "Robot_418080",
    "count_view": 0
  },
  {
    "link_thumb": "https://live.staticflickr.com/65535/50039254213_37ba21fc4c_n.jpg",
    "id_album": "-1610342324",
    "description": "Nebula_523380",
    "title": "Nebula_523380",
    "link_img": "https://live.staticflickr.com/65535/50039254213_d1e4e405f6_o.jpg",
    "id_image": "Nebula_523380",
    "count_view": 0
  },
  {
    "link_thumb": "https://live.staticflickr.com/65535/50039821788_05e8a82154_n.jpg",
    "id_album": "779690680",
    "description": "Robot_857292",
    "title": "Robot_857292",
    "link_img": "https://live.staticflickr.com/65535/50039821788_3c302403e5_o.jpg",
    "id_image": "Robot_857292",
    "count_view": 0
  },
  {
    "link_thumb": "https://live.staticflickr.com/65535/50038735358_30a2181952_n.jpg",
    "id_album": "-419633230",
    "description": "Apocalyptic_319075",
    "title": "Apocalyptic_319075",
    "link_img": "https://live.staticflickr.com/65535/50038735358_be99913b8f_o.jpg",
    "id_image": "Apocalyptic_319075",
    "count_view": 0
  },
  {
    "link_thumb": "https://live.staticflickr.com/65535/50040101042_26b4895c52_n.jpg",
    "id_album": "-1610342324",
    "description": "Nebula_790646",
    "title": "Nebula_790646",
    "link_img": "https://live.staticflickr.com/65535/50040101042_799687acac_o.jpg",
    "id_image": "Nebula_790646",
    "count_view": 0
  },
  {
    "link_thumb": "https://live.staticflickr.com/65535/50038931213_81fc6acdb1_n.jpg",
    "id_album": "-1964113117",
    "description": "City_573552",
    "title": "City_573552",
    "link_img": "https://live.staticflickr.com/65535/50038931213_75689472a6_o.jpg",
    "id_image": "City_573552",
    "count_view": 0
  },
  {
    "link_thumb": "https://live.staticflickr.com/65535/50038882558_362449b37c_n.jpg",
    "id_album": "-1964113117",
    "description": "City_103434",
    "title": "City_103434",
    "link_img": "https://live.staticflickr.com/65535/50038882558_7f4069d14d_o.jpg",
    "id_image": "City_103434",
    "count_view": 0
  },
  {
    "link_thumb": "https://live.staticflickr.com/65535/50039114988_e17c782d9b_n.jpg",
    "id_album": "1402713104",
    "description": "Landscape_189233",
    "title": "Landscape_189233",
    "link_img": "https://live.staticflickr.com/65535/50039114988_61bf52bf4e_o.jpg",
    "id_image": "Landscape_189233",
    "count_view": 0
  },
  {
    "link_thumb": "https://live.staticflickr.com/65535/50041587797_295928b428_n.jpg",
    "id_album": "1267121215",
    "description": "Steampunk_655449",
    "title": "Steampunk_655449",
    "link_img": "https://live.staticflickr.com/65535/50041587797_b97622ae17_o.jpg",
    "id_image": "Steampunk_655449",
    "count_view": 0
  },
  {
    "link_thumb": "https://live.staticflickr.com/65535/50040705506_1a46707f66_n.jpg",
    "id_album": "2130067313",
    "description": "Spaceship_518888",
    "title": "Spaceship_518888",
    "link_img": "https://live.staticflickr.com/65535/50040705506_dfb8026692_o.jpg",
    "id_image": "Spaceship_518888",
    "count_view": 0
  },
  {
    "link_thumb": "https://live.staticflickr.com/65535/50038689823_590227410d_n.jpg",
    "id_album": "-406145265",
    "description": "Aircraft_329511",
    "title": "Aircraft_329511",
    "link_img": "https://live.staticflickr.com/65535/50038689823_70fb35c294_o.jpg",
    "id_image": "Aircraft_329511",
    "count_view": 0
  },
  {
    "link_thumb": "https://live.staticflickr.com/65535/50039873473_e81f33c478_n.jpg",
    "id_album": "779690680",
    "description": "Robot_930302",
    "title": "Robot_930302",
    "link_img": "https://live.staticflickr.com/65535/50039873473_61c054da38_o.jpg",
    "id_image": "Robot_930302",
    "count_view": 0
  }
]