[
  {
    "link_thumb": "https://live.staticflickr.com/65535/50039850257_688f55b2fb_n.jpg",
    "id_album": "829169633",
    "description": "Cyborg_390068",
    "title": "Cyborg_390068",
    "link_img": "https://live.staticflickr.com/65535/50039850257_51d7aa45fc_o.jpg",
    "id_image": "Cyborg_390068",
    "count_view": 0
  },
  {
    "link_thumb": "https://live.staticflickr.com/65535/50039516732_b85e06fdee_n.jpg",
    "id_album": "849020728",
    "description": "Alien_213653",
    "title": "Alien_213653",
    "link_img": "https://live.staticflickr.com/65535/50039516732_07513ccacb_o.jpg",
    "id_image": "Alien_213653",
    "count_view": 0
  },
  {
    "link_thumb": "https://live.staticflickr.com/65535/50040299813_9491c7e14d_n.jpg",
    "id_album": "-1449720967",
    "description": "StarTrek_337654",
    "title": "StarTrek_337654",
    "link_img": "https://live.staticflickr.com/65535/50040299813_ed6919f9fc_o.jpg",
    "id_image": "StarTrek_337654",
    "count_view": 0
  },
  {
    "link_thumb": "https://live.staticflickr.com/65535/50038741058_bc541ab720_n.jpg",
    "id_album": "-419633230",
    "description": "Apocalyptic_957376",
    "title": "Apocalyptic_957376",
    "link_img": "https://live.staticflickr.com/65535/50038741058_25664570ae_o.jpg",
    "id_image": "Apocalyptic_957376",
    "count_view": 0
  },
  {
    "link_thumb": "https://live.staticflickr.com/65535/50039112828_c4702433c8_n.jpg",
    "id_album": "1402713104",
    "description": "Landscape_163743",
    "title": "Landscape_163743",
    "link_img": "https://live.staticflickr.com/65535/50039112828_d21aa72912_o.jpg",
    "id_image": "Landscape_163743",
    "count_view": 0
  },
  {
    "link_thumb": "https://live.staticflickr.com/65535/50040286386_59f1ec3ae1_n.jpg",
    "id_album": "779690680",
    "description": "Robot_309940",
    "title": "Robot_309940",
    "link_img": "https://live.staticflickr.com/65535/50040286386_efa91b9ed3_o.jpg",
    "id_image": "Robot_309940",
    "count_view": 0
  },
  {
    "link_thumb": "https://live.staticflickr.com/65535/50040401291_c9f30aceaa_n.jpg",
    "id_album": "779690680",
    "description": "Robot_903926",
    "title": "Robot_903926",
    "link_img": "https://live.staticflickr.com/65535/50040401291_ed8bbddb79_o.jpg",
    "id_image": "Robot_903926",
    "count_view": 0
  },
  {
    "link_thumb": "https://live.staticflickr.com/65535/50038898548_8bda79f26a_n.jpg",
    "id_album": "-1964113117",
    "description": "City_214317",
    "title": "City_214317",
    "link_img": "https://live.staticflickr.com/65535/50038898548_b078064e7f_o.jpg",
    "id_image": "City_214317",
    "count_view": 0
  },
  {
    "link_thumb": "https://live.staticflickr.com/65535/50038760848_65846f8241_n.jpg",
    "id_album": "523598895",
    "description": "Artistic_189554",
    "title": "Artistic_189554",
    "link_img": "https://live.staticflickr.com/65535/50038760848_e50fde9a45_o.jpg",
    "id_image": "Artistic_189554",
    "count_view": 0
  },
  {
    "link_thumb": "https://live.staticflickr.com/65535/50040596603_56a3cbc31b_n.jpg",
    "id_album": "-1863373220",
    "description": "StarWars_236266",
    "title": "StarWars_236266",
    "link_img": "https://live.staticflickr.com/65535/50040596603_a970aa8498_o.jpg",
    "id_image": "StarWars_236266",
    "count_view": 0
  },
  {
    "link_thumb": "https://live.staticflickr.com/65535/50040222631_3d0e4d4f07_n.jpg",
    "id_album": "-482547208",
    "description": "PostApocalyptic_740042",
    "title": "PostApocalyptic_740042",
    "link_img": "https://live.staticflickr.com/65535/50040222631_52975cbe87_o.jpg",
    "id_image": "PostApocalyptic_740042",
    "count_view": 0
  },
  {
    "link_thumb": "https://live.staticflickr.com/65535/50039608782_e8d2c1dee1_n.jpg",
    "id_album": "523598895",
    "description": "Artistic_914474",
    "title": "Artistic_914474",
    "link_img": "https://live.staticflickr.com/65535/50039608782_ccb2febf2b_o.jpg",
    "id_image": "Artistic_914474",
    "count_view": 0
  },
  {
    "link_thumb": "https://live.staticflickr.com/65535/50039479796_61518ce489_n.jpg",
    "id_album": "-1964113117",
    "description": "City_570221",
    "title": "City_570221",
    "link_img": "https://live.staticflickr.com/65535/50039479796_8cee26ea2d_o.jpg",
    "id_image": "City_570221",
    "count_view": 0
  },
  {
    "link_thumb": "https://live.staticflickr.com/65535/50039171583_34aacbe682_n.jpg",
    "id_album": "1402713104",
    "description": "Landscape_906139",
    "title": "Landscape_906139",
    "link_img": "https://live.staticflickr.com/65535/50039171583_4c3a6c9d69_o.jpg",
    "id_image": "Landscape_906139",
    "count_view": 0
  },
  {
    "link_thumb": "https://live.staticflickr.com/65535/50039544973_f399c24af8_n.jpg",
    "id_album": "-1102314093",
    "description": "Planets_355966",
    "title": "Planets_355966",
    "link_img": "https://live.staticflickr.com/65535/50039544973_66d048a308_o.jpg",
    "id_image": "Planets_355966",
    "count_view": 0
  },
  {
    "link_thumb": "https://live.staticflickr.com/65535/50040158467_7932484ac2_n.jpg",
    "id_album": "1896531081",
    "description": "People_305750",
    "title": "People_305750",
    "link_img": "https://live.staticflickr.com/65535/50040158467_6033d55eae_o.jpg",
    "id_image": "People_305750",
    "count_view": 0
  },
  {
    "link_thumb": "https://live.staticflickr.com/65535/50038855193_37530411aa_n.jpg",
    "id_album": "1187037014",
    "description": "Battle_551733",
    "title": "Battle_551733",
    "link_img": "https://live.staticflickr.com/65535/50038855193_a0b2a16215_o.jpg",
    "id_image": "Battle_551733",
    "count_view": 0
  },
  {
    "link_thumb": "https://live.staticflickr.com/65535/50039101608_b5143f06e2_n.jpg",
    "id_album": "1204249541",
    "description": "Galaxy_689587",
    "title": "Galaxy_689587",
    "link_img": "https://live.staticflickr.com/65535/50039101608_27d7800ab1_o.jpg",
    "id_image": "Galaxy_689587",
    "count_view": 0
  },
  {
    "link_thumb": "https://live.staticflickr.com/65535/50038995868_580188ba2a_n.jpg",
    "id_album": "894679094",
    "description": "Collision_904527",
    "title": "Collision_904527",
    "link_img": "https://live.staticflickr.com/65535/50038995868_011baebe8d_o.jpg",
    "id_image": "Collision_904527",
    "count_view": 0
  },
  {
    "link_thumb": "https://live.staticflickr.com/65535/50039113903_b28984a6d1_n.jpg",
    "id_album": "1402713104",
    "description": "Landscape_177517",
    "title": "Landscape_177517",
    "link_img": "https://live.staticflickr.com/65535/50039113903_8948a56882_o.jpg",
    "id_image": "Landscape_177517",
    "count_view": 0
  },
  {
    "link_thumb": "https://live.staticflickr.com/65535/50039143038_4be14a5ed6_n.jpg",
    "id_album": "1402713104",
    "description": "Landscape_528576",
    "title": "Landscape_528576",
    "link_img": "https://live.staticflickr.com/65535/50039143038_ac827424e3_o.jpg",
    "id_image": "Landscape_528576",
    "count_view": 0
  },
  {
    "link_thumb": "https://live.staticflickr.com/65535/50039034553_a7d296a05e_n.jpg",
    "id_album": "829169633",
    "description": "Cyborg_282884",
    "title": "Cyborg_282884",
    "link_img": "https://live.staticflickr.com/65535/50039034553_0563fb8a4d_o.jpg",
    "id_image": "Cyborg_282884",
    "count_view": 0
  },
  {
    "link_thumb": "https://live.staticflickr.com/65535/50040828848_83378202cc_n.jpg",
    "id_album": "2020068132",
    "description": "Vehicle_271142",
    "title": "Vehicle_271142",
    "link_img": "https://live.staticflickr.com/65535/50040828848_0755b1ed6b_o.jpg",
    "id_image": "Vehicle_271142",
    "count_view": 0
  },
  {
    "link_thumb": "https://live.staticflickr.com/65535/50040510907_8104260768_n.jpg",
    "id_album": "-839602625",
    "description": "Predator_868745",
    "title": "Predator_868745",
    "link_img": "https://live.staticflickr.com/65535/50040510907_ae0d601297_o.jpg",
    "id_image": "Predator_868745",
    "count_view": 0
  },
  {
    "link_thumb": "https://live.staticflickr.com/65535/50041572327_7791a5c289_n.jpg",
    "id_album": "1267121215",
    "description": "Steampunk_264131",
    "title": "Steampunk_264131",
    "link_img": "https://live.staticflickr.com/65535/50041572327_b1f3491341_o.jpg",
    "id_image": "Steampunk_264131",
    "count_view": 0
  },
  {
    "link_thumb": "https://live.staticflickr.com/65535/50039903496_4460e06453_n.jpg",
    "id_album": "395161030",
    "description": "Planet_106114",
    "title": "Planet_106114",
    "link_img": "https://live.staticflickr.com/65535/50039903496_9b51bc6347_o.jpg",
    "id_image": "Planet_106114",
    "count_view": 0
  },
  {
    "link_thumb": "https://live.staticflickr.com/65535/50039768486_d44883d0d6_n.jpg",
    "id_album": "-1610342324",
    "description": "Nebula_203964",
    "title": "Nebula_203964",
    "link_img": "https://live.staticflickr.com/65535/50039768486_1db6635367_o.jpg",
    "id_image": "Nebula_203964",
    "count_view": 0
  },
  {
    "link_thumb": "https://live.staticflickr.com/65535/50039570007_263ff28893_n.jpg",
    "id_album": "523598895",
    "description": "Artistic_188244",
    "title": "Artistic_188244",
    "link_img": "https://live.staticflickr.com/65535/50039570007_0429d40303_o.jpg",
    "id_image": "Artistic_188244",
    "count_view": 0
  },
  {
    "link_thumb": "https://live.staticflickr.com/65535/50040991618_4ab135cab7_n.jpg",
    "id_album": "-1126835654",
    "description": "Women_712134",
    "title": "Women_712134",
    "link_img": "https://live.staticflickr.com/65535/50040991618_a1f2b808f0_o.jpg",
    "id_image": "Women_712134",
    "count_view": 0
  },
  {
    "link_thumb": "https://live.staticflickr.com/65535/50041607907_2fcbc32cc3_n.jpg",
    "id_album": "-221671103",
    "description": "Sun_286806",
    "title": "Sun_286806",
    "link_img": "https://live.staticflickr.com/65535/50041607907_451be4c970_o.jpg",
    "id_image": "Sun_286806",
    "count_view": 0
  },
  {
    "link_thumb": "https://live.staticflickr.com/65535/50039543698_6e04135ea1_n.jpg",
    "id_album": "-1102314093",
    "description": "Planets_352982",
    "title": "Planets_352982",
    "link_img": "https://live.staticflickr.com/65535/50039543698_17097ceb80_o.jpg",
    "id_image": "Planets_352982",
    "count_view": 0
  },
  {
    "link_thumb": "https://live.staticflickr.com/65535/50039680732_a17da47924_n.jpg",
    "id_album": "-1780971522",
    "description": "Biohazard_573095",
    "title": "Biohazard_573095",
    "link_img": "https://live.staticflickr.com/65535/50039680732_193364d024_o.jpg",
    "id_image": "Biohazard_573095",
    "count_view": 0
  },
  {
    "link_thumb": "https://live.staticflickr.com/65535/50040699711_1de5a12315_n.jpg",
    "id_album": "2130067313",
    "description": "Spaceship_453315",
    "title": "Spaceship_453315",
    "link_img": "https://live.staticflickr.com/65535/50040699711_0c731fd76c_o.jpg",
    "id_image": "Spaceship_453315",
    "count_view": 0
  },
  {
    "link_thumb": "https://live.staticflickr.com/65535/50039187163_0a5325abd6_n.jpg",
    "id_album": "-1388385651",
    "description": "MilkyWay_598607",
    "title": "MilkyWay_598607",
    "link_img": "https://live.staticflickr.com/65535/50039187163_711de30ca3_o.jpg",
    "id_image": "MilkyWay_598607",
    "count_view": 0
  },
  {
    "link_thumb": "https://live.staticflickr.com/65535/50039088298_2ea2a010d2_n.jpg",
    "id_album": "1204249541",
    "description": "Galaxy_467027",
    "title": "Galaxy_467027",
    "link_img": "https://live.staticflickr.com/65535/50039088298_9226db0470_o.jpg",
    "id_image": "Galaxy_467027",
    "count_view": 0
  },
  {
    "link_thumb": "https://live.staticflickr.com/65535/50040545942_3605156c07_n.jpg",
    "id_album": "779690680",
    "description": "Robot_286162",
    "title": "Robot_286162",
    "link_img": "https://live.staticflickr.com/65535/50040545942_08dc1401f4_o.jpg",
    "id_image": "Robot_286162",
    "count_view": 0
  },
  {
    "link_thumb": "https://live.staticflickr.com/65535/50039428826_ab8d48383c_n.jpg",
    "id_album": "406431601",
    "description": "Building_972113",
    "title": "Building_972113",
    "link_img": "https://live.staticflickr.com/65535/50039428826_571ef67e06_o.jpg",
    "id_image": "Building_972113",
    "count_view": 0
  },
  {
    "link_thumb": "https://live.staticflickr.com/65535/50040399677_b89af3f3cf_n.jpg",
    "id_album": "-1102314093",
    "description": "Planets_78685",
    "title": "Planets_78685",
    "link_img": "https://live.staticflickr.com/65535/50040399677_09316be076_o.jpg",
    "id_image": "Planets_78685",
    "count_view": 0
  },
  {
    "link_thumb": "https://live.staticflickr.com/65535/50041423262_89d16c1247_n.jpg",
    "id_album": "-1863373220",
    "description": "StarWars_286350",
    "title": "StarWars_286350",
    "link_img": "https://live.staticflickr.com/65535/50041423262_5feb5812f8_o.jpg",
    "id_image": "StarWars_286350",
    "count_view": 0
  },
  {
    "link_thumb": "https://live.staticflickr.com/65535/50041382631_bc66cd7910_n.jpg",
    "id_album": "2020068132",
    "description": "Vehicle_269322",
    "title": "Vehicle_269322",
    "link_img": "https://live.staticflickr.com/65535/50041382631_3128c2a527_o.jpg",
    "id_image": "Vehicle_269322",
    "count_view": 0
  },
  {
    "link_thumb": "https://live.staticflickr.com/65535/50039806957_c1295cb92f_n.jpg",
    "id_album": "894679094",
    "description": "Collision_957395",
    "title": "Collision_957395",
    "link_img": "https://live.staticflickr.com/65535/50039806957_88f5dee92e_o.jpg",
    "id_image": "Collision_957395",
    "count_view": 0
  },
  {
    "link_thumb": "https://live.staticflickr.com/65535/50040859583_d442ff6e1f_n.jpg",
    "id_album": "2020068132",
    "description": "Vehicle_714774",
    "title": "Vehicle_714774",
    "link_img": "https://live.staticflickr.com/65535/50040859583_b0177ce5d8_o.jpg",
    "id_image": "Vehicle_714774",
    "count_view": 0
  },
  {
    "link_thumb": "https://live.staticflickr.com/65535/50039737751_97b9f297da_n.jpg",
    "id_album": "-1388385651",
    "description": "MilkyWay_677843",
    "title": "MilkyWay_677843",
    "link_img": "https://live.staticflickr.com/65535/50039737751_bdb7c1d154_o.jpg",
    "id_image": "MilkyWay_677843",
    "count_view": 0
  },
  {
    "link_thumb": "https://live.staticflickr.com/65535/50040135701_46bafa5edd_n.jpg",
    "id_album": "-1102314093",
    "description": "Planets_786785",
    "title": "Planets_786785",
    "link_img": "https://live.staticflickr.com/65535/50040135701_442f527d34_o.jpg",
    "id_image": "Planets_786785",
    "count_view": 0
  },
  {
    "link_thumb": "https://live.staticflickr.com/65535/50039029538_900c5caa3c_n.jpg",
    "id_album": "829169633",
    "description": "Cyborg_177109",
    "title": "Cyborg_177109",
    "link_img": "https://live.staticflickr.com/65535/50039029538_67cdaa4354_o.jpg",
    "id_image": "Cyborg_177109",
    "count_view": 0
  },
  {
    "link_thumb": "https://live.staticflickr.com/65535/50040516756_7daacdbf08_n.jpg",
    "id_album": "1613540653",
    "description": "Space_588412",
    "title": "Space_588412",
    "link_img": "https://live.staticflickr.com/65535/50040516756_b19ba21fab_o.jpg",
    "id_image": "Space_588412",
    "count_view": 0
  },
  {
    "link_thumb": "https://live.staticflickr.com/65535/50040510142_8b46392e08_n.jpg",
    "id_album": "-839602625",
    "description": "Predator_599866",
    "title": "Predator_599866",
    "link_img": "https://live.staticflickr.com/65535/50040510142_ff45d0b257_o.jpg",
    "id_image": "Predator_599866",
    "count_view": 0
  },
  {
    "link_thumb": "https://live.staticflickr.com/65535/50039249806_7ab4020e6a_n.jpg",
    "id_album": "849020728",
    "description": "Alien_179427",
    "title": "Alien_179427",
    "link_img": "https://live.staticflickr.com/65535/50039249806_31046f521c_o.jpg",
    "id_image": "Alien_179427",
    "count_view": 0
  },
  {
    "link_thumb": "https://live.staticflickr.com/65535/50040731788_ed1c00017f_n.jpg",
    "id_album": "1267121215",
    "description": "Steampunk_111119",
    "title": "Steampunk_111119",
    "link_img": "https://live.staticflickr.com/65535/50040731788_4f3fd6c25a_o.jpg",
    "id_image": "Steampunk_111119",
    "count_view": 0
  },
  {
    "link_thumb": "https://live.staticflickr.com/65535/50039651632_f012d80a13_n.jpg",
    "id_album": "869545341",
    "description": "Astronaut_977917",
    "title": "Astronaut_977917",
    "link_img": "https://live.staticflickr.com/65535/50039651632_0c0b3727ec_o.jpg",
    "id_image": "Astronaut_977917",
    "count_view": 0
  },
  {
    "link_thumb": "https://live.staticflickr.com/65535/50039902732_a29157ac93_n.jpg",
    "id_album": "1204249541",
    "description": "Galaxy_529455",
    "title": "Galaxy_529455",
    "link_img": "https://live.staticflickr.com/65535/50039902732_21b73e2afe_o.jpg",
    "id_image": "Galaxy_529455",
    "count_view": 0
  },
  {
    "link_thumb": "https://live.staticflickr.com/65535/50039792663_393d140357_n.jpg",
    "id_album": "779690680",
    "description": "Robot_616673",
    "title": "Robot_616673",
    "link_img": "https://live.staticflickr.com/65535/50039792663_687689fb38_o.jpg",
    "id_image": "Robot_616673",
    "count_view": 0
  },
  {
    "link_thumb": "https://live.staticflickr.com/65535/50040670323_7fa6c7931c_n.jpg",
    "id_album": "-1863373220",
    "description": "StarWars_786615",
    "title": "StarWars_786615",
    "link_img": "https://live.staticflickr.com/65535/50040670323_b0ec1ba968_o.jpg",
    "id_image": "StarWars_786615",
    "count_view": 0
  },
  {
    "link_thumb": "https://live.staticflickr.com/65535/50040461132_758b5eeaaf_n.jpg",
    "id_album": "-482547208",
    "description": "PostApocalyptic_217638",
    "title": "PostApocalyptic_217638",
    "link_img": "https://live.staticflickr.com/65535/50040461132_2a7a7a7450_o.jpg",
    "id_image": "PostApocalyptic_217638",
    "count_view": 0
  },
  {
    "link_thumb": "https://live.staticflickr.com/65535/50039565752_1e7cbabd47_n.jpg",
    "id_album": "523598895",
    "description": "Artistic_174836",
    "title": "Artistic_174836",
    "link_img": "https://live.staticflickr.com/65535/50039565752_228023ebce_o.jpg",
    "id_image": "Artistic_174836",
    "count_view": 0
  },
  {
    "link_thumb": "https://live.staticflickr.com/65535/50039479448_fc3df06820_n.jpg",
    "id_album": "814701616",
    "description": "PlanetaryRing_355071",
    "title": "PlanetaryRing_355071",
    "link_img": "https://live.staticflickr.com/65535/50039479448_36d6908422_o.jpg",
    "id_image": "PlanetaryRing_355071",
    "count_view": 0
  },
  {
    "link_thumb": "https://live.staticflickr.com/65535/50039818227_a672b8016f_n.jpg",
    "id_album": "-437872736",
    "description": "Creature_410085",
    "title": "Creature_410085",
    "link_img": "https://live.staticflickr.com/65535/50039818227_6867bf3aaa_o.jpg",
    "id_image": "Creature_410085",
    "count_view": 0
  },
  {
    "link_thumb": "https://live.staticflickr.com/65535/50039097678_b6ffd67171_n.jpg",
    "id_album": "1204249541",
    "description": "Galaxy_596544",
    "title": "Galaxy_596544",
    "link_img": "https://live.staticflickr.com/65535/50039097678_95ea3be8e3_o.jpg",
    "id_image": "Galaxy_596544",
    "count_view": 0
  },
  {
    "link_thumb": "https://live.staticflickr.com/65535/50040012796_baa5d909a7_n.jpg",
    "id_album": "1443611160",
    "description": "PlanetRise_76944",
    "title": "PlanetRise_76944",
    "link_img": "https://live.staticflickr.com/65535/50040012796_83f0305a18_o.jpg",
    "id_image": "PlanetRise_76944",
    "count_view": 0
  },
  {
    "link_thumb": "https://live.staticflickr.com/65535/50039713468_9d04894b89_n.jpg",
    "id_album": "779690680",
    "description": "Robot_218101",
    "title": "Robot_218101",
    "link_img": "https://live.staticflickr.com/65535/50039713468_930c04b2a8_o.jpg",
    "id_image": "Robot_218101",
    "count_view": 0
  },
  {
    "link_thumb": "https://live.staticflickr.com/65535/50040473282_e2d2af799c_n.jpg",
    "id_album": "-482547208",
    "description": "PostApocalyptic_359528",
    "title": "PostApocalyptic_359528",
    "link_img": "https://live.staticflickr.com/65535/50040473282_9356f44ac2_o.jpg",
    "id_image": "PostApocalyptic_359528",
    "count_view": 0
  },
  {
    "link_thumb": "https://live.staticflickr.com/65535/50039879788_2313c2a6ce_n.jpg",
    "id_album": "779690680",
    "description": "Robot_937813",
    "title": "Robot_937813",
    "link_img": "https://live.staticflickr.com/65535/50039879788_08f557951f_o.jpg",
    "id_image": "Robot_937813",
    "count_view": 0
  },
  {
    "link_thumb": "https://live.staticflickr.com/65535/50039998477_47669b48b8_n.jpg",
    "id_album": "-1388385651",
    "description": "MilkyWay_592442",
    "title": "MilkyWay_592442",
    "link_img": "https://live.staticflickr.com/65535/50039998477_63bf4e9102_o.jpg",
    "id_image": "MilkyWay_592442",
    "count_view": 0
  },
  {
    "link_thumb": "https://live.staticflickr.com/65535/50039259683_b807926190_n.jpg",
    "id_album": "-1610342324",
    "description": "Nebula_555597",
    "title": "Nebula_555597",
    "link_img": "https://live.staticflickr.com/65535/50039259683_55e06fd956_o.jpg",
    "id_image": "Nebula_555597",
    "count_view": 0
  },
  {
    "link_thumb": "https://live.staticflickr.com/65535/50039701372_e9878ddb9d_n.jpg",
    "id_album": "-1964113117",
    "description": "City_166533",
    "title": "City_166533",
    "link_img": "https://live.staticflickr.com/65535/50039701372_73ed006f4a_o.jpg",
    "id_image": "City_166533",
    "count_view": 0
  },
  {
    "link_thumb": "https://live.staticflickr.com/65535/50041368422_607bc09ee5_n.jpg",
    "id_album": "779690680",
    "description": "Robot_994832",
    "title": "Robot_994832",
    "link_img": "https://live.staticflickr.com/65535/50041368422_8990297b5f_o.jpg",
    "id_image": "Robot_994832",
    "count_view": 0
  },
  {
    "link_thumb": "https://live.staticflickr.com/65535/50039257173_c761bce870_n.jpg",
    "id_album": "-1610342324",
    "description": "Nebula_548004",
    "title": "Nebula_548004",
    "link_img": "https://live.staticflickr.com/65535/50039257173_f9f8fb169f_o.jpg",
    "id_image": "Nebula_548004",
    "count_view": 0
  },
  {
    "link_thumb": "https://live.staticflickr.com/65535/50039629951_0f5e3e9cbd_n.jpg",
    "id_album": "1204249541",
    "description": "Galaxy_286765",
    "title": "Galaxy_286765",
    "link_img": "https://live.staticflickr.com/65535/50039629951_07369883f5_o.jpg",
    "id_image": "Galaxy_286765",
    "count_view": 0
  },
  {
    "link_thumb": "https://live.staticflickr.com/65535/50039398223_25ffa88a3c_n.jpg",
    "id_album": "395161030",
    "description": "Planet_396516",
    "title": "Planet_396516",
    "link_img": "https://live.staticflickr.com/65535/50039398223_bb2a089ee7_o.jpg",
    "id_image": "Planet_396516",
    "count_view": 0
  },
  {
    "link_thumb": "https://live.staticflickr.com/65535/50040739207_df788592ce_n.jpg",
    "id_album": "1613540653",
    "description": "Space_181319",
    "title": "Space_181319",
    "link_img": "https://live.staticflickr.com/65535/50040739207_fde5e84dd5_o.jpg",
    "id_image": "Space_181319",
    "count_view": 0
  },
  {
    "link_thumb": "https://live.staticflickr.com/65535/50039875563_d1d7d73a2d_n.jpg",
    "id_album": "779690680",
    "description": "Robot_933176",
    "title": "Robot_933176",
    "link_img": "https://live.staticflickr.com/65535/50039875563_3fabc64571_o.jpg",
    "id_image": "Robot_933176",
    "count_view": 0
  },
  {
    "link_thumb": "https://live.staticflickr.com/65535/50039978913_ff8811870b_n.jpg",
    "id_album": "1613540653",
    "description": "Space_729755",
    "title": "Space_729755",
    "link_img": "https://live.staticflickr.com/65535/50039978913_289c416232_o.jpg",
    "id_image": "Space_729755",
    "count_view": 0
  },
  {
    "link_thumb": "https://live.staticflickr.com/65535/50039777261_57d6f83b9c_n.jpg",
    "id_album": "-1610342324",
    "description": "Nebula_2533",
    "title": "Nebula_2533",
    "link_img": "https://live.staticflickr.com/65535/50039777261_1496f6f89a_o.jpg",
    "id_image": "Nebula_2533",
    "count_view": 0
  },
  {
    "link_thumb": "https://live.staticflickr.com/65535/50040547082_e20ac97e99_n.jpg",
    "id_album": "779690680",
    "description": "Robot_291385",
    "title": "Robot_291385",
    "link_img": "https://live.staticflickr.com/65535/50040547082_913b9dc73d_o.jpg",
    "id_image": "Robot_291385",
    "count_view": 0
  },
  {
    "link_thumb": "https://live.staticflickr.com/65535/50041012427_cdbd33bdc7_n.jpg",
    "id_album": "2130067313",
    "description": "Spaceship_778587",
    "title": "Spaceship_778587",
    "link_img": "https://live.staticflickr.com/65535/50041012427_42733f353f_o.jpg",
    "id_image": "Spaceship_778587",
    "count_view": 0
  },
  {
    "link_thumb": "https://live.staticflickr.com/65535/50040347411_e2b1344a6a_n.jpg",
    "id_album": "779690680",
    "description": "Robot_617579",
    "title": "Robot_617579",
    "link_img": "https://live.staticflickr.com/65535/50040347411_2973147c05_o.jpg",
    "id_image": "Robot_617579",
    "count_view": 0
  },
  {
    "link_thumb": "https://live.staticflickr.com/65535/50040058042_0d6d2d0b1a_n.jpg",
    "id_album": "-1610342324",
    "description": "Nebula_41630",
    "title": "Nebula_41630",
    "link_img": "https://live.staticflickr.com/65535/50040058042_2fafcaeaaa_o.jpg",
    "id_image": "Nebula_41630",
    "count_view": 0
  },
  {
    "link_thumb": "https://live.staticflickr.com/65535/50041849837_3ce25e879e_n.jpg",
    "id_album": "-1675918237",
    "description": "WomenWarrior_834225",
    "title": "WomenWarrior_834225",
    "link_img": "https://live.staticflickr.com/65535/50041849837_0818104d22_o.jpg",
    "id_image": "WomenWarrior_834225",
    "count_view": 0
  },
  {
    "link_thumb": "https://live.staticflickr.com/65535/50039380213_5d8f26085a_n.jpg",
    "id_album": "395161030",
    "description": "Planet_328265",
    "title": "Planet_328265",
    "link_img": "https://live.staticflickr.com/65535/50039380213_dc16cf043d_o.jpg",
    "id_image": "Planet_328265",
    "count_view": 0
  },
  {
    "link_thumb": "https://live.staticflickr.com/65535/50040111956_fe0c3e0b44_n.jpg",
    "id_album": "-1102314093",
    "description": "Planets_419632",
    "title": "Planets_419632",
    "link_img": "https://live.staticflickr.com/65535/50040111956_cafae3f439_o.jpg",
    "id_image": "Planets_419632",
    "count_view": 0
  },
  {
    "link_thumb": "https://live.staticflickr.com/65535/50040215003_c54748afb0_n.jpg",
    "id_album": "2130067313",
    "description": "Spaceship_957049",
    "title": "Spaceship_957049",
    "link_img": "https://live.staticflickr.com/65535/50040215003_1f65a67d37_o.jpg",
    "id_image": "Spaceship_957049",
    "count_view": 0
  },
  {
    "link_thumb": "https://live.staticflickr.com/65535/50039241761_a77380eed0_n.jpg",
    "id_album": "-406145265",
    "description": "Aircraft_866069",
    "title": "Aircraft_866069",
    "link_img": "https://live.staticflickr.com/65535/50039241761_706a00b32e_o.jpg",
    "id_image": "Aircraft_866069",
    "count_view": 0
  },
  {
    "link_thumb": "https://live.staticflickr.com/65535/50039311076_81dcf73a3d_n.jpg",
    "id_album": "523598895",
    "description": "Artistic_200406",
    "title": "Artistic_200406",
    "link_img": "https://live.staticflickr.com/65535/50039311076_52dd21e194_o.jpg",
    "id_image": "Artistic_200406",
    "count_view": 0
  },
  {
    "link_thumb": "https://live.staticflickr.com/65535/50041288216_f0b65ac18a_n.jpg",
    "id_album": "1267121215",
    "description": "Steampunk_149854",
    "title": "Steampunk_149854",
    "link_img": "https://live.staticflickr.com/65535/50041288216_8c84ba55c5_o.jpg",
    "id_image": "Steampunk_149854",
    "count_view": 0
  },
  {
    "link_thumb": "https://live.staticflickr.com/65535/50039009548_ce2f9bbabc_n.jpg",
    "id_album": "-437872736",
    "description": "Creature_526743",
    "title": "Creature_526743",
    "link_img": "https://live.staticflickr.com/65535/50039009548_6f30aa5cf0_o.jpg",
    "id_image": "Creature_526743",
    "count_view": 0
  },
  {
    "link_thumb": "https://live.staticflickr.com/65535/50039360141_271e03bc19_n.jpg",
    "id_album": "869545341",
    "description": "Astronaut_591948",
    "title": "Astronaut_591948",
    "link_img": "https://live.staticflickr.com/65535/50039360141_bcf6c72a38_o.jpg",
    "id_image": "Astronaut_591948",
    "count_view": 0
  },
  {
    "link_thumb": "https://live.staticflickr.com/65535/50038706073_949baedc3b_n.jpg",
    "id_album": "849020728",
    "description": "Alien_206856",
    "title": "Alien_206856",
    "link_img": "https://live.staticflickr.com/65535/50038706073_fc37f45c1d_o.jpg",
    "id_image": "Alien_206856",
    "count_view": 0
  },
  {
    "link_thumb": "https://live.staticflickr.com/65535/50040298001_7cf81c54e2_n.jpg",
    "id_album": "779690680",
    "description": "Robot_375790",
    "title": "Robot_375790",
    "link_img": "https://live.staticflickr.com/65535/50040298001_6f69a2eb31_o.jpg",
    "id_image": "Robot_375790",
    "count_view": 0
  },
  {
    "link_thumb": "https://live.staticflickr.com/65535/50040257717_45f6601cae_n.jpg",
    "id_album": "395161030",
    "description": "Planet_996487",
    "title": "Planet_996487",
    "link_img": "https://live.staticflickr.com/65535/50040257717_2038a61716_o.jpg",
    "id_image": "Planet_996487",
    "count_view": 0
  },
  {
    "link_thumb": "https://live.staticflickr.com/65535/50039744968_66b4f38d46_n.jpg",
    "id_album": "779690680",
    "description": "Robot_375699",
    "title": "Robot_375699",
    "link_img": "https://live.staticflickr.com/65535/50039744968_b05895d3f0_o.jpg",
    "id_image": "Robot_375699",
    "count_view": 0
  },
  {
    "link_thumb": "https://live.staticflickr.com/65535/50040802718_7bec3661a1_n.jpg",
    "id_album": "-1177476763",
    "description": "Sunrise_171464",
    "title": "Sunrise_171464",
    "link_img": "https://live.staticflickr.com/65535/50040802718_737de71b02_o.jpg",
    "id_image": "Sunrise_171464",
    "count_view": 0
  },
  {
    "link_thumb": "https://live.staticflickr.com/65535/50040749421_e6e1063271_n.jpg",
    "id_album": "2130067313",
    "description": "Spaceship_79157",
    "title": "Spaceship_79157",
    "link_img": "https://live.staticflickr.com/65535/50040749421_74631aabd4_o.jpg",
    "id_image": "Spaceship_79157",
    "count_view": 0
  },
  {
    "link_thumb": "https://live.staticflickr.com/65535/50041390587_f7f91c66f4_n.jpg",
    "id_album": "-1863373220",
    "description": "StarWars_205601",
    "title": "StarWars_205601",
    "link_img": "https://live.staticflickr.com/65535/50041390587_bb11a95dfc_o.jpg",
    "id_image": "StarWars_205601",
    "count_view": 0
  },
  {
    "link_thumb": "https://live.staticflickr.com/65535/50039110128_b426db4c86_n.jpg",
    "id_album": "1402713104",
    "description": "Landscape_113114",
    "title": "Landscape_113114",
    "link_img": "https://live.staticflickr.com/65535/50039110128_7e7c7692e3_o.jpg",
    "id_image": "Landscape_113114",
    "count_view": 0
  },
  {
    "link_thumb": "https://live.staticflickr.com/65535/50041388652_952c09fc2c_n.jpg",
    "id_album": "-1863373220",
    "description": "StarWars_195358",
    "title": "StarWars_195358",
    "link_img": "https://live.staticflickr.com/65535/50041388652_9efbf2a39d_o.jpg",
    "id_image": "StarWars_195358",
    "count_view": 0
  },
  {
    "link_thumb": "https://live.staticflickr.com/65535/50039687182_b1843cab62_n.jpg",
    "id_album": "406431601",
    "description": "Building_871300",
    "title": "Building_871300",
    "link_img": "https://live.staticflickr.com/65535/50039687182_5b5d3fa4ea_o.jpg",
    "id_image": "Building_871300",
    "count_view": 0
  },
  {
    "link_thumb": "https://live.staticflickr.com/65535/50039302568_b3c802d585_n.jpg",
    "id_album": "-1610342324",
    "description": "Nebula_919603",
    "title": "Nebula_919603",
    "link_img": "https://live.staticflickr.com/65535/50039302568_002269799d_o.jpg",
    "id_image": "Nebula_919603",
    "count_view": 0
  },
  {
    "link_thumb": "https://live.staticflickr.com/65535/50038996988_484ef61182_n.jpg",
    "id_album": "894679094",
    "description": "Collision_957519",
    "title": "Collision_957519",
    "link_img": "https://live.staticflickr.com/65535/50038996988_a31e848068_o.jpg",
    "id_image": "Collision_957519",
    "count_view": 0
  },
  {
    "link_thumb": "https://live.staticflickr.com/65535/50038810753_4fd44f4910_n.jpg",
    "id_album": "869545341",
    "description": "Astronaut_587343",
    "title": "Astronaut_587343",
    "link_img": "https://live.staticflickr.com/65535/50038810753_ac4bb1828b_o.jpg",
    "id_image": "Astronaut_587343",
    "count_view": 0
  },
  {
    "link_thumb": "https://live.staticflickr.com/65535/50039296991_6307596bb0_n.jpg",
    "id_album": "523598895",
    "description": "Artistic_151704",
    "title": "Artistic_151704",
    "link_img": "https://live.staticflickr.com/65535/50039296991_2fa726915d_o.jpg",
    "id_image": "Artistic_151704",
    "count_view": 0
  },
  {
    "link_thumb": "https://live.staticflickr.com/65535/50040735886_6df3961fde_n.jpg",
    "id_album": "2130067313",
    "description": "Spaceship_677167",
    "title": "Spaceship_677167",
    "link_img": "https://live.staticflickr.com/65535/50040735886_679cc5214e_o.jpg",
    "id_image": "Spaceship_677167",
    "count_view": 0
  },
  {
    "link_thumb": "https://live.staticflickr.com/65535/50039375368_77e90053a8_n.jpg",
    "id_album": "395161030",
    "description": "Planet_287007",
    "title": "Planet_287007",
    "link_img": "https://live.staticflickr.com/65535/50039375368_1f0d52b35b_o.jpg",
    "id_image": "Planet_287007",
    "count_view": 0
  },
  {
    "link_thumb": "https://live.staticflickr.com/65535/50039464151_dfd718a764_n.jpg",
    "id_album": "-1964113117",
    "description": "City_335854",
    "title": "City_335854",
    "link_img": "https://live.staticflickr.com/65535/50039464151_bef6eaca92_o.jpg",
    "id_image": "City_335854",
    "count_view": 0
  },
  {
    "link_thumb": "https://live.staticflickr.com/65535/50040406481_1245bc9897_n.jpg",
    "id_album": "779690680",
    "description": "Robot_910938",
    "title": "Robot_910938",
    "link_img": "https://live.staticflickr.com/65535/50040406481_0e7163d791_o.jpg",
    "id_image": "Robot_910938",
    "count_view": 0
  },
  {
    "link_thumb": "https://live.staticflickr.com/65535/50039548282_816ee04fd9_n.jpg",
    "id_album": "-419633230",
    "description": "Apocalyptic_692651",
    "title": "Apocalyptic_692651",
    "link_img": "https://live.staticflickr.com/65535/50039548282_d2f42c32d1_o.jpg",
    "id_image": "Apocalyptic_692651",
    "count_view": 0
  },
  {
    "link_thumb": "https://live.staticflickr.com/65535/50041665037_9431a73e04_n.jpg",
    "id_album": "2020068132",
    "description": "Vehicle_542589",
    "title": "Vehicle_542589",
    "link_img": "https://live.staticflickr.com/65535/50041665037_d8b46f41f1_o.jpg",
    "id_image": "Vehicle_542589",
    "count_view": 0
  },
  {
    "link_thumb": "https://live.staticflickr.com/65535/50038751178_ebf3327305_n.jpg",
    "id_album": "523598895",
    "description": "Artistic_157865",
    "title": "Artistic_157865",
    "link_img": "https://live.staticflickr.com/65535/50038751178_7e95787cc6_o.jpg",
    "id_image": "Artistic_157865",
    "count_view": 0
  },
  {
    "link_thumb": "https://live.staticflickr.com/65535/50041434292_d05790b167_n.jpg",
    "id_album": "-1863373220",
    "description": "StarWars_377752",
    "title": "StarWars_377752",
    "link_img": "https://live.staticflickr.com/65535/50041434292_65aed7d36f_o.jpg",
    "id_image": "StarWars_377752",
    "count_view": 0
  },
  {
    "link_thumb": "https://live.staticflickr.com/65535/50039230868_6541190249_n.jpg",
    "id_album": "-1610342324",
    "description": "Nebula_280175",
    "title": "Nebula_280175",
    "link_img": "https://live.staticflickr.com/65535/50039230868_d01f5436e6_o.jpg",
    "id_image": "Nebula_280175",
    "count_view": 0
  },
  {
    "link_thumb": "https://live.staticflickr.com/65535/50038879218_6473c0ab85_n.jpg",
    "id_album": "406431601",
    "description": "Building_949774",
    "title": "Building_949774",
    "link_img": "https://live.staticflickr.com/65535/50038879218_72f108f799_o.jpg",
    "id_image": "Building_949774",
    "count_view": 0
  },
  {
    "link_thumb": "https://live.staticflickr.com/65535/50041446046_3f04f449db_n.jpg",
    "id_album": "-1261420436",
    "description": "Warrior_313857",
    "title": "Warrior_313857",
    "link_img": "https://live.staticflickr.com/65535/50041446046_9312e351db_o.jpg",
    "id_image": "Warrior_313857",
    "count_view": 0
  },
  {
    "link_thumb": "https://live.staticflickr.com/65535/50039844313_452374ce22_n.jpg",
    "id_album": "779690680",
    "description": "Robot_894436",
    "title": "Robot_894436",
    "link_img": "https://live.staticflickr.com/65535/50039844313_5cdd645ff1_o.jpg",
    "id_image": "Robot_894436",
    "count_view": 0
  },
  {
    "link_thumb": "https://live.staticflickr.com/65535/50039989598_b42d60fb95_n.jpg",
    "id_album": "1613540653",
    "description": "Space_822480",
    "title": "Space_822480",
    "link_img": "https://live.staticflickr.com/65535/50039989598_81164bc11d_o.jpg",
    "id_image": "Space_822480",
    "count_view": 0
  },
  {
    "link_thumb": "https://live.staticflickr.com/65535/50040172226_c86ba5044b_n.jpg",
    "id_album": "376235057",
    "description": "Planetscape_419635",
    "title": "Planetscape_419635",
    "link_img": "https://live.staticflickr.com/65535/50040172226_0dc57714ec_o.jpg",
    "id_image": "Planetscape_419635",
    "count_view": 0
  },
  {
    "link_thumb": "https://live.staticflickr.com/65535/50040452362_bb04f41912_n.jpg",
    "id_album": "-482547208",
    "description": "PostApocalyptic_102020",
    "title": "PostApocalyptic_102020",
    "link_img": "https://live.staticflickr.com/65535/50040452362_7433585247_o.jpg",
    "id_image": "PostApocalyptic_102020",
    "count_view": 0
  },
  {
    "link_thumb": "https://live.staticflickr.com/65535/50039552432_b9f08e0a74_n.jpg",
    "id_album": "-419633230",
    "description": "Apocalyptic_997968",
    "title": "Apocalyptic_997968",
    "link_img": "https://live.staticflickr.com/65535/50039552432_4002d7efe0_o.jpg",
    "id_image": "Apocalyptic_997968",
    "count_view": 0
  },
  {
    "link_thumb": "https://live.staticflickr.com/65535/50040375771_e10723b9e7_n.jpg",
    "id_album": "779690680",
    "description": "Robot_857299",
    "title": "Robot_857299",
    "link_img": "https://live.staticflickr.com/65535/50040375771_e5b4c05cd5_o.jpg",
    "id_image": "Robot_857299",
    "count_view": 0
  },
  {
    "link_thumb": "https://live.staticflickr.com/65535/50041574982_dc5f51af90_n.jpg",
    "id_album": "1267121215",
    "description": "Steampunk_303880",
    "title": "Steampunk_303880",
    "link_img": "https://live.staticflickr.com/65535/50041574982_bf59e4b132_o.jpg",
    "id_image": "Steampunk_303880",
    "count_view": 0
  },
  {
    "link_thumb": "https://live.staticflickr.com/65535/50039656251_d5015d87b5_n.jpg",
    "id_album": "1204249541",
    "description": "Galaxy_941744",
    "title": "Galaxy_941744",
    "link_img": "https://live.staticflickr.com/65535/50039656251_b84293e5d4_o.jpg",
    "id_image": "Galaxy_941744",
    "count_view": 0
  },
  {
    "link_thumb": "https://live.staticflickr.com/65535/50039608422_a1db3d9419_n.jpg",
    "id_album": "523598895",
    "description": "Artistic_912915",
    "title": "Artistic_912915",
    "link_img": "https://live.staticflickr.com/65535/50039608422_6ca607e7ac_o.jpg",
    "id_image": "Artistic_912915",
    "count_view": 0
  },
  {
    "link_thumb": "https://live.staticflickr.com/65535/50041442826_5c9ced1e32_n.jpg",
    "id_album": "-1261420436",
    "description": "Warrior_283438",
    "title": "Warrior_283438",
    "link_img": "https://live.staticflickr.com/65535/50041442826_850222ceda_o.jpg",
    "id_image": "Warrior_283438",
    "count_view": 0
  },
  {
    "link_thumb": "https://live.staticflickr.com/65535/50038999178_5d0a41eb3b_n.jpg",
    "id_album": "-437872736",
    "description": "Creature_232439",
    "title": "Creature_232439",
    "link_img": "https://live.staticflickr.com/65535/50038999178_230a9cb878_o.jpg",
    "id_image": "Creature_232439",
    "count_view": 0
  },
  {
    "link_thumb": "https://live.staticflickr.com/65535/50038926378_9c8e9c282e_n.jpg",
    "id_album": "-1964113117",
    "description": "City_527907",
    "title": "City_527907",
    "link_img": "https://live.staticflickr.com/65535/50038926378_ba02af5fac_o.jpg",
    "id_image": "City_527907",
    "count_view": 0
  },
  {
    "link_thumb": "https://live.staticflickr.com/65535/50039809592_0ba515fa99_n.jpg",
    "id_album": "-437872736",
    "description": "Creature_269297",
    "title": "Creature_269297",
    "link_img": "https://live.staticflickr.com/65535/50039809592_b980ac0032_o.jpg",
    "id_image": "Creature_269297",
    "count_view": 0
  },
  {
    "link_thumb": "https://live.staticflickr.com/65535/50040544336_6e298b19e4_n.jpg",
    "id_album": "1613540653",
    "description": "Space_822482",
    "title": "Space_822482",
    "link_img": "https://live.staticflickr.com/65535/50040544336_0a2c07a8ca_o.jpg",
    "id_image": "Space_822482",
    "count_view": 0
  },
  {
    "link_thumb": "https://live.staticflickr.com/65535/50039535842_b777cc8dc1_n.jpg",
    "id_album": "849020728",
    "description": "Alien_715693",
    "title": "Alien_715693",
    "link_img": "https://live.staticflickr.com/65535/50039535842_547c8ee14f_o.jpg",
    "id_image": "Alien_715693",
    "count_view": 0
  },
  {
    "link_thumb": "https://live.staticflickr.com/65535/50040097252_711012a9c8_n.jpg",
    "id_album": "-1610342324",
    "description": "Nebula_77204",
    "title": "Nebula_77204",
    "link_img": "https://live.staticflickr.com/65535/50040097252_702811d354_o.jpg",
    "id_image": "Nebula_77204",
    "count_view": 0
  },
  {
    "link_thumb": "https://live.staticflickr.com/65535/50040784703_626a6fa13a_n.jpg",
    "id_album": "-221671103",
    "description": "Sun_180015",
    "title": "Sun_180015",
    "link_img": "https://live.staticflickr.com/65535/50040784703_8e9cbf30ec_o.jpg",
    "id_image": "Sun_180015",
    "count_view": 0
  },
  {
    "link_thumb": "https://live.staticflickr.com/65535/50040542826_5480a42669_n.jpg",
    "id_album": "1613540653",
    "description": "Space_822458",
    "title": "Space_822458",
    "link_img": "https://live.staticflickr.com/65535/50040542826_3e83e3b84d_o.jpg",
    "id_image": "Space_822458",
    "count_view": 0
  },
  {
    "link_thumb": "https://live.staticflickr.com/65535/50039529546_7b289acfe2_n.jpg",
    "id_album": "-1964113117",
    "description": "City_971751",
    "title": "City_971751",
    "link_img": "https://live.staticflickr.com/65535/50039529546_0c248bf076_o.jpg",
    "id_image": "City_971751",
    "count_view": 0
  },
  {
    "link_thumb": "https://live.staticflickr.com/65535/50040033432_c0ed04d06f_n.jpg",
    "id_album": "-1610342324",
    "description": "Nebula_208618",
    "title": "Nebula_208618",
    "link_img": "https://live.staticflickr.com/65535/50040033432_83a35d9377_o.jpg",
    "id_image": "Nebula_208618",
    "count_view": 0
  },
  {
    "link_thumb": "https://live.staticflickr.com/65535/50039934111_330e17d1c9_n.jpg",
    "id_album": "395161030",
    "description": "Planet_356076",
    "title": "Planet_356076",
    "link_img": "https://live.staticflickr.com/65535/50039934111_5f9f97f638_o.jpg",
    "id_image": "Planet_356076",
    "count_view": 0
  },
  {
    "link_thumb": "https://live.staticflickr.com/65535/50040087797_7131a8ed3f_n.jpg",
    "id_album": "-1610342324",
    "description": "Nebula_704886",
    "title": "Nebula_704886",
    "link_img": "https://live.staticflickr.com/65535/50040087797_557a30da1d_o.jpg",
    "id_image": "Nebula_704886",
    "count_view": 0
  },
  {
    "link_thumb": "https://live.staticflickr.com/65535/50039087083_5911ec77a5_n.jpg",
    "id_album": "1204249541",
    "description": "Galaxy_450494",
    "title": "Galaxy_450494",
    "link_img": "https://live.staticflickr.com/65535/50039087083_b25c7d31f3_o.jpg",
    "id_image": "Galaxy_450494",
    "count_view": 0
  },
  {
    "link_thumb": "https://live.staticflickr.com/65535/50039563683_227420d3b4_n.jpg",
    "id_album": "-1102314093",
    "description": "Planets_426318",
    "title": "Planets_426318",
    "link_img": "https://live.staticflickr.com/65535/50039563683_a671e38d82_o.jpg",
    "id_image": "Planets_426318",
    "count_view": 0
  },
  {
    "link_thumb": "https://live.staticflickr.com/65535/50040189141_df7da28c3c_n.jpg",
    "id_album": "-482547208",
    "description": "PostApocalyptic_114180",
    "title": "PostApocalyptic_114180",
    "link_img": "https://live.staticflickr.com/65535/50040189141_7f874ff554_o.jpg",
    "id_image": "PostApocalyptic_114180",
    "count_view": 0
  },
  {
    "link_thumb": "https://live.staticflickr.com/65535/50040158888_72c50e0fe5_n.jpg",
    "id_album": "2130067313",
    "description": "Spaceship_546334",
    "title": "Spaceship_546334",
    "link_img": "https://live.staticflickr.com/65535/50040158888_91798d82ca_o.jpg",
    "id_image": "Spaceship_546334",
    "count_view": 0
  },
  {
    "link_thumb": "https://live.staticflickr.com/65535/50039751536_c9eabe8953_n.jpg",
    "id_album": "-1388385651",
    "description": "MilkyWay_870610",
    "title": "MilkyWay_870610",
    "link_img": "https://live.staticflickr.com/65535/50039751536_3c8c2807f4_o.jpg",
    "id_image": "MilkyWay_870610",
    "count_view": 0
  },
  {
    "link_thumb": "https://live.staticflickr.com/65535/50039562053_c3a5d5f5dc_n.jpg",
    "id_album": "-1102314093",
    "description": "Planets_419633",
    "title": "Planets_419633",
    "link_img": "https://live.staticflickr.com/65535/50039562053_5891c1ea8f_o.jpg",
    "id_image": "Planets_419633",
    "count_view": 0
  },
  {
    "link_thumb": "https://live.staticflickr.com/65535/50041636532_47ed2b6811_n.jpg",
    "id_album": "2020068132",
    "description": "Vehicle_171696",
    "title": "Vehicle_171696",
    "link_img": "https://live.staticflickr.com/65535/50041636532_abf96cca8b_o.jpg",
    "id_image": "Vehicle_171696",
    "count_view": 0
  },
  {
    "link_thumb": "https://live.staticflickr.com/65535/50041639322_82093aeb78_n.jpg",
    "id_album": "2020068132",
    "description": "Vehicle_211341",
    "title": "Vehicle_211341",
    "link_img": "https://live.staticflickr.com/65535/50041639322_c860e2374e_o.jpg",
    "id_image": "Vehicle_211341",
    "count_view": 0
  },
  {
    "link_thumb": "https://live.staticflickr.com/65535/50039409551_08cc203cb5_n.jpg",
    "id_album": "1187037014",
    "description": "Battle_957840",
    "title": "Battle_957840",
    "link_img": "https://live.staticflickr.com/65535/50039409551_9689f6cf46_o.jpg",
    "id_image": "Battle_957840",
    "count_view": 0
  },
  {
    "link_thumb": "https://live.staticflickr.com/65535/50039620713_ba9dfaa817_n.jpg",
    "id_album": "376235057",
    "description": "Planetscape_394009",
    "title": "Planetscape_394009",
    "link_img": "https://live.staticflickr.com/65535/50039620713_ae50a28fe3_o.jpg",
    "id_image": "Planetscape_394009",
    "count_view": 0
  },
  {
    "link_thumb": "https://live.staticflickr.com/65535/50040213412_3028329437_n.jpg",
    "id_album": "395161030",
    "description": "Planet_423493",
    "title": "Planet_423493",
    "link_img": "https://live.staticflickr.com/65535/50040213412_7b03128819_o.jpg",
    "id_image": "Planet_423493",
    "count_view": 0
  },
  {
    "link_thumb": "https://live.staticflickr.com/65535/50040627478_a20c888f9f_n.jpg",
    "id_album": "-1863373220",
    "description": "StarWars_446469",
    "title": "StarWars_446469",
    "link_img": "https://live.staticflickr.com/65535/50040627478_9fda6f5759_o.jpg",
    "id_image": "StarWars_446469",
    "count_view": 0
  },
  {
    "link_thumb": "https://live.staticflickr.com/65535/50039145673_dc4740ec82_n.jpg",
    "id_album": "1402713104",
    "description": "Landscape_559165",
    "title": "Landscape_559165",
    "link_img": "https://live.staticflickr.com/65535/50039145673_e65b3cb4fb_o.jpg",
    "id_image": "Landscape_559165",
    "count_view": 0
  },
  {
    "link_thumb": "https://live.staticflickr.com/65535/50040402011_2e6870f7b3_n.jpg",
    "id_album": "779690680",
    "description": "Robot_903940",
    "title": "Robot_903940",
    "link_img": "https://live.staticflickr.com/65535/50040402011_4ab88ae01e_o.jpg",
    "id_image": "Robot_903940",
    "count_view": 0
  },
  {
    "link_thumb": "https://live.staticflickr.com/65535/50039567972_868ca58966_n.jpg",
    "id_album": "523598895",
    "description": "Artistic_182385",
    "title": "Artistic_182385",
    "link_img": "https://live.staticflickr.com/65535/50039567972_9e9969d54c_o.jpg",
    "id_image": "Artistic_182385",
    "count_view": 0
  },
  {
    "link_thumb": "https://live.staticflickr.com/65535/50040393267_b5f7311272_n.jpg",
    "id_album": "-1102314093",
    "description": "Planets_708879",
    "title": "Planets_708879",
    "link_img": "https://live.staticflickr.com/65535/50040393267_0cac1f6c0f_o.jpg",
    "id_image": "Planets_708879",
    "count_view": 0
  },
  {
    "link_thumb": "https://live.staticflickr.com/65535/50041586317_32f324b8c2_n.jpg",
    "id_album": "1267121215",
    "description": "Steampunk_616419",
    "title": "Steampunk_616419",
    "link_img": "https://live.staticflickr.com/65535/50041586317_a714cf5503_o.jpg",
    "id_image": "Steampunk_616419",
    "count_view": 0
  },
  {
    "link_thumb": "https://live.staticflickr.com/65535/50039410628_c8a87d3e75_n.jpg",
    "id_album": "395161030",
    "description": "Planet_558930",
    "title": "Planet_558930",
    "link_img": "https://live.staticflickr.com/65535/50039410628_41c1ea74f5_o.jpg",
    "id_image": "Planet_558930",
    "count_view": 0
  },
  {
    "link_thumb": "https://live.staticflickr.com/65535/50040714458_0d99f10ec3_n.jpg",
    "id_album": "-1587696329",
    "description": "Stars_438994",
    "title": "Stars_438994",
    "link_img": "https://live.staticflickr.com/65535/50040714458_7c5f042b8c_o.jpg",
    "id_image": "Stars_438994",
    "count_view": 0
  },
  {
    "link_thumb": "https://live.staticflickr.com/65535/50039692042_2238c9fdcb_n.jpg",
    "id_album": "406431601",
    "description": "Building_992551",
    "title": "Building_992551",
    "link_img": "https://live.staticflickr.com/65535/50039692042_d99f3f2cc4_o.jpg",
    "id_image": "Building_992551",
    "count_view": 0
  },
  {
    "link_thumb": "https://live.staticflickr.com/65535/50040349571_a57ee40439_n.jpg",
    "id_album": "779690680",
    "description": "Robot_631694",
    "title": "Robot_631694",
    "link_img": "https://live.staticflickr.com/65535/50040349571_f147f9185c_o.jpg",
    "id_image": "Robot_631694",
    "count_view": 0
  },
  {
    "link_thumb": "https://live.staticflickr.com/65535/50039278481_4fec0bf99b_n.jpg",
    "id_album": "849020728",
    "description": "Alien_996736",
    "title": "Alien_996736",
    "link_img": "https://live.staticflickr.com/65535/50039278481_8a1ee6cc84_o.jpg",
    "id_image": "Alien_996736",
    "count_view": 0
  },
  {
    "link_thumb": "https://live.staticflickr.com/65535/50041473512_8a75733432_n.jpg",
    "id_album": "-1863373220",
    "description": "StarWars_669727",
    "title": "StarWars_669727",
    "link_img": "https://live.staticflickr.com/65535/50041473512_8522dd3253_o.jpg",
    "id_image": "StarWars_669727",
    "count_view": 0
  },
  {
    "link_thumb": "https://live.staticflickr.com/65535/50039308383_9453ddbb75_n.jpg",
    "id_album": "-1610342324",
    "description": "Nebula_957881",
    "title": "Nebula_957881",
    "link_img": "https://live.staticflickr.com/65535/50039308383_6cba99f4e0_o.jpg",
    "id_image": "Nebula_957881",
    "count_view": 0
  },
  {
    "link_thumb": "https://live.staticflickr.com/65535/50039360858_f9d5248887_n.jpg",
    "id_album": "395161030",
    "description": "Planet_175704",
    "title": "Planet_175704",
    "link_img": "https://live.staticflickr.com/65535/50039360858_8e3fd2a32e_o.jpg",
    "id_image": "Planet_175704",
    "count_view": 0
  },
  {
    "link_thumb": "https://live.staticflickr.com/65535/50039536883_fffca836ca_n.jpg",
    "id_album": "-1102314093",
    "description": "Planets_335816",
    "title": "Planets_335816",
    "link_img": "https://live.staticflickr.com/65535/50039536883_c2bf9c3d75_o.jpg",
    "id_image": "Planets_335816",
    "count_view": 0
  },
  {
    "link_thumb": "https://live.staticflickr.com/65535/50039850246_b8404210aa_n.jpg",
    "id_album": "-1610342324",
    "description": "Nebula_891193",
    "title": "Nebula_891193",
    "link_img": "https://live.staticflickr.com/65535/50039850246_b42f41ebeb_o.jpg",
    "id_image": "Nebula_891193",
    "count_view": 0
  },
  {
    "link_thumb": "https://live.staticflickr.com/65535/50039519947_19028df962_n.jpg",
    "id_album": "849020728",
    "description": "Alien_278137",
    "title": "Alien_278137",
    "link_img": "https://live.staticflickr.com/65535/50039519947_0d50fc9b73_o.jpg",
    "id_image": "Alien_278137",
    "count_view": 0
  },
  {
    "link_thumb": "https://live.staticflickr.com/65535/50041457522_346240b871_n.jpg",
    "id_album": "-1863373220",
    "description": "StarWars_58118",
    "title": "StarWars_58118",
    "link_img": "https://live.staticflickr.com/65535/50041457522_bc3e4faebe_o.jpg",
    "id_image": "StarWars_58118",
    "count_view": 0
  },
  {
    "link_thumb": "https://live.staticflickr.com/65535/50041019553_51ce4bb70d_n.jpg",
    "id_album": "-1675918237",
    "description": "WomenWarrior_394400",
    "title": "WomenWarrior_394400",
    "link_img": "https://live.staticflickr.com/65535/50041019553_bbc9cfc0e3_o.jpg",
    "id_image": "WomenWarrior_394400",
    "count_view": 0
  },
  {
    "link_thumb": "https://live.staticflickr.com/65535/50038745113_1e5e1d9863_n.jpg",
    "id_album": "523598895",
    "description": "Artistic_109105",
    "title": "Artistic_109105",
    "link_img": "https://live.staticflickr.com/65535/50038745113_c7b2f95a2e_o.jpg",
    "id_image": "Artistic_109105",
    "count_view": 0
  },
  {
    "link_thumb": "https://live.staticflickr.com/65535/50041324186_638bb342c1_n.jpg",
    "id_album": "1267121215",
    "description": "Steampunk_61891",
    "title": "Steampunk_61891",
    "link_img": "https://live.staticflickr.com/65535/50041324186_b0dfdd9f1f_o.jpg",
    "id_image": "Steampunk_61891",
    "count_view": 0
  },
  {
    "link_thumb": "https://live.staticflickr.com/65535/50040244521_9b9bbf6fb6_n.jpg",
    "id_album": "-839602625",
    "description": "Predator_492471",
    "title": "Predator_492471",
    "link_img": "https://live.staticflickr.com/65535/50040244521_04c8e14e2f_o.jpg",
    "id_image": "Predator_492471",
    "count_view": 0
  },
  {
    "link_thumb": "https://live.staticflickr.com/65535/50040843238_bd078f3e9e_n.jpg",
    "id_album": "2020068132",
    "description": "Vehicle_410768",
    "title": "Vehicle_410768",
    "link_img": "https://live.staticflickr.com/65535/50040843238_5100bd0946_o.jpg",
    "id_image": "Vehicle_410768",
    "count_view": 0
  },
  {
    "link_thumb": "https://live.staticflickr.com/65535/50038696698_4bfdbdacd8_n.jpg",
    "id_album": "849020728",
    "description": "Alien_108416",
    "title": "Alien_108416",
    "link_img": "https://live.staticflickr.com/65535/50038696698_203bc96eea_o.jpg",
    "id_image": "Alien_108416",
    "count_view": 0
  },
  {
    "link_thumb": "https://live.staticflickr.com/65535/50040198482_c4c67b6f6f_n.jpg",
    "id_album": "395161030",
    "description": "Planet_350098",
    "title": "Planet_350098",
    "link_img": "https://live.staticflickr.com/65535/50040198482_32dc173a6f_o.jpg",
    "id_image": "Planet_350098",
    "count_view": 0
  },
  {
    "link_thumb": "https://live.staticflickr.com/65535/50039348496_bced6d40d0_n.jpg",
    "id_album": "869545341",
    "description": "Astronaut_1008983",
    "title": "Astronaut_1008983",
    "link_img": "https://live.staticflickr.com/65535/50039348496_7620831dd1_o.jpg",
    "id_image": "Astronaut_1008983",
    "count_view": 0
  },
  {
    "link_thumb": "https://live.staticflickr.com/65535/50040034967_8e7b12ee86_n.jpg",
    "id_album": "-1610342324",
    "description": "Nebula_217753",
    "title": "Nebula_217753",
    "link_img": "https://live.staticflickr.com/65535/50040034967_ba64db5a17_o.jpg",
    "id_image": "Nebula_217753",
    "count_view": 0
  },
  {
    "link_thumb": "https://live.staticflickr.com/65535/50039088798_b22976553c_n.jpg",
    "id_album": "1204249541",
    "description": "Galaxy_502935",
    "title": "Galaxy_502935",
    "link_img": "https://live.staticflickr.com/65535/50039088798_a0eb0fa0cb_o.jpg",
    "id_image": "Galaxy_502935",
    "count_view": 0
  },
  {
    "link_thumb": "https://live.staticflickr.com/65535/50038749058_5e91a05202_n.jpg",
    "id_album": "523598895",
    "description": "Artistic_151369",
    "title": "Artistic_151369",
    "link_img": "https://live.staticflickr.com/65535/50038749058_2076c7780c_o.jpg",
    "id_image": "Artistic_151369",
    "count_view": 0
  },
  {
    "link_thumb": "https://live.staticflickr.com/65535/50039588347_0a57672ca4_n.jpg",
    "id_album": "523598895",
    "description": "Artistic_276421",
    "title": "Artistic_276421",
    "link_img": "https://live.staticflickr.com/65535/50039588347_4d4503c9ff_o.jpg",
    "id_image": "Artistic_276421",
    "count_view": 0
  },
  {
    "link_thumb": "https://live.staticflickr.com/65535/50040024472_9b06c7544c_n.jpg",
    "id_album": "-1610342324",
    "description": "Nebula_104078",
    "title": "Nebula_104078",
    "link_img": "https://live.staticflickr.com/65535/50040024472_89cc183962_o.jpg",
    "id_image": "Nebula_104078",
    "count_view": 0
  },
  {
    "link_thumb": "https://live.staticflickr.com/65535/50040609072_4335143572_n.jpg",
    "id_album": "779690680",
    "description": "Robot_616406",
    "title": "Robot_616406",
    "link_img": "https://live.staticflickr.com/65535/50040609072_d5aeda4327_o.jpg",
    "id_image": "Robot_616406",
    "count_view": 0
  },
  {
    "link_thumb": "https://live.staticflickr.com/65535/50039927502_f56867f9f5_n.jpg",
    "id_album": "1402713104",
    "description": "Landscape_188210",
    "title": "Landscape_188210",
    "link_img": "https://live.staticflickr.com/65535/50039927502_577f31fddd_o.jpg",
    "id_image": "Landscape_188210",
    "count_view": 0
  },
  {
    "link_thumb": "https://live.staticflickr.com/65535/50038898438_13d5511b22_n.jpg",
    "id_album": "-1964113117",
    "description": "City_214300",
    "title": "City_214300",
    "link_img": "https://live.staticflickr.com/65535/50038898438_efe9b0f30c_o.jpg",
    "id_image": "City_214300",
    "count_view": 0
  },
  {
    "link_thumb": "https://live.staticflickr.com/65535/50039683013_5db81b9238_n.jpg",
    "id_album": "-482547208",
    "description": "PostApocalyptic_971388",
    "title": "PostApocalyptic_971388",
    "link_img": "https://live.staticflickr.com/65535/50039683013_7292c81f04_o.jpg",
    "id_image": "PostApocalyptic_971388",
    "count_view": 0
  },
  {
    "link_thumb": "https://live.staticflickr.com/65535/50039774087_6f2d66117d_n.jpg",
    "id_album": "-1964113117",
    "description": "City_883152",
    "title": "City_883152",
    "link_img": "https://live.staticflickr.com/65535/50039774087_7c905d4156_o.jpg",
    "id_image": "City_883152",
    "count_view": 0
  },
  {
    "link_thumb": "https://live.staticflickr.com/65535/50039638646_f05385b8b6_n.jpg",
    "id_album": "1204249541",
    "description": "Galaxy_506593",
    "title": "Galaxy_506593",
    "link_img": "https://live.staticflickr.com/65535/50039638646_67c6b16e53_o.jpg",
    "id_image": "Galaxy_506593",
    "count_view": 0
  },
  {
    "link_thumb": "https://live.staticflickr.com/65535/50041459731_2ee3baa194_n.jpg",
    "id_album": "-1261420436",
    "description": "Warrior_409691",
    "title": "Warrior_409691",
    "link_img": "https://live.staticflickr.com/65535/50041459731_7aa44bb43e_o.jpg",
    "id_image": "Warrior_409691",
    "count_view": 0
  },
  {
    "link_thumb": "https://live.staticflickr.com/65535/50039917866_47ee1f4b38_n.jpg",
    "id_album": "395161030",
    "description": "Planet_199811",
    "title": "Planet_199811",
    "link_img": "https://live.staticflickr.com/65535/50039917866_ce6db6511c_o.jpg",
    "id_image": "Planet_199811",
    "count_view": 0
  },
  {
    "link_thumb": "https://live.staticflickr.com/65535/50039593766_84cf2523a8_n.jpg",
    "id_album": "829169633",
    "description": "Cyborg_562807",
    "title": "Cyborg_562807",
    "link_img": "https://live.staticflickr.com/65535/50039593766_ca74a634ed_o.jpg",
    "id_image": "Cyborg_562807",
    "count_view": 0
  },
  {
    "link_thumb": "https://live.staticflickr.com/65535/50040286107_77bce60cca_n.jpg",
    "id_album": "814701616",
    "description": "PlanetaryRing_266168",
    "title": "PlanetaryRing_266168",
    "link_img": "https://live.staticflickr.com/65535/50040286107_d97daf61b9_o.jpg",
    "id_image": "PlanetaryRing_266168",
    "count_view": 0
  },
  {
    "link_thumb": "https://live.staticflickr.com/65535/50039601936_c75f211845_n.jpg",
    "id_album": "829169633",
    "description": "Cyborg_777018",
    "title": "Cyborg_777018",
    "link_img": "https://live.staticflickr.com/65535/50039601936_4b991ec7ec_o.jpg",
    "id_image": "Cyborg_777018",
    "count_view": 0
  },
  {
    "link_thumb": "https://live.staticflickr.com/65535/50039859623_c71ba9529f_n.jpg",
    "id_album": "779690680",
    "description": "Robot_915577",
    "title": "Robot_915577",
    "link_img": "https://live.staticflickr.com/65535/50039859623_f04a57bfec_o.jpg",
    "id_image": "Robot_915577",
    "count_view": 0
  },
  {
    "link_thumb": "https://live.staticflickr.com/65535/50040931958_4c505aa176_n.jpg",
    "id_album": "-1261420436",
    "description": "Warrior_715711",
    "title": "Warrior_715711",
    "link_img": "https://live.staticflickr.com/65535/50040931958_d760ece0e9_o.jpg",
    "id_image": "Warrior_715711",
    "count_view": 0
  },
  {
    "link_thumb": "https://live.staticflickr.com/65535/50038970663_2a63b832fa_n.jpg",
    "id_album": "-1964113117",
    "description": "City_909402",
    "title": "City_909402",
    "link_img": "https://live.staticflickr.com/65535/50038970663_0810f915ed_o.jpg",
    "id_image": "City_909402",
    "count_view": 0
  },
  {
    "link_thumb": "https://live.staticflickr.com/65535/50039582337_ea279e0b64_n.jpg",
    "id_album": "523598895",
    "description": "Artistic_229145",
    "title": "Artistic_229145",
    "link_img": "https://live.staticflickr.com/65535/50039582337_26a273301c_o.jpg",
    "id_image": "Artistic_229145",
    "count_view": 0
  },
  {
    "link_thumb": "https://live.staticflickr.com/65535/50040166562_3d64daaac9_n.jpg",
    "id_album": "395161030",
    "description": "Planet_1011269",
    "title": "Planet_1011269",
    "link_img": "https://live.staticflickr.com/65535/50040166562_64cb5f1b88_o.jpg",
    "id_image": "Planet_1011269",
    "count_view": 0
  },
  {
    "link_thumb": "https://live.staticflickr.com/65535/50040062922_13859f8575_n.jpg",
    "id_album": "-1610342324",
    "description": "Nebula_45819",
    "title": "Nebula_45819",
    "link_img": "https://live.staticflickr.com/65535/50040062922_351788faca_o.jpg",
    "id_image": "Nebula_45819",
    "count_view": 0
  },
  {
    "link_thumb": "https://live.staticflickr.com/65535/50039433338_f97d1d2b2f_n.jpg",
    "id_album": "395161030",
    "description": "Planet_920764",
    "title": "Planet_920764",
    "link_img": "https://live.staticflickr.com/65535/50039433338_357a90b9e7_o.jpg",
    "id_image": "Planet_920764",
    "count_view": 0
  },
  {
    "link_thumb": "https://live.staticflickr.com/65535/50038871283_70987feca7_n.jpg",
    "id_album": "-1780971522",
    "description": "Biohazard_633661",
    "title": "Biohazard_633661",
    "link_img": "https://live.staticflickr.com/65535/50038871283_ec1c6c97dd_o.jpg",
    "id_image": "Biohazard_633661",
    "count_view": 0
  },
  {
    "link_thumb": "https://live.staticflickr.com/65535/50041586146_f6fa1899e0_n.jpg",
    "id_album": "-1675918237",
    "description": "WomenWarrior_669482",
    "title": "WomenWarrior_669482",
    "link_img": "https://live.staticflickr.com/65535/50041586146_5e2d09c025_o.jpg",
    "id_image": "WomenWarrior_669482",
    "count_view": 0
  },
  {
    "link_thumb": "https://live.staticflickr.com/65535/50041282671_62aafe5ebc_n.jpg",
    "id_album": "-1587696329",
    "description": "Stars_805200",
    "title": "Stars_805200",
    "link_img": "https://live.staticflickr.com/65535/50041282671_1d01327205_o.jpg",
    "id_image": "Stars_805200",
    "count_view": 0
  },
  {
    "link_thumb": "https://live.staticflickr.com/65535/50039476483_4b9a265c0a_n.jpg",
    "id_album": "814701616",
    "description": "PlanetaryRing_329817",
    "title": "PlanetaryRing_329817",
    "link_img": "https://live.staticflickr.com/65535/50039476483_04d3d27e3c_o.jpg",
    "id_image": "PlanetaryRing_329817",
    "count_view": 0
  },
  {
    "link_thumb": "https://live.staticflickr.com/65535/50040550632_2355f54f09_n.jpg",
    "id_album": "779690680",
    "description": "Robot_310255",
    "title": "Robot_310255",
    "link_img": "https://live.staticflickr.com/65535/50040550632_c4f95d66f4_o.jpg",
    "id_image": "Robot_310255",
    "count_view": 0
  },
  {
    "link_thumb": "https://live.staticflickr.com/65535/50039804846_5678d9367d_n.jpg",
    "id_album": "-1610342324",
    "description": "Nebula_533761",
    "title": "Nebula_533761",
    "link_img": "https://live.staticflickr.com/65535/50039804846_799e45989a_o.jpg",
    "id_image": "Nebula_533761",
    "count_view": 0
  },
  {
    "link_thumb": "https://live.staticflickr.com/65535/50041493461_d7c4cc7a7e_n.jpg",
    "id_album": "-1261420436",
    "description": "Warrior_911663",
    "title": "Warrior_911663",
    "link_img": "https://live.staticflickr.com/65535/50041493461_9a1b5281e5_o.jpg",
    "id_image": "Warrior_911663",
    "count_view": 0
  },
  {
    "link_thumb": "https://live.staticflickr.com/65535/50041620177_835444a20e_n.jpg",
    "id_album": "-1177476763",
    "description": "Sunrise_201123",
    "title": "Sunrise_201123",
    "link_img": "https://live.staticflickr.com/65535/50041620177_38cae4512b_o.jpg",
    "id_image": "Sunrise_201123",
    "count_view": 0
  },
  {
    "link_thumb": "https://live.staticflickr.com/65535/50040401451_60a1a6ff57_n.jpg",
    "id_album": "779690680",
    "description": "Robot_903928",
    "title": "Robot_903928",
    "link_img": "https://live.staticflickr.com/65535/50040401451_074e15775d_o.jpg",
    "id_image": "Robot_903928",
    "count_view": 0
  },
  {
    "link_thumb": "https://live.staticflickr.com/65535/50040876418_4d95380fdf_n.jpg",
    "id_album": "-1261420436",
    "description": "Warrior_112610",
    "title": "Warrior_112610",
    "link_img": "https://live.staticflickr.com/65535/50040876418_6eac8480f4_o.jpg",
    "id_image": "Warrior_112610",
    "count_view": 0
  },
  {
    "link_thumb": "https://live.staticflickr.com/65535/50039758702_135ebdfed1_n.jpg",
    "id_album": "-1964113117",
    "description": "City_778962",
    "title": "City_778962",
    "link_img": "https://live.staticflickr.com/65535/50039758702_942179a674_o.jpg",
    "id_image": "City_778962",
    "count_view": 0
  },
  {
    "link_thumb": "https://live.staticflickr.com/65535/50039681372_cf0d91235f_n.jpg",
    "id_album": "-1780971522",
    "description": "Biohazard_577356",
    "title": "Biohazard_577356",
    "link_img": "https://live.staticflickr.com/65535/50039681372_3be4c8485b_o.jpg",
    "id_image": "Biohazard_577356",
    "count_view": 0
  },
  {
    "link_thumb": "https://live.staticflickr.com/65535/50041468557_71131fda71_n.jpg",
    "id_album": "-1863373220",
    "description": "StarWars_662526",
    "title": "StarWars_662526",
    "link_img": "https://live.staticflickr.com/65535/50041468557_d118ddb2ae_o.jpg",
    "id_image": "StarWars_662526",
    "count_view": 0
  },
  {
    "link_thumb": "https://live.staticflickr.com/65535/50039004458_9cb173b3bf_n.jpg",
    "id_album": "-437872736",
    "description": "Creature_333323",
    "title": "Creature_333323",
    "link_img": "https://live.staticflickr.com/65535/50039004458_32602a5cff_o.jpg",
    "id_image": "Creature_333323",
    "count_view": 0
  },
  {
    "link_thumb": "https://live.staticflickr.com/65535/50040865568_4e1a0c5439_n.jpg",
    "id_album": "2020068132",
    "description": "Vehicle_905102",
    "title": "Vehicle_905102",
    "link_img": "https://live.staticflickr.com/65535/50040865568_33c46fca3f_o.jpg",
    "id_image": "Vehicle_905102",
    "count_view": 0
  },
  {
    "link_thumb": "https://live.staticflickr.com/65535/50040377632_b6b2c45f16_n.jpg",
    "id_album": "-1102314093",
    "description": "Planets_425734",
    "title": "Planets_425734",
    "link_img": "https://live.staticflickr.com/65535/50040377632_01c2fff44e_o.jpg",
    "id_image": "Planets_425734",
    "count_view": 0
  },
  {
    "link_thumb": "https://live.staticflickr.com/65535/50041566282_dd8d917598_n.jpg",
    "id_album": "1267121215",
    "description": "Steampunk_236458",
    "title": "Steampunk_236458",
    "link_img": "https://live.staticflickr.com/65535/50041566282_d7c05eaa0a_o.jpg",
    "id_image": "Steampunk_236458",
    "count_view": 0
  },
  {
    "link_thumb": "https://live.staticflickr.com/65535/50041568766_c4d5b47603_n.jpg",
    "id_album": "-1675918237",
    "description": "WomenWarrior_327448",
    "title": "WomenWarrior_327448",
    "link_img": "https://live.staticflickr.com/65535/50041568766_8172810821_o.jpg",
    "id_image": "WomenWarrior_327448",
    "count_view": 0
  },
  {
    "link_thumb": "https://live.staticflickr.com/65535/50039553011_66f5c88dcc_n.jpg",
    "id_album": "-437872736",
    "description": "Creature_336803",
    "title": "Creature_336803",
    "link_img": "https://live.staticflickr.com/65535/50039553011_91e1b31649_o.jpg",
    "id_image": "Creature_336803",
    "count_view": 0
  },
  {
    "link_thumb": "https://live.staticflickr.com/65535/50039345548_75ac3c9d58_n.jpg",
    "id_album": "1896531081",
    "description": "People_398599",
    "title": "People_398599",
    "link_img": "https://live.staticflickr.com/65535/50039345548_81c8d46eb6_o.jpg",
    "id_image": "People_398599",
    "count_view": 0
  },
  {
    "link_thumb": "https://live.staticflickr.com/65535/50040298986_7b139c2379_n.jpg",
    "id_album": "779690680",
    "description": "Robot_384097",
    "title": "Robot_384097",
    "link_img": "https://live.staticflickr.com/65535/50040298986_483d221453_o.jpg",
    "id_image": "Robot_384097",
    "count_view": 0
  },
  {
    "link_thumb": "https://live.staticflickr.com/65535/50040004552_88aea9aa9e_n.jpg",
    "id_album": "-1388385651",
    "description": "MilkyWay_706097",
    "title": "MilkyWay_706097",
    "link_img": "https://live.staticflickr.com/65535/50040004552_cd84934463_o.jpg",
    "id_image": "MilkyWay_706097",
    "count_view": 0
  },
  {
    "link_thumb": "https://live.staticflickr.com/65535/50039217468_86f8c91f7e_n.jpg",
    "id_album": "-1610342324",
    "description": "Nebula_196124",
    "title": "Nebula_196124",
    "link_img": "https://live.staticflickr.com/65535/50039217468_cf31812484_o.jpg",
    "id_image": "Nebula_196124",
    "count_view": 0
  },
  {
    "link_thumb": "https://live.staticflickr.com/65535/50039146298_82e9da0e05_n.jpg",
    "id_album": "1402713104",
    "description": "Landscape_585085",
    "title": "Landscape_585085",
    "link_img": "https://live.staticflickr.com/65535/50039146298_967f33484e_o.jpg",
    "id_image": "Landscape_585085",
    "count_view": 0
  },
  {
    "link_thumb": "https://live.staticflickr.com/65535/50041277051_81789ed1e8_n.jpg",
    "id_album": "-1587696329",
    "description": "Stars_548447",
    "title": "Stars_548447",
    "link_img": "https://live.staticflickr.com/65535/50041277051_27a20e0e7c_o.jpg",
    "id_image": "Stars_548447",
    "count_view": 0
  },
  {
    "link_thumb": "https://live.staticflickr.com/65535/50038716848_e7330b74d1_n.jpg",
    "id_album": "849020728",
    "description": "Alien_41623",
    "title": "Alien_41623",
    "link_img": "https://live.staticflickr.com/65535/50038716848_4ea3f5ec66_o.jpg",
    "id_image": "Alien_41623",
    "count_view": 0
  },
  {
    "link_thumb": "https://live.staticflickr.com/65535/50039639051_47a4c4e0e7_n.jpg",
    "id_album": "1204249541",
    "description": "Galaxy_523674",
    "title": "Galaxy_523674",
    "link_img": "https://live.staticflickr.com/65535/50039639051_0bec7529f8_o.jpg",
    "id_image": "Galaxy_523674",
    "count_view": 0
  },
  {
    "link_thumb": "https://live.staticflickr.com/65535/50040511217_c79ab432c7_n.jpg",
    "id_album": "-839602625",
    "description": "Predator_980525",
    "title": "Predator_980525",
    "link_img": "https://live.staticflickr.com/65535/50040511217_769e1b9fac_o.jpg",
    "id_image": "Predator_980525",
    "count_view": 0
  },
  {
    "link_thumb": "https://live.staticflickr.com/65535/50040660178_cb7d490940_n.jpg",
    "id_album": "-1863373220",
    "description": "StarWars_670890",
    "title": "StarWars_670890",
    "link_img": "https://live.staticflickr.com/65535/50040660178_e4931bb587_o.jpg",
    "id_image": "StarWars_670890",
    "count_view": 0
  },
  {
    "link_thumb": "https://live.staticflickr.com/65535/50039515686_b9261d340d_n.jpg",
    "id_album": "-1964113117",
    "description": "City_898623",
    "title": "City_898623",
    "link_img": "https://live.staticflickr.com/65535/50039515686_dbfaaef92b_o.jpg",
    "id_image": "City_898623",
    "count_view": 0
  },
  {
    "link_thumb": "https://live.staticflickr.com/65535/50040474096_5d880af27a_n.jpg",
    "id_album": "1613540653",
    "description": "Space_180281",
    "title": "Space_180281",
    "link_img": "https://live.staticflickr.com/65535/50040474096_441681528a_o.jpg",
    "id_image": "Space_180281",
    "count_view": 0
  },
  {
    "link_thumb": "https://live.staticflickr.com/65535/50038731393_b04646cea1_n.jpg",
    "id_album": "-419633230",
    "description": "Apocalyptic_158914",
    "title": "Apocalyptic_158914",
    "link_img": "https://live.staticflickr.com/65535/50038731393_67ea498edd_o.jpg",
    "id_image": "Apocalyptic_158914",
    "count_view": 0
  },
  {
    "link_thumb": "https://live.staticflickr.com/65535/50040780152_d7a73bf2a2_n.jpg",
    "id_album": "1613540653",
    "description": "Space_583269",
    "title": "Space_583269",
    "link_img": "https://live.staticflickr.com/65535/50040780152_5172bf5471_o.jpg",
    "id_image": "Space_583269",
    "count_view": 0
  },
  {
    "link_thumb": "https://live.staticflickr.com/65535/50041377031_9191de9bea_n.jpg",
    "id_album": "2020068132",
    "description": "Vehicle_198980",
    "title": "Vehicle_198980",
    "link_img": "https://live.staticflickr.com/65535/50041377031_2269e598ce_o.jpg",
    "id_image": "Vehicle_198980",
    "count_view": 0
  },
  {
    "link_thumb": "https://live.staticflickr.com/65535/50039895547_c89cdc4339_n.jpg",
    "id_album": "1204249541",
    "description": "Galaxy_413607",
    "title": "Galaxy_413607",
    "link_img": "https://live.staticflickr.com/65535/50039895547_2a37c2d209_o.jpg",
    "id_image": "Galaxy_413607",
    "count_view": 0
  },
  {
    "link_thumb": "https://live.staticflickr.com/65535/50039323811_b21a2cdb0d_n.jpg",
    "id_album": "523598895",
    "description": "Artistic_245921",
    "title": "Artistic_245921",
    "link_img": "https://live.staticflickr.com/65535/50039323811_326c4a57e2_o.jpg",
    "id_image": "Artistic_245921",
    "count_view": 0
  },
  {
    "link_thumb": "https://live.staticflickr.com/65535/50040796597_0a71136d1a_n.jpg",
    "id_album": "1613540653",
    "description": "Space_704756",
    "title": "Space_704756",
    "link_img": "https://live.staticflickr.com/65535/50040796597_0c10b9cec4_o.jpg",
    "id_image": "Space_704756",
    "count_view": 0
  },
  {
    "link_thumb": "https://live.staticflickr.com/65535/50039901521_e925523748_n.jpg",
    "id_album": "395161030",
    "description": "Planet_1006077",
    "title": "Planet_1006077",
    "link_img": "https://live.staticflickr.com/65535/50039901521_89c5abce31_o.jpg",
    "id_image": "Planet_1006077",
    "count_view": 0
  },
  {
    "link_thumb": "https://live.staticflickr.com/65535/50039516293_9c8bdce52e_n.jpg",
    "id_album": "-1102314093",
    "description": "Planets_249556",
    "title": "Planets_249556",
    "link_img": "https://live.staticflickr.com/65535/50039516293_8cc7866bdd_o.jpg",
    "id_image": "Planets_249556",
    "count_view": 0
  },
  {
    "link_thumb": "https://live.staticflickr.com/65535/50038767768_2cd6176e17_n.jpg",
    "id_album": "523598895",
    "description": "Artistic_218245",
    "title": "Artistic_218245",
    "link_img": "https://live.staticflickr.com/65535/50038767768_88ca3d5f31_o.jpg",
    "id_image": "Artistic_218245",
    "count_view": 0
  },
  {
    "link_thumb": "https://live.staticflickr.com/65535/50041716882_c3a240f1f1_n.jpg",
    "id_album": "-1261420436",
    "description": "Warrior_377831",
    "title": "Warrior_377831",
    "link_img": "https://live.staticflickr.com/65535/50041716882_db2504c770_o.jpg",
    "id_image": "Warrior_377831",
    "count_view": 0
  },
  {
    "link_thumb": "https://live.staticflickr.com/65535/50039597113_53e3d488e8_n.jpg",
    "id_album": "-1102314093",
    "description": "Planets_957334",
    "title": "Planets_957334",
    "link_img": "https://live.staticflickr.com/65535/50039597113_97e63c58b2_o.jpg",
    "id_image": "Planets_957334",
    "count_view": 0
  },
  {
    "link_thumb": "https://live.staticflickr.com/65535/50039474601_d3e534b062_n.jpg",
    "id_album": "-1964113117",
    "description": "City_51459",
    "title": "City_51459",
    "link_img": "https://live.staticflickr.com/65535/50039474601_b2083b5ba7_o.jpg",
    "id_image": "City_51459",
    "count_view": 0
  },
  {
    "link_thumb": "https://live.staticflickr.com/65535/50039873473_e81f33c478_n.jpg",
    "id_album": "779690680",
    "description": "Robot_930302",
    "title": "Robot_930302",
    "link_img": "https://live.staticflickr.com/65535/50039873473_61c054da38_o.jpg",
    "id_image": "Robot_930302",
    "count_view": 0
  },
  {
    "link_thumb": "https://live.staticflickr.com/65535/50040070033_571778b3c9_n.jpg",
    "id_album": "2130067313",
    "description": "Spaceship_280806",
    "title": "Spaceship_280806",
    "link_img": "https://live.staticflickr.com/65535/50040070033_0d74908764_o.jpg",
    "id_image": "Spaceship_280806",
    "count_view": 0
  },
  {
    "link_thumb": "https://live.staticflickr.com/65535/50039591291_f8a544f7ba_n.jpg",
    "id_album": "829169633",
    "description": "Cyborg_489421",
    "title": "Cyborg_489421",
    "link_img": "https://live.staticflickr.com/65535/50039591291_da2c559b50_o.jpg",
    "id_image": "Cyborg_489421",
    "count_view": 0
  },
  {
    "link_thumb": "https://live.staticflickr.com/65535/50041594317_139af41c33_n.jpg",
    "id_album": "1267121215",
    "description": "Steampunk_852656",
    "title": "Steampunk_852656",
    "link_img": "https://live.staticflickr.com/65535/50041594317_56728458a8_o.jpg",
    "id_image": "Steampunk_852656",
    "count_view": 0
  },
  {
    "link_thumb": "https://live.staticflickr.com/65535/50038836408_fe014bf5e0_n.jpg",
    "id_album": "869545341",
    "description": "Astronaut_957397",
    "title": "Astronaut_957397",
    "link_img": "https://live.staticflickr.com/65535/50038836408_19183c80a8_o.jpg",
    "id_image": "Astronaut_957397",
    "count_view": 0
  },
  {
    "link_thumb": "https://live.staticflickr.com/65535/50039356306_35f3681bc2_n.jpg",
    "id_album": "869545341",
    "description": "Astronaut_529979",
    "title": "Astronaut_529979",
    "link_img": "https://live.staticflickr.com/65535/50039356306_4b2d3df63d_o.jpg",
    "id_image": "Astronaut_529979",
    "count_view": 0
  },
  {
    "link_thumb": "https://live.staticflickr.com/65535/50040160898_a640c7cd9d_n.jpg",
    "id_album": "2130067313",
    "description": "Spaceship_555967",
    "title": "Spaceship_555967",
    "link_img": "https://live.staticflickr.com/65535/50040160898_c91554fa3f_o.jpg",
    "id_image": "Spaceship_555967",
    "count_view": 0
  },
  {
    "link_thumb": "https://live.staticflickr.com/65535/50041467746_b81b9d16cf_n.jpg",
    "id_album": "-1261420436",
    "description": "Warrior_540054",
    "title": "Warrior_540054",
    "link_img": "https://live.staticflickr.com/65535/50041467746_2a1d929b13_o.jpg",
    "id_image": "Warrior_540054",
    "count_view": 0
  },
  {
    "link_thumb": "https://live.staticflickr.com/65535/50040044176_a3a75d7fdf_n.jpg",
    "id_album": "-1102314093",
    "description": "Planets_103603",
    "title": "Planets_103603",
    "link_img": "https://live.staticflickr.com/65535/50040044176_e1af77faf9_o.jpg",
    "id_image": "Planets_103603",
    "count_view": 0
  },
  {
    "link_thumb": "https://live.staticflickr.com/65535/50040395091_f865f50c00_n.jpg",
    "id_album": "779690680",
    "description": "Robot_887980",
    "title": "Robot_887980",
    "link_img": "https://live.staticflickr.com/65535/50040395091_5458e30cea_o.jpg",
    "id_image": "Robot_887980",
    "count_view": 0
  },
  {
    "link_thumb": "https://live.staticflickr.com/65535/50039767126_16c740e46c_n.jpg",
    "id_album": "-1610342324",
    "description": "Nebula_195802",
    "title": "Nebula_195802",
    "link_img": "https://live.staticflickr.com/65535/50039767126_2af15ac996_o.jpg",
    "id_image": "Nebula_195802",
    "count_view": 0
  },
  {
    "link_thumb": "https://live.staticflickr.com/65535/50039488698_1e4ce2943e_n.jpg",
    "id_album": "814701616",
    "description": "PlanetaryRing_56259",
    "title": "PlanetaryRing_56259",
    "link_img": "https://live.staticflickr.com/65535/50039488698_307bcb86fb_o.jpg",
    "id_image": "PlanetaryRing_56259",
    "count_view": 0
  },
  {
    "link_thumb": "https://live.staticflickr.com/65535/50040401752_8615630afb_n.jpg",
    "id_album": "-1102314093",
    "description": "Planets_807193",
    "title": "Planets_807193",
    "link_img": "https://live.staticflickr.com/65535/50040401752_43083a9949_o.jpg",
    "id_image": "Planets_807193",
    "count_view": 0
  },
  {
    "link_thumb": "https://live.staticflickr.com/65535/50039431521_4bd0e47844_n.jpg",
    "id_album": "-1964113117",
    "description": "City_103887",
    "title": "City_103887",
    "link_img": "https://live.staticflickr.com/65535/50039431521_77f311dd00_o.jpg",
    "id_image": "City_103887",
    "count_view": 0
  },
  {
    "link_thumb": "https://live.staticflickr.com/65535/50040043727_8535dd6ed4_n.jpg",
    "id_album": "-1610342324",
    "description": "Nebula_268280",
    "title": "Nebula_268280",
    "link_img": "https://live.staticflickr.com/65535/50040043727_729e31699c_o.jpg",
    "id_image": "Nebula_268280",
    "count_view": 0
  },
  {
    "link_thumb": "https://live.staticflickr.com/65535/50040303146_73d8b37b50_n.jpg",
    "id_album": "779690680",
    "description": "Robot_404327",
    "title": "Robot_404327",
    "link_img": "https://live.staticflickr.com/65535/50040303146_10130a4844_o.jpg",
    "id_image": "Robot_404327",
    "count_view": 0
  },
  {
    "link_thumb": "https://live.staticflickr.com/65535/50041419706_e036f0fdd1_n.jpg",
    "id_album": "2020068132",
    "description": "Vehicle_910953",
    "title": "Vehicle_910953",
    "link_img": "https://live.staticflickr.com/65535/50041419706_d4fe7156ab_o.jpg",
    "id_image": "Vehicle_910953",
    "count_view": 0
  },
  {
    "link_thumb": "https://live.staticflickr.com/65535/50040117033_4f9cae898b_n.jpg",
    "id_album": "2130067313",
    "description": "Spaceship_377029",
    "title": "Spaceship_377029",
    "link_img": "https://live.staticflickr.com/65535/50040117033_d37dee069b_o.jpg",
    "id_image": "Spaceship_377029",
    "count_view": 0
  },
  {
    "link_thumb": "https://live.staticflickr.com/65535/50040376821_fb63d45c2d_n.jpg",
    "id_album": "779690680",
    "description": "Robot_859573",
    "title": "Robot_859573",
    "link_img": "https://live.staticflickr.com/65535/50040376821_d348da2a7d_o.jpg",
    "id_image": "Robot_859573",
    "count_view": 0
  },
  {
    "link_thumb": "https://live.staticflickr.com/65535/50040128387_e629986e63_n.jpg",
    "id_album": "-1862561193",
    "description": "Other_209413",
    "title": "Other_209413",
    "link_img": "https://live.staticflickr.com/65535/50040128387_e6104a0e3d_o.jpg",
    "id_image": "Other_209413",
    "count_view": 0
  },
  {
    "link_thumb": "https://live.staticflickr.com/65535/50039797981_cfd80e02d4_n.jpg",
    "id_album": "-1610342324",
    "description": "Nebula_441275",
    "title": "Nebula_441275",
    "link_img": "https://live.staticflickr.com/65535/50039797981_84ea951e26_o.jpg",
    "id_image": "Nebula_441275",
    "count_view": 0
  },
  {
    "link_thumb": "https://live.staticflickr.com/65535/50040035577_219d78b278_n.jpg",
    "id_album": "-1610342324",
    "description": "Nebula_220585",
    "title": "Nebula_220585",
    "link_img": "https://live.staticflickr.com/65535/50040035577_a4f9a328cc_o.jpg",
    "id_image": "Nebula_220585",
    "count_view": 0
  },
  {
    "link_thumb": "https://live.staticflickr.com/65535/50041224066_9fc466316d_n.jpg",
    "id_album": "-1863373220",
    "description": "StarWars_786616",
    "title": "StarWars_786616",
    "link_img": "https://live.staticflickr.com/65535/50041224066_182f472ac8_o.jpg",
    "id_image": "StarWars_786616",
    "count_view": 0
  },
  {
    "link_thumb": "https://live.staticflickr.com/65535/50039997752_3510230570_n.jpg",
    "id_album": "-1388385651",
    "description": "MilkyWay_560780",
    "title": "MilkyWay_560780",
    "link_img": "https://live.staticflickr.com/65535/50039997752_558646d62d_o.jpg",
    "id_image": "MilkyWay_560780",
    "count_view": 0
  },
  {
    "link_thumb": "https://live.staticflickr.com/65535/50038750433_64d01feaca_n.jpg",
    "id_album": "523598895",
    "description": "Artistic_153707",
    "title": "Artistic_153707",
    "link_img": "https://live.staticflickr.com/65535/50038750433_161bc5b021_o.jpg",
    "id_image": "Artistic_153707",
    "count_view": 0
  },
  {
    "link_thumb": "https://live.staticflickr.com/65535/50039468981_fc21a1bf40_n.jpg",
    "id_album": "-1964113117",
    "description": "City_398311",
    "title": "City_398311",
    "link_img": "https://live.staticflickr.com/65535/50039468981_94d9f1632c_o.jpg",
    "id_image": "City_398311",
    "count_view": 0
  },
  {
    "link_thumb": "https://live.staticflickr.com/65535/50038766553_64c40596e8_n.jpg",
    "id_album": "523598895",
    "description": "Artistic_211262",
    "title": "Artistic_211262",
    "link_img": "https://live.staticflickr.com/65535/50038766553_3aeb323b78_o.jpg",
    "id_image": "Artistic_211262",
    "count_view": 0
  },
  {
    "link_thumb": "https://live.staticflickr.com/65535/50039913597_74a71203a1_n.jpg",
    "id_album": "1204249541",
    "description": "Galaxy_685054",
    "title": "Galaxy_685054",
    "link_img": "https://live.staticflickr.com/65535/50039913597_27abd9c2c6_o.jpg",
    "id_image": "Galaxy_685054",
    "count_view": 0
  },
  {
    "link_thumb": "https://live.staticflickr.com/65535/50039730697_4e4e9a63e1_n.jpg",
    "id_album": "-1964113117",
    "description": "City_395016",
    "title": "City_395016",
    "link_img": "https://live.staticflickr.com/65535/50039730697_97428a883c_o.jpg",
    "id_image": "City_395016",
    "count_view": 0
  },
  {
    "link_thumb": "https://live.staticflickr.com/65535/50039495217_7bb197e7aa_n.jpg",
    "id_album": "280884763",
    "description": "Abstract_446851",
    "title": "Abstract_446851",
    "link_img": "https://live.staticflickr.com/65535/50039495217_0c5641da30_o.jpg",
    "id_image": "Abstract_446851",
    "count_view": 0
  },
  {
    "link_thumb": "https://live.staticflickr.com/65535/50038755098_f258e06eea_n.jpg",
    "id_album": "523598895",
    "description": "Artistic_172002",
    "title": "Artistic_172002",
    "link_img": "https://live.staticflickr.com/65535/50038755098_36d69634e6_o.jpg",
    "id_image": "Artistic_172002",
    "count_view": 0
  },
  {
    "link_thumb": "https://live.staticflickr.com/65535/50039218103_d35c428187_n.jpg",
    "id_album": "-1610342324",
    "description": "Nebula_198230",
    "title": "Nebula_198230",
    "link_img": "https://live.staticflickr.com/65535/50039218103_6465e5b6c1_o.jpg",
    "id_image": "Nebula_198230",
    "count_view": 0
  },
  {
    "link_thumb": "https://live.staticflickr.com/65535/50039445673_75fceb6f98_n.jpg",
    "id_album": "1443611160",
    "description": "PlanetRise_121807",
    "title": "PlanetRise_121807",
    "link_img": "https://live.staticflickr.com/65535/50039445673_29ebf4d547_o.jpg",
    "id_image": "PlanetRise_121807",
    "count_view": 0
  },
  {
    "link_thumb": "https://live.staticflickr.com/65535/50040064476_9dfbe3dc4d_n.jpg",
    "id_album": "-1102314093",
    "description": "Planets_239361",
    "title": "Planets_239361",
    "link_img": "https://live.staticflickr.com/65535/50040064476_1a2037f9a8_o.jpg",
    "id_image": "Planets_239361",
    "count_view": 0
  },
  {
    "link_thumb": "https://live.staticflickr.com/65535/50039011638_1b34a7dd4e_n.jpg",
    "id_album": "-437872736",
    "description": "Creature_967850",
    "title": "Creature_967850",
    "link_img": "https://live.staticflickr.com/65535/50039011638_14695bba44_o.jpg",
    "id_image": "Creature_967850",
    "count_view": 0
  },
  {
    "link_thumb": "https://live.staticflickr.com/65535/50040036217_ca6d665f68_n.jpg",
    "id_album": "-1610342324",
    "description": "Nebula_221804",
    "title": "Nebula_221804",
    "link_img": "https://live.staticflickr.com/65535/50040036217_1aa5a66967_o.jpg",
    "id_image": "Nebula_221804",
    "count_view": 0
  },
  {
    "link_thumb": "https://live.staticflickr.com/65535/50040056932_eaa81c0cc3_n.jpg",
    "id_album": "-1610342324",
    "description": "Nebula_405236",
    "title": "Nebula_405236",
    "link_img": "https://live.staticflickr.com/65535/50040056932_bcdb3c4a1f_o.jpg",
    "id_image": "Nebula_405236",
    "count_view": 0
  },
  {
    "link_thumb": "https://live.staticflickr.com/65535/50038686793_28f6a10bdc_n.jpg",
    "id_album": "-406145265",
    "description": "Aircraft_145431",
    "title": "Aircraft_145431",
    "link_img": "https://live.staticflickr.com/65535/50038686793_6fdb989b73_o.jpg",
    "id_image": "Aircraft_145431",
    "count_view": 0
  },
  {
    "link_thumb": "https://live.staticflickr.com/65535/50040144788_94c738a3e7_n.jpg",
    "id_album": "2130067313",
    "description": "Spaceship_446852",
    "title": "Spaceship_446852",
    "link_img": "https://live.staticflickr.com/65535/50040144788_b2d4564bbd_o.jpg",
    "id_image": "Spaceship_446852",
    "count_view": 0
  },
  {
    "link_thumb": "https://live.staticflickr.com/65535/50039739627_bf2bd9defe_n.jpg",
    "id_album": "-1964113117",
    "description": "City_550166",
    "title": "City_550166",
    "link_img": "https://live.staticflickr.com/65535/50039739627_4841f7527f_o.jpg",
    "id_image": "City_550166",
    "count_view": 0
  },
  {
    "link_thumb": "https://live.staticflickr.com/65535/50039410101_41660e16cc_n.jpg",
    "id_album": "1187037014",
    "description": "Battle_976886",
    "title": "Battle_976886",
    "link_img": "https://live.staticflickr.com/65535/50039410101_4e2f4890b2_o.jpg",
    "id_image": "Battle_976886",
    "count_view": 0
  },
  {
    "link_thumb": "https://live.staticflickr.com/65535/50039606777_a6ccbb3636_n.jpg",
    "id_album": "523598895",
    "description": "Artistic_808400",
    "title": "Artistic_808400",
    "link_img": "https://live.staticflickr.com/65535/50039606777_09f2d76885_o.jpg",
    "id_image": "Artistic_808400",
    "count_view": 0
  },
  {
    "link_thumb": "https://live.staticflickr.com/65535/50039004508_ea7821afd2_n.jpg",
    "id_album": "-437872736",
    "description": "Creature_333367",
    "title": "Creature_333367",
    "link_img": "https://live.staticflickr.com/65535/50039004508_4210796a9f_o.jpg",
    "id_image": "Creature_333367",
    "count_view": 0
  },
  {
    "link_thumb": "https://live.staticflickr.com/65535/50040340496_76acf16636_n.jpg",
    "id_album": "779690680",
    "description": "Robot_592381",
    "title": "Robot_592381",
    "link_img": "https://live.staticflickr.com/65535/50040340496_f7faef1e2c_o.jpg",
    "id_image": "Robot_592381",
    "count_view": 0
  },
  {
    "link_thumb": "https://live.staticflickr.com/65535/50038882418_20d7831f9a_n.jpg",
    "id_album": "-1964113117",
    "description": "City_103373",
    "title": "City_103373",
    "link_img": "https://live.staticflickr.com/65535/50038882418_cabcfc696b_o.jpg",
    "id_image": "City_103373",
    "count_view": 0
  },
  {
    "link_thumb": "https://live.staticflickr.com/65535/50038839598_d294f54b0c_n.jpg",
    "id_album": "869545341",
    "description": "Astronaut_970148",
    "title": "Astronaut_970148",
    "link_img": "https://live.staticflickr.com/65535/50038839598_16c054a228_o.jpg",
    "id_image": "Astronaut_970148",
    "count_view": 0
  },
  {
    "link_thumb": "https://live.staticflickr.com/65535/50039662002_f71551e217_n.jpg",
    "id_album": "1187037014",
    "description": "Battle_274820",
    "title": "Battle_274820",
    "link_img": "https://live.staticflickr.com/65535/50039662002_556b4d0f89_o.jpg",
    "id_image": "Battle_274820",
    "count_view": 0
  },
  {
    "link_thumb": "https://live.staticflickr.com/65535/50038697928_b85387b8ea_n.jpg",
    "id_album": "849020728",
    "description": "Alien_120345",
    "title": "Alien_120345",
    "link_img": "https://live.staticflickr.com/65535/50038697928_b6f3400ca3_o.jpg",
    "id_image": "Alien_120345",
    "count_view": 0
  },
  {
    "link_thumb": "https://live.staticflickr.com/65535/50039285638_d627146b02_n.jpg",
    "id_album": "-1610342324",
    "description": "Nebula_772698",
    "title": "Nebula_772698",
    "link_img": "https://live.staticflickr.com/65535/50039285638_019232b02a_o.jpg",
    "id_image": "Nebula_772698",
    "count_view": 0
  },
  {
    "link_thumb": "https://live.staticflickr.com/65535/50039325561_08c8e9ced9_n.jpg",
    "id_album": "523598895",
    "description": "Artistic_262902",
    "title": "Artistic_262902",
    "link_img": "https://live.staticflickr.com/65535/50039325561_215fab522b_o.jpg",
    "id_image": "Artistic_262902",
    "count_view": 0
  },
  {
    "link_thumb": "https://live.staticflickr.com/65535/50039500177_92f33abff7_n.jpg",
    "id_album": "-406145265",
    "description": "Aircraft_341264",
    "title": "Aircraft_341264",
    "link_img": "https://live.staticflickr.com/65535/50039500177_c0db2e300d_o.jpg",
    "id_image": "Aircraft_341264",
    "count_view": 0
  },
  {
    "link_thumb": "https://live.staticflickr.com/65535/50040443922_07d148513d_n.jpg",
    "id_album": "376235057",
    "description": "Planetscape_666143",
    "title": "Planetscape_666143",
    "link_img": "https://live.staticflickr.com/65535/50040443922_ce51c822ec_o.jpg",
    "id_image": "Planetscape_666143",
    "count_view": 0
  },
  {
    "link_thumb": "https://live.staticflickr.com/65535/50040002321_cab0ed8039_n.jpg",
    "id_album": "1443611160",
    "description": "PlanetRise_344647",
    "title": "PlanetRise_344647",
    "link_img": "https://live.staticflickr.com/65535/50040002321_ea98c31a7a_o.jpg",
    "id_image": "PlanetRise_344647",
    "count_view": 0
  },
  {
    "link_thumb": "https://live.staticflickr.com/65535/50039410941_27e0b117b3_n.jpg",
    "id_album": "-1780971522",
    "description": "Biohazard_189834",
    "title": "Biohazard_189834",
    "link_img": "https://live.staticflickr.com/65535/50039410941_11d852306e_o.jpg",
    "id_image": "Biohazard_189834",
    "count_view": 0
  },
  {
    "link_thumb": "https://live.staticflickr.com/65535/50039215313_3eba38ec0f_n.jpg",
    "id_album": "-1610342324",
    "description": "Nebula_179721",
    "title": "Nebula_179721",
    "link_img": "https://live.staticflickr.com/65535/50039215313_1bb7253b20_o.jpg",
    "id_image": "Nebula_179721",
    "count_view": 0
  },
  {
    "link_thumb": "https://live.staticflickr.com/65535/50039505287_bd61cca65b_n.jpg",
    "id_album": "849020728",
    "description": "Alien_1011232",
    "title": "Alien_1011232",
    "link_img": "https://live.staticflickr.com/65535/50039505287_d42de51647_o.jpg",
    "id_image": "Alien_1011232",
    "count_view": 0
  },
  {
    "link_thumb": "https://live.staticflickr.com/65535/50038679073_dfa488d1dd_n.jpg",
    "id_album": "280884763",
    "description": "Abstract_120530",
    "title": "Abstract_120530",
    "link_img": "https://live.staticflickr.com/65535/50038679073_ccbb4a6b20_o.jpg",
    "id_image": "Abstract_120530",
    "count_view": 0
  },
  {
    "link_thumb": "https://live.staticflickr.com/65535/50040786548_5723ef7142_n.jpg",
    "id_album": "-221671103",
    "description": "Sun_193008",
    "title": "Sun_193008",
    "link_img": "https://live.staticflickr.com/65535/50040786548_382113ae14_o.jpg",
    "id_image": "Sun_193008",
    "count_view": 0
  },
  {
    "link_thumb": "https://live.staticflickr.com/65535/50039872113_142d9e857d_n.jpg",
    "id_album": "779690680",
    "description": "Robot_928645",
    "title": "Robot_928645",
    "link_img": "https://live.staticflickr.com/65535/50039872113_3fc60675f3_o.jpg",
    "id_image": "Robot_928645",
    "count_view": 0
  },
  {
    "link_thumb": "https://live.staticflickr.com/65535/50039603392_6d22239320_n.jpg",
    "id_album": "523598895",
    "description": "Artistic_665848",
    "title": "Artistic_665848",
    "link_img": "https://live.staticflickr.com/65535/50039603392_143c3f9fa2_o.jpg",
    "id_image": "Artistic_665848",
    "count_view": 0
  },
  {
    "link_thumb": "https://live.staticflickr.com/65535/50039592557_9554439643_n.jpg",
    "id_album": "523598895",
    "description": "Artistic_352708",
    "title": "Artistic_352708",
    "link_img": "https://live.staticflickr.com/65535/50039592557_fea06a2228_o.jpg",
    "id_image": "Artistic_352708",
    "count_view": 0
  },
  {
    "link_thumb": "https://live.staticflickr.com/65535/50041460387_0a44a2954b_n.jpg",
    "id_album": "-1863373220",
    "description": "StarWars_584843",
    "title": "StarWars_584843",
    "link_img": "https://live.staticflickr.com/65535/50041460387_737c33118e_o.jpg",
    "id_image": "StarWars_584843",
    "count_view": 0
  },
  {
    "link_thumb": "https://live.staticflickr.com/65535/50041241146_bae6f29631_n.jpg",
    "id_album": "-1863373220",
    "description": "StarWars_916314",
    "title": "StarWars_916314",
    "link_img": "https://live.staticflickr.com/65535/50041241146_9b1eda3aa1_o.jpg",
    "id_image": "StarWars_916314",
    "count_view": 0
  },
  {
    "link_thumb": "https://live.staticflickr.com/65535/50039630892_d86c9eb4cb_n.jpg",
    "id_album": "869545341",
    "description": "Astronaut_816998",
    "title": "Astronaut_816998",
    "link_img": "https://live.staticflickr.com/65535/50039630892_4d5c17998f_o.jpg",
    "id_image": "Astronaut_816998",
    "count_view": 0
  }
]