[
  {
    "link_thumb": "https://live.staticflickr.com/65535/50040044597_b546b030c6_n.jpg",
    "id_album": "-1610342324",
    "description": "Nebula_283288",
    "title": "Nebula_283288",
    "link_img": "https://live.staticflickr.com/65535/50040044597_77bf53ddea_o.jpg",
    "id_image": "Nebula_283288",
    "count_view": 0
  },
  {
    "link_thumb": "https://live.staticflickr.com/65535/50040608088_049114f041_n.jpg",
    "id_album": "-1863373220",
    "description": "StarWars_296347",
    "title": "StarWars_296347",
    "link_img": "https://live.staticflickr.com/65535/50040608088_9321894a23_o.jpg",
    "id_image": "StarWars_296347",
    "count_view": 0
  },
  {
    "link_thumb": "https://live.staticflickr.com/65535/50040943893_dbf5086cc1_n.jpg",
    "id_album": "-1261420436",
    "description": "Warrior_972019",
    "title": "Warrior_972019",
    "link_img": "https://live.staticflickr.com/65535/50040943893_fe78fc4c93_o.jpg",
    "id_image": "Warrior_972019",
    "count_view": 0
  },
  {
    "link_thumb": "https://live.staticflickr.com/65535/50039598176_8c9a691cf7_n.jpg",
    "id_album": "829169633",
    "description": "Cyborg_602359",
    "title": "Cyborg_602359",
    "link_img": "https://live.staticflickr.com/65535/50039598176_7385be5871_o.jpg",
    "id_image": "Cyborg_602359",
    "count_view": 0
  },
  {
    "link_thumb": "https://live.staticflickr.com/65535/50039781596_2a4e728476_n.jpg",
    "id_album": "-1610342324",
    "description": "Nebula_285821",
    "title": "Nebula_285821",
    "link_img": "https://live.staticflickr.com/65535/50039781596_ed05cc1806_o.jpg",
    "id_image": "Nebula_285821",
    "count_view": 0
  },
  {
    "link_thumb": "https://live.staticflickr.com/65535/50039875563_d1d7d73a2d_n.jpg",
    "id_album": "779690680",
    "description": "Robot_933176",
    "title": "Robot_933176",
    "link_img": "https://live.staticflickr.com/65535/50039875563_3fabc64571_o.jpg",
    "id_image": "Robot_933176",
    "count_view": 0
  },
  {
    "link_thumb": "https://live.staticflickr.com/65535/50040155801_ff4dba981a_n.jpg",
    "id_album": "376235057",
    "description": "Planetscape_286376",
    "title": "Planetscape_286376",
    "link_img": "https://live.staticflickr.com/65535/50040155801_a2f21a4e10_o.jpg",
    "id_image": "Planetscape_286376",
    "count_view": 0
  },
  {
    "link_thumb": "https://live.staticflickr.com/65535/50039657276_f20bedf3bf_n.jpg",
    "id_album": "1204249541",
    "description": "Galaxy_975252",
    "title": "Galaxy_975252",
    "link_img": "https://live.staticflickr.com/65535/50039657276_fee79fc4a5_o.jpg",
    "id_image": "Galaxy_975252",
    "count_view": 0
  },
  {
    "link_thumb": "https://live.staticflickr.com/65535/50039669162_f3c83bd715_n.jpg",
    "id_album": "1187037014",
    "description": "Battle_707134",
    "title": "Battle_707134",
    "link_img": "https://live.staticflickr.com/65535/50039669162_5b751bf87c_o.jpg",
    "id_image": "Battle_707134",
    "count_view": 0
  },
  {
    "link_thumb": "https://live.staticflickr.com/65535/50038855628_7aeda00024_n.jpg",
    "id_album": "1187037014",
    "description": "Battle_585062",
    "title": "Battle_585062",
    "link_img": "https://live.staticflickr.com/65535/50038855628_7d071cc005_o.jpg",
    "id_image": "Battle_585062",
    "count_view": 0
  },
  {
    "link_thumb": "https://live.staticflickr.com/65535/50039520583_8d25929891_n.jpg",
    "id_album": "-1102314093",
    "description": "Planets_274825",
    "title": "Planets_274825",
    "link_img": "https://live.staticflickr.com/65535/50039520583_7dd0e257e3_o.jpg",
    "id_image": "Planets_274825",
    "count_view": 0
  },
  {
    "link_thumb": "https://live.staticflickr.com/65535/50040107722_d7e8c4ccfa_n.jpg",
    "id_album": "-1610342324",
    "description": "Nebula_84362",
    "title": "Nebula_84362",
    "link_img": "https://live.staticflickr.com/65535/50040107722_ca8c9fdff4_o.jpg",
    "id_image": "Nebula_84362",
    "count_view": 0
  },
  {
    "link_thumb": "https://live.staticflickr.com/65535/50040390357_3e582b67b9_n.jpg",
    "id_album": "-1102314093",
    "description": "Planets_596027",
    "title": "Planets_596027",
    "link_img": "https://live.staticflickr.com/65535/50040390357_6fb11583df_o.jpg",
    "id_image": "Planets_596027",
    "count_view": 0
  },
  {
    "link_thumb": "https://live.staticflickr.com/65535/50039570768_a00ccf5ddd_n.jpg",
    "id_album": "-1102314093",
    "description": "Planets_529580",
    "title": "Planets_529580",
    "link_img": "https://live.staticflickr.com/65535/50039570768_b7e9404e0b_o.jpg",
    "id_image": "Planets_529580",
    "count_view": 0
  },
  {
    "link_thumb": "https://live.staticflickr.com/65535/50039598272_0b4d29ea31_n.jpg",
    "id_album": "523598895",
    "description": "Artistic_447890",
    "title": "Artistic_447890",
    "link_img": "https://live.staticflickr.com/65535/50039598272_2569fd55ce_o.jpg",
    "id_image": "Artistic_447890",
    "count_view": 0
  },
  {
    "link_thumb": "https://live.staticflickr.com/65535/50039044468_982865903f_n.jpg",
    "id_album": "829169633",
    "description": "Cyborg_564482",
    "title": "Cyborg_564482",
    "link_img": "https://live.staticflickr.com/65535/50039044468_bc97f28758_o.jpg",
    "id_image": "Cyborg_564482",
    "count_view": 0
  },
  {
    "link_thumb": "https://live.staticflickr.com/65535/50039490632_8921e67d6d_n.jpg",
    "id_album": "280884763",
    "description": "Abstract_229062",
    "title": "Abstract_229062",
    "link_img": "https://live.staticflickr.com/65535/50039490632_9f2bc8b21a_o.jpg",
    "id_image": "Abstract_229062",
    "count_view": 0
  },
  {
    "link_thumb": "https://live.staticflickr.com/65535/50039680013_996d9bbb9a_n.jpg",
    "id_album": "-482547208",
    "description": "PostApocalyptic_948245",
    "title": "PostApocalyptic_948245",
    "link_img": "https://live.staticflickr.com/65535/50039680013_65f255246e_o.jpg",
    "id_image": "PostApocalyptic_948245",
    "count_view": 0
  },
  {
    "link_thumb": "https://live.staticflickr.com/65535/50038755098_f258e06eea_n.jpg",
    "id_album": "523598895",
    "description": "Artistic_172002",
    "title": "Artistic_172002",
    "link_img": "https://live.staticflickr.com/65535/50038755098_36d69634e6_o.jpg",
    "id_image": "Artistic_172002",
    "count_view": 0
  },
  {
    "link_thumb": "https://live.staticflickr.com/65535/50039880307_5eb75febf4_n.jpg",
    "id_album": "2104507156",
    "description": "Fantasy_176577",
    "title": "Fantasy_176577",
    "link_img": "https://live.staticflickr.com/65535/50039880307_884c509da7_o.jpg",
    "id_image": "Fantasy_176577",
    "count_view": 0
  },
  {
    "link_thumb": "https://live.staticflickr.com/65535/50040800632_3584066838_n.jpg",
    "id_album": "1613540653",
    "description": "Space_746369",
    "title": "Space_746369",
    "link_img": "https://live.staticflickr.com/65535/50040800632_c58c49e58b_o.jpg",
    "id_image": "Space_746369",
    "count_view": 0
  },
  {
    "link_thumb": "https://live.staticflickr.com/65535/50040066152_58229be646_n.jpg",
    "id_album": "-1610342324",
    "description": "Nebula_505516",
    "title": "Nebula_505516",
    "link_img": "https://live.staticflickr.com/65535/50040066152_914ba7d824_o.jpg",
    "id_image": "Nebula_505516",
    "count_view": 0
  },
  {
    "link_thumb": "https://live.staticflickr.com/65535/50039398651_c09828de19_n.jpg",
    "id_album": "1187037014",
    "description": "Battle_269468",
    "title": "Battle_269468",
    "link_img": "https://live.staticflickr.com/65535/50039398651_32b36bddc5_o.jpg",
    "id_image": "Battle_269468",
    "count_view": 0
  },
  {
    "link_thumb": "https://live.staticflickr.com/65535/50040053482_3e43215861_n.jpg",
    "id_album": "-1610342324",
    "description": "Nebula_390841",
    "title": "Nebula_390841",
    "link_img": "https://live.staticflickr.com/65535/50040053482_28a7018491_o.jpg",
    "id_image": "Nebula_390841",
    "count_view": 0
  },
  {
    "link_thumb": "https://live.staticflickr.com/65535/50039774951_b1cd3a0c28_n.jpg",
    "id_album": "-1610342324",
    "description": "Nebula_242651",
    "title": "Nebula_242651",
    "link_img": "https://live.staticflickr.com/65535/50039774951_7913d0af32_o.jpg",
    "id_image": "Nebula_242651",
    "count_view": 0
  },
  {
    "link_thumb": "https://live.staticflickr.com/65535/50041521887_87b3a99770_n.jpg",
    "id_album": "-1587696329",
    "description": "Stars_192660",
    "title": "Stars_192660",
    "link_img": "https://live.staticflickr.com/65535/50041521887_92274e4066_o.jpg",
    "id_image": "Stars_192660",
    "count_view": 0
  },
  {
    "link_thumb": "https://live.staticflickr.com/65535/50039497947_6116e7ddd0_n.jpg",
    "id_album": "-406145265",
    "description": "Aircraft_269232",
    "title": "Aircraft_269232",
    "link_img": "https://live.staticflickr.com/65535/50039497947_10750e8705_o.jpg",
    "id_image": "Aircraft_269232",
    "count_view": 0
  },
  {
    "link_thumb": "https://live.staticflickr.com/65535/50039244153_b51ea2b372_n.jpg",
    "id_album": "-1610342324",
    "description": "Nebula_413590",
    "title": "Nebula_413590",
    "link_img": "https://live.staticflickr.com/65535/50039244153_80f2be2aaf_o.jpg",
    "id_image": "Nebula_413590",
    "count_view": 0
  },
  {
    "link_thumb": "https://live.staticflickr.com/65535/50041419706_e036f0fdd1_n.jpg",
    "id_album": "2020068132",
    "description": "Vehicle_910953",
    "title": "Vehicle_910953",
    "link_img": "https://live.staticflickr.com/65535/50041419706_d4fe7156ab_o.jpg",
    "id_image": "Vehicle_910953",
    "count_view": 0
  },
  {
    "link_thumb": "https://live.staticflickr.com/65535/50040300197_b011887ca2_n.jpg",
    "id_album": "814701616",
    "description": "PlanetaryRing_529645",
    "title": "PlanetaryRing_529645",
    "link_img": "https://live.staticflickr.com/65535/50040300197_3db4ec3d50_o.jpg",
    "id_image": "PlanetaryRing_529645",
    "count_view": 0
  },
  {
    "link_thumb": "https://live.staticflickr.com/65535/50040391301_01bf14ca18_n.jpg",
    "id_album": "779690680",
    "description": "Robot_883158",
    "title": "Robot_883158",
    "link_img": "https://live.staticflickr.com/65535/50040391301_cfa42aed30_o.jpg",
    "id_image": "Robot_883158",
    "count_view": 0
  },
  {
    "link_thumb": "https://live.staticflickr.com/65535/50038741058_bc541ab720_n.jpg",
    "id_album": "-419633230",
    "description": "Apocalyptic_957376",
    "title": "Apocalyptic_957376",
    "link_img": "https://live.staticflickr.com/65535/50038741058_25664570ae_o.jpg",
    "id_image": "Apocalyptic_957376",
    "count_view": 0
  },
  {
    "link_thumb": "https://live.staticflickr.com/65535/50039552641_57a32b2364_n.jpg",
    "id_album": "-437872736",
    "description": "Creature_331325",
    "title": "Creature_331325",
    "link_img": "https://live.staticflickr.com/65535/50039552641_2e964050e7_o.jpg",
    "id_image": "Creature_331325",
    "count_view": 0
  },
  {
    "link_thumb": "https://live.staticflickr.com/65535/50039171863_165cb1d4b7_n.jpg",
    "id_album": "1402713104",
    "description": "Landscape_906964",
    "title": "Landscape_906964",
    "link_img": "https://live.staticflickr.com/65535/50039171863_2e92502b1c_o.jpg",
    "id_image": "Landscape_906964",
    "count_view": 0
  },
  {
    "link_thumb": "https://live.staticflickr.com/65535/50039940503_bc4fe3ff49_n.jpg",
    "id_album": "1613540653",
    "description": "Space_330680",
    "title": "Space_330680",
    "link_img": "https://live.staticflickr.com/65535/50039940503_101877ea2a_o.jpg",
    "id_image": "Space_330680",
    "count_view": 0
  },
  {
    "link_thumb": "https://live.staticflickr.com/65535/50039235486_0cd3ccba11_n.jpg",
    "id_album": "-406145265",
    "description": "Aircraft_267751",
    "title": "Aircraft_267751",
    "link_img": "https://live.staticflickr.com/65535/50039235486_90da11aabb_o.jpg",
    "id_image": "Aircraft_267751",
    "count_view": 0
  },
  {
    "link_thumb": "https://live.staticflickr.com/65535/50038968228_2a24e08cbe_n.jpg",
    "id_album": "-1964113117",
    "description": "City_902988",
    "title": "City_902988",
    "link_img": "https://live.staticflickr.com/65535/50038968228_9a98efffd4_o.jpg",
    "id_image": "City_902988",
    "count_view": 0
  },
  {
    "link_thumb": "https://live.staticflickr.com/65535/50039856451_a276bd1299_n.jpg",
    "id_album": "-1610342324",
    "description": "Nebula_942697",
    "title": "Nebula_942697",
    "link_img": "https://live.staticflickr.com/65535/50039856451_c6640c6b0d_o.jpg",
    "id_image": "Nebula_942697",
    "count_view": 0
  },
  {
    "link_thumb": "https://live.staticflickr.com/65535/50039438831_64ab853387_n.jpg",
    "id_album": "-1964113117",
    "description": "City_167027",
    "title": "City_167027",
    "link_img": "https://live.staticflickr.com/65535/50039438831_6aed274eb4_o.jpg",
    "id_image": "City_167027",
    "count_view": 0
  },
  {
    "link_thumb": "https://live.staticflickr.com/65535/50039892393_1d6b366433_n.jpg",
    "id_album": "779690680",
    "description": "Robot_959169",
    "title": "Robot_959169",
    "link_img": "https://live.staticflickr.com/65535/50039892393_69cd244856_o.jpg",
    "id_image": "Robot_959169",
    "count_view": 0
  },
  {
    "link_thumb": "https://live.staticflickr.com/65535/50039652952_4d8fb09989_n.jpg",
    "id_album": "869545341",
    "description": "Astronaut_987715",
    "title": "Astronaut_987715",
    "link_img": "https://live.staticflickr.com/65535/50039652952_4d8426db51_o.jpg",
    "id_image": "Astronaut_987715",
    "count_view": 0
  },
  {
    "link_thumb": "https://live.staticflickr.com/65535/50039222538_78200dc2c4_n.jpg",
    "id_album": "-1610342324",
    "description": "Nebula_220635",
    "title": "Nebula_220635",
    "link_img": "https://live.staticflickr.com/65535/50039222538_ddd62dd3b4_o.jpg",
    "id_image": "Nebula_220635",
    "count_view": 0
  },
  {
    "link_thumb": "https://live.staticflickr.com/65535/50039893642_34837cf893_n.jpg",
    "id_album": "1204249541",
    "description": "Galaxy_324635",
    "title": "Galaxy_324635",
    "link_img": "https://live.staticflickr.com/65535/50039893642_0d48fa95d8_o.jpg",
    "id_image": "Galaxy_324635",
    "count_view": 0
  },
  {
    "link_thumb": "https://live.staticflickr.com/65535/50040597361_204ae7faab_n.jpg",
    "id_album": "2130067313",
    "description": "Spaceship_204513",
    "title": "Spaceship_204513",
    "link_img": "https://live.staticflickr.com/65535/50040597361_14dc183c05_o.jpg",
    "id_image": "Spaceship_204513",
    "count_view": 0
  },
  {
    "link_thumb": "https://live.staticflickr.com/65535/50040007978_5e9d3b8640_n.jpg",
    "id_album": "-1532370292",
    "description": "SpaceStation_676809",
    "title": "SpaceStation_676809",
    "link_img": "https://live.staticflickr.com/65535/50040007978_bc5552d74a_o.jpg",
    "id_image": "SpaceStation_676809",
    "count_view": 0
  },
  {
    "link_thumb": "https://live.staticflickr.com/65535/50039314751_38970c954a_n.jpg",
    "id_album": "523598895",
    "description": "Artistic_211487",
    "title": "Artistic_211487",
    "link_img": "https://live.staticflickr.com/65535/50039314751_22dbc42280_o.jpg",
    "id_image": "Artistic_211487",
    "count_view": 0
  },
  {
    "link_thumb": "https://live.staticflickr.com/65535/50039679113_ef8179783b_n.jpg",
    "id_album": "-482547208",
    "description": "PostApocalyptic_931808",
    "title": "PostApocalyptic_931808",
    "link_img": "https://live.staticflickr.com/65535/50039679113_fa291e2157_o.jpg",
    "id_image": "PostApocalyptic_931808",
    "count_view": 0
  },
  {
    "link_thumb": "https://live.staticflickr.com/65535/50040607413_e1598f01a8_n.jpg",
    "id_album": "-1863373220",
    "description": "StarWars_294174",
    "title": "StarWars_294174",
    "link_img": "https://live.staticflickr.com/65535/50040607413_9e4b6a22b4_o.jpg",
    "id_image": "StarWars_294174",
    "count_view": 0
  },
  {
    "link_thumb": "https://live.staticflickr.com/65535/50039641791_d9e9820471_n.jpg",
    "id_album": "1204249541",
    "description": "Galaxy_549909",
    "title": "Galaxy_549909",
    "link_img": "https://live.staticflickr.com/65535/50039641791_75d20a4246_o.jpg",
    "id_image": "Galaxy_549909",
    "count_view": 0
  },
  {
    "link_thumb": "https://live.staticflickr.com/65535/50038881848_0cc0ed1f45_n.jpg",
    "id_album": "-1964113117",
    "description": "City_1008908",
    "title": "City_1008908",
    "link_img": "https://live.staticflickr.com/65535/50038881848_8801abbb1f_o.jpg",
    "id_image": "City_1008908",
    "count_view": 0
  },
  {
    "link_thumb": "https://live.staticflickr.com/65535/50041687137_4ca9be2055_n.jpg",
    "id_album": "2020068132",
    "description": "Vehicle_959156",
    "title": "Vehicle_959156",
    "link_img": "https://live.staticflickr.com/65535/50041687137_662ab85afd_o.jpg",
    "id_image": "Vehicle_959156",
    "count_view": 0
  },
  {
    "link_thumb": "https://live.staticflickr.com/65535/50040991618_4ab135cab7_n.jpg",
    "id_album": "-1126835654",
    "description": "Women_712134",
    "title": "Women_712134",
    "link_img": "https://live.staticflickr.com/65535/50040991618_a1f2b808f0_o.jpg",
    "id_image": "Women_712134",
    "count_view": 0
  },
  {
    "link_thumb": "https://live.staticflickr.com/65535/50039606777_a6ccbb3636_n.jpg",
    "id_album": "523598895",
    "description": "Artistic_808400",
    "title": "Artistic_808400",
    "link_img": "https://live.staticflickr.com/65535/50039606777_09f2d76885_o.jpg",
    "id_image": "Artistic_808400",
    "count_view": 0
  },
  {
    "link_thumb": "https://live.staticflickr.com/65535/50039763116_fa90be45fc_n.jpg",
    "id_album": "-1610342324",
    "description": "Nebula_133363",
    "title": "Nebula_133363",
    "link_img": "https://live.staticflickr.com/65535/50039763116_4b3926f55d_o.jpg",
    "id_image": "Nebula_133363",
    "count_view": 0
  },
  {
    "link_thumb": "https://live.staticflickr.com/65535/50039543896_6d0e2144d0_n.jpg",
    "id_album": "894679094",
    "description": "Collision_864727",
    "title": "Collision_864727",
    "link_img": "https://live.staticflickr.com/65535/50039543896_f3063d1953_o.jpg",
    "id_image": "Collision_864727",
    "count_view": 0
  },
  {
    "link_thumb": "https://live.staticflickr.com/65535/50040237947_f9df3c29b9_n.jpg",
    "id_album": "395161030",
    "description": "Planet_720708",
    "title": "Planet_720708",
    "link_img": "https://live.staticflickr.com/65535/50040237947_a76f394dfb_o.jpg",
    "id_image": "Planet_720708",
    "count_view": 0
  },
  {
    "link_thumb": "https://live.staticflickr.com/65535/50039874433_f90047f51f_n.jpg",
    "id_album": "779690680",
    "description": "Robot_931798",
    "title": "Robot_931798",
    "link_img": "https://live.staticflickr.com/65535/50039874433_f233546d15_o.jpg",
    "id_image": "Robot_931798",
    "count_view": 0
  },
  {
    "link_thumb": "https://live.staticflickr.com/65535/50040068433_a58dbb5bfe_n.jpg",
    "id_album": "2130067313",
    "description": "Spaceship_279992",
    "title": "Spaceship_279992",
    "link_img": "https://live.staticflickr.com/65535/50040068433_84d6b82683_o.jpg",
    "id_image": "Spaceship_279992",
    "count_view": 0
  },
  {
    "link_thumb": "https://live.staticflickr.com/65535/50039669338_8678901538_n.jpg",
    "id_album": "-482547208",
    "description": "PostApocalyptic_717812",
    "title": "PostApocalyptic_717812",
    "link_img": "https://live.staticflickr.com/65535/50039669338_9dfdae034b_o.jpg",
    "id_image": "PostApocalyptic_717812",
    "count_view": 0
  },
  {
    "link_thumb": "https://live.staticflickr.com/65535/50039491462_f44802d3c4_n.jpg",
    "id_album": "280884763",
    "description": "Abstract_286792",
    "title": "Abstract_286792",
    "link_img": "https://live.staticflickr.com/65535/50039491462_9ac75134d8_o.jpg",
    "id_image": "Abstract_286792",
    "count_view": 0
  },
  {
    "link_thumb": "https://live.staticflickr.com/65535/50039657171_e3d2921f5f_n.jpg",
    "id_album": "1204249541",
    "description": "Galaxy_957510",
    "title": "Galaxy_957510",
    "link_img": "https://live.staticflickr.com/65535/50039657171_0be74c2891_o.jpg",
    "id_image": "Galaxy_957510",
    "count_view": 0
  },
  {
    "link_thumb": "https://live.staticflickr.com/65535/50040752877_a32626a2d9_n.jpg",
    "id_album": "1613540653",
    "description": "Space_287043",
    "title": "Space_287043",
    "link_img": "https://live.staticflickr.com/65535/50040752877_7cc0bb4da7_o.jpg",
    "id_image": "Space_287043",
    "count_view": 0
  },
  {
    "link_thumb": "https://live.staticflickr.com/65535/50038855193_37530411aa_n.jpg",
    "id_album": "1187037014",
    "description": "Battle_551733",
    "title": "Battle_551733",
    "link_img": "https://live.staticflickr.com/65535/50038855193_a0b2a16215_o.jpg",
    "id_image": "Battle_551733",
    "count_view": 0
  },
  {
    "link_thumb": "https://live.staticflickr.com/65535/50040684423_0010400ef2_n.jpg",
    "id_album": "-1863373220",
    "description": "StarWars_900345",
    "title": "StarWars_900345",
    "link_img": "https://live.staticflickr.com/65535/50040684423_401dd2e3fa_o.jpg",
    "id_image": "StarWars_900345",
    "count_view": 0
  },
  {
    "link_thumb": "https://live.staticflickr.com/65535/50039495186_6c612f2636_n.jpg",
    "id_album": "-1964113117",
    "description": "City_750010",
    "title": "City_750010",
    "link_img": "https://live.staticflickr.com/65535/50039495186_d25d19e942_o.jpg",
    "id_image": "City_750010",
    "count_view": 0
  },
  {
    "link_thumb": "https://live.staticflickr.com/65535/50040100787_04dcbe62b5_n.jpg",
    "id_album": "-1610342324",
    "description": "Nebula_789217",
    "title": "Nebula_789217",
    "link_img": "https://live.staticflickr.com/65535/50040100787_c2242aed3c_o.jpg",
    "id_image": "Nebula_789217",
    "count_view": 0
  },
  {
    "link_thumb": "https://live.staticflickr.com/65535/50039680732_a17da47924_n.jpg",
    "id_album": "-1780971522",
    "description": "Biohazard_573095",
    "title": "Biohazard_573095",
    "link_img": "https://live.staticflickr.com/65535/50039680732_193364d024_o.jpg",
    "id_image": "Biohazard_573095",
    "count_view": 0
  },
  {
    "link_thumb": "https://live.staticflickr.com/65535/50039341081_dcfb74aea1_n.jpg",
    "id_album": "523598895",
    "description": "Artistic_653391",
    "title": "Artistic_653391",
    "link_img": "https://live.staticflickr.com/65535/50039341081_a1caa306a8_o.jpg",
    "id_image": "Artistic_653391",
    "count_view": 0
  },
  {
    "link_thumb": "https://live.staticflickr.com/65535/50039734816_a1fe96429c_n.jpg",
    "id_album": "-1388385651",
    "description": "MilkyWay_592441",
    "title": "MilkyWay_592441",
    "link_img": "https://live.staticflickr.com/65535/50039734816_d3986cb655_o.jpg",
    "id_image": "MilkyWay_592441",
    "count_view": 0
  },
  {
    "link_thumb": "https://live.staticflickr.com/65535/50040818702_f243287666_n.jpg",
    "id_album": "1613540653",
    "description": "Space_957436",
    "title": "Space_957436",
    "link_img": "https://live.staticflickr.com/65535/50040818702_a469b19fd7_o.jpg",
    "id_image": "Space_957436",
    "count_view": 0
  },
  {
    "link_thumb": "https://live.staticflickr.com/65535/50039824581_f2d1310c5e_n.jpg",
    "id_album": "-1610342324",
    "description": "Nebula_703317",
    "title": "Nebula_703317",
    "link_img": "https://live.staticflickr.com/65535/50039824581_fb10323851_o.jpg",
    "id_image": "Nebula_703317",
    "count_view": 0
  },
  {
    "link_thumb": "https://live.staticflickr.com/65535/50039989598_b42d60fb95_n.jpg",
    "id_album": "1613540653",
    "description": "Space_822480",
    "title": "Space_822480",
    "link_img": "https://live.staticflickr.com/65535/50039989598_81164bc11d_o.jpg",
    "id_image": "Space_822480",
    "count_view": 0
  },
  {
    "link_thumb": "https://live.staticflickr.com/65535/50039735566_7ede620eb4_n.jpg",
    "id_album": "-1388385651",
    "description": "MilkyWay_596227",
    "title": "MilkyWay_596227",
    "link_img": "https://live.staticflickr.com/65535/50039735566_a522bafb72_o.jpg",
    "id_image": "MilkyWay_596227",
    "count_view": 0
  },
  {
    "link_thumb": "https://live.staticflickr.com/65535/50040131291_f78c11e276_n.jpg",
    "id_album": "-1102314093",
    "description": "Planets_73592",
    "title": "Planets_73592",
    "link_img": "https://live.staticflickr.com/65535/50040131291_29aa76070a_o.jpg",
    "id_image": "Planets_73592",
    "count_view": 0
  },
  {
    "link_thumb": "https://live.staticflickr.com/65535/50038810163_4fed36046e_n.jpg",
    "id_album": "869545341",
    "description": "Astronaut_565707",
    "title": "Astronaut_565707",
    "link_img": "https://live.staticflickr.com/65535/50038810163_446a8e2ddd_o.jpg",
    "id_image": "Astronaut_565707",
    "count_view": 0
  },
  {
    "link_thumb": "https://live.staticflickr.com/65535/50041586351_af1511a18c_n.jpg",
    "id_album": "-1675918237",
    "description": "WomenWarrior_688403",
    "title": "WomenWarrior_688403",
    "link_img": "https://live.staticflickr.com/65535/50041586351_d8c1208163_o.jpg",
    "id_image": "WomenWarrior_688403",
    "count_view": 0
  },
  {
    "link_thumb": "https://live.staticflickr.com/65535/50039717503_c063842eeb_n.jpg",
    "id_album": "779690680",
    "description": "Robot_245595",
    "title": "Robot_245595",
    "link_img": "https://live.staticflickr.com/65535/50039717503_b2358b2398_o.jpg",
    "id_image": "Robot_245595",
    "count_view": 0
  },
  {
    "link_thumb": "https://live.staticflickr.com/65535/50039254093_3e82733fc8_n.jpg",
    "id_album": "-1610342324",
    "description": "Nebula_522546",
    "title": "Nebula_522546",
    "link_img": "https://live.staticflickr.com/65535/50039254093_15628a5442_o.jpg",
    "id_image": "Nebula_522546",
    "count_view": 0
  },
  {
    "link_thumb": "https://live.staticflickr.com/65535/50040670662_da771b806d_n.jpg",
    "id_album": "779690680",
    "description": "Robot_909553",
    "title": "Robot_909553",
    "link_img": "https://live.staticflickr.com/65535/50040670662_35524160aa_o.jpg",
    "id_image": "Robot_909553",
    "count_view": 0
  },
  {
    "link_thumb": "https://live.staticflickr.com/65535/50038749868_9708c2fe2e_n.jpg",
    "id_album": "523598895",
    "description": "Artistic_152413",
    "title": "Artistic_152413",
    "link_img": "https://live.staticflickr.com/65535/50038749868_b016d9757c_o.jpg",
    "id_image": "Artistic_152413",
    "count_view": 0
  },
  {
    "link_thumb": "https://live.staticflickr.com/65535/50039732496_51e3b6f7bb_n.jpg",
    "id_album": "-1388385651",
    "description": "MilkyWay_550058",
    "title": "MilkyWay_550058",
    "link_img": "https://live.staticflickr.com/65535/50039732496_7bacbfc362_o.jpg",
    "id_image": "MilkyWay_550058",
    "count_view": 0
  },
  {
    "link_thumb": "https://live.staticflickr.com/65535/50041495157_622d057474_n.jpg",
    "id_album": "-1863373220",
    "description": "StarWars_881039",
    "title": "StarWars_881039",
    "link_img": "https://live.staticflickr.com/65535/50041495157_06e1b1be00_o.jpg",
    "id_image": "StarWars_881039",
    "count_view": 0
  },
  {
    "link_thumb": "https://live.staticflickr.com/65535/50039968367_894ef16b11_n.jpg",
    "id_album": "1402713104",
    "description": "Landscape_776210",
    "title": "Landscape_776210",
    "link_img": "https://live.staticflickr.com/65535/50039968367_e4f058c788_o.jpg",
    "id_image": "Landscape_776210",
    "count_view": 0
  },
  {
    "link_thumb": "https://live.staticflickr.com/65535/50039920417_f3c2fe3f38_n.jpg",
    "id_album": "1204249541",
    "description": "Galaxy_957478",
    "title": "Galaxy_957478",
    "link_img": "https://live.staticflickr.com/65535/50039920417_70639223d4_o.jpg",
    "id_image": "Galaxy_957478",
    "count_view": 0
  },
  {
    "link_thumb": "https://live.staticflickr.com/65535/50041388746_26ef61962b_n.jpg",
    "id_album": "2020068132",
    "description": "Vehicle_327827",
    "title": "Vehicle_327827",
    "link_img": "https://live.staticflickr.com/65535/50041388746_d19ce99f28_o.jpg",
    "id_image": "Vehicle_327827",
    "count_view": 0
  },
  {
    "link_thumb": "https://live.staticflickr.com/65535/50039732108_ae1ce57ac5_n.jpg",
    "id_album": "779690680",
    "description": "Robot_307407",
    "title": "Robot_307407",
    "link_img": "https://live.staticflickr.com/65535/50039732108_a9c1aea53e_o.jpg",
    "id_image": "Robot_307407",
    "count_view": 0
  },
  {
    "link_thumb": "https://live.staticflickr.com/65535/50039084793_8ab1e46f05_n.jpg",
    "id_album": "1204249541",
    "description": "Galaxy_430469",
    "title": "Galaxy_430469",
    "link_img": "https://live.staticflickr.com/65535/50039084793_7c502c9d75_o.jpg",
    "id_image": "Galaxy_430469",
    "count_view": 0
  },
  {
    "link_thumb": "https://live.staticflickr.com/65535/50041529066_884e73609a_n.jpg",
    "id_album": "-1126835654",
    "description": "Women_395369",
    "title": "Women_395369",
    "link_img": "https://live.staticflickr.com/65535/50041529066_53dc30496c_o.jpg",
    "id_image": "Women_395369",
    "count_view": 0
  },
  {
    "link_thumb": "https://live.staticflickr.com/65535/50040268252_be4745d358_n.jpg",
    "id_album": "1443611160",
    "description": "PlanetRise_383204",
    "title": "PlanetRise_383204",
    "link_img": "https://live.staticflickr.com/65535/50040268252_e223aaa1a8_o.jpg",
    "id_image": "PlanetRise_383204",
    "count_view": 0
  },
  {
    "link_thumb": "https://live.staticflickr.com/65535/50040135701_46bafa5edd_n.jpg",
    "id_album": "-1102314093",
    "description": "Planets_786785",
    "title": "Planets_786785",
    "link_img": "https://live.staticflickr.com/65535/50040135701_442f527d34_o.jpg",
    "id_image": "Planets_786785",
    "count_view": 0
  },
  {
    "link_thumb": "https://live.staticflickr.com/65535/50039983556_b036447188_n.jpg",
    "id_album": "395161030",
    "description": "Planet_920772",
    "title": "Planet_920772",
    "link_img": "https://live.staticflickr.com/65535/50039983556_7e1619c1ef_o.jpg",
    "id_image": "Planet_920772",
    "count_view": 0
  },
  {
    "link_thumb": "https://live.staticflickr.com/65535/50040709158_03ef6e235a_n.jpg",
    "id_album": "-1587696329",
    "description": "Stars_333385",
    "title": "Stars_333385",
    "link_img": "https://live.staticflickr.com/65535/50040709158_eab6e0441c_o.jpg",
    "id_image": "Stars_333385",
    "count_view": 0
  },
  {
    "link_thumb": "https://live.staticflickr.com/65535/50038744353_631b11466e_n.jpg",
    "id_album": "523598895",
    "description": "Artistic_105483",
    "title": "Artistic_105483",
    "link_img": "https://live.staticflickr.com/65535/50038744353_8344190c81_o.jpg",
    "id_image": "Artistic_105483",
    "count_view": 0
  },
  {
    "link_thumb": "https://live.staticflickr.com/65535/50039850153_f573116baf_n.jpg",
    "id_album": "779690680",
    "description": "Robot_906349",
    "title": "Robot_906349",
    "link_img": "https://live.staticflickr.com/65535/50039850153_c8e11b61da_o.jpg",
    "id_image": "Robot_906349",
    "count_view": 0
  },
  {
    "link_thumb": "https://live.staticflickr.com/65535/50039859741_041770b567_n.jpg",
    "id_album": "-1862561193",
    "description": "Other_102563",
    "title": "Other_102563",
    "link_img": "https://live.staticflickr.com/65535/50039859741_219f454284_o.jpg",
    "id_image": "Other_102563",
    "count_view": 0
  },
  {
    "link_thumb": "https://live.staticflickr.com/65535/50039331911_14a80797da_n.jpg",
    "id_album": "523598895",
    "description": "Artistic_370813",
    "title": "Artistic_370813",
    "link_img": "https://live.staticflickr.com/65535/50039331911_0fe14b2ecd_o.jpg",
    "id_image": "Artistic_370813",
    "count_view": 0
  },
  {
    "link_thumb": "https://live.staticflickr.com/65535/50041171991_4f4e89cb3f_n.jpg",
    "id_album": "-1863373220",
    "description": "StarWars_379647",
    "title": "StarWars_379647",
    "link_img": "https://live.staticflickr.com/65535/50041171991_290820dcc6_o.jpg",
    "id_image": "StarWars_379647",
    "count_view": 0
  },
  {
    "link_thumb": "https://live.staticflickr.com/65535/50040416802_b19915cb50_n.jpg",
    "id_album": "376235057",
    "description": "Planetscape_1009887",
    "title": "Planetscape_1009887",
    "link_img": "https://live.staticflickr.com/65535/50040416802_48018e620b_o.jpg",
    "id_image": "Planetscape_1009887",
    "count_view": 0
  },
  {
    "link_thumb": "https://live.staticflickr.com/65535/50039316021_3ecf6a27c3_n.jpg",
    "id_album": "523598895",
    "description": "Artistic_219904",
    "title": "Artistic_219904",
    "link_img": "https://live.staticflickr.com/65535/50039316021_5a2838ce48_o.jpg",
    "id_image": "Artistic_219904",
    "count_view": 0
  },
  {
    "link_thumb": "https://live.staticflickr.com/65535/50039747136_ece0d8ae17_n.jpg",
    "id_album": "-1388385651",
    "description": "MilkyWay_788472",
    "title": "MilkyWay_788472",
    "link_img": "https://live.staticflickr.com/65535/50039747136_dcf88bd79f_o.jpg",
    "id_image": "MilkyWay_788472",
    "count_view": 0
  },
  {
    "link_thumb": "https://live.staticflickr.com/65535/50039894427_6be3b42800_n.jpg",
    "id_album": "1204249541",
    "description": "Galaxy_355062",
    "title": "Galaxy_355062",
    "link_img": "https://live.staticflickr.com/65535/50039894427_6f7a217fb5_o.jpg",
    "id_image": "Galaxy_355062",
    "count_view": 0
  },
  {
    "link_thumb": "https://live.staticflickr.com/65535/50040232021_3cf8ffb799_n.jpg",
    "id_album": "-482547208",
    "description": "PostApocalyptic_929175",
    "title": "PostApocalyptic_929175",
    "link_img": "https://live.staticflickr.com/65535/50040232021_074f77c5c2_o.jpg",
    "id_image": "PostApocalyptic_929175",
    "count_view": 0
  },
  {
    "link_thumb": "https://live.staticflickr.com/65535/50040223852_3b6e9c7fd2_n.jpg",
    "id_album": "395161030",
    "description": "Planet_558454",
    "title": "Planet_558454",
    "link_img": "https://live.staticflickr.com/65535/50040223852_1ac1b80057_o.jpg",
    "id_image": "Planet_558454",
    "count_view": 0
  },
  {
    "link_thumb": "https://live.staticflickr.com/65535/50039701372_e9878ddb9d_n.jpg",
    "id_album": "-1964113117",
    "description": "City_166533",
    "title": "City_166533",
    "link_img": "https://live.staticflickr.com/65535/50039701372_73ed006f4a_o.jpg",
    "id_image": "City_166533",
    "count_view": 0
  },
  {
    "link_thumb": "https://live.staticflickr.com/65535/50039691527_bbfc1ffb59_n.jpg",
    "id_album": "406431601",
    "description": "Building_967915",
    "title": "Building_967915",
    "link_img": "https://live.staticflickr.com/65535/50039691527_e9fa28c863_o.jpg",
    "id_image": "Building_967915",
    "count_view": 0
  },
  {
    "link_thumb": "https://live.staticflickr.com/65535/50039409681_b987e415ee_n.jpg",
    "id_album": "1187037014",
    "description": "Battle_957841",
    "title": "Battle_957841",
    "link_img": "https://live.staticflickr.com/65535/50039409681_e2f9d42fe7_o.jpg",
    "id_image": "Battle_957841",
    "count_view": 0
  },
  {
    "link_thumb": "https://live.staticflickr.com/65535/50039425723_aa2d70cd32_n.jpg",
    "id_album": "395161030",
    "description": "Planet_751394",
    "title": "Planet_751394",
    "link_img": "https://live.staticflickr.com/65535/50039425723_1e03a5a539_o.jpg",
    "id_image": "Planet_751394",
    "count_view": 0
  },
  {
    "link_thumb": "https://live.staticflickr.com/65535/50041002208_5e98d4a6e6_n.jpg",
    "id_album": "-1675918237",
    "description": "WomenWarrior_152278",
    "title": "WomenWarrior_152278",
    "link_img": "https://live.staticflickr.com/65535/50041002208_4f0d182df0_o.jpg",
    "id_image": "WomenWarrior_152278",
    "count_view": 0
  },
  {
    "link_thumb": "https://live.staticflickr.com/65535/50039691091_0268d9a0ea_n.jpg",
    "id_album": "1402713104",
    "description": "Landscape_517927",
    "title": "Landscape_517927",
    "link_img": "https://live.staticflickr.com/65535/50039691091_e622bcac59_o.jpg",
    "id_image": "Landscape_517927",
    "count_view": 0
  },
  {
    "link_thumb": "https://live.staticflickr.com/65535/50038844953_3bfaa50f0b_n.jpg",
    "id_album": "1187037014",
    "description": "Battle_112762",
    "title": "Battle_112762",
    "link_img": "https://live.staticflickr.com/65535/50038844953_6a5df60949_o.jpg",
    "id_image": "Battle_112762",
    "count_view": 0
  },
  {
    "link_thumb": "https://live.staticflickr.com/65535/50039353636_7b02420333_n.jpg",
    "id_album": "869545341",
    "description": "Astronaut_328456",
    "title": "Astronaut_328456",
    "link_img": "https://live.staticflickr.com/65535/50039353636_771ee647ea_o.jpg",
    "id_image": "Astronaut_328456",
    "count_view": 0
  },
  {
    "link_thumb": "https://live.staticflickr.com/65535/50039546746_9fc9fbd481_n.jpg",
    "id_album": "-437872736",
    "description": "Creature_202487",
    "title": "Creature_202487",
    "link_img": "https://live.staticflickr.com/65535/50039546746_821e8e5bd0_o.jpg",
    "id_image": "Creature_202487",
    "count_view": 0
  },
  {
    "link_thumb": "https://live.staticflickr.com/65535/50039919783_b56c278657_n.jpg",
    "id_album": "1613540653",
    "description": "Space_180954",
    "title": "Space_180954",
    "link_img": "https://live.staticflickr.com/65535/50039919783_813e4f88c9_o.jpg",
    "id_image": "Space_180954",
    "count_view": 0
  },
  {
    "link_thumb": "https://live.staticflickr.com/65535/50039582831_6ccea83407_n.jpg",
    "id_album": "829169633",
    "description": "Cyborg_249504",
    "title": "Cyborg_249504",
    "link_img": "https://live.staticflickr.com/65535/50039582831_06a8dd184b_o.jpg",
    "id_image": "Cyborg_249504",
    "count_view": 0
  },
  {
    "link_thumb": "https://live.staticflickr.com/65535/50039661742_42abb783de_n.jpg",
    "id_album": "1187037014",
    "description": "Battle_269840",
    "title": "Battle_269840",
    "link_img": "https://live.staticflickr.com/65535/50039661742_7273f8ce89_o.jpg",
    "id_image": "Battle_269840",
    "count_view": 0
  },
  {
    "link_thumb": "https://live.staticflickr.com/65535/50039747357_9ba74d2a9f_n.jpg",
    "id_album": "-1964113117",
    "description": "City_665165",
    "title": "City_665165",
    "link_img": "https://live.staticflickr.com/65535/50039747357_9a73856c67_o.jpg",
    "id_image": "City_665165",
    "count_view": 0
  },
  {
    "link_thumb": "https://live.staticflickr.com/65535/50039589338_24e8c06c73_n.jpg",
    "id_album": "-1102314093",
    "description": "Planets_82727",
    "title": "Planets_82727",
    "link_img": "https://live.staticflickr.com/65535/50039589338_0c179607bf_o.jpg",
    "id_image": "Planets_82727",
    "count_view": 0
  },
  {
    "link_thumb": "https://live.staticflickr.com/65535/50039861596_b7bbbfb1f1_n.jpg",
    "id_album": "-1862561193",
    "description": "Other_145921",
    "title": "Other_145921",
    "link_img": "https://live.staticflickr.com/65535/50039861596_16990c0fc8_o.jpg",
    "id_image": "Other_145921",
    "count_view": 0
  },
  {
    "link_thumb": "https://live.staticflickr.com/65535/50039573927_c880ea8136_n.jpg",
    "id_album": "523598895",
    "description": "Artistic_205968",
    "title": "Artistic_205968",
    "link_img": "https://live.staticflickr.com/65535/50039573927_207891e34e_o.jpg",
    "id_image": "Artistic_205968",
    "count_view": 0
  },
  {
    "link_thumb": "https://live.staticflickr.com/65535/50038882168_5dd3146770_n.jpg",
    "id_album": "-1964113117",
    "description": "City_103237",
    "title": "City_103237",
    "link_img": "https://live.staticflickr.com/65535/50038882168_f3566cd276_o.jpg",
    "id_image": "City_103237",
    "count_view": 0
  },
  {
    "link_thumb": "https://live.staticflickr.com/65535/50038858543_08cbca9a6e_n.jpg",
    "id_album": "1187037014",
    "description": "Battle_706879",
    "title": "Battle_706879",
    "link_img": "https://live.staticflickr.com/65535/50038858543_c8c2952924_o.jpg",
    "id_image": "Battle_706879",
    "count_view": 0
  },
  {
    "link_thumb": "https://live.staticflickr.com/65535/50039614258_73026ac21e_n.jpg",
    "id_album": "376235057",
    "description": "Planetscape_359260",
    "title": "Planetscape_359260",
    "link_img": "https://live.staticflickr.com/65535/50039614258_a194715da0_o.jpg",
    "id_image": "Planetscape_359260",
    "count_view": 0
  },
  {
    "link_thumb": "https://live.staticflickr.com/65535/50039431521_4bd0e47844_n.jpg",
    "id_album": "-1964113117",
    "description": "City_103887",
    "title": "City_103887",
    "link_img": "https://live.staticflickr.com/65535/50039431521_77f311dd00_o.jpg",
    "id_image": "City_103887",
    "count_view": 0
  },
  {
    "link_thumb": "https://live.staticflickr.com/65535/50039535231_3094ede3bb_n.jpg",
    "id_album": "-1964113117",
    "description": "City_999340",
    "title": "City_999340",
    "link_img": "https://live.staticflickr.com/65535/50039535231_98250533d2_o.jpg",
    "id_image": "City_999340",
    "count_view": 0
  },
  {
    "link_thumb": "https://live.staticflickr.com/65535/50040504382_6cf0537cf0_n.jpg",
    "id_album": "-839602625",
    "description": "Predator_321210",
    "title": "Predator_321210",
    "link_img": "https://live.staticflickr.com/65535/50040504382_cbc08bcc1a_o.jpg",
    "id_image": "Predator_321210",
    "count_view": 0
  },
  {
    "link_thumb": "https://live.staticflickr.com/65535/50041851862_c00a68e778_n.jpg",
    "id_album": "-1675918237",
    "description": "WomenWarrior_921471",
    "title": "WomenWarrior_921471",
    "link_img": "https://live.staticflickr.com/65535/50041851862_cfc6e4f113_o.jpg",
    "id_image": "WomenWarrior_921471",
    "count_view": 0
  },
  {
    "link_thumb": "https://live.staticflickr.com/65535/50040975053_941187484b_n.jpg",
    "id_album": "-1126835654",
    "description": "Women_392826",
    "title": "Women_392826",
    "link_img": "https://live.staticflickr.com/65535/50040975053_f66de600f6_o.jpg",
    "id_image": "Women_392826",
    "count_view": 0
  },
  {
    "link_thumb": "https://live.staticflickr.com/65535/50040071761_18ba6b7b64_n.jpg",
    "id_album": "-1102314093",
    "description": "Planets_279990",
    "title": "Planets_279990",
    "link_img": "https://live.staticflickr.com/65535/50040071761_ffa6000769_o.jpg",
    "id_image": "Planets_279990",
    "count_view": 0
  },
  {
    "link_thumb": "https://live.staticflickr.com/65535/50039903936_7c2cc3f1af_n.jpg",
    "id_album": "395161030",
    "description": "Planet_108501",
    "title": "Planet_108501",
    "link_img": "https://live.staticflickr.com/65535/50039903936_21f1c966f2_o.jpg",
    "id_image": "Planet_108501",
    "count_view": 0
  },
  {
    "link_thumb": "https://live.staticflickr.com/65535/50040787308_701b50564a_n.jpg",
    "id_album": "-221671103",
    "description": "Sun_223222",
    "title": "Sun_223222",
    "link_img": "https://live.staticflickr.com/65535/50040787308_8e93af61dd_o.jpg",
    "id_image": "Sun_223222",
    "count_view": 0
  },
  {
    "link_thumb": "https://live.staticflickr.com/65535/50040749992_b3b1d09777_n.jpg",
    "id_album": "1613540653",
    "description": "Space_286641",
    "title": "Space_286641",
    "link_img": "https://live.staticflickr.com/65535/50040749992_d732e3e0c9_o.jpg",
    "id_image": "Space_286641",
    "count_view": 0
  },
  {
    "link_thumb": "https://live.staticflickr.com/65535/50041042782_050c4dfd96_n.jpg",
    "id_album": "2130067313",
    "description": "Spaceship_972713",
    "title": "Spaceship_972713",
    "link_img": "https://live.staticflickr.com/65535/50041042782_512dc17e78_o.jpg",
    "id_image": "Spaceship_972713",
    "count_view": 0
  },
  {
    "link_thumb": "https://live.staticflickr.com/65535/50040523157_aebfabe9c1_n.jpg",
    "id_album": "779690680",
    "description": "Robot_176936",
    "title": "Robot_176936",
    "link_img": "https://live.staticflickr.com/65535/50040523157_9b71a7c248_o.jpg",
    "id_image": "Robot_176936",
    "count_view": 0
  },
  {
    "link_thumb": "https://live.staticflickr.com/65535/50039776731_e014343c17_n.jpg",
    "id_album": "-1610342324",
    "description": "Nebula_2523",
    "title": "Nebula_2523",
    "link_img": "https://live.staticflickr.com/65535/50039776731_a27ca57cbe_o.jpg",
    "id_image": "Nebula_2523",
    "count_view": 0
  },
  {
    "link_thumb": "https://live.staticflickr.com/65535/50040692458_215cd2c8d8_n.jpg",
    "id_album": "-1863373220",
    "description": "StarWars_971383",
    "title": "StarWars_971383",
    "link_img": "https://live.staticflickr.com/65535/50040692458_bcb7946201_o.jpg",
    "id_image": "StarWars_971383",
    "count_view": 0
  },
  {
    "link_thumb": "https://live.staticflickr.com/65535/50038716488_df6335a28c_n.jpg",
    "id_album": "849020728",
    "description": "Alien_410857",
    "title": "Alien_410857",
    "link_img": "https://live.staticflickr.com/65535/50038716488_75988dcf3f_o.jpg",
    "id_image": "Alien_410857",
    "count_view": 0
  },
  {
    "link_thumb": "https://live.staticflickr.com/65535/50039477603_77e7781630_n.jpg",
    "id_album": "814701616",
    "description": "PlanetaryRing_334274",
    "title": "PlanetaryRing_334274",
    "link_img": "https://live.staticflickr.com/65535/50039477603_a7633c56b4_o.jpg",
    "id_image": "PlanetaryRing_334274",
    "count_view": 0
  },
  {
    "link_thumb": "https://live.staticflickr.com/65535/50039268551_0ae227fa27_n.jpg",
    "id_album": "849020728",
    "description": "Alien_517024",
    "title": "Alien_517024",
    "link_img": "https://live.staticflickr.com/65535/50039268551_c377cac25f_o.jpg",
    "id_image": "Alien_517024",
    "count_view": 0
  },
  {
    "link_thumb": "https://live.staticflickr.com/65535/50040611002_c52f79cb0d_n.jpg",
    "id_album": "779690680",
    "description": "Robot_616678",
    "title": "Robot_616678",
    "link_img": "https://live.staticflickr.com/65535/50040611002_7b230e409b_o.jpg",
    "id_image": "Robot_616678",
    "count_view": 0
  },
  {
    "link_thumb": "https://live.staticflickr.com/65535/50039499536_f0c4a88526_n.jpg",
    "id_album": "-1964113117",
    "description": "City_820284",
    "title": "City_820284",
    "link_img": "https://live.staticflickr.com/65535/50039499536_c84b9be6d9_o.jpg",
    "id_image": "City_820284",
    "count_view": 0
  },
  {
    "link_thumb": "https://live.staticflickr.com/65535/50040143207_f42365c300_n.jpg",
    "id_album": "-1862561193",
    "description": "Other_233383",
    "title": "Other_233383",
    "link_img": "https://live.staticflickr.com/65535/50040143207_c0108d6a07_o.jpg",
    "id_image": "Other_233383",
    "count_view": 0
  },
  {
    "link_thumb": "https://live.staticflickr.com/65535/50039221963_e3440a77c9_n.jpg",
    "id_album": "-1610342324",
    "description": "Nebula_220577",
    "title": "Nebula_220577",
    "link_img": "https://live.staticflickr.com/65535/50039221963_1b7aa1ab18_o.jpg",
    "id_image": "Nebula_220577",
    "count_view": 0
  },
  {
    "link_thumb": "https://live.staticflickr.com/65535/50041426181_33d33d81ed_n.jpg",
    "id_album": "2020068132",
    "description": "Vehicle_967969",
    "title": "Vehicle_967969",
    "link_img": "https://live.staticflickr.com/65535/50041426181_0b251d41b8_o.jpg",
    "id_image": "Vehicle_967969",
    "count_view": 0
  },
  {
    "link_thumb": "https://live.staticflickr.com/65535/50039400546_e518557c87_n.jpg",
    "id_album": "1187037014",
    "description": "Battle_310267",
    "title": "Battle_310267",
    "link_img": "https://live.staticflickr.com/65535/50039400546_5f6d30c53f_o.jpg",
    "id_image": "Battle_310267",
    "count_view": 0
  },
  {
    "link_thumb": "https://live.staticflickr.com/65535/50040195377_56dbcceb01_n.jpg",
    "id_album": "395161030",
    "description": "Planet_335814",
    "title": "Planet_335814",
    "link_img": "https://live.staticflickr.com/65535/50040195377_6b8c72a68b_o.jpg",
    "id_image": "Planet_335814",
    "count_view": 0
  },
  {
    "link_thumb": "https://live.staticflickr.com/65535/50040028847_944c02c000_n.jpg",
    "id_album": "-1610342324",
    "description": "Nebula_179727",
    "title": "Nebula_179727",
    "link_img": "https://live.staticflickr.com/65535/50040028847_aa200bdf1f_o.jpg",
    "id_image": "Nebula_179727",
    "count_view": 0
  },
  {
    "link_thumb": "https://live.staticflickr.com/65535/50039611016_a56b48f96b_n.jpg",
    "id_album": "651930207",
    "description": "Explosion_430157",
    "title": "Explosion_430157",
    "link_img": "https://live.staticflickr.com/65535/50039611016_a884ba8d14_o.jpg",
    "id_image": "Explosion_430157",
    "count_view": 0
  },
  {
    "link_thumb": "https://live.staticflickr.com/65535/50039020588_8cd97d1323_n.jpg",
    "id_album": "-1372247677",
    "description": "Cyberpunk_954218",
    "title": "Cyberpunk_954218",
    "link_img": "https://live.staticflickr.com/65535/50039020588_7418448dcd_o.jpg",
    "id_image": "Cyberpunk_954218",
    "count_view": 0
  },
  {
    "link_thumb": "https://live.staticflickr.com/65535/50039385376_60365939f2_n.jpg",
    "id_album": "869545341",
    "description": "Astronaut_957462",
    "title": "Astronaut_957462",
    "link_img": "https://live.staticflickr.com/65535/50039385376_b5a7ccb7a2_o.jpg",
    "id_image": "Astronaut_957462",
    "count_view": 0
  },
  {
    "link_thumb": "https://live.staticflickr.com/65535/50041209601_b78121e156_n.jpg",
    "id_album": "-1863373220",
    "description": "StarWars_669719",
    "title": "StarWars_669719",
    "link_img": "https://live.staticflickr.com/65535/50041209601_c1c9acf99f_o.jpg",
    "id_image": "StarWars_669719",
    "count_view": 0
  },
  {
    "link_thumb": "https://live.staticflickr.com/65535/50040203112_157c5421f5_n.jpg",
    "id_album": "395161030",
    "description": "Planet_371297",
    "title": "Planet_371297",
    "link_img": "https://live.staticflickr.com/65535/50040203112_f18033737c_o.jpg",
    "id_image": "Planet_371297",
    "count_view": 0
  },
  {
    "link_thumb": "https://live.staticflickr.com/65535/50039507517_20a0405bd1_n.jpg",
    "id_album": "849020728",
    "description": "Alien_145527",
    "title": "Alien_145527",
    "link_img": "https://live.staticflickr.com/65535/50039507517_e178cebb7c_o.jpg",
    "id_image": "Alien_145527",
    "count_view": 0
  },
  {
    "link_thumb": "https://live.staticflickr.com/65535/50041031973_7344e121cd_n.jpg",
    "id_album": "-1675918237",
    "description": "WomenWarrior_629981",
    "title": "WomenWarrior_629981",
    "link_img": "https://live.staticflickr.com/65535/50041031973_2416a8cc27_o.jpg",
    "id_image": "WomenWarrior_629981",
    "count_view": 0
  },
  {
    "link_thumb": "https://live.staticflickr.com/65535/50039559651_8694a307e2_n.jpg",
    "id_album": "-437872736",
    "description": "Creature_911871",
    "title": "Creature_911871",
    "link_img": "https://live.staticflickr.com/65535/50039559651_5116c383ed_o.jpg",
    "id_image": "Creature_911871",
    "count_view": 0
  },
  {
    "link_thumb": "https://live.staticflickr.com/65535/50039525037_f3523f2018_n.jpg",
    "id_album": "849020728",
    "description": "Alien_396026",
    "title": "Alien_396026",
    "link_img": "https://live.staticflickr.com/65535/50039525037_f888456d81_o.jpg",
    "id_image": "Alien_396026",
    "count_view": 0
  },
  {
    "link_thumb": "https://live.staticflickr.com/65535/50039261366_427c56fa78_n.jpg",
    "id_album": "849020728",
    "description": "Alien_351237",
    "title": "Alien_351237",
    "link_img": "https://live.staticflickr.com/65535/50039261366_3d088cbf3a_o.jpg",
    "id_image": "Alien_351237",
    "count_view": 0
  },
  {
    "link_thumb": "https://live.staticflickr.com/65535/50040762247_05992692fd_n.jpg",
    "id_album": "1613540653",
    "description": "Space_345414",
    "title": "Space_345414",
    "link_img": "https://live.staticflickr.com/65535/50040762247_6999ffbb5b_o.jpg",
    "id_image": "Space_345414",
    "count_view": 0
  },
  {
    "link_thumb": "https://live.staticflickr.com/65535/50039934323_6914eaf08d_n.jpg",
    "id_album": "1613540653",
    "description": "Space_287073",
    "title": "Space_287073",
    "link_img": "https://live.staticflickr.com/65535/50039934323_71806d9eba_o.jpg",
    "id_image": "Space_287073",
    "count_view": 0
  },
  {
    "link_thumb": "https://live.staticflickr.com/65535/50040191947_a018f6d241_n.jpg",
    "id_album": "395161030",
    "description": "Planet_324785",
    "title": "Planet_324785",
    "link_img": "https://live.staticflickr.com/65535/50040191947_364a3f7821_o.jpg",
    "id_image": "Planet_324785",
    "count_view": 0
  },
  {
    "link_thumb": "https://live.staticflickr.com/65535/50039342901_59f3d55cfd_n.jpg",
    "id_album": "523598895",
    "description": "Artistic_712822",
    "title": "Artistic_712822",
    "link_img": "https://live.staticflickr.com/65535/50039342901_1b87507f30_o.jpg",
    "id_image": "Artistic_712822",
    "count_view": 0
  },
  {
    "link_thumb": "https://live.staticflickr.com/65535/50039100058_eb956c3c88_n.jpg",
    "id_album": "1204249541",
    "description": "Galaxy_607095",
    "title": "Galaxy_607095",
    "link_img": "https://live.staticflickr.com/65535/50039100058_0bcc2d5fd1_o.jpg",
    "id_image": "Galaxy_607095",
    "count_view": 0
  },
  {
    "link_thumb": "https://live.staticflickr.com/65535/50039511931_f535633b22_n.jpg",
    "id_album": "-1964113117",
    "description": "City_881451",
    "title": "City_881451",
    "link_img": "https://live.staticflickr.com/65535/50039511931_1ecfa77a4e_o.jpg",
    "id_image": "City_881451",
    "count_view": 0
  },
  {
    "link_thumb": "https://live.staticflickr.com/65535/50041458696_5c1c2a66a4_n.jpg",
    "id_album": "-1261420436",
    "description": "Warrior_403236",
    "title": "Warrior_403236",
    "link_img": "https://live.staticflickr.com/65535/50041458696_3b9c0de3bb_o.jpg",
    "id_image": "Warrior_403236",
    "count_view": 0
  },
  {
    "link_thumb": "https://live.staticflickr.com/65535/50040799636_740e1e55a9_n.jpg",
    "id_album": "-1449720967",
    "description": "StarTrek_182728",
    "title": "StarTrek_182728",
    "link_img": "https://live.staticflickr.com/65535/50040799636_e5e3eaca61_o.jpg",
    "id_image": "StarTrek_182728",
    "count_view": 0
  },
  {
    "link_thumb": "https://live.staticflickr.com/65535/50039889536_818c2935dd_n.jpg",
    "id_album": "-1862561193",
    "description": "Other_308642",
    "title": "Other_308642",
    "link_img": "https://live.staticflickr.com/65535/50039889536_5cb3ec9076_o.jpg",
    "id_image": "Other_308642",
    "count_view": 0
  },
  {
    "link_thumb": "https://live.staticflickr.com/65535/50040201352_587f19624c_n.jpg",
    "id_album": "395161030",
    "description": "Planet_363181",
    "title": "Planet_363181",
    "link_img": "https://live.staticflickr.com/65535/50040201352_e41b5d347b_o.jpg",
    "id_image": "Planet_363181",
    "count_view": 0
  },
  {
    "link_thumb": "https://live.staticflickr.com/65535/50039510617_2b7d7ae0b2_n.jpg",
    "id_album": "849020728",
    "description": "Alien_17726",
    "title": "Alien_17726",
    "link_img": "https://live.staticflickr.com/65535/50039510617_a76271585d_o.jpg",
    "id_image": "Alien_17726",
    "count_view": 0
  },
  {
    "link_thumb": "https://live.staticflickr.com/65535/50039476396_231b149ca3_n.jpg",
    "id_album": "-1964113117",
    "description": "City_528309",
    "title": "City_528309",
    "link_img": "https://live.staticflickr.com/65535/50039476396_59ef8f5e71_o.jpg",
    "id_image": "City_528309",
    "count_view": 0
  },
  {
    "link_thumb": "https://live.staticflickr.com/65535/50040284231_f49f9a3ca0_n.jpg",
    "id_album": "779690680",
    "description": "Robot_303464",
    "title": "Robot_303464",
    "link_img": "https://live.staticflickr.com/65535/50040284231_69fa901e71_o.jpg",
    "id_image": "Robot_303464",
    "count_view": 0
  },
  {
    "link_thumb": "https://live.staticflickr.com/65535/50039436968_a8deec4d50_n.jpg",
    "id_album": "395161030",
    "description": "Planet_956698",
    "title": "Planet_956698",
    "link_img": "https://live.staticflickr.com/65535/50039436968_a153609b8f_o.jpg",
    "id_image": "Planet_956698",
    "count_view": 0
  },
  {
    "link_thumb": "https://live.staticflickr.com/65535/50039674541_d4394fb89c_n.jpg",
    "id_album": "1402713104",
    "description": "Landscape_314776",
    "title": "Landscape_314776",
    "link_img": "https://live.staticflickr.com/65535/50039674541_0c2bebe44d_o.jpg",
    "id_image": "Landscape_314776",
    "count_view": 0
  },
  {
    "link_thumb": "https://live.staticflickr.com/65535/50038895608_0253e0f96f_n.jpg",
    "id_album": "-1964113117",
    "description": "City_208233",
    "title": "City_208233",
    "link_img": "https://live.staticflickr.com/65535/50038895608_fd40f528c8_o.jpg",
    "id_image": "City_208233",
    "count_view": 0
  },
  {
    "link_thumb": "https://live.staticflickr.com/65535/50041554092_27c3cd6730_n.jpg",
    "id_album": "1267121215",
    "description": "Steampunk_184480",
    "title": "Steampunk_184480",
    "link_img": "https://live.staticflickr.com/65535/50041554092_1f9d033136_o.jpg",
    "id_image": "Steampunk_184480",
    "count_view": 0
  },
  {
    "link_thumb": "https://live.staticflickr.com/65535/50040087912_5ecdb7b08a_n.jpg",
    "id_album": "-1610342324",
    "description": "Nebula_704888",
    "title": "Nebula_704888",
    "link_img": "https://live.staticflickr.com/65535/50040087912_1e7db24569_o.jpg",
    "id_image": "Nebula_704888",
    "count_view": 0
  },
  {
    "link_thumb": "https://live.staticflickr.com/65535/50039624593_9887abaff3_n.jpg",
    "id_album": "376235057",
    "description": "Planetscape_529578",
    "title": "Planetscape_529578",
    "link_img": "https://live.staticflickr.com/65535/50039624593_9df5a7c284_o.jpg",
    "id_image": "Planetscape_529578",
    "count_view": 0
  },
  {
    "link_thumb": "https://live.staticflickr.com/65535/50039552432_b9f08e0a74_n.jpg",
    "id_album": "-419633230",
    "description": "Apocalyptic_997968",
    "title": "Apocalyptic_997968",
    "link_img": "https://live.staticflickr.com/65535/50039552432_4002d7efe0_o.jpg",
    "id_image": "Apocalyptic_997968",
    "count_view": 0
  },
  {
    "link_thumb": "https://live.staticflickr.com/65535/50039433301_24b6aaedc2_n.jpg",
    "id_album": "-1964113117",
    "description": "City_115838",
    "title": "City_115838",
    "link_img": "https://live.staticflickr.com/65535/50039433301_376300abe1_o.jpg",
    "id_image": "City_115838",
    "count_view": 0
  },
  {
    "link_thumb": "https://live.staticflickr.com/65535/50038767768_2cd6176e17_n.jpg",
    "id_album": "523598895",
    "description": "Artistic_218245",
    "title": "Artistic_218245",
    "link_img": "https://live.staticflickr.com/65535/50038767768_88ca3d5f31_o.jpg",
    "id_image": "Artistic_218245",
    "count_view": 0
  },
  {
    "link_thumb": "https://live.staticflickr.com/65535/50039235398_4c75d4d376_n.jpg",
    "id_album": "-1610342324",
    "description": "Nebula_304913",
    "title": "Nebula_304913",
    "link_img": "https://live.staticflickr.com/65535/50039235398_4bd58af705_o.jpg",
    "id_image": "Nebula_304913",
    "count_view": 0
  },
  {
    "link_thumb": "https://live.staticflickr.com/65535/50039646492_750ed147ed_n.jpg",
    "id_album": "869545341",
    "description": "Astronaut_955691",
    "title": "Astronaut_955691",
    "link_img": "https://live.staticflickr.com/65535/50039646492_9c2b5fac20_o.jpg",
    "id_image": "Astronaut_955691",
    "count_view": 0
  },
  {
    "link_thumb": "https://live.staticflickr.com/65535/50040159271_b1f27ca3c1_n.jpg",
    "id_album": "376235057",
    "description": "Planetscape_317956",
    "title": "Planetscape_317956",
    "link_img": "https://live.staticflickr.com/65535/50040159271_0482498a54_o.jpg",
    "id_image": "Planetscape_317956",
    "count_view": 0
  },
  {
    "link_thumb": "https://live.staticflickr.com/65535/50039354763_b60fb0e016_n.jpg",
    "id_album": "395161030",
    "description": "Planet_113326",
    "title": "Planet_113326",
    "link_img": "https://live.staticflickr.com/65535/50039354763_8f6f5b913a_o.jpg",
    "id_image": "Planet_113326",
    "count_view": 0
  },
  {
    "link_thumb": "https://live.staticflickr.com/65535/50040098817_bcdbb98d8b_n.jpg",
    "id_album": "-1610342324",
    "description": "Nebula_77311",
    "title": "Nebula_77311",
    "link_img": "https://live.staticflickr.com/65535/50040098817_c9a131e319_o.jpg",
    "id_image": "Nebula_77311",
    "count_view": 0
  },
  {
    "link_thumb": "https://live.staticflickr.com/65535/50040731788_ed1c00017f_n.jpg",
    "id_album": "1267121215",
    "description": "Steampunk_111119",
    "title": "Steampunk_111119",
    "link_img": "https://live.staticflickr.com/65535/50040731788_4f3fd6c25a_o.jpg",
    "id_image": "Steampunk_111119",
    "count_view": 0
  },
  {
    "link_thumb": "https://live.staticflickr.com/65535/50038930628_18a352b553_n.jpg",
    "id_album": "-1964113117",
    "description": "City_567071",
    "title": "City_567071",
    "link_img": "https://live.staticflickr.com/65535/50038930628_4dbc05c10d_o.jpg",
    "id_image": "City_567071",
    "count_view": 0
  },
  {
    "link_thumb": "https://live.staticflickr.com/65535/50039872113_142d9e857d_n.jpg",
    "id_album": "779690680",
    "description": "Robot_928645",
    "title": "Robot_928645",
    "link_img": "https://live.staticflickr.com/65535/50039872113_3fc60675f3_o.jpg",
    "id_image": "Robot_928645",
    "count_view": 0
  },
  {
    "link_thumb": "https://live.staticflickr.com/65535/50039733826_81fbcd1bdd_n.jpg",
    "id_album": "-1388385651",
    "description": "MilkyWay_555695",
    "title": "MilkyWay_555695",
    "link_img": "https://live.staticflickr.com/65535/50039733826_baec4d78ac_o.jpg",
    "id_image": "MilkyWay_555695",
    "count_view": 0
  },
  {
    "link_thumb": "https://live.staticflickr.com/65535/50039712573_27e4278813_n.jpg",
    "id_album": "779690680",
    "description": "Robot_209302",
    "title": "Robot_209302",
    "link_img": "https://live.staticflickr.com/65535/50039712573_b769671472_o.jpg",
    "id_image": "Robot_209302",
    "count_view": 0
  },
  {
    "link_thumb": "https://live.staticflickr.com/65535/50040525872_6fcb82711f_n.jpg",
    "id_album": "779690680",
    "description": "Robot_187163",
    "title": "Robot_187163",
    "link_img": "https://live.staticflickr.com/65535/50040525872_1c5f0711c6_o.jpg",
    "id_image": "Robot_187163",
    "count_view": 0
  },
  {
    "link_thumb": "https://live.staticflickr.com/65535/50039110128_b426db4c86_n.jpg",
    "id_album": "1402713104",
    "description": "Landscape_113114",
    "title": "Landscape_113114",
    "link_img": "https://live.staticflickr.com/65535/50039110128_7e7c7692e3_o.jpg",
    "id_image": "Landscape_113114",
    "count_view": 0
  },
  {
    "link_thumb": "https://live.staticflickr.com/65535/50039472551_1fc89dff6f_n.jpg",
    "id_album": "-1964113117",
    "description": "City_484179",
    "title": "City_484179",
    "link_img": "https://live.staticflickr.com/65535/50039472551_88202ec7d2_o.jpg",
    "id_image": "City_484179",
    "count_view": 0
  },
  {
    "link_thumb": "https://live.staticflickr.com/65535/50039479186_56842b61a6_n.jpg",
    "id_album": "-1964113117",
    "description": "City_564460",
    "title": "City_564460",
    "link_img": "https://live.staticflickr.com/65535/50039479186_1b6ba7bfd1_o.jpg",
    "id_image": "City_564460",
    "count_view": 0
  },
  {
    "link_thumb": "https://live.staticflickr.com/65535/50040061911_dd0f8f1701_n.jpg",
    "id_album": "-1102314093",
    "description": "Planets_220867",
    "title": "Planets_220867",
    "link_img": "https://live.staticflickr.com/65535/50040061911_71066ba925_o.jpg",
    "id_image": "Planets_220867",
    "count_view": 0
  },
  {
    "link_thumb": "https://live.staticflickr.com/65535/50040418611_0667982f40_n.jpg",
    "id_album": "779690680",
    "description": "Robot_922857",
    "title": "Robot_922857",
    "link_img": "https://live.staticflickr.com/65535/50040418611_69a35df553_o.jpg",
    "id_image": "Robot_922857",
    "count_view": 0
  },
  {
    "link_thumb": "https://live.staticflickr.com/65535/50040112576_e4a02f7b84_n.jpg",
    "id_album": "-1102314093",
    "description": "Planets_419641",
    "title": "Planets_419641",
    "link_img": "https://live.staticflickr.com/65535/50040112576_87ee461c2f_o.jpg",
    "id_image": "Planets_419641",
    "count_view": 0
  },
  {
    "link_thumb": "https://live.staticflickr.com/65535/50038942293_42cc92de8b_n.jpg",
    "id_album": "-1964113117",
    "description": "City_709709",
    "title": "City_709709",
    "link_img": "https://live.staticflickr.com/65535/50038942293_38b5794570_o.jpg",
    "id_image": "City_709709",
    "count_view": 0
  },
  {
    "link_thumb": "https://live.staticflickr.com/65535/50040937533_8e7c025b13_n.jpg",
    "id_album": "-1261420436",
    "description": "Warrior_876900",
    "title": "Warrior_876900",
    "link_img": "https://live.staticflickr.com/65535/50040937533_5d09eb91e6_o.jpg",
    "id_image": "Warrior_876900",
    "count_view": 0
  },
  {
    "link_thumb": "https://live.staticflickr.com/65535/50039288128_b3f223873d_n.jpg",
    "id_album": "-1610342324",
    "description": "Nebula_791016",
    "title": "Nebula_791016",
    "link_img": "https://live.staticflickr.com/65535/50039288128_7dcaef0fdd_o.jpg",
    "id_image": "Nebula_791016",
    "count_view": 0
  },
  {
    "link_thumb": "https://live.staticflickr.com/65535/50038829113_4953b13eb8_n.jpg",
    "id_album": "869545341",
    "description": "Astronaut_911516",
    "title": "Astronaut_911516",
    "link_img": "https://live.staticflickr.com/65535/50038829113_7d0ac53961_o.jpg",
    "id_image": "Astronaut_911516",
    "count_view": 0
  },
  {
    "link_thumb": "https://live.staticflickr.com/65535/50040843238_bd078f3e9e_n.jpg",
    "id_album": "2020068132",
    "description": "Vehicle_410768",
    "title": "Vehicle_410768",
    "link_img": "https://live.staticflickr.com/65535/50040843238_5100bd0946_o.jpg",
    "id_image": "Vehicle_410768",
    "count_view": 0
  },
  {
    "link_thumb": "https://live.staticflickr.com/65535/50038760498_5a939a838f_n.jpg",
    "id_album": "523598895",
    "description": "Artistic_188867",
    "title": "Artistic_188867",
    "link_img": "https://live.staticflickr.com/65535/50038760498_71c83c043b_o.jpg",
    "id_image": "Artistic_188867",
    "count_view": 0
  },
  {
    "link_thumb": "https://live.staticflickr.com/65535/50039614442_85b471c8aa_n.jpg",
    "id_album": "869545341",
    "description": "Astronaut_249171",
    "title": "Astronaut_249171",
    "link_img": "https://live.staticflickr.com/65535/50039614442_64c4de3ffd_o.jpg",
    "id_image": "Astronaut_249171",
    "count_view": 0
  },
  {
    "link_thumb": "https://live.staticflickr.com/65535/50040677152_79e54f8036_n.jpg",
    "id_album": "779690680",
    "description": "Robot_915574",
    "title": "Robot_915574",
    "link_img": "https://live.staticflickr.com/65535/50040677152_f620336a3f_o.jpg",
    "id_image": "Robot_915574",
    "count_view": 0
  },
  {
    "link_thumb": "https://live.staticflickr.com/65535/50040968277_ce10c3c45c_n.jpg",
    "id_album": "2130067313",
    "description": "Spaceship_500900",
    "title": "Spaceship_500900",
    "link_img": "https://live.staticflickr.com/65535/50040968277_2d85da61c9_o.jpg",
    "id_image": "Spaceship_500900",
    "count_view": 0
  },
  {
    "link_thumb": "https://live.staticflickr.com/65535/50040743793_e6147cb1de_n.jpg",
    "id_album": "1267121215",
    "description": "Steampunk_199576",
    "title": "Steampunk_199576",
    "link_img": "https://live.staticflickr.com/65535/50040743793_223ce8a47c_o.jpg",
    "id_image": "Steampunk_199576",
    "count_view": 0
  },
  {
    "link_thumb": "https://live.staticflickr.com/65535/50040890227_7f1793b6c4_n.jpg",
    "id_album": "2130067313",
    "description": "Spaceship_284589",
    "title": "Spaceship_284589",
    "link_img": "https://live.staticflickr.com/65535/50040890227_fa55ba9c10_o.jpg",
    "id_image": "Spaceship_284589",
    "count_view": 0
  },
  {
    "link_thumb": "https://live.staticflickr.com/65535/50039530871_6354d8ddaf_n.jpg",
    "id_album": "-1964113117",
    "description": "City_977581",
    "title": "City_977581",
    "link_img": "https://live.staticflickr.com/65535/50039530871_3cfa61ce23_o.jpg",
    "id_image": "City_977581",
    "count_view": 0
  },
  {
    "link_thumb": "https://live.staticflickr.com/65535/50041679587_3197bf43b7_n.jpg",
    "id_album": "2020068132",
    "description": "Vehicle_874023",
    "title": "Vehicle_874023",
    "link_img": "https://live.staticflickr.com/65535/50041679587_a54f58ae3e_o.jpg",
    "id_image": "Vehicle_874023",
    "count_view": 0
  },
  {
    "link_thumb": "https://live.staticflickr.com/65535/50039530286_df2a07dac6_n.jpg",
    "id_album": "-1964113117",
    "description": "City_974925",
    "title": "City_974925",
    "link_img": "https://live.staticflickr.com/65535/50039530286_c3e6aeaf8c_o.jpg",
    "id_image": "City_974925",
    "count_view": 0
  },
  {
    "link_thumb": "https://live.staticflickr.com/65535/50039447748_b43a90227a_n.jpg",
    "id_album": "1443611160",
    "description": "PlanetRise_211944",
    "title": "PlanetRise_211944",
    "link_img": "https://live.staticflickr.com/65535/50039447748_b4a16ed442_o.jpg",
    "id_image": "PlanetRise_211944",
    "count_view": 0
  },
  {
    "link_thumb": "https://live.staticflickr.com/65535/50039541202_2cb33c409d_n.jpg",
    "id_album": "-419633230",
    "description": "Apocalyptic_157349",
    "title": "Apocalyptic_157349",
    "link_img": "https://live.staticflickr.com/65535/50039541202_ccbf05586e_o.jpg",
    "id_image": "Apocalyptic_157349",
    "count_view": 0
  },
  {
    "link_thumb": "https://live.staticflickr.com/65535/50039463936_b6df08e8c9_n.jpg",
    "id_album": "-1964113117",
    "description": "City_332525",
    "title": "City_332525",
    "link_img": "https://live.staticflickr.com/65535/50039463936_fe05499c4e_o.jpg",
    "id_image": "City_332525",
    "count_view": 0
  },
  {
    "link_thumb": "https://live.staticflickr.com/65535/50040490321_8f8bd0a5e4_n.jpg",
    "id_album": "1613540653",
    "description": "Space_303050",
    "title": "Space_303050",
    "link_img": "https://live.staticflickr.com/65535/50040490321_14ec460601_o.jpg",
    "id_image": "Space_303050",
    "count_view": 0
  },
  {
    "link_thumb": "https://live.staticflickr.com/65535/50040068752_b699793469_n.jpg",
    "id_album": "-1610342324",
    "description": "Nebula_533828",
    "title": "Nebula_533828",
    "link_img": "https://live.staticflickr.com/65535/50040068752_711f3c64e3_o.jpg",
    "id_image": "Nebula_533828",
    "count_view": 0
  },
  {
    "link_thumb": "https://live.staticflickr.com/65535/50039316241_d6fce596cf_n.jpg",
    "id_album": "523598895",
    "description": "Artistic_220358",
    "title": "Artistic_220358",
    "link_img": "https://live.staticflickr.com/65535/50039316241_c78fd99072_o.jpg",
    "id_image": "Artistic_220358",
    "count_view": 0
  },
  {
    "link_thumb": "https://live.staticflickr.com/65535/50039356306_35f3681bc2_n.jpg",
    "id_album": "869545341",
    "description": "Astronaut_529979",
    "title": "Astronaut_529979",
    "link_img": "https://live.staticflickr.com/65535/50039356306_4b2d3df63d_o.jpg",
    "id_image": "Astronaut_529979",
    "count_view": 0
  },
  {
    "link_thumb": "https://live.staticflickr.com/65535/50040097252_711012a9c8_n.jpg",
    "id_album": "-1610342324",
    "description": "Nebula_77204",
    "title": "Nebula_77204",
    "link_img": "https://live.staticflickr.com/65535/50040097252_702811d354_o.jpg",
    "id_image": "Nebula_77204",
    "count_view": 0
  },
  {
    "link_thumb": "https://live.staticflickr.com/65535/50040556351_14a6b22076_n.jpg",
    "id_album": "-1532370292",
    "description": "SpaceStation_1007078",
    "title": "SpaceStation_1007078",
    "link_img": "https://live.staticflickr.com/65535/50040556351_241aec1500_o.jpg",
    "id_image": "SpaceStation_1007078",
    "count_view": 0
  },
  {
    "link_thumb": "https://live.staticflickr.com/65535/50039780136_538a8d09af_n.jpg",
    "id_album": "-1610342324",
    "description": "Nebula_271590",
    "title": "Nebula_271590",
    "link_img": "https://live.staticflickr.com/65535/50039780136_7425de8c45_o.jpg",
    "id_image": "Nebula_271590",
    "count_view": 0
  },
  {
    "link_thumb": "https://live.staticflickr.com/65535/50039352433_99981d5d0c_n.jpg",
    "id_album": "395161030",
    "description": "Planet_1008906",
    "title": "Planet_1008906",
    "link_img": "https://live.staticflickr.com/65535/50039352433_c9239cfce6_o.jpg",
    "id_image": "Planet_1008906",
    "count_view": 0
  },
  {
    "link_thumb": "https://live.staticflickr.com/65535/50039089458_294157f7fb_n.jpg",
    "id_album": "1204249541",
    "description": "Galaxy_510603",
    "title": "Galaxy_510603",
    "link_img": "https://live.staticflickr.com/65535/50039089458_16a23820be_o.jpg",
    "id_image": "Galaxy_510603",
    "count_view": 0
  },
  {
    "link_thumb": "https://live.staticflickr.com/65535/50038829443_ec2e5335b7_n.jpg",
    "id_album": "869545341",
    "description": "Astronaut_913006",
    "title": "Astronaut_913006",
    "link_img": "https://live.staticflickr.com/65535/50038829443_316cd0e360_o.jpg",
    "id_image": "Astronaut_913006",
    "count_view": 0
  },
  {
    "link_thumb": "https://live.staticflickr.com/65535/50039555632_2448be4ce0_n.jpg",
    "id_album": "523598895",
    "description": "Artistic_115200",
    "title": "Artistic_115200",
    "link_img": "https://live.staticflickr.com/65535/50039555632_b7549d14eb_o.jpg",
    "id_image": "Artistic_115200",
    "count_view": 0
  },
  {
    "link_thumb": "https://live.staticflickr.com/65535/50039275928_8320673c56_n.jpg",
    "id_album": "-1610342324",
    "description": "Nebula_705665",
    "title": "Nebula_705665",
    "link_img": "https://live.staticflickr.com/65535/50039275928_c9928d8997_o.jpg",
    "id_image": "Nebula_705665",
    "count_view": 0
  },
  {
    "link_thumb": "https://live.staticflickr.com/65535/50039093978_66d1edf96c_n.jpg",
    "id_album": "1204249541",
    "description": "Galaxy_558954",
    "title": "Galaxy_558954",
    "link_img": "https://live.staticflickr.com/65535/50039093978_b096ae0cb4_o.jpg",
    "id_image": "Galaxy_558954",
    "count_view": 0
  },
  {
    "link_thumb": "https://live.staticflickr.com/65535/50041026433_d3fee9b958_n.jpg",
    "id_album": "-1675918237",
    "description": "WomenWarrior_551721",
    "title": "WomenWarrior_551721",
    "link_img": "https://live.staticflickr.com/65535/50041026433_95ce8fb518_o.jpg",
    "id_image": "WomenWarrior_551721",
    "count_view": 0
  },
  {
    "link_thumb": "https://live.staticflickr.com/65535/50040022622_6f16b6a094_n.jpg",
    "id_album": "416351698",
    "description": "Moon_873971",
    "title": "Moon_873971",
    "link_img": "https://live.staticflickr.com/65535/50040022622_7c229f6f4f_o.jpg",
    "id_image": "Moon_873971",
    "count_view": 0
  },
  {
    "link_thumb": "https://live.staticflickr.com/65535/50039914722_19d5088bd7_n.jpg",
    "id_album": "1204249541",
    "description": "Galaxy_691001",
    "title": "Galaxy_691001",
    "link_img": "https://live.staticflickr.com/65535/50039914722_a5e4f0cafd_o.jpg",
    "id_image": "Galaxy_691001",
    "count_view": 0
  },
  {
    "link_thumb": "https://live.staticflickr.com/65535/50038987633_432da20b57_n.jpg",
    "id_album": "894679094",
    "description": "Collision_134860",
    "title": "Collision_134860",
    "link_img": "https://live.staticflickr.com/65535/50038987633_a39eb220a7_o.jpg",
    "id_image": "Collision_134860",
    "count_view": 0
  },
  {
    "link_thumb": "https://live.staticflickr.com/65535/50038749058_5e91a05202_n.jpg",
    "id_album": "523598895",
    "description": "Artistic_151369",
    "title": "Artistic_151369",
    "link_img": "https://live.staticflickr.com/65535/50038749058_2076c7780c_o.jpg",
    "id_image": "Artistic_151369",
    "count_view": 0
  },
  {
    "link_thumb": "https://live.staticflickr.com/65535/50039759486_914866ba6a_n.jpg",
    "id_album": "-1610342324",
    "description": "Nebula_1002215",
    "title": "Nebula_1002215",
    "link_img": "https://live.staticflickr.com/65535/50039759486_1ce6de9cc0_o.jpg",
    "id_image": "Nebula_1002215",
    "count_view": 0
  },
  {
    "link_thumb": "https://live.staticflickr.com/65535/50038934333_b245296864_n.jpg",
    "id_album": "-1964113117",
    "description": "City_649131",
    "title": "City_649131",
    "link_img": "https://live.staticflickr.com/65535/50038934333_16c5d3c7c4_o.jpg",
    "id_image": "City_649131",
    "count_view": 0
  },
  {
    "link_thumb": "https://live.staticflickr.com/65535/50039654676_8927c9f1e6_n.jpg",
    "id_album": "1204249541",
    "description": "Galaxy_868969",
    "title": "Galaxy_868969",
    "link_img": "https://live.staticflickr.com/65535/50039654676_bb99960356_o.jpg",
    "id_image": "Galaxy_868969",
    "count_view": 0
  },
  {
    "link_thumb": "https://live.staticflickr.com/65535/50039934901_aabe100fff_n.jpg",
    "id_album": "395161030",
    "description": "Planet_359430",
    "title": "Planet_359430",
    "link_img": "https://live.staticflickr.com/65535/50039934901_5c8b89e73e_o.jpg",
    "id_image": "Planet_359430",
    "count_view": 0
  },
  {
    "link_thumb": "https://live.staticflickr.com/65535/50039773482_1843a2f65b_n.jpg",
    "id_album": "-1964113117",
    "description": "City_879540",
    "title": "City_879540",
    "link_img": "https://live.staticflickr.com/65535/50039773482_8276db99f8_o.jpg",
    "id_image": "City_879540",
    "count_view": 0
  },
  {
    "link_thumb": "https://live.staticflickr.com/65535/50041587797_295928b428_n.jpg",
    "id_album": "1267121215",
    "description": "Steampunk_655449",
    "title": "Steampunk_655449",
    "link_img": "https://live.staticflickr.com/65535/50041587797_b97622ae17_o.jpg",
    "id_image": "Steampunk_655449",
    "count_view": 0
  },
  {
    "link_thumb": "https://live.staticflickr.com/65535/50040062536_1f3a47b520_n.jpg",
    "id_album": "-1102314093",
    "description": "Planets_225063",
    "title": "Planets_225063",
    "link_img": "https://live.staticflickr.com/65535/50040062536_3959b3d6ae_o.jpg",
    "id_image": "Planets_225063",
    "count_view": 0
  },
  {
    "link_thumb": "https://live.staticflickr.com/65535/50039433691_498591e3fe_n.jpg",
    "id_album": "-1964113117",
    "description": "City_123330",
    "title": "City_123330",
    "link_img": "https://live.staticflickr.com/65535/50039433691_48637e3d08_o.jpg",
    "id_image": "City_123330",
    "count_view": 0
  },
  {
    "link_thumb": "https://live.staticflickr.com/65535/50039627611_b6e86245df_n.jpg",
    "id_album": "1204249541",
    "description": "Galaxy_225945",
    "title": "Galaxy_225945",
    "link_img": "https://live.staticflickr.com/65535/50039627611_878b6deded_o.jpg",
    "id_image": "Galaxy_225945",
    "count_view": 0
  },
  {
    "link_thumb": "https://live.staticflickr.com/65535/50040696983_9b9af3fb93_n.jpg",
    "id_album": "-1863373220",
    "description": "StarWars_981654",
    "title": "StarWars_981654",
    "link_img": "https://live.staticflickr.com/65535/50040696983_d0dd48e93b_o.jpg",
    "id_image": "StarWars_981654",
    "count_view": 0
  },
  {
    "link_thumb": "https://live.staticflickr.com/65535/50039972468_bba2ea8015_n.jpg",
    "id_album": "1613540653",
    "description": "Space_692166",
    "title": "Space_692166",
    "link_img": "https://live.staticflickr.com/65535/50039972468_88f28c82fb_o.jpg",
    "id_image": "Space_692166",
    "count_view": 0
  },
  {
    "link_thumb": "https://live.staticflickr.com/65535/50039412001_f9748f26a2_n.jpg",
    "id_album": "-1780971522",
    "description": "Biohazard_300094",
    "title": "Biohazard_300094",
    "link_img": "https://live.staticflickr.com/65535/50039412001_455d6f90a6_o.jpg",
    "id_image": "Biohazard_300094",
    "count_view": 0
  },
  {
    "link_thumb": "https://live.staticflickr.com/65535/50039404106_102959b8f9_n.jpg",
    "id_album": "1187037014",
    "description": "Battle_602070",
    "title": "Battle_602070",
    "link_img": "https://live.staticflickr.com/65535/50039404106_14c51a5dd0_o.jpg",
    "id_image": "Battle_602070",
    "count_view": 0
  },
  {
    "link_thumb": "https://live.staticflickr.com/65535/50040725792_13c1fcff0a_n.jpg",
    "id_album": "1613540653",
    "description": "Space_1008435",
    "title": "Space_1008435",
    "link_img": "https://live.staticflickr.com/65535/50040725792_a499983ce5_o.jpg",
    "id_image": "Space_1008435",
    "count_view": 0
  },
  {
    "link_thumb": "https://live.staticflickr.com/65535/50040502342_faeb0d4da3_n.jpg",
    "id_album": "-839602625",
    "description": "Predator_180678",
    "title": "Predator_180678",
    "link_img": "https://live.staticflickr.com/65535/50040502342_d7d478f487_o.jpg",
    "id_image": "Predator_180678",
    "count_view": 0
  },
  {
    "link_thumb": "https://live.staticflickr.com/65535/50039500911_52bbf8816b_n.jpg",
    "id_album": "-1964113117",
    "description": "City_842652",
    "title": "City_842652",
    "link_img": "https://live.staticflickr.com/65535/50039500911_8c4d262cef_o.jpg",
    "id_image": "City_842652",
    "count_view": 0
  },
  {
    "link_thumb": "https://live.staticflickr.com/65535/50040121456_db6367d630_n.jpg",
    "id_album": "-1102314093",
    "description": "Planets_531451",
    "title": "Planets_531451",
    "link_img": "https://live.staticflickr.com/65535/50040121456_58705c94e8_o.jpg",
    "id_image": "Planets_531451",
    "count_view": 0
  },
  {
    "link_thumb": "https://live.staticflickr.com/65535/50039955802_0e05d42aa7_n.jpg",
    "id_album": "1402713104",
    "description": "Landscape_541854",
    "title": "Landscape_541854",
    "link_img": "https://live.staticflickr.com/65535/50039955802_3ba0b87007_o.jpg",
    "id_image": "Landscape_541854",
    "count_view": 0
  },
  {
    "link_thumb": "https://live.staticflickr.com/65535/50039865218_01a2723b64_n.jpg",
    "id_album": "779690680",
    "description": "Robot_922859",
    "title": "Robot_922859",
    "link_img": "https://live.staticflickr.com/65535/50039865218_22effb90dc_o.jpg",
    "id_image": "Robot_922859",
    "count_view": 0
  },
  {
    "link_thumb": "https://live.staticflickr.com/65535/50041591801_dfec466b6f_n.jpg",
    "id_album": "-1675918237",
    "description": "WomenWarrior_946028",
    "title": "WomenWarrior_946028",
    "link_img": "https://live.staticflickr.com/65535/50041591801_19aa6a3c70_o.jpg",
    "id_image": "WomenWarrior_946028",
    "count_view": 0
  },
  {
    "link_thumb": "https://live.staticflickr.com/65535/50039584301_f21e10ce79_n.jpg",
    "id_album": "829169633",
    "description": "Cyborg_283335",
    "title": "Cyborg_283335",
    "link_img": "https://live.staticflickr.com/65535/50039584301_6e7ee521f2_o.jpg",
    "id_image": "Cyborg_283335",
    "count_view": 0
  },
  {
    "link_thumb": "https://live.staticflickr.com/65535/50041379146_ba0b1c5c2a_n.jpg",
    "id_album": "2020068132",
    "description": "Vehicle_241644",
    "title": "Vehicle_241644",
    "link_img": "https://live.staticflickr.com/65535/50041379146_34d19bc646_o.jpg",
    "id_image": "Vehicle_241644",
    "count_view": 0
  },
  {
    "link_thumb": "https://live.staticflickr.com/65535/50039777501_8c1ec506f1_n.jpg",
    "id_album": "-1610342324",
    "description": "Nebula_2541",
    "title": "Nebula_2541",
    "link_img": "https://live.staticflickr.com/65535/50039777501_e1218d1ef7_o.jpg",
    "id_image": "Nebula_2541",
    "count_view": 0
  },
  {
    "link_thumb": "https://live.staticflickr.com/65535/50039446901_e7eb2d6aff_n.jpg",
    "id_album": "-1964113117",
    "description": "City_213528",
    "title": "City_213528",
    "link_img": "https://live.staticflickr.com/65535/50039446901_d38abc3060_o.jpg",
    "id_image": "City_213528",
    "count_view": 0
  },
  {
    "link_thumb": "https://live.staticflickr.com/65535/50041838027_44f3f76b19_n.jpg",
    "id_album": "-1675918237",
    "description": "WomenWarrior_480237",
    "title": "WomenWarrior_480237",
    "link_img": "https://live.staticflickr.com/65535/50041838027_d7f8126285_o.jpg",
    "id_image": "WomenWarrior_480237",
    "count_view": 0
  },
  {
    "link_thumb": "https://live.staticflickr.com/65535/50039276221_869b666fe1_n.jpg",
    "id_album": "849020728",
    "description": "Alien_907089",
    "title": "Alien_907089",
    "link_img": "https://live.staticflickr.com/65535/50039276221_d85b50a5f7_o.jpg",
    "id_image": "Alien_907089",
    "count_view": 0
  },
  {
    "link_thumb": "https://live.staticflickr.com/65535/50039242633_78efda8532_n.jpg",
    "id_album": "-1610342324",
    "description": "Nebula_397402",
    "title": "Nebula_397402",
    "link_img": "https://live.staticflickr.com/65535/50039242633_9a205492f5_o.jpg",
    "id_image": "Nebula_397402",
    "count_view": 0
  },
  {
    "link_thumb": "https://live.staticflickr.com/65535/50039570007_263ff28893_n.jpg",
    "id_album": "523598895",
    "description": "Artistic_188244",
    "title": "Artistic_188244",
    "link_img": "https://live.staticflickr.com/65535/50039570007_0429d40303_o.jpg",
    "id_image": "Artistic_188244",
    "count_view": 0
  },
  {
    "link_thumb": "https://live.staticflickr.com/65535/50040532762_a089be458a_n.jpg",
    "id_album": "779690680",
    "description": "Robot_237202",
    "title": "Robot_237202",
    "link_img": "https://live.staticflickr.com/65535/50040532762_1f80b08813_o.jpg",
    "id_image": "Robot_237202",
    "count_view": 0
  },
  {
    "link_thumb": "https://live.staticflickr.com/65535/50038963063_308171d183_n.jpg",
    "id_album": "-1964113117",
    "description": "City_878302",
    "title": "City_878302",
    "link_img": "https://live.staticflickr.com/65535/50038963063_9f00e507d5_o.jpg",
    "id_image": "City_878302",
    "count_view": 0
  },
  {
    "link_thumb": "https://live.staticflickr.com/65535/50040608637_5fd342b921_n.jpg",
    "id_album": "779690680",
    "description": "Robot_615955",
    "title": "Robot_615955",
    "link_img": "https://live.staticflickr.com/65535/50040608637_0d5e7bef53_o.jpg",
    "id_image": "Robot_615955",
    "count_view": 0
  },
  {
    "link_thumb": "https://live.staticflickr.com/65535/50040570272_b1ce40aaab_n.jpg",
    "id_album": "779690680",
    "description": "Robot_414741",
    "title": "Robot_414741",
    "link_img": "https://live.staticflickr.com/65535/50040570272_4dd3930bf3_o.jpg",
    "id_image": "Robot_414741",
    "count_view": 0
  },
  {
    "link_thumb": "https://live.staticflickr.com/65535/50041511542_fdc159569b_n.jpg",
    "id_album": "-1863373220",
    "description": "StarWars_980510",
    "title": "StarWars_980510",
    "link_img": "https://live.staticflickr.com/65535/50041511542_5dfb1db5a8_o.jpg",
    "id_image": "StarWars_980510",
    "count_view": 0
  },
  {
    "link_thumb": "https://live.staticflickr.com/65535/50039718837_c5665e74a4_n.jpg",
    "id_album": "-1964113117",
    "description": "City_269368",
    "title": "City_269368",
    "link_img": "https://live.staticflickr.com/65535/50039718837_b10c22b6fb_o.jpg",
    "id_image": "City_269368",
    "count_view": 0
  },
  {
    "link_thumb": "https://live.staticflickr.com/65535/50039603208_cc0c285278_n.jpg",
    "id_album": "376235057",
    "description": "Planetscape_261187",
    "title": "Planetscape_261187",
    "link_img": "https://live.staticflickr.com/65535/50039603208_f61873a757_o.jpg",
    "id_image": "Planetscape_261187",
    "count_view": 0
  },
  {
    "link_thumb": "https://live.staticflickr.com/65535/50039537006_56f26a0e9a_n.jpg",
    "id_album": "894679094",
    "description": "Collision_20430",
    "title": "Collision_20430",
    "link_img": "https://live.staticflickr.com/65535/50039537006_ed9e780085_o.jpg",
    "id_image": "Collision_20430",
    "count_view": 0
  },
  {
    "link_thumb": "https://live.staticflickr.com/65535/50039772386_76823ea5f4_n.jpg",
    "id_album": "-1610342324",
    "description": "Nebula_220995",
    "title": "Nebula_220995",
    "link_img": "https://live.staticflickr.com/65535/50039772386_0181b673b4_o.jpg",
    "id_image": "Nebula_220995",
    "count_view": 0
  },
  {
    "link_thumb": "https://live.staticflickr.com/65535/50039687552_ed07c947d4_n.jpg",
    "id_album": "406431601",
    "description": "Building_873147",
    "title": "Building_873147",
    "link_img": "https://live.staticflickr.com/65535/50039687552_41047c2368_o.jpg",
    "id_image": "Building_873147",
    "count_view": 0
  },
  {
    "link_thumb": "https://live.staticflickr.com/65535/50039630057_56c9fd7224_n.jpg",
    "id_album": "869545341",
    "description": "Astronaut_807131",
    "title": "Astronaut_807131",
    "link_img": "https://live.staticflickr.com/65535/50039630057_c51821f476_o.jpg",
    "id_image": "Astronaut_807131",
    "count_view": 0
  },
  {
    "link_thumb": "https://live.staticflickr.com/65535/50040797357_5b0b48f32f_n.jpg",
    "id_album": "1613540653",
    "description": "Space_708268",
    "title": "Space_708268",
    "link_img": "https://live.staticflickr.com/65535/50040797357_886ec77fe1_o.jpg",
    "id_image": "Space_708268",
    "count_view": 0
  },
  {
    "link_thumb": "https://live.staticflickr.com/65535/50040428806_66a8ded474_n.jpg",
    "id_album": "779690680",
    "description": "Robot_931799",
    "title": "Robot_931799",
    "link_img": "https://live.staticflickr.com/65535/50040428806_5e600eb5e0_o.jpg",
    "id_image": "Robot_931799",
    "count_view": 0
  },
  {
    "link_thumb": "https://live.staticflickr.com/65535/50040899313_0ff4d5ce62_n.jpg",
    "id_album": "-1261420436",
    "description": "Warrior_374946",
    "title": "Warrior_374946",
    "link_img": "https://live.staticflickr.com/65535/50040899313_6d0689c3ca_o.jpg",
    "id_image": "Warrior_374946",
    "count_view": 0
  },
  {
    "link_thumb": "https://live.staticflickr.com/65535/50039707591_988f3f6bde_n.jpg",
    "id_album": "1402713104",
    "description": "Landscape_805183",
    "title": "Landscape_805183",
    "link_img": "https://live.staticflickr.com/65535/50039707591_8d1dc3f3ef_o.jpg",
    "id_image": "Landscape_805183",
    "count_view": 0
  },
  {
    "link_thumb": "https://live.staticflickr.com/65535/50039380016_437222e5f8_n.jpg",
    "id_album": "869545341",
    "description": "Astronaut_923968",
    "title": "Astronaut_923968",
    "link_img": "https://live.staticflickr.com/65535/50039380016_e60728d6fa_o.jpg",
    "id_image": "Astronaut_923968",
    "count_view": 0
  },
  {
    "link_thumb": "https://live.staticflickr.com/65535/50040861303_f43e52962e_n.jpg",
    "id_album": "2020068132",
    "description": "Vehicle_854208",
    "title": "Vehicle_854208",
    "link_img": "https://live.staticflickr.com/65535/50040861303_f5c44fdd3f_o.jpg",
    "id_image": "Vehicle_854208",
    "count_view": 0
  },
  {
    "link_thumb": "https://live.staticflickr.com/65535/50039406901_922577001f_n.jpg",
    "id_album": "1187037014",
    "description": "Battle_793102",
    "title": "Battle_793102",
    "link_img": "https://live.staticflickr.com/65535/50039406901_a3b3d3cee0_o.jpg",
    "id_image": "Battle_793102",
    "count_view": 0
  },
  {
    "link_thumb": "https://live.staticflickr.com/65535/50039010858_0017371fba_n.jpg",
    "id_album": "-437872736",
    "description": "Creature_894314",
    "title": "Creature_894314",
    "link_img": "https://live.staticflickr.com/65535/50039010858_bf2991dba7_o.jpg",
    "id_image": "Creature_894314",
    "count_view": 0
  },
  {
    "link_thumb": "https://live.staticflickr.com/65535/50040207607_e1ff69a4de_n.jpg",
    "id_album": "395161030",
    "description": "Planet_378316",
    "title": "Planet_378316",
    "link_img": "https://live.staticflickr.com/65535/50040207607_ca00dca91c_o.jpg",
    "id_image": "Planet_378316",
    "count_view": 0
  },
  {
    "link_thumb": "https://live.staticflickr.com/65535/50041415572_6b11c3120d_n.jpg",
    "id_album": "-1863373220",
    "description": "StarWars_241448",
    "title": "StarWars_241448",
    "link_img": "https://live.staticflickr.com/65535/50041415572_37e2132737_o.jpg",
    "id_image": "StarWars_241448",
    "count_view": 0
  },
  {
    "link_thumb": "https://live.staticflickr.com/65535/50040204187_e526bfc836_n.jpg",
    "id_album": "395161030",
    "description": "Planet_373659",
    "title": "Planet_373659",
    "link_img": "https://live.staticflickr.com/65535/50040204187_a7dbae2de7_o.jpg",
    "id_image": "Planet_373659",
    "count_view": 0
  },
  {
    "link_thumb": "https://live.staticflickr.com/65535/50039143038_4be14a5ed6_n.jpg",
    "id_album": "1402713104",
    "description": "Landscape_528576",
    "title": "Landscape_528576",
    "link_img": "https://live.staticflickr.com/65535/50039143038_ac827424e3_o.jpg",
    "id_image": "Landscape_528576",
    "count_view": 0
  },
  {
    "link_thumb": "https://live.staticflickr.com/65535/50041178056_c865857b68_n.jpg",
    "id_album": "-1863373220",
    "description": "StarWars_411412",
    "title": "StarWars_411412",
    "link_img": "https://live.staticflickr.com/65535/50041178056_b87ac830e3_o.jpg",
    "id_image": "StarWars_411412",
    "count_view": 0
  },
  {
    "link_thumb": "https://live.staticflickr.com/65535/50039499067_68c9594ef5_n.jpg",
    "id_album": "-406145265",
    "description": "Aircraft_327270",
    "title": "Aircraft_327270",
    "link_img": "https://live.staticflickr.com/65535/50039499067_33da993d2f_o.jpg",
    "id_image": "Aircraft_327270",
    "count_view": 0
  },
  {
    "link_thumb": "https://live.staticflickr.com/65535/50039841676_956db39d3b_n.jpg",
    "id_album": "-1610342324",
    "description": "Nebula_825785",
    "title": "Nebula_825785",
    "link_img": "https://live.staticflickr.com/65535/50039841676_4bcd40e282_o.jpg",
    "id_image": "Nebula_825785",
    "count_view": 0
  },
  {
    "link_thumb": "https://live.staticflickr.com/65535/50039683917_bd3a02ee5d_n.jpg",
    "id_album": "406431601",
    "description": "Building_344266",
    "title": "Building_344266",
    "link_img": "https://live.staticflickr.com/65535/50039683917_9bb148289b_o.jpg",
    "id_image": "Building_344266",
    "count_view": 0
  },
  {
    "link_thumb": "https://live.staticflickr.com/65535/50040473282_e2d2af799c_n.jpg",
    "id_album": "-482547208",
    "description": "PostApocalyptic_359528",
    "title": "PostApocalyptic_359528",
    "link_img": "https://live.staticflickr.com/65535/50040473282_9356f44ac2_o.jpg",
    "id_image": "PostApocalyptic_359528",
    "count_view": 0
  },
  {
    "link_thumb": "https://live.staticflickr.com/65535/50039386546_929cdece6f_n.jpg",
    "id_album": "869545341",
    "description": "Astronaut_965900",
    "title": "Astronaut_965900",
    "link_img": "https://live.staticflickr.com/65535/50039386546_f848d53bc1_o.jpg",
    "id_image": "Astronaut_965900",
    "count_view": 0
  },
  {
    "link_thumb": "https://live.staticflickr.com/65535/50039412556_8366115f5f_n.jpg",
    "id_album": "-1780971522",
    "description": "Biohazard_313814",
    "title": "Biohazard_313814",
    "link_img": "https://live.staticflickr.com/65535/50039412556_4539fa6ac0_o.jpg",
    "id_image": "Biohazard_313814",
    "count_view": 0
  },
  {
    "link_thumb": "https://live.staticflickr.com/65535/50039701858_76760212f5_n.jpg",
    "id_album": "779690680",
    "description": "Robot_145924",
    "title": "Robot_145924",
    "link_img": "https://live.staticflickr.com/65535/50039701858_cbdbae8548_o.jpg",
    "id_image": "Robot_145924",
    "count_view": 0
  },
  {
    "link_thumb": "https://live.staticflickr.com/65535/50038875888_c437bcd8c0_n.jpg",
    "id_album": "406431601",
    "description": "Building_871355",
    "title": "Building_871355",
    "link_img": "https://live.staticflickr.com/65535/50038875888_d00452b8db_o.jpg",
    "id_image": "Building_871355",
    "count_view": 0
  },
  {
    "link_thumb": "https://live.staticflickr.com/65535/50040099126_708e2924c3_n.jpg",
    "id_album": "-1102314093",
    "description": "Planets_363080",
    "title": "Planets_363080",
    "link_img": "https://live.staticflickr.com/65535/50040099126_dbe7436f6c_o.jpg",
    "id_image": "Planets_363080",
    "count_view": 0
  },
  {
    "link_thumb": "https://live.staticflickr.com/65535/50040464491_1ae9736992_n.jpg",
    "id_album": "1613540653",
    "description": "Space_113986",
    "title": "Space_113986",
    "link_img": "https://live.staticflickr.com/65535/50040464491_dd8d6066f8_o.jpg",
    "id_image": "Space_113986",
    "count_view": 0
  },
  {
    "link_thumb": "https://live.staticflickr.com/65535/50040642153_65ec884920_n.jpg",
    "id_album": "-1863373220",
    "description": "StarWars_584671",
    "title": "StarWars_584671",
    "link_img": "https://live.staticflickr.com/65535/50040642153_80f2d91cc8_o.jpg",
    "id_image": "StarWars_584671",
    "count_view": 0
  },
  {
    "link_thumb": "https://live.staticflickr.com/65535/50039891611_2f071760e6_n.jpg",
    "id_album": "-1862561193",
    "description": "Other_44098",
    "title": "Other_44098",
    "link_img": "https://live.staticflickr.com/65535/50039891611_574a9e4b11_o.jpg",
    "id_image": "Other_44098",
    "count_view": 0
  },
  {
    "link_thumb": "https://live.staticflickr.com/65535/50039919571_0ae7771486_n.jpg",
    "id_album": "395161030",
    "description": "Planet_217475",
    "title": "Planet_217475",
    "link_img": "https://live.staticflickr.com/65535/50039919571_8b859d1238_o.jpg",
    "id_image": "Planet_217475",
    "count_view": 0
  },
  {
    "link_thumb": "https://live.staticflickr.com/65535/50040655868_d067904ecd_n.jpg",
    "id_album": "-1863373220",
    "description": "StarWars_669714",
    "title": "StarWars_669714",
    "link_img": "https://live.staticflickr.com/65535/50040655868_4b1e2f1b66_o.jpg",
    "id_image": "StarWars_669714",
    "count_view": 0
  },
  {
    "link_thumb": "https://live.staticflickr.com/65535/50041216921_ab714b756f_n.jpg",
    "id_album": "-1863373220",
    "description": "StarWars_699576",
    "title": "StarWars_699576",
    "link_img": "https://live.staticflickr.com/65535/50041216921_20982b2721_o.jpg",
    "id_image": "StarWars_699576",
    "count_view": 0
  },
  {
    "link_thumb": "https://live.staticflickr.com/65535/50039250253_4378b66860_n.jpg",
    "id_album": "-1610342324",
    "description": "Nebula_464257",
    "title": "Nebula_464257",
    "link_img": "https://live.staticflickr.com/65535/50039250253_c4669b9d83_o.jpg",
    "id_image": "Nebula_464257",
    "count_view": 0
  },
  {
    "link_thumb": "https://live.staticflickr.com/65535/50039940037_bc2cb98495_n.jpg",
    "id_album": "1402713104",
    "description": "Landscape_324659",
    "title": "Landscape_324659",
    "link_img": "https://live.staticflickr.com/65535/50039940037_b08fb9e0d8_o.jpg",
    "id_image": "Landscape_324659",
    "count_view": 0
  },
  {
    "link_thumb": "https://live.staticflickr.com/65535/50039607238_b3a40020fd_n.jpg",
    "id_album": "376235057",
    "description": "Planetscape_290160",
    "title": "Planetscape_290160",
    "link_img": "https://live.staticflickr.com/65535/50039607238_927e1c9b80_o.jpg",
    "id_image": "Planetscape_290160",
    "count_view": 0
  }
]