[
  {
    "link_thumb": "https://live.staticflickr.com/65535/50041513847_edb57925aa_n.jpg",
    "id_album": "-1863373220",
    "description": "StarWars_981656",
    "title": "StarWars_981656",
    "link_img": "https://live.staticflickr.com/65535/50041513847_09324522e6_o.jpg",
    "id_image": "StarWars_981656",
    "count_view": 0
  },
  {
    "link_thumb": "https://live.staticflickr.com/65535/50038679693_a35264e421_n.jpg",
    "id_album": "280884763",
    "description": "Abstract_123869",
    "title": "Abstract_123869",
    "link_img": "https://live.staticflickr.com/65535/50038679693_38997663ae_o.jpg",
    "id_image": "Abstract_123869",
    "count_view": 0
  },
  {
    "link_thumb": "https://live.staticflickr.com/65535/50040461347_7a203ff34a_n.jpg",
    "id_album": "-482547208",
    "description": "PostApocalyptic_221988",
    "title": "PostApocalyptic_221988",
    "link_img": "https://live.staticflickr.com/65535/50040461347_123d3296f8_o.jpg",
    "id_image": "PostApocalyptic_221988",
    "count_view": 0
  },
  {
    "link_thumb": "https://live.staticflickr.com/65535/50040023862_8a0dde825f_n.jpg",
    "id_album": "-1610342324",
    "description": "Nebula_1009890",
    "title": "Nebula_1009890",
    "link_img": "https://live.staticflickr.com/65535/50040023862_70e21ca365_o.jpg",
    "id_image": "Nebula_1009890",
    "count_view": 0
  },
  {
    "link_thumb": "https://live.staticflickr.com/65535/50039752501_3d0c3d7511_n.jpg",
    "id_album": "-1388385651",
    "description": "MilkyWay_925655",
    "title": "MilkyWay_925655",
    "link_img": "https://live.staticflickr.com/65535/50039752501_104bf3edf9_o.jpg",
    "id_image": "MilkyWay_925655",
    "count_view": 0
  },
  {
    "link_thumb": "https://live.staticflickr.com/65535/50039896122_291b650e84_n.jpg",
    "id_album": "1204249541",
    "description": "Galaxy_424697",
    "title": "Galaxy_424697",
    "link_img": "https://live.staticflickr.com/65535/50039896122_3b483e8c1a_o.jpg",
    "id_image": "Galaxy_424697",
    "count_view": 0
  },
  {
    "link_thumb": "https://live.staticflickr.com/65535/50038988288_de7e158c28_n.jpg",
    "id_album": "894679094",
    "description": "Collision_159231",
    "title": "Collision_159231",
    "link_img": "https://live.staticflickr.com/65535/50038988288_cccd954e6c_o.jpg",
    "id_image": "Collision_159231",
    "count_view": 0
  },
  {
    "link_thumb": "https://live.staticflickr.com/65535/50040051167_90d3afcffd_n.jpg",
    "id_album": "-1610342324",
    "description": "Nebula_352108",
    "title": "Nebula_352108",
    "link_img": "https://live.staticflickr.com/65535/50040051167_eb871663e8_o.jpg",
    "id_image": "Nebula_352108",
    "count_view": 0
  },
  {
    "link_thumb": "https://live.staticflickr.com/65535/50039432823_3012726b08_n.jpg",
    "id_album": "395161030",
    "description": "Planet_916108",
    "title": "Planet_916108",
    "link_img": "https://live.staticflickr.com/65535/50039432823_712d06cea5_o.jpg",
    "id_image": "Planet_916108",
    "count_view": 0
  },
  {
    "link_thumb": "https://live.staticflickr.com/65535/50041163786_66e1580bd1_n.jpg",
    "id_album": "-1863373220",
    "description": "StarWars_313672",
    "title": "StarWars_313672",
    "link_img": "https://live.staticflickr.com/65535/50041163786_b0b74a6614_o.jpg",
    "id_image": "StarWars_313672",
    "count_view": 0
  },
  {
    "link_thumb": "https://live.staticflickr.com/65535/50039741067_466d5568ab_n.jpg",
    "id_album": "-1964113117",
    "description": "City_560056",
    "title": "City_560056",
    "link_img": "https://live.staticflickr.com/65535/50039741067_929ec18d08_o.jpg",
    "id_image": "City_560056",
    "count_view": 0
  },
  {
    "link_thumb": "https://live.staticflickr.com/65535/50041417716_306a5c73bb_n.jpg",
    "id_album": "2020068132",
    "description": "Vehicle_883354",
    "title": "Vehicle_883354",
    "link_img": "https://live.staticflickr.com/65535/50041417716_5fe9f098d1_o.jpg",
    "id_image": "Vehicle_883354",
    "count_view": 0
  },
  {
    "link_thumb": "https://live.staticflickr.com/65535/50040421202_502e2a0f1f_n.jpg",
    "id_album": "376235057",
    "description": "Planetscape_286984",
    "title": "Planetscape_286984",
    "link_img": "https://live.staticflickr.com/65535/50040421202_c8c09ae325_o.jpg",
    "id_image": "Planetscape_286984",
    "count_view": 0
  },
  {
    "link_thumb": "https://live.staticflickr.com/65535/50039530871_6354d8ddaf_n.jpg",
    "id_album": "-1964113117",
    "description": "City_977581",
    "title": "City_977581",
    "link_img": "https://live.staticflickr.com/65535/50039530871_3cfa61ce23_o.jpg",
    "id_image": "City_977581",
    "count_view": 0
  },
  {
    "link_thumb": "https://live.staticflickr.com/65535/50040853072_89d1454de2_n.jpg",
    "id_album": "2130067313",
    "description": "Spaceship_183938",
    "title": "Spaceship_183938",
    "link_img": "https://live.staticflickr.com/65535/50040853072_38e72c4b33_o.jpg",
    "id_image": "Spaceship_183938",
    "count_view": 0
  },
  {
    "link_thumb": "https://live.staticflickr.com/65535/50040510142_8b46392e08_n.jpg",
    "id_album": "-839602625",
    "description": "Predator_599866",
    "title": "Predator_599866",
    "link_img": "https://live.staticflickr.com/65535/50040510142_ff45d0b257_o.jpg",
    "id_image": "Predator_599866",
    "count_view": 0
  },
  {
    "link_thumb": "https://live.staticflickr.com/65535/50039955802_0e05d42aa7_n.jpg",
    "id_album": "1402713104",
    "description": "Landscape_541854",
    "title": "Landscape_541854",
    "link_img": "https://live.staticflickr.com/65535/50039955802_3ba0b87007_o.jpg",
    "id_image": "Landscape_541854",
    "count_view": 0
  },
  {
    "link_thumb": "https://live.staticflickr.com/65535/50039840406_727d68ef95_n.jpg",
    "id_album": "-1610342324",
    "description": "Nebula_821463",
    "title": "Nebula_821463",
    "link_img": "https://live.staticflickr.com/65535/50039840406_975d7700bb_o.jpg",
    "id_image": "Nebula_821463",
    "count_view": 0
  },
  {
    "link_thumb": "https://live.staticflickr.com/65535/50039393443_5dfebb16e3_n.jpg",
    "id_album": "395161030",
    "description": "Planet_377335",
    "title": "Planet_377335",
    "link_img": "https://live.staticflickr.com/65535/50039393443_dd8a247fd7_o.jpg",
    "id_image": "Planet_377335",
    "count_view": 0
  },
  {
    "link_thumb": "https://live.staticflickr.com/65535/50040356092_501eec8bf6_n.jpg",
    "id_album": "-1102314093",
    "description": "Planets_350803",
    "title": "Planets_350803",
    "link_img": "https://live.staticflickr.com/65535/50040356092_7f4da54dca_o.jpg",
    "id_image": "Planets_350803",
    "count_view": 0
  },
  {
    "link_thumb": "https://live.staticflickr.com/65535/50039695318_fd21a1e957_n.jpg",
    "id_album": "779690680",
    "description": "Robot_1004601",
    "title": "Robot_1004601",
    "link_img": "https://live.staticflickr.com/65535/50039695318_0315cba51f_o.jpg",
    "id_image": "Robot_1004601",
    "count_view": 0
  },
  {
    "link_thumb": "https://live.staticflickr.com/65535/50039701061_54ac8d779a_n.jpg",
    "id_album": "1402713104",
    "description": "Landscape_706882",
    "title": "Landscape_706882",
    "link_img": "https://live.staticflickr.com/65535/50039701061_a66d9b9ab3_o.jpg",
    "id_image": "Landscape_706882",
    "count_view": 0
  },
  {
    "link_thumb": "https://live.staticflickr.com/65535/50039680917_acbe8ff7ec_n.jpg",
    "id_album": "-1780971522",
    "description": "Biohazard_57385",
    "title": "Biohazard_57385",
    "link_img": "https://live.staticflickr.com/65535/50039680917_286a5ae8fe_o.jpg",
    "id_image": "Biohazard_57385",
    "count_view": 0
  },
  {
    "link_thumb": "https://live.staticflickr.com/65535/50040153903_a2e2dd3987_n.jpg",
    "id_album": "2130067313",
    "description": "Spaceship_528591",
    "title": "Spaceship_528591",
    "link_img": "https://live.staticflickr.com/65535/50040153903_1f0d5d8af9_o.jpg",
    "id_image": "Spaceship_528591",
    "count_view": 0
  },
  {
    "link_thumb": "https://live.staticflickr.com/65535/50039880833_ded03bafe1_n.jpg",
    "id_album": "779690680",
    "description": "Robot_940956",
    "title": "Robot_940956",
    "link_img": "https://live.staticflickr.com/65535/50039880833_b157c8cb8a_o.jpg",
    "id_image": "Robot_940956",
    "count_view": 0
  },
  {
    "link_thumb": "https://live.staticflickr.com/65535/50038974398_6c4dee1c1c_n.jpg",
    "id_album": "-1964113117",
    "description": "City_926016",
    "title": "City_926016",
    "link_img": "https://live.staticflickr.com/65535/50038974398_ca64060bf2_o.jpg",
    "id_image": "City_926016",
    "count_view": 0
  },
  {
    "link_thumb": "https://live.staticflickr.com/65535/50040214056_40d9496ef7_n.jpg",
    "id_album": "-482547208",
    "description": "PostApocalyptic_560033",
    "title": "PostApocalyptic_560033",
    "link_img": "https://live.staticflickr.com/65535/50040214056_a592c57739_o.jpg",
    "id_image": "PostApocalyptic_560033",
    "count_view": 0
  },
  {
    "link_thumb": "https://live.staticflickr.com/65535/50039496322_c99c2540f5_n.jpg",
    "id_album": "-406145265",
    "description": "Aircraft_146659",
    "title": "Aircraft_146659",
    "link_img": "https://live.staticflickr.com/65535/50039496322_0652f561e7_o.jpg",
    "id_image": "Aircraft_146659",
    "count_view": 0
  },
  {
    "link_thumb": "https://live.staticflickr.com/65535/50041586351_af1511a18c_n.jpg",
    "id_album": "-1675918237",
    "description": "WomenWarrior_688403",
    "title": "WomenWarrior_688403",
    "link_img": "https://live.staticflickr.com/65535/50041586351_d8c1208163_o.jpg",
    "id_image": "WomenWarrior_688403",
    "count_view": 0
  },
  {
    "link_thumb": "https://live.staticflickr.com/65535/50040808303_0740cb786a_n.jpg",
    "id_album": "-1177476763",
    "description": "Sunrise_372793",
    "title": "Sunrise_372793",
    "link_img": "https://live.staticflickr.com/65535/50040808303_df11ca71c3_o.jpg",
    "id_image": "Sunrise_372793",
    "count_view": 0
  },
  {
    "link_thumb": "https://live.staticflickr.com/65535/50039274103_5f7d460d4e_n.jpg",
    "id_album": "-1610342324",
    "description": "Nebula_690471",
    "title": "Nebula_690471",
    "link_img": "https://live.staticflickr.com/65535/50039274103_a0e99c424d_o.jpg",
    "id_image": "Nebula_690471",
    "count_view": 0
  },
  {
    "link_thumb": "https://live.staticflickr.com/65535/50039931896_f272d30857_n.jpg",
    "id_album": "395161030",
    "description": "Planet_347830",
    "title": "Planet_347830",
    "link_img": "https://live.staticflickr.com/65535/50039931896_5b03c12046_o.jpg",
    "id_image": "Planet_347830",
    "count_view": 0
  },
  {
    "link_thumb": "https://live.staticflickr.com/65535/50041386516_184b52f8c3_n.jpg",
    "id_album": "2020068132",
    "description": "Vehicle_311985",
    "title": "Vehicle_311985",
    "link_img": "https://live.staticflickr.com/65535/50041386516_45c9812985_o.jpg",
    "id_image": "Vehicle_311985",
    "count_view": 0
  },
  {
    "link_thumb": "https://live.staticflickr.com/65535/50039458951_248e1ea59c_n.jpg",
    "id_album": "-1964113117",
    "description": "City_286616",
    "title": "City_286616",
    "link_img": "https://live.staticflickr.com/65535/50039458951_80d79d06cd_o.jpg",
    "id_image": "City_286616",
    "count_view": 0
  },
  {
    "link_thumb": "https://live.staticflickr.com/65535/50039781596_2a4e728476_n.jpg",
    "id_album": "-1610342324",
    "description": "Nebula_285821",
    "title": "Nebula_285821",
    "link_img": "https://live.staticflickr.com/65535/50039781596_ed05cc1806_o.jpg",
    "id_image": "Nebula_285821",
    "count_view": 0
  },
  {
    "link_thumb": "https://live.staticflickr.com/65535/50041475132_2b67f239ab_n.jpg",
    "id_album": "-1863373220",
    "description": "StarWars_670189",
    "title": "StarWars_670189",
    "link_img": "https://live.staticflickr.com/65535/50041475132_3c07f4fe9a_o.jpg",
    "id_image": "StarWars_670189",
    "count_view": 0
  },
  {
    "link_thumb": "https://live.staticflickr.com/65535/50040337337_53b542b1e2_n.jpg",
    "id_album": "-1102314093",
    "description": "Planets_285582",
    "title": "Planets_285582",
    "link_img": "https://live.staticflickr.com/65535/50040337337_5902ee44ae_o.jpg",
    "id_image": "Planets_285582",
    "count_view": 0
  },
  {
    "link_thumb": "https://live.staticflickr.com/65535/50041591052_b11fe5ccf5_n.jpg",
    "id_album": "1267121215",
    "description": "Steampunk_762015",
    "title": "Steampunk_762015",
    "link_img": "https://live.staticflickr.com/65535/50041591052_5c25b4e5bf_o.jpg",
    "id_image": "Steampunk_762015",
    "count_view": 0
  },
  {
    "link_thumb": "https://live.staticflickr.com/65535/50041331981_9e815b08f8_n.jpg",
    "id_album": "1267121215",
    "description": "Steampunk_858543",
    "title": "Steampunk_858543",
    "link_img": "https://live.staticflickr.com/65535/50041331981_e818b6d85b_o.jpg",
    "id_image": "Steampunk_858543",
    "count_view": 0
  },
  {
    "link_thumb": "https://live.staticflickr.com/65535/50038931673_3411d1c4c0_n.jpg",
    "id_album": "-1964113117",
    "description": "City_599390",
    "title": "City_599390",
    "link_img": "https://live.staticflickr.com/65535/50038931673_a549ca7de0_o.jpg",
    "id_image": "City_599390",
    "count_view": 0
  },
  {
    "link_thumb": "https://live.staticflickr.com/65535/50039592463_becf565d4b_n.jpg",
    "id_album": "-1102314093",
    "description": "Planets_86410",
    "title": "Planets_86410",
    "link_img": "https://live.staticflickr.com/65535/50039592463_fb5894fcf1_o.jpg",
    "id_image": "Planets_86410",
    "count_view": 0
  },
  {
    "link_thumb": "https://live.staticflickr.com/65535/50039667357_1b291c16c8_n.jpg",
    "id_album": "1187037014",
    "description": "Battle_615954",
    "title": "Battle_615954",
    "link_img": "https://live.staticflickr.com/65535/50039667357_d77a41ae63_o.jpg",
    "id_image": "Battle_615954",
    "count_view": 0
  },
  {
    "link_thumb": "https://live.staticflickr.com/65535/50039886737_94af319445_n.jpg",
    "id_album": "1204249541",
    "description": "Galaxy_107614",
    "title": "Galaxy_107614",
    "link_img": "https://live.staticflickr.com/65535/50039886737_dfc9497c61_o.jpg",
    "id_image": "Galaxy_107614",
    "count_view": 0
  },
  {
    "link_thumb": "https://live.staticflickr.com/65535/50040898648_7bda980552_n.jpg",
    "id_album": "-1261420436",
    "description": "Warrior_373907",
    "title": "Warrior_373907",
    "link_img": "https://live.staticflickr.com/65535/50040898648_6d84609be8_o.jpg",
    "id_image": "Warrior_373907",
    "count_view": 0
  },
  {
    "link_thumb": "https://live.staticflickr.com/65535/50040098817_bcdbb98d8b_n.jpg",
    "id_album": "-1610342324",
    "description": "Nebula_77311",
    "title": "Nebula_77311",
    "link_img": "https://live.staticflickr.com/65535/50040098817_c9a131e319_o.jpg",
    "id_image": "Nebula_77311",
    "count_view": 0
  },
  {
    "link_thumb": "https://live.staticflickr.com/65535/50039422156_2125fc4afb_n.jpg",
    "id_album": "406431601",
    "description": "Building_431469",
    "title": "Building_431469",
    "link_img": "https://live.staticflickr.com/65535/50039422156_9152527d40_o.jpg",
    "id_image": "Building_431469",
    "count_view": 0
  },
  {
    "link_thumb": "https://live.staticflickr.com/65535/50039402503_b3eed3c971_n.jpg",
    "id_album": "395161030",
    "description": "Planet_464552",
    "title": "Planet_464552",
    "link_img": "https://live.staticflickr.com/65535/50039402503_ff9c15b5e1_o.jpg",
    "id_image": "Planet_464552",
    "count_view": 0
  },
  {
    "link_thumb": "https://live.staticflickr.com/65535/50040325082_8f058fa292_n.jpg",
    "id_album": "-1102314093",
    "description": "Planets_222333",
    "title": "Planets_222333",
    "link_img": "https://live.staticflickr.com/65535/50040325082_2563d53b63_o.jpg",
    "id_image": "Planets_222333",
    "count_view": 0
  },
  {
    "link_thumb": "https://live.staticflickr.com/65535/50039842741_82f1d09d07_n.jpg",
    "id_album": "-1610342324",
    "description": "Nebula_837101",
    "title": "Nebula_837101",
    "link_img": "https://live.staticflickr.com/65535/50039842741_1552989e6c_o.jpg",
    "id_image": "Nebula_837101",
    "count_view": 0
  },
  {
    "link_thumb": "https://live.staticflickr.com/65535/50040652052_ffdf349d86_n.jpg",
    "id_album": "779690680",
    "description": "Robot_877462",
    "title": "Robot_877462",
    "link_img": "https://live.staticflickr.com/65535/50040652052_35f24d94f9_o.jpg",
    "id_image": "Robot_877462",
    "count_view": 0
  },
  {
    "link_thumb": "https://live.staticflickr.com/65535/50041555042_4f9792f3b7_n.jpg",
    "id_album": "1267121215",
    "description": "Steampunk_190375",
    "title": "Steampunk_190375",
    "link_img": "https://live.staticflickr.com/65535/50041555042_10216c7a9b_o.jpg",
    "id_image": "Steampunk_190375",
    "count_view": 0
  },
  {
    "link_thumb": "https://live.staticflickr.com/65535/50039879183_83ebfbed65_n.jpg",
    "id_album": "779690680",
    "description": "Robot_937809",
    "title": "Robot_937809",
    "link_img": "https://live.staticflickr.com/65535/50039879183_374dd64cf0_o.jpg",
    "id_image": "Robot_937809",
    "count_view": 0
  },
  {
    "link_thumb": "https://live.staticflickr.com/65535/50038942843_15b4322392_n.jpg",
    "id_album": "-1964113117",
    "description": "City_711407",
    "title": "City_711407",
    "link_img": "https://live.staticflickr.com/65535/50038942843_c8dc3a691e_o.jpg",
    "id_image": "City_711407",
    "count_view": 0
  },
  {
    "link_thumb": "https://live.staticflickr.com/65535/50039789162_349724e90c_n.jpg",
    "id_album": "-1964113117",
    "description": "City_957074",
    "title": "City_957074",
    "link_img": "https://live.staticflickr.com/65535/50039789162_19a98d2e62_o.jpg",
    "id_image": "City_957074",
    "count_view": 0
  },
  {
    "link_thumb": "https://live.staticflickr.com/65535/50039755401_2fe71325d4_n.jpg",
    "id_album": "416351698",
    "description": "Moon_296096",
    "title": "Moon_296096",
    "link_img": "https://live.staticflickr.com/65535/50039755401_9e84e46c10_o.jpg",
    "id_image": "Moon_296096",
    "count_view": 0
  },
  {
    "link_thumb": "https://live.staticflickr.com/65535/50039445756_bb6d3a724d_n.jpg",
    "id_album": "-1964113117",
    "description": "City_211072",
    "title": "City_211072",
    "link_img": "https://live.staticflickr.com/65535/50039445756_023e907ce7_o.jpg",
    "id_image": "City_211072",
    "count_view": 0
  },
  {
    "link_thumb": "https://live.staticflickr.com/65535/50038793033_d390b04faa_n.jpg",
    "id_album": "523598895",
    "description": "Artistic_656921",
    "title": "Artistic_656921",
    "link_img": "https://live.staticflickr.com/65535/50038793033_98129bceec_o.jpg",
    "id_image": "Artistic_656921",
    "count_view": 0
  },
  {
    "link_thumb": "https://live.staticflickr.com/65535/50039093088_9273a4c136_n.jpg",
    "id_album": "1204249541",
    "description": "Galaxy_550127",
    "title": "Galaxy_550127",
    "link_img": "https://live.staticflickr.com/65535/50039093088_04ab6a15e5_o.jpg",
    "id_image": "Galaxy_550127",
    "count_view": 0
  },
  {
    "link_thumb": "https://live.staticflickr.com/65535/50040716312_32d4464f15_n.jpg",
    "id_album": "779690680",
    "description": "Robot_972822",
    "title": "Robot_972822",
    "link_img": "https://live.staticflickr.com/65535/50040716312_81a46941d8_o.jpg",
    "id_image": "Robot_972822",
    "count_view": 0
  },
  {
    "link_thumb": "https://live.staticflickr.com/65535/50040865568_4e1a0c5439_n.jpg",
    "id_album": "2020068132",
    "description": "Vehicle_905102",
    "title": "Vehicle_905102",
    "link_img": "https://live.staticflickr.com/65535/50040865568_33c46fca3f_o.jpg",
    "id_image": "Vehicle_905102",
    "count_view": 0
  },
  {
    "link_thumb": "https://live.staticflickr.com/65535/50041621817_b412a0b394_n.jpg",
    "id_album": "-1177476763",
    "description": "Sunrise_262635",
    "title": "Sunrise_262635",
    "link_img": "https://live.staticflickr.com/65535/50041621817_1a14a48d0a_o.jpg",
    "id_image": "Sunrise_262635",
    "count_view": 0
  },
  {
    "link_thumb": "https://live.staticflickr.com/65535/50040286386_59f1ec3ae1_n.jpg",
    "id_album": "779690680",
    "description": "Robot_309940",
    "title": "Robot_309940",
    "link_img": "https://live.staticflickr.com/65535/50040286386_efa91b9ed3_o.jpg",
    "id_image": "Robot_309940",
    "count_view": 0
  },
  {
    "link_thumb": "https://live.staticflickr.com/65535/50039388131_56321f2213_n.jpg",
    "id_album": "869545341",
    "description": "Astronaut_972111",
    "title": "Astronaut_972111",
    "link_img": "https://live.staticflickr.com/65535/50039388131_6cafac2703_o.jpg",
    "id_image": "Astronaut_972111",
    "count_view": 0
  },
  {
    "link_thumb": "https://live.staticflickr.com/65535/50040113272_20a3153b59_n.jpg",
    "id_album": "-1610342324",
    "description": "Nebula_882496",
    "title": "Nebula_882496",
    "link_img": "https://live.staticflickr.com/65535/50040113272_485a1ee482_o.jpg",
    "id_image": "Nebula_882496",
    "count_view": 0
  },
  {
    "link_thumb": "https://live.staticflickr.com/65535/50039499422_fda9ab72e5_n.jpg",
    "id_album": "-406145265",
    "description": "Aircraft_331628",
    "title": "Aircraft_331628",
    "link_img": "https://live.staticflickr.com/65535/50039499422_52c23724be_o.jpg",
    "id_image": "Aircraft_331628",
    "count_view": 0
  },
  {
    "link_thumb": "https://live.staticflickr.com/65535/50039676836_4b8161656d_n.jpg",
    "id_album": "1402713104",
    "description": "Landscape_325448",
    "title": "Landscape_325448",
    "link_img": "https://live.staticflickr.com/65535/50039676836_0caa866741_o.jpg",
    "id_image": "Landscape_325448",
    "count_view": 0
  },
  {
    "link_thumb": "https://live.staticflickr.com/65535/50040245391_629f756284_n.jpg",
    "id_album": "-839602625",
    "description": "Predator_551711",
    "title": "Predator_551711",
    "link_img": "https://live.staticflickr.com/65535/50040245391_56e3614f12_o.jpg",
    "id_image": "Predator_551711",
    "count_view": 0
  },
  {
    "link_thumb": "https://live.staticflickr.com/65535/50039988003_0f02bf36e9_n.jpg",
    "id_album": "1613540653",
    "description": "Space_822448",
    "title": "Space_822448",
    "link_img": "https://live.staticflickr.com/65535/50039988003_9e4eb5d915_o.jpg",
    "id_image": "Space_822448",
    "count_view": 0
  },
  {
    "link_thumb": "https://live.staticflickr.com/65535/50040367746_ec1e7c2c47_n.jpg",
    "id_album": "779690680",
    "description": "Robot_81188",
    "title": "Robot_81188",
    "link_img": "https://live.staticflickr.com/65535/50040367746_7f2d2e58b2_o.jpg",
    "id_image": "Robot_81188",
    "count_view": 0
  },
  {
    "link_thumb": "https://live.staticflickr.com/65535/50041580312_8d4a9bf218_n.jpg",
    "id_album": "1267121215",
    "description": "Steampunk_413258",
    "title": "Steampunk_413258",
    "link_img": "https://live.staticflickr.com/65535/50041580312_f775e3874a_o.jpg",
    "id_image": "Steampunk_413258",
    "count_view": 0
  },
  {
    "link_thumb": "https://live.staticflickr.com/65535/50039782446_df1df3727d_n.jpg",
    "id_album": "-1610342324",
    "description": "Nebula_286803",
    "title": "Nebula_286803",
    "link_img": "https://live.staticflickr.com/65535/50039782446_850da57d27_o.jpg",
    "id_image": "Nebula_286803",
    "count_view": 0
  },
  {
    "link_thumb": "https://live.staticflickr.com/65535/50041462466_483e7f8eec_n.jpg",
    "id_album": "-1261420436",
    "description": "Warrior_450058",
    "title": "Warrior_450058",
    "link_img": "https://live.staticflickr.com/65535/50041462466_03764027dd_o.jpg",
    "id_image": "Warrior_450058",
    "count_view": 0
  },
  {
    "link_thumb": "https://live.staticflickr.com/65535/50040264303_9c477e855b_n.jpg",
    "id_album": "-1449720967",
    "description": "StarTrek_275123",
    "title": "StarTrek_275123",
    "link_img": "https://live.staticflickr.com/65535/50040264303_370f33f96a_o.jpg",
    "id_image": "StarTrek_275123",
    "count_view": 0
  },
  {
    "link_thumb": "https://live.staticflickr.com/65535/50039654676_8927c9f1e6_n.jpg",
    "id_album": "1204249541",
    "description": "Galaxy_868969",
    "title": "Galaxy_868969",
    "link_img": "https://live.staticflickr.com/65535/50039654676_bb99960356_o.jpg",
    "id_image": "Galaxy_868969",
    "count_view": 0
  },
  {
    "link_thumb": "https://live.staticflickr.com/65535/50040028212_f47078a9b6_n.jpg",
    "id_album": "-1610342324",
    "description": "Nebula_1773",
    "title": "Nebula_1773",
    "link_img": "https://live.staticflickr.com/65535/50040028212_ab7ab6955c_o.jpg",
    "id_image": "Nebula_1773",
    "count_view": 0
  },
  {
    "link_thumb": "https://live.staticflickr.com/65535/50039724893_92cccedbc3_n.jpg",
    "id_album": "779690680",
    "description": "Robot_267595",
    "title": "Robot_267595",
    "link_img": "https://live.staticflickr.com/65535/50039724893_f6bae3d085_o.jpg",
    "id_image": "Robot_267595",
    "count_view": 0
  },
  {
    "link_thumb": "https://live.staticflickr.com/65535/50040195377_56dbcceb01_n.jpg",
    "id_album": "395161030",
    "description": "Planet_335814",
    "title": "Planet_335814",
    "link_img": "https://live.staticflickr.com/65535/50040195377_6b8c72a68b_o.jpg",
    "id_image": "Planet_335814",
    "count_view": 0
  },
  {
    "link_thumb": "https://live.staticflickr.com/65535/50039535911_5da9a7bc8b_n.jpg",
    "id_album": "894679094",
    "description": "Collision_121800",
    "title": "Collision_121800",
    "link_img": "https://live.staticflickr.com/65535/50039535911_e782d1d6be_o.jpg",
    "id_image": "Collision_121800",
    "count_view": 0
  },
  {
    "link_thumb": "https://live.staticflickr.com/65535/50040528392_8c028f533e_n.jpg",
    "id_album": "779690680",
    "description": "Robot_202139",
    "title": "Robot_202139",
    "link_img": "https://live.staticflickr.com/65535/50040528392_15e89fba6a_o.jpg",
    "id_image": "Robot_202139",
    "count_view": 0
  },
  {
    "link_thumb": "https://live.staticflickr.com/65535/50039860243_6e258db873_n.jpg",
    "id_album": "779690680",
    "description": "Robot_915581",
    "title": "Robot_915581",
    "link_img": "https://live.staticflickr.com/65535/50039860243_f1407d9f2a_o.jpg",
    "id_image": "Robot_915581",
    "count_view": 0
  },
  {
    "link_thumb": "https://live.staticflickr.com/65535/50039353208_d35a3f83fc_n.jpg",
    "id_album": "395161030",
    "description": "Planet_102670",
    "title": "Planet_102670",
    "link_img": "https://live.staticflickr.com/65535/50039353208_14c18580ab_o.jpg",
    "id_image": "Planet_102670",
    "count_view": 0
  },
  {
    "link_thumb": "https://live.staticflickr.com/65535/50040178883_0693de2f47_n.jpg",
    "id_album": "2130067313",
    "description": "Spaceship_676807",
    "title": "Spaceship_676807",
    "link_img": "https://live.staticflickr.com/65535/50040178883_eb6c9a9001_o.jpg",
    "id_image": "Spaceship_676807",
    "count_view": 0
  },
  {
    "link_thumb": "https://live.staticflickr.com/65535/50040571567_37c3b9d85e_n.jpg",
    "id_album": "779690680",
    "description": "Robot_423178",
    "title": "Robot_423178",
    "link_img": "https://live.staticflickr.com/65535/50040571567_4714004f1c_o.jpg",
    "id_image": "Robot_423178",
    "count_view": 0
  },
  {
    "link_thumb": "https://live.staticflickr.com/65535/50039395206_2948d9cc40_n.jpg",
    "id_album": "1187037014",
    "description": "Battle_173806",
    "title": "Battle_173806",
    "link_img": "https://live.staticflickr.com/65535/50039395206_f65349ac5a_o.jpg",
    "id_image": "Battle_173806",
    "count_view": 0
  },
  {
    "link_thumb": "https://live.staticflickr.com/65535/50039578337_1af17a9b88_n.jpg",
    "id_album": "523598895",
    "description": "Artistic_220815",
    "title": "Artistic_220815",
    "link_img": "https://live.staticflickr.com/65535/50039578337_a9f34f449d_o.jpg",
    "id_image": "Artistic_220815",
    "count_view": 0
  },
  {
    "link_thumb": "https://live.staticflickr.com/65535/50040474096_5d880af27a_n.jpg",
    "id_album": "1613540653",
    "description": "Space_180281",
    "title": "Space_180281",
    "link_img": "https://live.staticflickr.com/65535/50040474096_441681528a_o.jpg",
    "id_image": "Space_180281",
    "count_view": 0
  },
  {
    "link_thumb": "https://live.staticflickr.com/65535/50039083763_86e4851efa_n.jpg",
    "id_album": "1204249541",
    "description": "Galaxy_421600",
    "title": "Galaxy_421600",
    "link_img": "https://live.staticflickr.com/65535/50039083763_3d38f06d0a_o.jpg",
    "id_image": "Galaxy_421600",
    "count_view": 0
  },
  {
    "link_thumb": "https://live.staticflickr.com/65535/50040695652_1f5ba38cc9_n.jpg",
    "id_album": "779690680",
    "description": "Robot_934613",
    "title": "Robot_934613",
    "link_img": "https://live.staticflickr.com/65535/50040695652_8209c71908_o.jpg",
    "id_image": "Robot_934613",
    "count_view": 0
  },
  {
    "link_thumb": "https://live.staticflickr.com/65535/50039614182_ecbb5986d6_n.jpg",
    "id_album": "869545341",
    "description": "Astronaut_238542",
    "title": "Astronaut_238542",
    "link_img": "https://live.staticflickr.com/65535/50039614182_5f480e4b5a_o.jpg",
    "id_image": "Astronaut_238542",
    "count_view": 0
  },
  {
    "link_thumb": "https://live.staticflickr.com/65535/50038909273_8c0820a258_n.jpg",
    "id_album": "-1964113117",
    "description": "City_282520",
    "title": "City_282520",
    "link_img": "https://live.staticflickr.com/65535/50038909273_c411ece272_o.jpg",
    "id_image": "City_282520",
    "count_view": 0
  },
  {
    "link_thumb": "https://live.staticflickr.com/65535/50039891742_53aa0fa11a_n.jpg",
    "id_album": "1204249541",
    "description": "Galaxy_280753",
    "title": "Galaxy_280753",
    "link_img": "https://live.staticflickr.com/65535/50039891742_e4b2b3727d_o.jpg",
    "id_image": "Galaxy_280753",
    "count_view": 0
  },
  {
    "link_thumb": "https://live.staticflickr.com/65535/50039662092_f640483f96_n.jpg",
    "id_album": "1187037014",
    "description": "Battle_275553",
    "title": "Battle_275553",
    "link_img": "https://live.staticflickr.com/65535/50039662092_06e683d791_o.jpg",
    "id_image": "Battle_275553",
    "count_view": 0
  },
  {
    "link_thumb": "https://live.staticflickr.com/65535/50040708088_f74e41e4c7_n.jpg",
    "id_album": "-1587696329",
    "description": "Stars_291490",
    "title": "Stars_291490",
    "link_img": "https://live.staticflickr.com/65535/50040708088_f8caf08022_o.jpg",
    "id_image": "Stars_291490",
    "count_view": 0
  },
  {
    "link_thumb": "https://live.staticflickr.com/65535/50039227833_cecde3f753_n.jpg",
    "id_album": "-1610342324",
    "description": "Nebula_25546",
    "title": "Nebula_25546",
    "link_img": "https://live.staticflickr.com/65535/50039227833_d25201e7dd_o.jpg",
    "id_image": "Nebula_25546",
    "count_view": 0
  },
  {
    "link_thumb": "https://live.staticflickr.com/65535/50039431521_4bd0e47844_n.jpg",
    "id_album": "-1964113117",
    "description": "City_103887",
    "title": "City_103887",
    "link_img": "https://live.staticflickr.com/65535/50039431521_77f311dd00_o.jpg",
    "id_image": "City_103887",
    "count_view": 0
  },
  {
    "link_thumb": "https://live.staticflickr.com/65535/50040099582_357012e678_n.jpg",
    "id_album": "-1610342324",
    "description": "Nebula_7823",
    "title": "Nebula_7823",
    "link_img": "https://live.staticflickr.com/65535/50040099582_840061a40d_o.jpg",
    "id_image": "Nebula_7823",
    "count_view": 0
  },
  {
    "link_thumb": "https://live.staticflickr.com/65535/50040627116_17d9c68f14_n.jpg",
    "id_album": "2130067313",
    "description": "Spaceship_285177",
    "title": "Spaceship_285177",
    "link_img": "https://live.staticflickr.com/65535/50040627116_5447b5068d_o.jpg",
    "id_image": "Spaceship_285177",
    "count_view": 0
  },
  {
    "link_thumb": "https://live.staticflickr.com/65535/50039247473_ca36d71f58_n.jpg",
    "id_album": "-1610342324",
    "description": "Nebula_440486",
    "title": "Nebula_440486",
    "link_img": "https://live.staticflickr.com/65535/50039247473_e53cc56381_o.jpg",
    "id_image": "Nebula_440486",
    "count_view": 0
  },
  {
    "link_thumb": "https://live.staticflickr.com/65535/50039325561_08c8e9ced9_n.jpg",
    "id_album": "523598895",
    "description": "Artistic_262902",
    "title": "Artistic_262902",
    "link_img": "https://live.staticflickr.com/65535/50039325561_215fab522b_o.jpg",
    "id_image": "Artistic_262902",
    "count_view": 0
  },
  {
    "link_thumb": "https://live.staticflickr.com/65535/50039834971_9b290757ef_n.jpg",
    "id_album": "-1610342324",
    "description": "Nebula_77308",
    "title": "Nebula_77308",
    "link_img": "https://live.staticflickr.com/65535/50039834971_e2501c9372_o.jpg",
    "id_image": "Nebula_77308",
    "count_view": 0
  },
  {
    "link_thumb": "https://live.staticflickr.com/65535/50039145573_da6f6d7c46_n.jpg",
    "id_album": "1402713104",
    "description": "Landscape_559164",
    "title": "Landscape_559164",
    "link_img": "https://live.staticflickr.com/65535/50039145573_a4e8912a56_o.jpg",
    "id_image": "Landscape_559164",
    "count_view": 0
  },
  {
    "link_thumb": "https://live.staticflickr.com/65535/50039782556_aa05965b37_n.jpg",
    "id_album": "-1610342324",
    "description": "Nebula_286807",
    "title": "Nebula_286807",
    "link_img": "https://live.staticflickr.com/65535/50039782556_1e4c596b0c_o.jpg",
    "id_image": "Nebula_286807",
    "count_view": 0
  },
  {
    "link_thumb": "https://live.staticflickr.com/65535/50038966678_3f8e297388_n.jpg",
    "id_album": "-1964113117",
    "description": "City_896214",
    "title": "City_896214",
    "link_img": "https://live.staticflickr.com/65535/50038966678_2e48e46991_o.jpg",
    "id_image": "City_896214",
    "count_view": 0
  },
  {
    "link_thumb": "https://live.staticflickr.com/65535/50040464086_a3dbfe1644_n.jpg",
    "id_album": "1613540653",
    "description": "Space_113280",
    "title": "Space_113280",
    "link_img": "https://live.staticflickr.com/65535/50040464086_d3ede598d7_o.jpg",
    "id_image": "Space_113280",
    "count_view": 0
  },
  {
    "link_thumb": "https://live.staticflickr.com/65535/50040807622_5df400d8e0_n.jpg",
    "id_album": "1613540653",
    "description": "Space_822462",
    "title": "Space_822462",
    "link_img": "https://live.staticflickr.com/65535/50040807622_8f3e4666d0_o.jpg",
    "id_image": "Space_822462",
    "count_view": 0
  },
  {
    "link_thumb": "https://live.staticflickr.com/65535/50040057042_e13531789a_n.jpg",
    "id_album": "-1610342324",
    "description": "Nebula_408841",
    "title": "Nebula_408841",
    "link_img": "https://live.staticflickr.com/65535/50040057042_cc4c2efdd0_o.jpg",
    "id_image": "Nebula_408841",
    "count_view": 0
  },
  {
    "link_thumb": "https://live.staticflickr.com/65535/50040663868_5aa6e4fb94_n.jpg",
    "id_album": "-1863373220",
    "description": "StarWars_710385",
    "title": "StarWars_710385",
    "link_img": "https://live.staticflickr.com/65535/50040663868_42969cba37_o.jpg",
    "id_image": "StarWars_710385",
    "count_view": 0
  },
  {
    "link_thumb": "https://live.staticflickr.com/65535/50039259513_472e8e6af0_n.jpg",
    "id_album": "-1610342324",
    "description": "Nebula_555596",
    "title": "Nebula_555596",
    "link_img": "https://live.staticflickr.com/65535/50039259513_2a671824c3_o.jpg",
    "id_image": "Nebula_555596",
    "count_view": 0
  },
  {
    "link_thumb": "https://live.staticflickr.com/65535/50039676206_08d624ccc0_n.jpg",
    "id_album": "1402713104",
    "description": "Landscape_324617",
    "title": "Landscape_324617",
    "link_img": "https://live.staticflickr.com/65535/50039676206_d9bfc81894_o.jpg",
    "id_image": "Landscape_324617",
    "count_view": 0
  },
  {
    "link_thumb": "https://live.staticflickr.com/65535/50039606183_cda5d2b2dc_n.jpg",
    "id_album": "376235057",
    "description": "Planetscape_286985",
    "title": "Planetscape_286985",
    "link_img": "https://live.staticflickr.com/65535/50039606183_44d6e38c20_o.jpg",
    "id_image": "Planetscape_286985",
    "count_view": 0
  },
  {
    "link_thumb": "https://live.staticflickr.com/65535/50040796597_0a71136d1a_n.jpg",
    "id_album": "1613540653",
    "description": "Space_704756",
    "title": "Space_704756",
    "link_img": "https://live.staticflickr.com/65535/50040796597_0c10b9cec4_o.jpg",
    "id_image": "Space_704756",
    "count_view": 0
  },
  {
    "link_thumb": "https://live.staticflickr.com/65535/50041728607_0f6449b8b0_n.jpg",
    "id_album": "-1261420436",
    "description": "Warrior_501780",
    "title": "Warrior_501780",
    "link_img": "https://live.staticflickr.com/65535/50041728607_080e01eb53_o.jpg",
    "id_image": "Warrior_501780",
    "count_view": 0
  },
  {
    "link_thumb": "https://live.staticflickr.com/65535/50040812583_902348c3d1_n.jpg",
    "id_album": "-1177476763",
    "description": "Sunrise_464557",
    "title": "Sunrise_464557",
    "link_img": "https://live.staticflickr.com/65535/50040812583_dca425bf30_o.jpg",
    "id_image": "Sunrise_464557",
    "count_view": 0
  },
  {
    "link_thumb": "https://live.staticflickr.com/65535/50039293628_526d4095b3_n.jpg",
    "id_album": "-1610342324",
    "description": "Nebula_839502",
    "title": "Nebula_839502",
    "link_img": "https://live.staticflickr.com/65535/50039293628_ff24600156_o.jpg",
    "id_image": "Nebula_839502",
    "count_view": 0
  },
  {
    "link_thumb": "https://live.staticflickr.com/65535/50039378366_ac1d1b1f91_n.jpg",
    "id_album": "869545341",
    "description": "Astronaut_923960",
    "title": "Astronaut_923960",
    "link_img": "https://live.staticflickr.com/65535/50039378366_e12d4744d3_o.jpg",
    "id_image": "Astronaut_923960",
    "count_view": 0
  },
  {
    "link_thumb": "https://live.staticflickr.com/65535/50041011077_a35a159901_n.jpg",
    "id_album": "2130067313",
    "description": "Spaceship_745689",
    "title": "Spaceship_745689",
    "link_img": "https://live.staticflickr.com/65535/50041011077_888bc9c8a2_o.jpg",
    "id_image": "Spaceship_745689",
    "count_view": 0
  },
  {
    "link_thumb": "https://live.staticflickr.com/65535/50038850393_e2736f1a6b_n.jpg",
    "id_album": "1187037014",
    "description": "Battle_265237",
    "title": "Battle_265237",
    "link_img": "https://live.staticflickr.com/65535/50038850393_b760154662_o.jpg",
    "id_image": "Battle_265237",
    "count_view": 0
  },
  {
    "link_thumb": "https://live.staticflickr.com/65535/50040258808_bfd440e3fe_n.jpg",
    "id_album": "-1449720967",
    "description": "StarTrek_258592",
    "title": "StarTrek_258592",
    "link_img": "https://live.staticflickr.com/65535/50040258808_27e0db1efd_o.jpg",
    "id_image": "StarTrek_258592",
    "count_view": 0
  },
  {
    "link_thumb": "https://live.staticflickr.com/65535/50040472522_bd75eccb72_n.jpg",
    "id_album": "-482547208",
    "description": "PostApocalyptic_349008",
    "title": "PostApocalyptic_349008",
    "link_img": "https://live.staticflickr.com/65535/50040472522_b3c71bfa9a_o.jpg",
    "id_image": "PostApocalyptic_349008",
    "count_view": 0
  },
  {
    "link_thumb": "https://live.staticflickr.com/65535/50041311936_efca285afb_n.jpg",
    "id_album": "1267121215",
    "description": "Steampunk_293749",
    "title": "Steampunk_293749",
    "link_img": "https://live.staticflickr.com/65535/50041311936_697abaf830_o.jpg",
    "id_image": "Steampunk_293749",
    "count_view": 0
  },
  {
    "link_thumb": "https://live.staticflickr.com/65535/50039623438_6bb0f8af0b_n.jpg",
    "id_album": "376235057",
    "description": "Planetscape_502982",
    "title": "Planetscape_502982",
    "link_img": "https://live.staticflickr.com/65535/50039623438_54e77dc030_o.jpg",
    "id_image": "Planetscape_502982",
    "count_view": 0
  },
  {
    "link_thumb": "https://live.staticflickr.com/65535/50040804782_eb63c005d1_n.jpg",
    "id_album": "1613540653",
    "description": "Space_786790",
    "title": "Space_786790",
    "link_img": "https://live.staticflickr.com/65535/50040804782_d44aff73db_o.jpg",
    "id_image": "Space_786790",
    "count_view": 0
  },
  {
    "link_thumb": "https://live.staticflickr.com/65535/50040068273_c813fec39b_n.jpg",
    "id_album": "2130067313",
    "description": "Spaceship_278841",
    "title": "Spaceship_278841",
    "link_img": "https://live.staticflickr.com/65535/50040068273_371abe0cd2_o.jpg",
    "id_image": "Spaceship_278841",
    "count_view": 0
  },
  {
    "link_thumb": "https://live.staticflickr.com/65535/50039330381_9ba5c61937_n.jpg",
    "id_album": "523598895",
    "description": "Artistic_344215",
    "title": "Artistic_344215",
    "link_img": "https://live.staticflickr.com/65535/50039330381_e8f07f7382_o.jpg",
    "id_image": "Artistic_344215",
    "count_view": 0
  },
  {
    "link_thumb": "https://live.staticflickr.com/65535/50039732108_ae1ce57ac5_n.jpg",
    "id_album": "779690680",
    "description": "Robot_307407",
    "title": "Robot_307407",
    "link_img": "https://live.staticflickr.com/65535/50039732108_a9c1aea53e_o.jpg",
    "id_image": "Robot_307407",
    "count_view": 0
  },
  {
    "link_thumb": "https://live.staticflickr.com/65535/50038972998_63d96a61aa_n.jpg",
    "id_album": "-1964113117",
    "description": "City_920075",
    "title": "City_920075",
    "link_img": "https://live.staticflickr.com/65535/50038972998_6e5b7028c5_o.jpg",
    "id_image": "City_920075",
    "count_view": 0
  },
  {
    "link_thumb": "https://live.staticflickr.com/65535/50038856968_21718abd15_n.jpg",
    "id_album": "1187037014",
    "description": "Battle_631687",
    "title": "Battle_631687",
    "link_img": "https://live.staticflickr.com/65535/50038856968_1b20f3c410_o.jpg",
    "id_image": "Battle_631687",
    "count_view": 0
  },
  {
    "link_thumb": "https://live.staticflickr.com/65535/50040085927_d654532440_n.jpg",
    "id_album": "-1610342324",
    "description": "Nebula_689583",
    "title": "Nebula_689583",
    "link_img": "https://live.staticflickr.com/65535/50040085927_271894aa9f_o.jpg",
    "id_image": "Nebula_689583",
    "count_view": 0
  },
  {
    "link_thumb": "https://live.staticflickr.com/65535/50039905922_0e2698a0c4_n.jpg",
    "id_album": "1204249541",
    "description": "Galaxy_555689",
    "title": "Galaxy_555689",
    "link_img": "https://live.staticflickr.com/65535/50039905922_e0ba21bb8d_o.jpg",
    "id_image": "Galaxy_555689",
    "count_view": 0
  },
  {
    "link_thumb": "https://live.staticflickr.com/65535/50039922452_c599439ee5_n.jpg",
    "id_album": "1402713104",
    "description": "Landscape_113129",
    "title": "Landscape_113129",
    "link_img": "https://live.staticflickr.com/65535/50039922452_fb6029e928_o.jpg",
    "id_image": "Landscape_113129",
    "count_view": 0
  },
  {
    "link_thumb": "https://live.staticflickr.com/65535/50039637941_3b6e57a917_n.jpg",
    "id_album": "1204249541",
    "description": "Galaxy_479494",
    "title": "Galaxy_479494",
    "link_img": "https://live.staticflickr.com/65535/50039637941_b9800085fd_o.jpg",
    "id_image": "Galaxy_479494",
    "count_view": 0
  },
  {
    "link_thumb": "https://live.staticflickr.com/65535/50039243651_60dd956931_n.jpg",
    "id_album": "849020728",
    "description": "Alien_104476",
    "title": "Alien_104476",
    "link_img": "https://live.staticflickr.com/65535/50039243651_2694aec3a0_o.jpg",
    "id_image": "Alien_104476",
    "count_view": 0
  },
  {
    "link_thumb": "https://live.staticflickr.com/65535/50039182418_6784a2a8e4_n.jpg",
    "id_album": "-1388385651",
    "description": "MilkyWay_482715",
    "title": "MilkyWay_482715",
    "link_img": "https://live.staticflickr.com/65535/50039182418_43b6a3103f_o.jpg",
    "id_image": "MilkyWay_482715",
    "count_view": 0
  },
  {
    "link_thumb": "https://live.staticflickr.com/65535/50038892783_4a13ee3552_n.jpg",
    "id_album": "-1964113117",
    "description": "City_198938",
    "title": "City_198938",
    "link_img": "https://live.staticflickr.com/65535/50038892783_91a2b7a98e_o.jpg",
    "id_image": "City_198938",
    "count_view": 0
  },
  {
    "link_thumb": "https://live.staticflickr.com/65535/50041509027_9d3e55fc83_n.jpg",
    "id_album": "-1863373220",
    "description": "StarWars_969634",
    "title": "StarWars_969634",
    "link_img": "https://live.staticflickr.com/65535/50041509027_a8b123f895_o.jpg",
    "id_image": "StarWars_969634",
    "count_view": 0
  },
  {
    "link_thumb": "https://live.staticflickr.com/65535/50040193403_dcc3520567_n.jpg",
    "id_album": "2130067313",
    "description": "Spaceship_744907",
    "title": "Spaceship_744907",
    "link_img": "https://live.staticflickr.com/65535/50040193403_030f9ea36b_o.jpg",
    "id_image": "Spaceship_744907",
    "count_view": 0
  },
  {
    "link_thumb": "https://live.staticflickr.com/65535/50041466112_4a7077b052_n.jpg",
    "id_album": "-1863373220",
    "description": "StarWars_642168",
    "title": "StarWars_642168",
    "link_img": "https://live.staticflickr.com/65535/50041466112_94d6ce4a67_o.jpg",
    "id_image": "StarWars_642168",
    "count_view": 0
  },
  {
    "link_thumb": "https://live.staticflickr.com/65535/50039313386_6d7f209cee_n.jpg",
    "id_album": "523598895",
    "description": "Artistic_207800",
    "title": "Artistic_207800",
    "link_img": "https://live.staticflickr.com/65535/50039313386_7a1a5dfe5b_o.jpg",
    "id_image": "Artistic_207800",
    "count_view": 0
  },
  {
    "link_thumb": "https://live.staticflickr.com/65535/50040441872_0682cedd97_n.jpg",
    "id_album": "376235057",
    "description": "Planetscape_589835",
    "title": "Planetscape_589835",
    "link_img": "https://live.staticflickr.com/65535/50040441872_4213ea89cc_o.jpg",
    "id_image": "Planetscape_589835",
    "count_view": 0
  },
  {
    "link_thumb": "https://live.staticflickr.com/65535/50039880203_1b1d3e64d3_n.jpg",
    "id_album": "779690680",
    "description": "Robot_938441",
    "title": "Robot_938441",
    "link_img": "https://live.staticflickr.com/65535/50039880203_8ff511f3bc_o.jpg",
    "id_image": "Robot_938441",
    "count_view": 0
  },
  {
    "link_thumb": "https://live.staticflickr.com/65535/50039623611_283cc89fb9_n.jpg",
    "id_album": "1204249541",
    "description": "Galaxy_1006931",
    "title": "Galaxy_1006931",
    "link_img": "https://live.staticflickr.com/65535/50039623611_2e06dbaa88_o.jpg",
    "id_image": "Galaxy_1006931",
    "count_view": 0
  },
  {
    "link_thumb": "https://live.staticflickr.com/65535/50038934653_544287118a_n.jpg",
    "id_album": "-1964113117",
    "description": "City_649176",
    "title": "City_649176",
    "link_img": "https://live.staticflickr.com/65535/50038934653_d003c25b98_o.jpg",
    "id_image": "City_649176",
    "count_view": 0
  },
  {
    "link_thumb": "https://live.staticflickr.com/65535/50039357811_24ac0eac84_n.jpg",
    "id_album": "869545341",
    "description": "Astronaut_565172",
    "title": "Astronaut_565172",
    "link_img": "https://live.staticflickr.com/65535/50039357811_049dcdd072_o.jpg",
    "id_image": "Astronaut_565172",
    "count_view": 0
  },
  {
    "link_thumb": "https://live.staticflickr.com/65535/50039873473_e81f33c478_n.jpg",
    "id_album": "779690680",
    "description": "Robot_930302",
    "title": "Robot_930302",
    "link_img": "https://live.staticflickr.com/65535/50039873473_61c054da38_o.jpg",
    "id_image": "Robot_930302",
    "count_view": 0
  },
  {
    "link_thumb": "https://live.staticflickr.com/65535/50039505287_bd61cca65b_n.jpg",
    "id_album": "849020728",
    "description": "Alien_1011232",
    "title": "Alien_1011232",
    "link_img": "https://live.staticflickr.com/65535/50039505287_d42de51647_o.jpg",
    "id_image": "Alien_1011232",
    "count_view": 0
  },
  {
    "link_thumb": "https://live.staticflickr.com/65535/50038700338_4d5bfeccd5_n.jpg",
    "id_album": "849020728",
    "description": "Alien_162788",
    "title": "Alien_162788",
    "link_img": "https://live.staticflickr.com/65535/50038700338_1af298d1e2_o.jpg",
    "id_image": "Alien_162788",
    "count_view": 0
  },
  {
    "link_thumb": "https://live.staticflickr.com/65535/50038699178_11ec2631bc_n.jpg",
    "id_album": "849020728",
    "description": "Alien_152631",
    "title": "Alien_152631",
    "link_img": "https://live.staticflickr.com/65535/50038699178_a8eedc5aa9_o.jpg",
    "id_image": "Alien_152631",
    "count_view": 0
  },
  {
    "link_thumb": "https://live.staticflickr.com/65535/50039705278_55e6b83aa3_n.jpg",
    "id_album": "779690680",
    "description": "Robot_173373",
    "title": "Robot_173373",
    "link_img": "https://live.staticflickr.com/65535/50039705278_844f7fea72_o.jpg",
    "id_image": "Robot_173373",
    "count_view": 0
  },
  {
    "link_thumb": "https://live.staticflickr.com/65535/50039341081_dcfb74aea1_n.jpg",
    "id_album": "523598895",
    "description": "Artistic_653391",
    "title": "Artistic_653391",
    "link_img": "https://live.staticflickr.com/65535/50039341081_a1caa306a8_o.jpg",
    "id_image": "Artistic_653391",
    "count_view": 0
  },
  {
    "link_thumb": "https://live.staticflickr.com/65535/50039490372_e72d04b25e_n.jpg",
    "id_album": "280884763",
    "description": "Abstract_222299",
    "title": "Abstract_222299",
    "link_img": "https://live.staticflickr.com/65535/50039490372_b85f937a76_o.jpg",
    "id_image": "Abstract_222299",
    "count_view": 0
  },
  {
    "link_thumb": "https://live.staticflickr.com/65535/50039159053_b339d649f2_n.jpg",
    "id_album": "1402713104",
    "description": "Landscape_80660",
    "title": "Landscape_80660",
    "link_img": "https://live.staticflickr.com/65535/50039159053_3302981f3f_o.jpg",
    "id_image": "Landscape_80660",
    "count_view": 0
  },
  {
    "link_thumb": "https://live.staticflickr.com/65535/50039876428_0c496b365a_n.jpg",
    "id_album": "779690680",
    "description": "Robot_933180",
    "title": "Robot_933180",
    "link_img": "https://live.staticflickr.com/65535/50039876428_b6f321ebd7_o.jpg",
    "id_image": "Robot_933180",
    "count_view": 0
  },
  {
    "link_thumb": "https://live.staticflickr.com/65535/50040035037_3a48ed9e47_n.jpg",
    "id_album": "-1610342324",
    "description": "Nebula_219820",
    "title": "Nebula_219820",
    "link_img": "https://live.staticflickr.com/65535/50040035037_477b6f67de_o.jpg",
    "id_image": "Nebula_219820",
    "count_view": 0
  },
  {
    "link_thumb": "https://live.staticflickr.com/65535/50039318701_92fe2ba90d_n.jpg",
    "id_album": "523598895",
    "description": "Artistic_222730",
    "title": "Artistic_222730",
    "link_img": "https://live.staticflickr.com/65535/50039318701_df9f7e0c4a_o.jpg",
    "id_image": "Artistic_222730",
    "count_view": 0
  },
  {
    "link_thumb": "https://live.staticflickr.com/65535/50040760957_6304788c9a_n.jpg",
    "id_album": "1613540653",
    "description": "Space_335428",
    "title": "Space_335428",
    "link_img": "https://live.staticflickr.com/65535/50040760957_bd1ba9a476_o.jpg",
    "id_image": "Space_335428",
    "count_view": 0
  },
  {
    "link_thumb": "https://live.staticflickr.com/65535/50039938091_dc8ac0d01a_n.jpg",
    "id_album": "395161030",
    "description": "Planet_372303",
    "title": "Planet_372303",
    "link_img": "https://live.staticflickr.com/65535/50039938091_eb251b81d3_o.jpg",
    "id_image": "Planet_372303",
    "count_view": 0
  },
  {
    "link_thumb": "https://live.staticflickr.com/65535/50040750496_4e5263dae1_n.jpg",
    "id_album": "2130067313",
    "description": "Spaceship_81619",
    "title": "Spaceship_81619",
    "link_img": "https://live.staticflickr.com/65535/50040750496_e6e5266fb8_o.jpg",
    "id_image": "Spaceship_81619",
    "count_view": 0
  },
  {
    "link_thumb": "https://live.staticflickr.com/65535/50039940037_bc2cb98495_n.jpg",
    "id_album": "1402713104",
    "description": "Landscape_324659",
    "title": "Landscape_324659",
    "link_img": "https://live.staticflickr.com/65535/50039940037_b08fb9e0d8_o.jpg",
    "id_image": "Landscape_324659",
    "count_view": 0
  },
  {
    "link_thumb": "https://live.staticflickr.com/65535/50040745673_4dd989279f_n.jpg",
    "id_album": "1267121215",
    "description": "Steampunk_209609",
    "title": "Steampunk_209609",
    "link_img": "https://live.staticflickr.com/65535/50040745673_522e84913b_o.jpg",
    "id_image": "Steampunk_209609",
    "count_view": 0
  },
  {
    "link_thumb": "https://live.staticflickr.com/65535/50040695962_f522f31bae_n.jpg",
    "id_album": "779690680",
    "description": "Robot_934615",
    "title": "Robot_934615",
    "link_img": "https://live.staticflickr.com/65535/50040695962_7d5a785f39_o.jpg",
    "id_image": "Robot_934615",
    "count_view": 0
  },
  {
    "link_thumb": "https://live.staticflickr.com/65535/50039392556_438b9e514b_n.jpg",
    "id_album": "869545341",
    "description": "Astronaut_997879",
    "title": "Astronaut_997879",
    "link_img": "https://live.staticflickr.com/65535/50039392556_98c3bc940e_o.jpg",
    "id_image": "Astronaut_997879",
    "count_view": 0
  },
  {
    "link_thumb": "https://live.staticflickr.com/65535/50041030073_1305bb5fa6_n.jpg",
    "id_album": "-1675918237",
    "description": "WomenWarrior_602059",
    "title": "WomenWarrior_602059",
    "link_img": "https://live.staticflickr.com/65535/50041030073_1476ef39fe_o.jpg",
    "id_image": "WomenWarrior_602059",
    "count_view": 0
  },
  {
    "link_thumb": "https://live.staticflickr.com/65535/50039322776_1fbeacfa4d_n.jpg",
    "id_album": "523598895",
    "description": "Artistic_240289",
    "title": "Artistic_240289",
    "link_img": "https://live.staticflickr.com/65535/50039322776_03ea530c25_o.jpg",
    "id_image": "Artistic_240289",
    "count_view": 0
  },
  {
    "link_thumb": "https://live.staticflickr.com/65535/50041684232_9e2343ce16_n.jpg",
    "id_album": "2020068132",
    "description": "Vehicle_944731",
    "title": "Vehicle_944731",
    "link_img": "https://live.staticflickr.com/65535/50041684232_56b2c0ca91_o.jpg",
    "id_image": "Vehicle_944731",
    "count_view": 0
  },
  {
    "link_thumb": "https://live.staticflickr.com/65535/50039681372_cf0d91235f_n.jpg",
    "id_album": "-1780971522",
    "description": "Biohazard_577356",
    "title": "Biohazard_577356",
    "link_img": "https://live.staticflickr.com/65535/50039681372_3be4c8485b_o.jpg",
    "id_image": "Biohazard_577356",
    "count_view": 0
  },
  {
    "link_thumb": "https://live.staticflickr.com/65535/50040087647_a8efe44b4a_n.jpg",
    "id_album": "-1610342324",
    "description": "Nebula_703542",
    "title": "Nebula_703542",
    "link_img": "https://live.staticflickr.com/65535/50040087647_b775c88f05_o.jpg",
    "id_image": "Nebula_703542",
    "count_view": 0
  },
  {
    "link_thumb": "https://live.staticflickr.com/65535/50040232246_66fe0d5084_n.jpg",
    "id_album": "-482547208",
    "description": "PostApocalyptic_940000",
    "title": "PostApocalyptic_940000",
    "link_img": "https://live.staticflickr.com/65535/50040232246_e72d170975_o.jpg",
    "id_image": "PostApocalyptic_940000",
    "count_view": 0
  },
  {
    "link_thumb": "https://live.staticflickr.com/65535/50039113068_26e36a2749_n.jpg",
    "id_album": "1402713104",
    "description": "Landscape_171795",
    "title": "Landscape_171795",
    "link_img": "https://live.staticflickr.com/65535/50039113068_116514c868_o.jpg",
    "id_image": "Landscape_171795",
    "count_view": 0
  },
  {
    "link_thumb": "https://live.staticflickr.com/65535/50040395386_fe6b66f96c_n.jpg",
    "id_album": "779690680",
    "description": "Robot_887982",
    "title": "Robot_887982",
    "link_img": "https://live.staticflickr.com/65535/50040395386_09b0f5988c_o.jpg",
    "id_image": "Robot_887982",
    "count_view": 0
  },
  {
    "link_thumb": "https://live.staticflickr.com/65535/50039907793_8a3de94951_n.jpg",
    "id_album": "1613540653",
    "description": "Space_107620",
    "title": "Space_107620",
    "link_img": "https://live.staticflickr.com/65535/50039907793_ce6240e9ed_o.jpg",
    "id_image": "Space_107620",
    "count_view": 0
  },
  {
    "link_thumb": "https://live.staticflickr.com/65535/50039735668_2beebca9fd_n.jpg",
    "id_album": "779690680",
    "description": "Robot_321425",
    "title": "Robot_321425",
    "link_img": "https://live.staticflickr.com/65535/50039735668_04425cd93d_o.jpg",
    "id_image": "Robot_321425",
    "count_view": 0
  },
  {
    "link_thumb": "https://live.staticflickr.com/65535/50039914722_19d5088bd7_n.jpg",
    "id_album": "1204249541",
    "description": "Galaxy_691001",
    "title": "Galaxy_691001",
    "link_img": "https://live.staticflickr.com/65535/50039914722_a5e4f0cafd_o.jpg",
    "id_image": "Galaxy_691001",
    "count_view": 0
  },
  {
    "link_thumb": "https://live.staticflickr.com/65535/50040300103_8fc449f8f3_n.jpg",
    "id_album": "-1449720967",
    "description": "StarTrek_339024",
    "title": "StarTrek_339024",
    "link_img": "https://live.staticflickr.com/65535/50040300103_2306dc9c3f_o.jpg",
    "id_image": "StarTrek_339024",
    "count_view": 0
  },
  {
    "link_thumb": "https://live.staticflickr.com/65535/50039548948_43d1f1b0d7_n.jpg",
    "id_album": "-1102314093",
    "description": "Planets_363081",
    "title": "Planets_363081",
    "link_img": "https://live.staticflickr.com/65535/50039548948_db7a32716e_o.jpg",
    "id_image": "Planets_363081",
    "count_view": 0
  },
  {
    "link_thumb": "https://live.staticflickr.com/65535/50040115831_3ffc6895e1_n.jpg",
    "id_album": "-1102314093",
    "description": "Planets_439169",
    "title": "Planets_439169",
    "link_img": "https://live.staticflickr.com/65535/50040115831_11b882951d_o.jpg",
    "id_image": "Planets_439169",
    "count_view": 0
  },
  {
    "link_thumb": "https://live.staticflickr.com/65535/50039933897_c49bdddd1e_n.jpg",
    "id_album": "1402713104",
    "description": "Landscape_282801",
    "title": "Landscape_282801",
    "link_img": "https://live.staticflickr.com/65535/50039933897_3895b5cd45_o.jpg",
    "id_image": "Landscape_282801",
    "count_view": 0
  },
  {
    "link_thumb": "https://live.staticflickr.com/65535/50040014458_23bb36e9b4_n.jpg",
    "id_album": "2130067313",
    "description": "Spaceship_1004213",
    "title": "Spaceship_1004213",
    "link_img": "https://live.staticflickr.com/65535/50040014458_45e6f89b09_o.jpg",
    "id_image": "Spaceship_1004213",
    "count_view": 0
  },
  {
    "link_thumb": "https://live.staticflickr.com/65535/50039636802_57d8928915_n.jpg",
    "id_album": "869545341",
    "description": "Astronaut_863506",
    "title": "Astronaut_863506",
    "link_img": "https://live.staticflickr.com/65535/50039636802_8900faeaea_o.jpg",
    "id_image": "Astronaut_863506",
    "count_view": 0
  },
  {
    "link_thumb": "https://live.staticflickr.com/65535/50040872918_f78d0f58b2_n.jpg",
    "id_album": "2020068132",
    "description": "Vehicle_972129",
    "title": "Vehicle_972129",
    "link_img": "https://live.staticflickr.com/65535/50040872918_077d190938_o.jpg",
    "id_image": "Vehicle_972129",
    "count_view": 0
  },
  {
    "link_thumb": "https://live.staticflickr.com/65535/50040514812_71fe5b86c1_n.jpg",
    "id_album": "779690680",
    "description": "Robot_107012",
    "title": "Robot_107012",
    "link_img": "https://live.staticflickr.com/65535/50040514812_9ac6b5a993_o.jpg",
    "id_image": "Robot_107012",
    "count_view": 0
  },
  {
    "link_thumb": "https://live.staticflickr.com/65535/50039972468_bba2ea8015_n.jpg",
    "id_album": "1613540653",
    "description": "Space_692166",
    "title": "Space_692166",
    "link_img": "https://live.staticflickr.com/65535/50039972468_88f28c82fb_o.jpg",
    "id_image": "Space_692166",
    "count_view": 0
  },
  {
    "link_thumb": "https://live.staticflickr.com/65535/50040191947_a018f6d241_n.jpg",
    "id_album": "395161030",
    "description": "Planet_324785",
    "title": "Planet_324785",
    "link_img": "https://live.staticflickr.com/65535/50040191947_364a3f7821_o.jpg",
    "id_image": "Planet_324785",
    "count_view": 0
  },
  {
    "link_thumb": "https://live.staticflickr.com/65535/50039558502_14d17ce0ba_n.jpg",
    "id_album": "523598895",
    "description": "Artistic_151685",
    "title": "Artistic_151685",
    "link_img": "https://live.staticflickr.com/65535/50039558502_63331df695_o.jpg",
    "id_image": "Artistic_151685",
    "count_view": 0
  },
  {
    "link_thumb": "https://live.staticflickr.com/65535/50040351241_38058f7c80_n.jpg",
    "id_album": "779690680",
    "description": "Robot_649110",
    "title": "Robot_649110",
    "link_img": "https://live.staticflickr.com/65535/50040351241_004cc04465_o.jpg",
    "id_image": "Robot_649110",
    "count_view": 0
  },
  {
    "link_thumb": "https://live.staticflickr.com/65535/50041047902_090005729d_n.jpg",
    "id_album": "2130067313",
    "description": "Spaceship_992543",
    "title": "Spaceship_992543",
    "link_img": "https://live.staticflickr.com/65535/50041047902_0f27dee4b9_o.jpg",
    "id_image": "Spaceship_992543",
    "count_view": 0
  },
  {
    "link_thumb": "https://live.staticflickr.com/65535/50039581522_6ec592067c_n.jpg",
    "id_album": "523598895",
    "description": "Artistic_225561",
    "title": "Artistic_225561",
    "link_img": "https://live.staticflickr.com/65535/50039581522_31b7006eb3_o.jpg",
    "id_image": "Artistic_225561",
    "count_view": 0
  },
  {
    "link_thumb": "https://live.staticflickr.com/65535/50039888923_dcbbf3b851_n.jpg",
    "id_album": "779690680",
    "description": "Robot_955666",
    "title": "Robot_955666",
    "link_img": "https://live.staticflickr.com/65535/50039888923_5cb9e0be8a_o.jpg",
    "id_image": "Robot_955666",
    "count_view": 0
  },
  {
    "link_thumb": "https://live.staticflickr.com/65535/50040210952_1e9639de29_n.jpg",
    "id_album": "395161030",
    "description": "Planet_393595",
    "title": "Planet_393595",
    "link_img": "https://live.staticflickr.com/65535/50040210952_ca0fb80e4c_o.jpg",
    "id_image": "Planet_393595",
    "count_view": 0
  },
  {
    "link_thumb": "https://live.staticflickr.com/65535/50041607907_2fcbc32cc3_n.jpg",
    "id_album": "-221671103",
    "description": "Sun_286806",
    "title": "Sun_286806",
    "link_img": "https://live.staticflickr.com/65535/50041607907_451be4c970_o.jpg",
    "id_image": "Sun_286806",
    "count_view": 0
  },
  {
    "link_thumb": "https://live.staticflickr.com/65535/50039679863_66a41b60e9_n.jpg",
    "id_album": "-482547208",
    "description": "PostApocalyptic_941238",
    "title": "PostApocalyptic_941238",
    "link_img": "https://live.staticflickr.com/65535/50039679863_62529091e1_o.jpg",
    "id_image": "PostApocalyptic_941238",
    "count_view": 0
  },
  {
    "link_thumb": "https://live.staticflickr.com/65535/50039515568_90877dcae4_n.jpg",
    "id_album": "-1102314093",
    "description": "Planets_247212",
    "title": "Planets_247212",
    "link_img": "https://live.staticflickr.com/65535/50039515568_54b620c07f_o.jpg",
    "id_image": "Planets_247212",
    "count_view": 0
  },
  {
    "link_thumb": "https://live.staticflickr.com/65535/50041804952_09b852c657_n.jpg",
    "id_album": "-1126835654",
    "description": "Women_611019",
    "title": "Women_611019",
    "link_img": "https://live.staticflickr.com/65535/50041804952_da7a85234b_o.jpg",
    "id_image": "Women_611019",
    "count_view": 0
  },
  {
    "link_thumb": "https://live.staticflickr.com/65535/50040238816_74b6576306_n.jpg",
    "id_album": "-839602625",
    "description": "Predator_27651",
    "title": "Predator_27651",
    "link_img": "https://live.staticflickr.com/65535/50040238816_36fc3fce1d_o.jpg",
    "id_image": "Predator_27651",
    "count_view": 0
  },
  {
    "link_thumb": "https://live.staticflickr.com/65535/50039714143_121fffec76_n.jpg",
    "id_album": "779690680",
    "description": "Robot_222877",
    "title": "Robot_222877",
    "link_img": "https://live.staticflickr.com/65535/50039714143_230a9b86c8_o.jpg",
    "id_image": "Robot_222877",
    "count_view": 0
  },
  {
    "link_thumb": "https://live.staticflickr.com/65535/50039595627_d944ea941a_n.jpg",
    "id_album": "523598895",
    "description": "Artistic_401753",
    "title": "Artistic_401753",
    "link_img": "https://live.staticflickr.com/65535/50039595627_e07b326afd_o.jpg",
    "id_image": "Artistic_401753",
    "count_view": 0
  },
  {
    "link_thumb": "https://live.staticflickr.com/65535/50038762508_d9cf0e620f_n.jpg",
    "id_album": "523598895",
    "description": "Artistic_195200",
    "title": "Artistic_195200",
    "link_img": "https://live.staticflickr.com/65535/50038762508_918d6013cb_o.jpg",
    "id_image": "Artistic_195200",
    "count_view": 0
  },
  {
    "link_thumb": "https://live.staticflickr.com/65535/50040442962_4ca930429e_n.jpg",
    "id_album": "376235057",
    "description": "Planetscape_614568",
    "title": "Planetscape_614568",
    "link_img": "https://live.staticflickr.com/65535/50040442962_27d9521b03_o.jpg",
    "id_image": "Planetscape_614568",
    "count_view": 0
  },
  {
    "link_thumb": "https://live.staticflickr.com/65535/50039364271_629c2c0a5a_n.jpg",
    "id_album": "869545341",
    "description": "Astronaut_712150",
    "title": "Astronaut_712150",
    "link_img": "https://live.staticflickr.com/65535/50039364271_48bff2895a_o.jpg",
    "id_image": "Astronaut_712150",
    "count_view": 0
  },
  {
    "link_thumb": "https://live.staticflickr.com/65535/50040064552_44ecf40d85_n.jpg",
    "id_album": "-1610342324",
    "description": "Nebula_500766",
    "title": "Nebula_500766",
    "link_img": "https://live.staticflickr.com/65535/50040064552_c1f1c28989_o.jpg",
    "id_image": "Nebula_500766",
    "count_view": 0
  },
  {
    "link_thumb": "https://live.staticflickr.com/65535/50039544571_b8b9ca04d4_n.jpg",
    "id_album": "894679094",
    "description": "Collision_931797",
    "title": "Collision_931797",
    "link_img": "https://live.staticflickr.com/65535/50039544571_4029542c00_o.jpg",
    "id_image": "Collision_931797",
    "count_view": 0
  },
  {
    "link_thumb": "https://live.staticflickr.com/65535/50040547731_53733b58b4_n.jpg",
    "id_album": "1613540653",
    "description": "Space_853378",
    "title": "Space_853378",
    "link_img": "https://live.staticflickr.com/65535/50040547731_b33d114e6f_o.jpg",
    "id_image": "Space_853378",
    "count_view": 0
  },
  {
    "link_thumb": "https://live.staticflickr.com/65535/50039824581_f2d1310c5e_n.jpg",
    "id_album": "-1610342324",
    "description": "Nebula_703317",
    "title": "Nebula_703317",
    "link_img": "https://live.staticflickr.com/65535/50039824581_fb10323851_o.jpg",
    "id_image": "Nebula_703317",
    "count_view": 0
  },
  {
    "link_thumb": "https://live.staticflickr.com/65535/50039654571_53c5c625a7_n.jpg",
    "id_album": "1204249541",
    "description": "Galaxy_86678",
    "title": "Galaxy_86678",
    "link_img": "https://live.staticflickr.com/65535/50039654571_325b45ba47_o.jpg",
    "id_image": "Galaxy_86678",
    "count_view": 0
  },
  {
    "link_thumb": "https://live.staticflickr.com/65535/50039644811_fce9ecfe0f_n.jpg",
    "id_album": "1204249541",
    "description": "Galaxy_585163",
    "title": "Galaxy_585163",
    "link_img": "https://live.staticflickr.com/65535/50039644811_3b740e6923_o.jpg",
    "id_image": "Galaxy_585163",
    "count_view": 0
  },
  {
    "link_thumb": "https://live.staticflickr.com/65535/50039227896_498af4048e_n.jpg",
    "id_album": "280884763",
    "description": "Abstract_221721",
    "title": "Abstract_221721",
    "link_img": "https://live.staticflickr.com/65535/50039227896_4fec9f1eb5_o.jpg",
    "id_image": "Abstract_221721",
    "count_view": 0
  },
  {
    "link_thumb": "https://live.staticflickr.com/65535/50039315051_c3cd0e9cfd_n.jpg",
    "id_album": "523598895",
    "description": "Artistic_212423",
    "title": "Artistic_212423",
    "link_img": "https://live.staticflickr.com/65535/50039315051_417128a360_o.jpg",
    "id_image": "Artistic_212423",
    "count_view": 0
  },
  {
    "link_thumb": "https://live.staticflickr.com/65535/50039902732_a29157ac93_n.jpg",
    "id_album": "1204249541",
    "description": "Galaxy_529455",
    "title": "Galaxy_529455",
    "link_img": "https://live.staticflickr.com/65535/50039902732_21b73e2afe_o.jpg",
    "id_image": "Galaxy_529455",
    "count_view": 0
  },
  {
    "link_thumb": "https://live.staticflickr.com/65535/50038994998_1390e41f90_n.jpg",
    "id_album": "894679094",
    "description": "Collision_719901",
    "title": "Collision_719901",
    "link_img": "https://live.staticflickr.com/65535/50038994998_7048f29474_o.jpg",
    "id_image": "Collision_719901",
    "count_view": 0
  },
  {
    "link_thumb": "https://live.staticflickr.com/65535/50040744897_fca21fe1c2_n.jpg",
    "id_album": "1613540653",
    "description": "Space_218839",
    "title": "Space_218839",
    "link_img": "https://live.staticflickr.com/65535/50040744897_e0c4173615_o.jpg",
    "id_image": "Space_218839",
    "count_view": 0
  },
  {
    "link_thumb": "https://live.staticflickr.com/65535/50040925803_c0cbf7d138_n.jpg",
    "id_album": "-1261420436",
    "description": "Warrior_649049",
    "title": "Warrior_649049",
    "link_img": "https://live.staticflickr.com/65535/50040925803_2a06f15c00_o.jpg",
    "id_image": "Warrior_649049",
    "count_view": 0
  },
  {
    "link_thumb": "https://live.staticflickr.com/65535/50039698021_827a266d29_n.jpg",
    "id_album": "1402713104",
    "description": "Landscape_667162",
    "title": "Landscape_667162",
    "link_img": "https://live.staticflickr.com/65535/50039698021_d320d34d8d_o.jpg",
    "id_image": "Landscape_667162",
    "count_view": 0
  },
  {
    "link_thumb": "https://live.staticflickr.com/65535/50039097678_b6ffd67171_n.jpg",
    "id_album": "1204249541",
    "description": "Galaxy_596544",
    "title": "Galaxy_596544",
    "link_img": "https://live.staticflickr.com/65535/50039097678_95ea3be8e3_o.jpg",
    "id_image": "Galaxy_596544",
    "count_view": 0
  },
  {
    "link_thumb": "https://live.staticflickr.com/65535/50039859122_a4e80b556e_n.jpg",
    "id_album": "829169633",
    "description": "Cyborg_602355",
    "title": "Cyborg_602355",
    "link_img": "https://live.staticflickr.com/65535/50039859122_4465209aa5_o.jpg",
    "id_image": "Cyborg_602355",
    "count_view": 0
  },
  {
    "link_thumb": "https://live.staticflickr.com/65535/50039244668_2d51bd5e94_n.jpg",
    "id_album": "-1610342324",
    "description": "Nebula_415271",
    "title": "Nebula_415271",
    "link_img": "https://live.staticflickr.com/65535/50039244668_63bcb45f1e_o.jpg",
    "id_image": "Nebula_415271",
    "count_view": 0
  },
  {
    "link_thumb": "https://live.staticflickr.com/65535/50041257241_4247cfe1ca_n.jpg",
    "id_album": "-1587696329",
    "description": "Stars_173368",
    "title": "Stars_173368",
    "link_img": "https://live.staticflickr.com/65535/50041257241_fe13e4bef0_o.jpg",
    "id_image": "Stars_173368",
    "count_view": 0
  },
  {
    "link_thumb": "https://live.staticflickr.com/65535/50038727493_5af9d06ca1_n.jpg",
    "id_album": "849020728",
    "description": "Alien_864723",
    "title": "Alien_864723",
    "link_img": "https://live.staticflickr.com/65535/50038727493_f0976ddcbc_o.jpg",
    "id_image": "Alien_864723",
    "count_view": 0
  },
  {
    "link_thumb": "https://live.staticflickr.com/65535/50039857033_b0da1286be_n.jpg",
    "id_album": "779690680",
    "description": "Robot_913022",
    "title": "Robot_913022",
    "link_img": "https://live.staticflickr.com/65535/50039857033_dfd553bcbd_o.jpg",
    "id_image": "Robot_913022",
    "count_view": 0
  },
  {
    "link_thumb": "https://live.staticflickr.com/65535/50040428806_66a8ded474_n.jpg",
    "id_album": "779690680",
    "description": "Robot_931799",
    "title": "Robot_931799",
    "link_img": "https://live.staticflickr.com/65535/50040428806_5e600eb5e0_o.jpg",
    "id_image": "Robot_931799",
    "count_view": 0
  },
  {
    "link_thumb": "https://live.staticflickr.com/65535/50040516437_6a0488d52c_n.jpg",
    "id_album": "779690680",
    "description": "Robot_112627",
    "title": "Robot_112627",
    "link_img": "https://live.staticflickr.com/65535/50040516437_cd7725eaf2_o.jpg",
    "id_image": "Robot_112627",
    "count_view": 0
  },
  {
    "link_thumb": "https://live.staticflickr.com/65535/50039623806_9698f6cbba_n.jpg",
    "id_album": "1204249541",
    "description": "Galaxy_1010664",
    "title": "Galaxy_1010664",
    "link_img": "https://live.staticflickr.com/65535/50039623806_094c4445af_o.jpg",
    "id_image": "Galaxy_1010664",
    "count_view": 0
  },
  {
    "link_thumb": "https://live.staticflickr.com/65535/50038759718_08d8fafd36_n.jpg",
    "id_album": "523598895",
    "description": "Artistic_187047",
    "title": "Artistic_187047",
    "link_img": "https://live.staticflickr.com/65535/50038759718_1b762acc9c_o.jpg",
    "id_image": "Artistic_187047",
    "count_view": 0
  },
  {
    "link_thumb": "https://live.staticflickr.com/65535/50041206966_9d06676b2e_n.jpg",
    "id_album": "-1863373220",
    "description": "StarWars_662920",
    "title": "StarWars_662920",
    "link_img": "https://live.staticflickr.com/65535/50041206966_162206a8d3_o.jpg",
    "id_image": "StarWars_662920",
    "count_view": 0
  },
  {
    "link_thumb": "https://live.staticflickr.com/65535/50039204128_c8cb2db35a_n.jpg",
    "id_album": "416351698",
    "description": "Moon_115680",
    "title": "Moon_115680",
    "link_img": "https://live.staticflickr.com/65535/50039204128_13e536417f_o.jpg",
    "id_image": "Moon_115680",
    "count_view": 0
  },
  {
    "link_thumb": "https://live.staticflickr.com/65535/50039995402_e84a8eeff5_n.jpg",
    "id_album": "-1388385651",
    "description": "MilkyWay_528668",
    "title": "MilkyWay_528668",
    "link_img": "https://live.staticflickr.com/65535/50039995402_fd41a38416_o.jpg",
    "id_image": "MilkyWay_528668",
    "count_view": 0
  },
  {
    "link_thumb": "https://live.staticflickr.com/65535/50040489261_863227a024_n.jpg",
    "id_album": "1613540653",
    "description": "Space_287069",
    "title": "Space_287069",
    "link_img": "https://live.staticflickr.com/65535/50040489261_1f1062cd62_o.jpg",
    "id_image": "Space_287069",
    "count_view": 0
  },
  {
    "link_thumb": "https://live.staticflickr.com/65535/50039780136_538a8d09af_n.jpg",
    "id_album": "-1610342324",
    "description": "Nebula_271590",
    "title": "Nebula_271590",
    "link_img": "https://live.staticflickr.com/65535/50039780136_7425de8c45_o.jpg",
    "id_image": "Nebula_271590",
    "count_view": 0
  },
  {
    "link_thumb": "https://live.staticflickr.com/65535/50039292753_1cf7cdfcd1_n.jpg",
    "id_album": "-1610342324",
    "description": "Nebula_832140",
    "title": "Nebula_832140",
    "link_img": "https://live.staticflickr.com/65535/50039292753_9be7040c26_o.jpg",
    "id_image": "Nebula_832140",
    "count_view": 0
  },
  {
    "link_thumb": "https://live.staticflickr.com/65535/50040647622_3d183ac359_n.jpg",
    "id_album": "779690680",
    "description": "Robot_872979",
    "title": "Robot_872979",
    "link_img": "https://live.staticflickr.com/65535/50040647622_a3697da5c4_o.jpg",
    "id_image": "Robot_872979",
    "count_view": 0
  },
  {
    "link_thumb": "https://live.staticflickr.com/65535/50040444821_5ee65e75a5_n.jpg",
    "id_album": "779690680",
    "description": "Robot_955773",
    "title": "Robot_955773",
    "link_img": "https://live.staticflickr.com/65535/50040444821_31f31fa5b9_o.jpg",
    "id_image": "Robot_955773",
    "count_view": 0
  },
  {
    "link_thumb": "https://live.staticflickr.com/65535/50041288216_f0b65ac18a_n.jpg",
    "id_album": "1267121215",
    "description": "Steampunk_149854",
    "title": "Steampunk_149854",
    "link_img": "https://live.staticflickr.com/65535/50041288216_8c84ba55c5_o.jpg",
    "id_image": "Steampunk_149854",
    "count_view": 0
  },
  {
    "link_thumb": "https://live.staticflickr.com/65535/50038838778_4845a33262_n.jpg",
    "id_album": "869545341",
    "description": "Astronaut_967914",
    "title": "Astronaut_967914",
    "link_img": "https://live.staticflickr.com/65535/50038838778_a1857e4857_o.jpg",
    "id_image": "Astronaut_967914",
    "count_view": 0
  },
  {
    "link_thumb": "https://live.staticflickr.com/65535/50038767003_8b030a6453_n.jpg",
    "id_album": "523598895",
    "description": "Artistic_212238",
    "title": "Artistic_212238",
    "link_img": "https://live.staticflickr.com/65535/50038767003_c1cfb7b88d_o.jpg",
    "id_image": "Artistic_212238",
    "count_view": 0
  },
  {
    "link_thumb": "https://live.staticflickr.com/65535/50039883601_5c059b27c4_n.jpg",
    "id_album": "-1862561193",
    "description": "Other_280795",
    "title": "Other_280795",
    "link_img": "https://live.staticflickr.com/65535/50039883601_0c8edf0243_o.jpg",
    "id_image": "Other_280795",
    "count_view": 0
  },
  {
    "link_thumb": "https://live.staticflickr.com/65535/50039533601_a4ebab99d3_n.jpg",
    "id_album": "-1964113117",
    "description": "City_996269",
    "title": "City_996269",
    "link_img": "https://live.staticflickr.com/65535/50039533601_00c2598760_o.jpg",
    "id_image": "City_996269",
    "count_view": 0
  },
  {
    "link_thumb": "https://live.staticflickr.com/65535/50040515072_ee61f83feb_n.jpg",
    "id_album": "779690680",
    "description": "Robot_109435",
    "title": "Robot_109435",
    "link_img": "https://live.staticflickr.com/65535/50040515072_4cbfa01d66_o.jpg",
    "id_image": "Robot_109435",
    "count_view": 0
  },
  {
    "link_thumb": "https://live.staticflickr.com/65535/50038996003_39e9f230f8_n.jpg",
    "id_album": "894679094",
    "description": "Collision_913000",
    "title": "Collision_913000",
    "link_img": "https://live.staticflickr.com/65535/50038996003_53a594d53d_o.jpg",
    "id_image": "Collision_913000",
    "count_view": 0
  },
  {
    "link_thumb": "https://live.staticflickr.com/65535/50038945718_23a800956a_n.jpg",
    "id_album": "-1964113117",
    "description": "City_741189",
    "title": "City_741189",
    "link_img": "https://live.staticflickr.com/65535/50038945718_da69657171_o.jpg",
    "id_image": "City_741189",
    "count_view": 0
  },
  {
    "link_thumb": "https://live.staticflickr.com/65535/50039414756_f0fcc16be6_n.jpg",
    "id_album": "-1780971522",
    "description": "Biohazard_484912",
    "title": "Biohazard_484912",
    "link_img": "https://live.staticflickr.com/65535/50039414756_ba99d5da45_o.jpg",
    "id_image": "Biohazard_484912",
    "count_view": 0
  },
  {
    "link_thumb": "https://live.staticflickr.com/65535/50040639777_79e7e64d5f_n.jpg",
    "id_album": "779690680",
    "description": "Robot_857295",
    "title": "Robot_857295",
    "link_img": "https://live.staticflickr.com/65535/50040639777_3700f3938b_o.jpg",
    "id_image": "Robot_857295",
    "count_view": 0
  },
  {
    "link_thumb": "https://live.staticflickr.com/65535/50038794068_ba8c496e60_n.jpg",
    "id_album": "523598895",
    "description": "Artistic_677074",
    "title": "Artistic_677074",
    "link_img": "https://live.staticflickr.com/65535/50038794068_eb52b9bb1c_o.jpg",
    "id_image": "Artistic_677074",
    "count_view": 0
  },
  {
    "link_thumb": "https://live.staticflickr.com/65535/50040277576_dfabeefa1f_n.jpg",
    "id_album": "779690680",
    "description": "Robot_267709",
    "title": "Robot_267709",
    "link_img": "https://live.staticflickr.com/65535/50040277576_32845d8c24_o.jpg",
    "id_image": "Robot_267709",
    "count_view": 0
  },
  {
    "link_thumb": "https://live.staticflickr.com/65535/50039774087_6f2d66117d_n.jpg",
    "id_album": "-1964113117",
    "description": "City_883152",
    "title": "City_883152",
    "link_img": "https://live.staticflickr.com/65535/50039774087_7c905d4156_o.jpg",
    "id_image": "City_883152",
    "count_view": 0
  },
  {
    "link_thumb": "https://live.staticflickr.com/65535/50041465211_c438715155_n.jpg",
    "id_album": "-1261420436",
    "description": "Warrior_500636",
    "title": "Warrior_500636",
    "link_img": "https://live.staticflickr.com/65535/50041465211_33c271bb29_o.jpg",
    "id_image": "Warrior_500636",
    "count_view": 0
  },
  {
    "link_thumb": "https://live.staticflickr.com/65535/50039538293_aca9ca6a3d_n.jpg",
    "id_album": "-1102314093",
    "description": "Planets_344254",
    "title": "Planets_344254",
    "link_img": "https://live.staticflickr.com/65535/50039538293_094dd77ae5_o.jpg",
    "id_image": "Planets_344254",
    "count_view": 0
  },
  {
    "link_thumb": "https://live.staticflickr.com/65535/50039650221_35299d90a0_n.jpg",
    "id_album": "1204249541",
    "description": "Galaxy_676680",
    "title": "Galaxy_676680",
    "link_img": "https://live.staticflickr.com/65535/50039650221_6a283cbdce_o.jpg",
    "id_image": "Galaxy_676680",
    "count_view": 0
  },
  {
    "link_thumb": "https://live.staticflickr.com/65535/50039276221_869b666fe1_n.jpg",
    "id_album": "849020728",
    "description": "Alien_907089",
    "title": "Alien_907089",
    "link_img": "https://live.staticflickr.com/65535/50039276221_d85b50a5f7_o.jpg",
    "id_image": "Alien_907089",
    "count_view": 0
  },
  {
    "link_thumb": "https://live.staticflickr.com/65535/50039655241_c17cab32a1_n.jpg",
    "id_album": "1204249541",
    "description": "Galaxy_89391",
    "title": "Galaxy_89391",
    "link_img": "https://live.staticflickr.com/65535/50039655241_61b06a657b_o.jpg",
    "id_image": "Galaxy_89391",
    "count_view": 0
  },
  {
    "link_thumb": "https://live.staticflickr.com/65535/50039273741_bf90710f10_n.jpg",
    "id_album": "849020728",
    "description": "Alien_72043",
    "title": "Alien_72043",
    "link_img": "https://live.staticflickr.com/65535/50039273741_9e5c8aa68c_o.jpg",
    "id_image": "Alien_72043",
    "count_view": 0
  },
  {
    "link_thumb": "https://live.staticflickr.com/65535/50039752418_9ba5f06753_n.jpg",
    "id_album": "779690680",
    "description": "Robot_412738",
    "title": "Robot_412738",
    "link_img": "https://live.staticflickr.com/65535/50039752418_21ebf8738c_o.jpg",
    "id_image": "Robot_412738",
    "count_view": 0
  },
  {
    "link_thumb": "https://live.staticflickr.com/65535/50039840523_f3dd3a6586_n.jpg",
    "id_album": "779690680",
    "description": "Robot_884819",
    "title": "Robot_884819",
    "link_img": "https://live.staticflickr.com/65535/50039840523_269305a324_o.jpg",
    "id_image": "Robot_884819",
    "count_view": 0
  },
  {
    "link_thumb": "https://live.staticflickr.com/65535/50039830157_4dfc89e288_n.jpg",
    "id_album": "-1372247677",
    "description": "Cyberpunk_949756",
    "title": "Cyberpunk_949756",
    "link_img": "https://live.staticflickr.com/65535/50039830157_1904dd5371_o.jpg",
    "id_image": "Cyberpunk_949756",
    "count_view": 0
  },
  {
    "link_thumb": "https://live.staticflickr.com/65535/50039285238_a2b5615b45_n.jpg",
    "id_album": "-1610342324",
    "description": "Nebula_772694",
    "title": "Nebula_772694",
    "link_img": "https://live.staticflickr.com/65535/50039285238_0d8c071f4a_o.jpg",
    "id_image": "Nebula_772694",
    "count_view": 0
  },
  {
    "link_thumb": "https://live.staticflickr.com/65535/50039778256_b8635cace2_n.jpg",
    "id_album": "-1610342324",
    "description": "Nebula_261298",
    "title": "Nebula_261298",
    "link_img": "https://live.staticflickr.com/65535/50039778256_e09c3666d1_o.jpg",
    "id_image": "Nebula_261298",
    "count_view": 0
  },
  {
    "link_thumb": "https://live.staticflickr.com/65535/50040906633_665cb7d8f8_n.jpg",
    "id_album": "-1261420436",
    "description": "Warrior_426470",
    "title": "Warrior_426470",
    "link_img": "https://live.staticflickr.com/65535/50040906633_6c024b8064_o.jpg",
    "id_image": "Warrior_426470",
    "count_view": 0
  },
  {
    "link_thumb": "https://live.staticflickr.com/65535/50039905061_9805104031_n.jpg",
    "id_album": "395161030",
    "description": "Planet_140189",
    "title": "Planet_140189",
    "link_img": "https://live.staticflickr.com/65535/50039905061_12c871aa1c_o.jpg",
    "id_image": "Planet_140189",
    "count_view": 0
  },
  {
    "link_thumb": "https://live.staticflickr.com/65535/50038746058_9c6b474123_n.jpg",
    "id_album": "523598895",
    "description": "Artistic_115150",
    "title": "Artistic_115150",
    "link_img": "https://live.staticflickr.com/65535/50038746058_3209216a41_o.jpg",
    "id_image": "Artistic_115150",
    "count_view": 0
  },
  {
    "link_thumb": "https://live.staticflickr.com/65535/50039652537_ca5424085b_n.jpg",
    "id_album": "869545341",
    "description": "Astronaut_984725",
    "title": "Astronaut_984725",
    "link_img": "https://live.staticflickr.com/65535/50039652537_1528070dbd_o.jpg",
    "id_image": "Astronaut_984725",
    "count_view": 0
  },
  {
    "link_thumb": "https://live.staticflickr.com/65535/50039763116_fa90be45fc_n.jpg",
    "id_album": "-1610342324",
    "description": "Nebula_133363",
    "title": "Nebula_133363",
    "link_img": "https://live.staticflickr.com/65535/50039763116_4b3926f55d_o.jpg",
    "id_image": "Nebula_133363",
    "count_view": 0
  },
  {
    "link_thumb": "https://live.staticflickr.com/65535/50040462941_95242c621b_n.jpg",
    "id_album": "1613540653",
    "description": "Space_109273",
    "title": "Space_109273",
    "link_img": "https://live.staticflickr.com/65535/50040462941_fcb1e53440_o.jpg",
    "id_image": "Space_109273",
    "count_view": 0
  },
  {
    "link_thumb": "https://live.staticflickr.com/65535/50038865963_515c8bd23c_n.jpg",
    "id_album": "-1780971522",
    "description": "Biohazard_458261",
    "title": "Biohazard_458261",
    "link_img": "https://live.staticflickr.com/65535/50038865963_d6d01657e7_o.jpg",
    "id_image": "Biohazard_458261",
    "count_view": 0
  },
  {
    "link_thumb": "https://live.staticflickr.com/65535/50040299361_1d0ef752cc_n.jpg",
    "id_album": "779690680",
    "description": "Robot_387860",
    "title": "Robot_387860",
    "link_img": "https://live.staticflickr.com/65535/50040299361_3b43475412_o.jpg",
    "id_image": "Robot_387860",
    "count_view": 0
  },
  {
    "link_thumb": "https://live.staticflickr.com/65535/50040124187_09d7b9139c_n.jpg",
    "id_album": "-1862561193",
    "description": "Other_112262",
    "title": "Other_112262",
    "link_img": "https://live.staticflickr.com/65535/50040124187_51af650199_o.jpg",
    "id_image": "Other_112262",
    "count_view": 0
  },
  {
    "link_thumb": "https://live.staticflickr.com/65535/50040791728_37f857abcc_n.jpg",
    "id_album": "-221671103",
    "description": "Sun_333823",
    "title": "Sun_333823",
    "link_img": "https://live.staticflickr.com/65535/50040791728_d29e2fef1e_o.jpg",
    "id_image": "Sun_333823",
    "count_view": 0
  },
  {
    "link_thumb": "https://live.staticflickr.com/65535/50039499926_d54132086e_n.jpg",
    "id_album": "-1964113117",
    "description": "City_83514",
    "title": "City_83514",
    "link_img": "https://live.staticflickr.com/65535/50039499926_ea5b0669c2_o.jpg",
    "id_image": "City_83514",
    "count_view": 0
  },
  {
    "link_thumb": "https://live.staticflickr.com/65535/50039241761_a77380eed0_n.jpg",
    "id_album": "-406145265",
    "description": "Aircraft_866069",
    "title": "Aircraft_866069",
    "link_img": "https://live.staticflickr.com/65535/50039241761_706a00b32e_o.jpg",
    "id_image": "Aircraft_866069",
    "count_view": 0
  },
  {
    "link_thumb": "https://live.staticflickr.com/65535/50041667387_3f6f7c909b_n.jpg",
    "id_album": "2020068132",
    "description": "Vehicle_590989",
    "title": "Vehicle_590989",
    "link_img": "https://live.staticflickr.com/65535/50041667387_c62f481277_o.jpg",
    "id_image": "Vehicle_590989",
    "count_view": 0
  },
  {
    "link_thumb": "https://live.staticflickr.com/65535/50039499712_abb5f45229_n.jpg",
    "id_album": "-406145265",
    "description": "Aircraft_332964",
    "title": "Aircraft_332964",
    "link_img": "https://live.staticflickr.com/65535/50039499712_e3c8015dac_o.jpg",
    "id_image": "Aircraft_332964",
    "count_view": 0
  },
  {
    "link_thumb": "https://live.staticflickr.com/65535/50041209601_b78121e156_n.jpg",
    "id_album": "-1863373220",
    "description": "StarWars_669719",
    "title": "StarWars_669719",
    "link_img": "https://live.staticflickr.com/65535/50041209601_c1c9acf99f_o.jpg",
    "id_image": "StarWars_669719",
    "count_view": 0
  },
  {
    "link_thumb": "https://live.staticflickr.com/65535/50039541511_42bb6d4de9_n.jpg",
    "id_album": "894679094",
    "description": "Collision_432613",
    "title": "Collision_432613",
    "link_img": "https://live.staticflickr.com/65535/50039541511_0a843b6b6c_o.jpg",
    "id_image": "Collision_432613",
    "count_view": 0
  },
  {
    "link_thumb": "https://live.staticflickr.com/65535/50039889627_8e5be759d9_n.jpg",
    "id_album": "1204249541",
    "description": "Galaxy_220976",
    "title": "Galaxy_220976",
    "link_img": "https://live.staticflickr.com/65535/50039889627_09867d1699_o.jpg",
    "id_image": "Galaxy_220976",
    "count_view": 0
  },
  {
    "link_thumb": "https://live.staticflickr.com/65535/50039826861_f954a09eb6_n.jpg",
    "id_album": "-1610342324",
    "description": "Nebula_728536",
    "title": "Nebula_728536",
    "link_img": "https://live.staticflickr.com/65535/50039826861_b205b03db3_o.jpg",
    "id_image": "Nebula_728536",
    "count_view": 0
  },
  {
    "link_thumb": "https://live.staticflickr.com/65535/50039692792_9e8ccb7e8b_n.jpg",
    "id_album": "-1964113117",
    "description": "City_1007789",
    "title": "City_1007789",
    "link_img": "https://live.staticflickr.com/65535/50039692792_3f84bf8f7b_o.jpg",
    "id_image": "City_1007789",
    "count_view": 0
  },
  {
    "link_thumb": "https://live.staticflickr.com/65535/50039524302_866881c836_n.jpg",
    "id_album": "849020728",
    "description": "Alien_393636",
    "title": "Alien_393636",
    "link_img": "https://live.staticflickr.com/65535/50039524302_e94c17fd43_o.jpg",
    "id_image": "Alien_393636",
    "count_view": 0
  },
  {
    "link_thumb": "https://live.staticflickr.com/65535/50040031987_1dbb53b27e_n.jpg",
    "id_album": "-1610342324",
    "description": "Nebula_205032",
    "title": "Nebula_205032",
    "link_img": "https://live.staticflickr.com/65535/50040031987_82dceef75c_o.jpg",
    "id_image": "Nebula_205032",
    "count_view": 0
  },
  {
    "link_thumb": "https://live.staticflickr.com/65535/50040063556_29187afa55_n.jpg",
    "id_album": "-1102314093",
    "description": "Planets_235241",
    "title": "Planets_235241",
    "link_img": "https://live.staticflickr.com/65535/50040063556_80863c2a0e_o.jpg",
    "id_image": "Planets_235241",
    "count_view": 0
  },
  {
    "link_thumb": "https://live.staticflickr.com/65535/50040639597_52e30bf3f9_n.jpg",
    "id_album": "779690680",
    "description": "Robot_857294",
    "title": "Robot_857294",
    "link_img": "https://live.staticflickr.com/65535/50040639597_8907b59dfd_o.jpg",
    "id_image": "Robot_857294",
    "count_view": 0
  },
  {
    "link_thumb": "https://live.staticflickr.com/65535/50040209106_07fc87bde5_n.jpg",
    "id_album": "-482547208",
    "description": "PostApocalyptic_373107",
    "title": "PostApocalyptic_373107",
    "link_img": "https://live.staticflickr.com/65535/50040209106_be423b5919_o.jpg",
    "id_image": "PostApocalyptic_373107",
    "count_view": 0
  },
  {
    "link_thumb": "https://live.staticflickr.com/65535/50039805786_5cb66b8608_n.jpg",
    "id_album": "-1610342324",
    "description": "Nebula_540818",
    "title": "Nebula_540818",
    "link_img": "https://live.staticflickr.com/65535/50039805786_32806514ec_o.jpg",
    "id_image": "Nebula_540818",
    "count_view": 0
  },
  {
    "link_thumb": "https://live.staticflickr.com/65535/50040626838_13c6f6d63c_n.jpg",
    "id_album": "-1863373220",
    "description": "StarWars_438736",
    "title": "StarWars_438736",
    "link_img": "https://live.staticflickr.com/65535/50040626838_c3bf659106_o.jpg",
    "id_image": "StarWars_438736",
    "count_view": 0
  },
  {
    "link_thumb": "https://live.staticflickr.com/65535/50039620536_47d9b0fb85_n.jpg",
    "id_album": "2104507156",
    "description": "Fantasy_311805",
    "title": "Fantasy_311805",
    "link_img": "https://live.staticflickr.com/65535/50039620536_453e529a73_o.jpg",
    "id_image": "Fantasy_311805",
    "count_view": 0
  },
  {
    "link_thumb": "https://live.staticflickr.com/65535/50039293898_e0349bc015_n.jpg",
    "id_album": "-1610342324",
    "description": "Nebula_841902",
    "title": "Nebula_841902",
    "link_img": "https://live.staticflickr.com/65535/50039293898_dea4026b24_o.jpg",
    "id_image": "Nebula_841902",
    "count_view": 0
  },
  {
    "link_thumb": "https://live.staticflickr.com/65535/50040695273_693dd03db2_n.jpg",
    "id_album": "-1863373220",
    "description": "StarWars_980528",
    "title": "StarWars_980528",
    "link_img": "https://live.staticflickr.com/65535/50040695273_c0e6749399_o.jpg",
    "id_image": "StarWars_980528",
    "count_view": 0
  },
  {
    "link_thumb": "https://live.staticflickr.com/65535/50039693716_dcd6d4ce62_n.jpg",
    "id_album": "1402713104",
    "description": "Landscape_558948",
    "title": "Landscape_558948",
    "link_img": "https://live.staticflickr.com/65535/50039693716_bc36f43346_o.jpg",
    "id_image": "Landscape_558948",
    "count_view": 0
  },
  {
    "link_thumb": "https://live.staticflickr.com/65535/50040119946_253784c744_n.jpg",
    "id_album": "-1102314093",
    "description": "Planets_516889",
    "title": "Planets_516889",
    "link_img": "https://live.staticflickr.com/65535/50040119946_8685ff4e1c_o.jpg",
    "id_image": "Planets_516889",
    "count_view": 0
  },
  {
    "link_thumb": "https://live.staticflickr.com/65535/50039498588_48063ffbf7_n.jpg",
    "id_album": "-1102314093",
    "description": "Planets_115034",
    "title": "Planets_115034",
    "link_img": "https://live.staticflickr.com/65535/50039498588_69589699e8_o.jpg",
    "id_image": "Planets_115034",
    "count_view": 0
  },
  {
    "link_thumb": "https://live.staticflickr.com/65535/50038996988_484ef61182_n.jpg",
    "id_album": "894679094",
    "description": "Collision_957519",
    "title": "Collision_957519",
    "link_img": "https://live.staticflickr.com/65535/50038996988_a31e848068_o.jpg",
    "id_image": "Collision_957519",
    "count_view": 0
  },
  {
    "link_thumb": "https://live.staticflickr.com/65535/50040545467_9f3fe0a46e_n.jpg",
    "id_album": "779690680",
    "description": "Robot_283424",
    "title": "Robot_283424",
    "link_img": "https://live.staticflickr.com/65535/50040545467_6d66a0518f_o.jpg",
    "id_image": "Robot_283424",
    "count_view": 0
  },
  {
    "link_thumb": "https://live.staticflickr.com/65535/50038930838_5c29acabab_n.jpg",
    "id_album": "-1964113117",
    "description": "City_567085",
    "title": "City_567085",
    "link_img": "https://live.staticflickr.com/65535/50038930838_6d497b0e8e_o.jpg",
    "id_image": "City_567085",
    "count_view": 0
  },
  {
    "link_thumb": "https://live.staticflickr.com/65535/50039371826_8b8a1a0d4a_n.jpg",
    "id_album": "869545341",
    "description": "Astronaut_857743",
    "title": "Astronaut_857743",
    "link_img": "https://live.staticflickr.com/65535/50039371826_6204000759_o.jpg",
    "id_image": "Astronaut_857743",
    "count_view": 0
  },
  {
    "link_thumb": "https://live.staticflickr.com/65535/50039639247_b1ce798ce0_n.jpg",
    "id_album": "869545341",
    "description": "Astronaut_899272",
    "title": "Astronaut_899272",
    "link_img": "https://live.staticflickr.com/65535/50039639247_1f9f1942e2_o.jpg",
    "id_image": "Astronaut_899272",
    "count_view": 0
  },
  {
    "link_thumb": "https://live.staticflickr.com/65535/50040452252_536de4fb6c_n.jpg",
    "id_album": "-482547208",
    "description": "PostApocalyptic_1010160",
    "title": "PostApocalyptic_1010160",
    "link_img": "https://live.staticflickr.com/65535/50040452252_70c0b13824_o.jpg",
    "id_image": "PostApocalyptic_1010160",
    "count_view": 0
  },
  {
    "link_thumb": "https://live.staticflickr.com/65535/50039893182_e636ba3c38_n.jpg",
    "id_album": "1204249541",
    "description": "Galaxy_305308",
    "title": "Galaxy_305308",
    "link_img": "https://live.staticflickr.com/65535/50039893182_89dfddf850_o.jpg",
    "id_image": "Galaxy_305308",
    "count_view": 0
  },
  {
    "link_thumb": "https://live.staticflickr.com/65535/50039616693_ba804308e4_n.jpg",
    "id_album": "376235057",
    "description": "Planetscape_372285",
    "title": "Planetscape_372285",
    "link_img": "https://live.staticflickr.com/65535/50039616693_d8b865fa47_o.jpg",
    "id_image": "Planetscape_372285",
    "count_view": 0
  },
  {
    "link_thumb": "https://live.staticflickr.com/65535/50040513677_3d95247660_n.jpg",
    "id_album": "779690680",
    "description": "Robot_1010868",
    "title": "Robot_1010868",
    "link_img": "https://live.staticflickr.com/65535/50040513677_0984748e1a_o.jpg",
    "id_image": "Robot_1010868",
    "count_view": 0
  },
  {
    "link_thumb": "https://live.staticflickr.com/65535/50039933833_8613fb854d_n.jpg",
    "id_album": "1613540653",
    "description": "Space_287064",
    "title": "Space_287064",
    "link_img": "https://live.staticflickr.com/65535/50039933833_1c052dd55c_o.jpg",
    "id_image": "Space_287064",
    "count_view": 0
  },
  {
    "link_thumb": "https://live.staticflickr.com/65535/50039773483_b01d6d569d_n.jpg",
    "id_album": "779690680",
    "description": "Robot_504736",
    "title": "Robot_504736",
    "link_img": "https://live.staticflickr.com/65535/50039773483_9799744c06_o.jpg",
    "id_image": "Robot_504736",
    "count_view": 0
  },
  {
    "link_thumb": "https://live.staticflickr.com/65535/50039828702_dbc34a72e4_n.jpg",
    "id_album": "-1372247677",
    "description": "Cyberpunk_920538",
    "title": "Cyberpunk_920538",
    "link_img": "https://live.staticflickr.com/65535/50039828702_29dd054236_o.jpg",
    "id_image": "Cyberpunk_920538",
    "count_view": 0
  },
  {
    "link_thumb": "https://live.staticflickr.com/65535/50038874458_3468ceae14_n.jpg",
    "id_album": "406431601",
    "description": "Building_707131",
    "title": "Building_707131",
    "link_img": "https://live.staticflickr.com/65535/50038874458_c3bd3fa04f_o.jpg",
    "id_image": "Building_707131",
    "count_view": 0
  },
  {
    "link_thumb": "https://live.staticflickr.com/65535/50038934743_02eb740576_n.jpg",
    "id_album": "-1964113117",
    "description": "City_649182",
    "title": "City_649182",
    "link_img": "https://live.staticflickr.com/65535/50038934743_843ab563d2_o.jpg",
    "id_image": "City_649182",
    "count_view": 0
  },
  {
    "link_thumb": "https://live.staticflickr.com/65535/50039873708_e9ded4b9c6_n.jpg",
    "id_album": "779690680",
    "description": "Robot_930303",
    "title": "Robot_930303",
    "link_img": "https://live.staticflickr.com/65535/50039873708_f1d4ba1866_o.jpg",
    "id_image": "Robot_930303",
    "count_view": 0
  }
]