[
  {
    "link_thumb": "https://live.staticflickr.com/65535/50039995517_52048e9f84_n.jpg",
    "id_album": "-1388385651",
    "description": "MilkyWay_546608",
    "title": "MilkyWay_546608",
    "link_img": "https://live.staticflickr.com/65535/50039995517_f74c160645_o.jpg",
    "id_image": "MilkyWay_546608",
    "count_view": 0
  },
  {
    "link_thumb": "https://live.staticflickr.com/65535/50039414153_4ed3569a1e_n.jpg",
    "id_album": "395161030",
    "description": "Planet_559151",
    "title": "Planet_559151",
    "link_img": "https://live.staticflickr.com/65535/50039414153_94141061ff_o.jpg",
    "id_image": "Planet_559151",
    "count_view": 0
  },
  {
    "link_thumb": "https://live.staticflickr.com/65535/50040046007_778a4a84d4_n.jpg",
    "id_album": "-1610342324",
    "description": "Nebula_286778",
    "title": "Nebula_286778",
    "link_img": "https://live.staticflickr.com/65535/50040046007_dd894db021_o.jpg",
    "id_image": "Nebula_286778",
    "count_view": 0
  },
  {
    "link_thumb": "https://live.staticflickr.com/65535/50039888817_2774ec4698_n.jpg",
    "id_album": "1204249541",
    "description": "Galaxy_196794",
    "title": "Galaxy_196794",
    "link_img": "https://live.staticflickr.com/65535/50039888817_1c9ab2f884_o.jpg",
    "id_image": "Galaxy_196794",
    "count_view": 0
  },
  {
    "link_thumb": "https://live.staticflickr.com/65535/50040534397_0ed702eca6_n.jpg",
    "id_album": "779690680",
    "description": "Robot_243469",
    "title": "Robot_243469",
    "link_img": "https://live.staticflickr.com/65535/50040534397_2cfa1c7e69_o.jpg",
    "id_image": "Robot_243469",
    "count_view": 0
  },
  {
    "link_thumb": "https://live.staticflickr.com/65535/50038844573_5cb0a0bca7_n.jpg",
    "id_album": "869545341",
    "description": "Astronaut_996885",
    "title": "Astronaut_996885",
    "link_img": "https://live.staticflickr.com/65535/50038844573_fe40d793de_o.jpg",
    "id_image": "Astronaut_996885",
    "count_view": 0
  },
  {
    "link_thumb": "https://live.staticflickr.com/65535/50040087961_a9ab6f44e7_n.jpg",
    "id_album": "-1102314093",
    "description": "Planets_34359",
    "title": "Planets_34359",
    "link_img": "https://live.staticflickr.com/65535/50040087961_2173244db9_o.jpg",
    "id_image": "Planets_34359",
    "count_view": 0
  },
  {
    "link_thumb": "https://live.staticflickr.com/65535/50040443922_07d148513d_n.jpg",
    "id_album": "376235057",
    "description": "Planetscape_666143",
    "title": "Planetscape_666143",
    "link_img": "https://live.staticflickr.com/65535/50040443922_ce51c822ec_o.jpg",
    "id_image": "Planetscape_666143",
    "count_view": 0
  },
  {
    "link_thumb": "https://live.staticflickr.com/65535/50039795957_e3f6aedda6_n.jpg",
    "id_album": "-1964113117",
    "description": "City_997271",
    "title": "City_997271",
    "link_img": "https://live.staticflickr.com/65535/50039795957_f3d4634362_o.jpg",
    "id_image": "City_997271",
    "count_view": 0
  },
  {
    "link_thumb": "https://live.staticflickr.com/65535/50039973972_d4b00b275f_n.jpg",
    "id_album": "1402713104",
    "description": "Landscape_851427",
    "title": "Landscape_851427",
    "link_img": "https://live.staticflickr.com/65535/50039973972_d76a8a250b_o.jpg",
    "id_image": "Landscape_851427",
    "count_view": 0
  },
  {
    "link_thumb": "https://live.staticflickr.com/65535/50040706148_73ae3064af_n.jpg",
    "id_album": "-1587696329",
    "description": "Stars_216544",
    "title": "Stars_216544",
    "link_img": "https://live.staticflickr.com/65535/50040706148_fcaa84ffa5_o.jpg",
    "id_image": "Stars_216544",
    "count_view": 0
  },
  {
    "link_thumb": "https://live.staticflickr.com/65535/50041684232_9e2343ce16_n.jpg",
    "id_album": "2020068132",
    "description": "Vehicle_944731",
    "title": "Vehicle_944731",
    "link_img": "https://live.staticflickr.com/65535/50041684232_56b2c0ca91_o.jpg",
    "id_image": "Vehicle_944731",
    "count_view": 0
  },
  {
    "link_thumb": "https://live.staticflickr.com/65535/50039917866_47ee1f4b38_n.jpg",
    "id_album": "395161030",
    "description": "Planet_199811",
    "title": "Planet_199811",
    "link_img": "https://live.staticflickr.com/65535/50039917866_ce6db6511c_o.jpg",
    "id_image": "Planet_199811",
    "count_view": 0
  },
  {
    "link_thumb": "https://live.staticflickr.com/65535/50040934578_03ea8aa7f6_n.jpg",
    "id_album": "-1261420436",
    "description": "Warrior_81859",
    "title": "Warrior_81859",
    "link_img": "https://live.staticflickr.com/65535/50040934578_90ccc88a79_o.jpg",
    "id_image": "Warrior_81859",
    "count_view": 0
  },
  {
    "link_thumb": "https://live.staticflickr.com/65535/50039505486_417670b1cf_n.jpg",
    "id_album": "-1964113117",
    "description": "City_862704",
    "title": "City_862704",
    "link_img": "https://live.staticflickr.com/65535/50039505486_9ca3973435_o.jpg",
    "id_image": "City_862704",
    "count_view": 0
  },
  {
    "link_thumb": "https://live.staticflickr.com/65535/50038731208_ce6ef590e4_n.jpg",
    "id_album": "-419633230",
    "description": "Apocalyptic_145957",
    "title": "Apocalyptic_145957",
    "link_img": "https://live.staticflickr.com/65535/50038731208_0f259713f9_o.jpg",
    "id_image": "Apocalyptic_145957",
    "count_view": 0
  },
  {
    "link_thumb": "https://live.staticflickr.com/65535/50041482851_e604e9b6f4_n.jpg",
    "id_album": "-1261420436",
    "description": "Warrior_677695",
    "title": "Warrior_677695",
    "link_img": "https://live.staticflickr.com/65535/50041482851_b46af6f7ee_o.jpg",
    "id_image": "Warrior_677695",
    "count_view": 0
  },
  {
    "link_thumb": "https://live.staticflickr.com/65535/50039878998_7ae50c9485_n.jpg",
    "id_album": "779690680",
    "description": "Robot_937791",
    "title": "Robot_937791",
    "link_img": "https://live.staticflickr.com/65535/50039878998_e320fbf64d_o.jpg",
    "id_image": "Robot_937791",
    "count_view": 0
  },
  {
    "link_thumb": "https://live.staticflickr.com/65535/50038699638_8a9cde8b7f_n.jpg",
    "id_album": "849020728",
    "description": "Alien_155705",
    "title": "Alien_155705",
    "link_img": "https://live.staticflickr.com/65535/50038699638_d66480c02c_o.jpg",
    "id_image": "Alien_155705",
    "count_view": 0
  },
  {
    "link_thumb": "https://live.staticflickr.com/65535/50041613927_2a0b8a04d3_n.jpg",
    "id_album": "-221671103",
    "description": "Sun_551154",
    "title": "Sun_551154",
    "link_img": "https://live.staticflickr.com/65535/50041613927_075bd4829e_o.jpg",
    "id_image": "Sun_551154",
    "count_view": 0
  },
  {
    "link_thumb": "https://live.staticflickr.com/65535/50039330736_1e80cccd75_n.jpg",
    "id_album": "523598895",
    "description": "Artistic_347038",
    "title": "Artistic_347038",
    "link_img": "https://live.staticflickr.com/65535/50039330736_9a245ae235_o.jpg",
    "id_image": "Artistic_347038",
    "count_view": 0
  },
  {
    "link_thumb": "https://live.staticflickr.com/65535/50040347411_e2b1344a6a_n.jpg",
    "id_album": "779690680",
    "description": "Robot_617579",
    "title": "Robot_617579",
    "link_img": "https://live.staticflickr.com/65535/50040347411_2973147c05_o.jpg",
    "id_image": "Robot_617579",
    "count_view": 0
  },
  {
    "link_thumb": "https://live.staticflickr.com/65535/50039583612_8bc93bf265_n.jpg",
    "id_album": "523598895",
    "description": "Artistic_236615",
    "title": "Artistic_236615",
    "link_img": "https://live.staticflickr.com/65535/50039583612_c20bcb0960_o.jpg",
    "id_image": "Artistic_236615",
    "count_view": 0
  },
  {
    "link_thumb": "https://live.staticflickr.com/65535/50039382566_2856543f9c_n.jpg",
    "id_album": "869545341",
    "description": "Astronaut_938823",
    "title": "Astronaut_938823",
    "link_img": "https://live.staticflickr.com/65535/50039382566_5c0f7b6f88_o.jpg",
    "id_image": "Astronaut_938823",
    "count_view": 0
  },
  {
    "link_thumb": "https://live.staticflickr.com/65535/50038767988_280f8ac4dc_n.jpg",
    "id_album": "523598895",
    "description": "Artistic_218934",
    "title": "Artistic_218934",
    "link_img": "https://live.staticflickr.com/65535/50038767988_0e6ea7f4f9_o.jpg",
    "id_image": "Artistic_218934",
    "count_view": 0
  },
  {
    "link_thumb": "https://live.staticflickr.com/65535/50038860613_de03b53aa4_n.jpg",
    "id_album": "1187037014",
    "description": "Battle_941456",
    "title": "Battle_941456",
    "link_img": "https://live.staticflickr.com/65535/50038860613_16b0b70de0_o.jpg",
    "id_image": "Battle_941456",
    "count_view": 0
  },
  {
    "link_thumb": "https://live.staticflickr.com/65535/50039582511_523098457b_n.jpg",
    "id_album": "829169633",
    "description": "Cyborg_239897",
    "title": "Cyborg_239897",
    "link_img": "https://live.staticflickr.com/65535/50039582511_6b7fdc7fb4_o.jpg",
    "id_image": "Cyborg_239897",
    "count_view": 0
  },
  {
    "link_thumb": "https://live.staticflickr.com/65535/50039031083_5877f7fcfe_n.jpg",
    "id_album": "829169633",
    "description": "Cyborg_189584",
    "title": "Cyborg_189584",
    "link_img": "https://live.staticflickr.com/65535/50039031083_9df39660fd_o.jpg",
    "id_image": "Cyborg_189584",
    "count_view": 0
  },
  {
    "link_thumb": "https://live.staticflickr.com/65535/50040195377_56dbcceb01_n.jpg",
    "id_album": "395161030",
    "description": "Planet_335814",
    "title": "Planet_335814",
    "link_img": "https://live.staticflickr.com/65535/50040195377_6b8c72a68b_o.jpg",
    "id_image": "Planet_335814",
    "count_view": 0
  },
  {
    "link_thumb": "https://live.staticflickr.com/65535/50041368422_607bc09ee5_n.jpg",
    "id_album": "779690680",
    "description": "Robot_994832",
    "title": "Robot_994832",
    "link_img": "https://live.staticflickr.com/65535/50041368422_8990297b5f_o.jpg",
    "id_image": "Robot_994832",
    "count_view": 0
  },
  {
    "link_thumb": "https://live.staticflickr.com/65535/50040132091_87274a3089_n.jpg",
    "id_album": "-1102314093",
    "description": "Planets_74139",
    "title": "Planets_74139",
    "link_img": "https://live.staticflickr.com/65535/50040132091_7c169145e5_o.jpg",
    "id_image": "Planets_74139",
    "count_view": 0
  },
  {
    "link_thumb": "https://live.staticflickr.com/65535/50039872907_f7c63358ce_n.jpg",
    "id_album": "651930207",
    "description": "Explosion_370785",
    "title": "Explosion_370785",
    "link_img": "https://live.staticflickr.com/65535/50039872907_328cae396c_o.jpg",
    "id_image": "Explosion_370785",
    "count_view": 0
  },
  {
    "link_thumb": "https://live.staticflickr.com/65535/50040682502_63b9193612_n.jpg",
    "id_album": "779690680",
    "description": "Robot_922855",
    "title": "Robot_922855",
    "link_img": "https://live.staticflickr.com/65535/50040682502_45ecf0230f_o.jpg",
    "id_image": "Robot_922855",
    "count_view": 0
  },
  {
    "link_thumb": "https://live.staticflickr.com/65535/50039749617_b57e1ddccf_n.jpg",
    "id_album": "-1964113117",
    "description": "City_681245",
    "title": "City_681245",
    "link_img": "https://live.staticflickr.com/65535/50039749617_536c1cede9_o.jpg",
    "id_image": "City_681245",
    "count_view": 0
  },
  {
    "link_thumb": "https://live.staticflickr.com/65535/50040745673_4dd989279f_n.jpg",
    "id_album": "1267121215",
    "description": "Steampunk_209609",
    "title": "Steampunk_209609",
    "link_img": "https://live.staticflickr.com/65535/50040745673_522e84913b_o.jpg",
    "id_image": "Steampunk_209609",
    "count_view": 0
  },
  {
    "link_thumb": "https://live.staticflickr.com/65535/50039646727_eb784f45c0_n.jpg",
    "id_album": "869545341",
    "description": "Astronaut_957344",
    "title": "Astronaut_957344",
    "link_img": "https://live.staticflickr.com/65535/50039646727_27bce795c8_o.jpg",
    "id_image": "Astronaut_957344",
    "count_view": 0
  },
  {
    "link_thumb": "https://live.staticflickr.com/65535/50039405271_93bfbba597_n.jpg",
    "id_album": "1187037014",
    "description": "Battle_635655",
    "title": "Battle_635655",
    "link_img": "https://live.staticflickr.com/65535/50039405271_90ec578759_o.jpg",
    "id_image": "Battle_635655",
    "count_view": 0
  },
  {
    "link_thumb": "https://live.staticflickr.com/65535/50039506092_c7b914b2fb_n.jpg",
    "id_album": "849020728",
    "description": "Alien_108487",
    "title": "Alien_108487",
    "link_img": "https://live.staticflickr.com/65535/50039506092_f775b6838e_o.jpg",
    "id_image": "Alien_108487",
    "count_view": 0
  },
  {
    "link_thumb": "https://live.staticflickr.com/65535/50039686542_ba11470d97_n.jpg",
    "id_album": "406431601",
    "description": "Building_835703",
    "title": "Building_835703",
    "link_img": "https://live.staticflickr.com/65535/50039686542_71ba98f8ca_o.jpg",
    "id_image": "Building_835703",
    "count_view": 0
  },
  {
    "link_thumb": "https://live.staticflickr.com/65535/50038995868_580188ba2a_n.jpg",
    "id_album": "894679094",
    "description": "Collision_904527",
    "title": "Collision_904527",
    "link_img": "https://live.staticflickr.com/65535/50038995868_011baebe8d_o.jpg",
    "id_image": "Collision_904527",
    "count_view": 0
  },
  {
    "link_thumb": "https://live.staticflickr.com/65535/50039203663_5667c7cd51_n.jpg",
    "id_album": "-1388385651",
    "description": "MilkyWay_96303",
    "title": "MilkyWay_96303",
    "link_img": "https://live.staticflickr.com/65535/50039203663_07eceb83d2_o.jpg",
    "id_image": "MilkyWay_96303",
    "count_view": 0
  },
  {
    "link_thumb": "https://live.staticflickr.com/65535/50041622112_07f9009d50_n.jpg",
    "id_album": "-1177476763",
    "description": "Sunrise_286842",
    "title": "Sunrise_286842",
    "link_img": "https://live.staticflickr.com/65535/50041622112_69bc138730_o.jpg",
    "id_image": "Sunrise_286842",
    "count_view": 0
  },
  {
    "link_thumb": "https://live.staticflickr.com/65535/50040205481_132e3d57e1_n.jpg",
    "id_album": "-482547208",
    "description": "PostApocalyptic_314445",
    "title": "PostApocalyptic_314445",
    "link_img": "https://live.staticflickr.com/65535/50040205481_99cd6ecaef_o.jpg",
    "id_image": "PostApocalyptic_314445",
    "count_view": 0
  },
  {
    "link_thumb": "https://live.staticflickr.com/65535/50039278903_1ede999b3e_n.jpg",
    "id_album": "-1610342324",
    "description": "Nebula_747001",
    "title": "Nebula_747001",
    "link_img": "https://live.staticflickr.com/65535/50039278903_356300dfa1_o.jpg",
    "id_image": "Nebula_747001",
    "count_view": 0
  },
  {
    "link_thumb": "https://live.staticflickr.com/65535/50041797317_8683349f0a_n.jpg",
    "id_album": "-1126835654",
    "description": "Women_530822",
    "title": "Women_530822",
    "link_img": "https://live.staticflickr.com/65535/50041797317_a00641bf4b_o.jpg",
    "id_image": "Women_530822",
    "count_view": 0
  },
  {
    "link_thumb": "https://live.staticflickr.com/65535/50040033287_6d460f75b3_n.jpg",
    "id_album": "-1610342324",
    "description": "Nebula_207909",
    "title": "Nebula_207909",
    "link_img": "https://live.staticflickr.com/65535/50040033287_946599128f_o.jpg",
    "id_image": "Nebula_207909",
    "count_view": 0
  },
  {
    "link_thumb": "https://live.staticflickr.com/65535/50040769882_065dc48036_n.jpg",
    "id_album": "1613540653",
    "description": "Space_397989",
    "title": "Space_397989",
    "link_img": "https://live.staticflickr.com/65535/50040769882_d29c04d7fc_o.jpg",
    "id_image": "Space_397989",
    "count_view": 0
  },
  {
    "link_thumb": "https://live.staticflickr.com/65535/50039299451_659e024d73_n.jpg",
    "id_album": "523598895",
    "description": "Artistic_162665",
    "title": "Artistic_162665",
    "link_img": "https://live.staticflickr.com/65535/50039299451_2abc96f0fd_o.jpg",
    "id_image": "Artistic_162665",
    "count_view": 0
  },
  {
    "link_thumb": "https://live.staticflickr.com/65535/50040756772_965242bc6a_n.jpg",
    "id_album": "1613540653",
    "description": "Space_324430",
    "title": "Space_324430",
    "link_img": "https://live.staticflickr.com/65535/50040756772_ce857cb463_o.jpg",
    "id_image": "Space_324430",
    "count_view": 0
  },
  {
    "link_thumb": "https://live.staticflickr.com/65535/50040502342_faeb0d4da3_n.jpg",
    "id_album": "-839602625",
    "description": "Predator_180678",
    "title": "Predator_180678",
    "link_img": "https://live.staticflickr.com/65535/50040502342_d7d478f487_o.jpg",
    "id_image": "Predator_180678",
    "count_view": 0
  },
  {
    "link_thumb": "https://live.staticflickr.com/65535/50040062536_1f3a47b520_n.jpg",
    "id_album": "-1102314093",
    "description": "Planets_225063",
    "title": "Planets_225063",
    "link_img": "https://live.staticflickr.com/65535/50040062536_3959b3d6ae_o.jpg",
    "id_image": "Planets_225063",
    "count_view": 0
  },
  {
    "link_thumb": "https://live.staticflickr.com/65535/50039122278_7ef2fc36ce_n.jpg",
    "id_album": "1402713104",
    "description": "Landscape_286954",
    "title": "Landscape_286954",
    "link_img": "https://live.staticflickr.com/65535/50039122278_fc73de0e1c_o.jpg",
    "id_image": "Landscape_286954",
    "count_view": 0
  },
  {
    "link_thumb": "https://live.staticflickr.com/65535/50040201352_587f19624c_n.jpg",
    "id_album": "395161030",
    "description": "Planet_363181",
    "title": "Planet_363181",
    "link_img": "https://live.staticflickr.com/65535/50040201352_e41b5d347b_o.jpg",
    "id_image": "Planet_363181",
    "count_view": 0
  },
  {
    "link_thumb": "https://live.staticflickr.com/65535/50038998338_62811ce04b_n.jpg",
    "id_album": "-437872736",
    "description": "Creature_195664",
    "title": "Creature_195664",
    "link_img": "https://live.staticflickr.com/65535/50038998338_0d249159b7_o.jpg",
    "id_image": "Creature_195664",
    "count_view": 0
  },
  {
    "link_thumb": "https://live.staticflickr.com/65535/50039536351_306e8efd4b_n.jpg",
    "id_album": "894679094",
    "description": "Collision_148874",
    "title": "Collision_148874",
    "link_img": "https://live.staticflickr.com/65535/50039536351_b2e99b111a_o.jpg",
    "id_image": "Collision_148874",
    "count_view": 0
  },
  {
    "link_thumb": "https://live.staticflickr.com/65535/50039952832_d7701cf05b_n.jpg",
    "id_album": "1402713104",
    "description": "Landscape_446153",
    "title": "Landscape_446153",
    "link_img": "https://live.staticflickr.com/65535/50039952832_131d6cf9ce_o.jpg",
    "id_image": "Landscape_446153",
    "count_view": 0
  },
  {
    "link_thumb": "https://live.staticflickr.com/65535/50040258808_bfd440e3fe_n.jpg",
    "id_album": "-1449720967",
    "description": "StarTrek_258592",
    "title": "StarTrek_258592",
    "link_img": "https://live.staticflickr.com/65535/50040258808_27e0db1efd_o.jpg",
    "id_image": "StarTrek_258592",
    "count_view": 0
  },
  {
    "link_thumb": "https://live.staticflickr.com/65535/50039258863_0802de9d7c_n.jpg",
    "id_album": "-1610342324",
    "description": "Nebula_550553",
    "title": "Nebula_550553",
    "link_img": "https://live.staticflickr.com/65535/50039258863_606d3809ff_o.jpg",
    "id_image": "Nebula_550553",
    "count_view": 0
  },
  {
    "link_thumb": "https://live.staticflickr.com/65535/50039983556_b036447188_n.jpg",
    "id_album": "395161030",
    "description": "Planet_920772",
    "title": "Planet_920772",
    "link_img": "https://live.staticflickr.com/65535/50039983556_7e1619c1ef_o.jpg",
    "id_image": "Planet_920772",
    "count_view": 0
  },
  {
    "link_thumb": "https://live.staticflickr.com/65535/50039120158_2d8c61157d_n.jpg",
    "id_album": "1402713104",
    "description": "Landscape_273938",
    "title": "Landscape_273938",
    "link_img": "https://live.staticflickr.com/65535/50039120158_1e1a068bde_o.jpg",
    "id_image": "Landscape_273938",
    "count_view": 0
  },
  {
    "link_thumb": "https://live.staticflickr.com/65535/50040243432_e16fd171ff_n.jpg",
    "id_album": "395161030",
    "description": "Planet_860675",
    "title": "Planet_860675",
    "link_img": "https://live.staticflickr.com/65535/50040243432_d0414c45df_o.jpg",
    "id_image": "Planet_860675",
    "count_view": 0
  },
  {
    "link_thumb": "https://live.staticflickr.com/65535/50041414101_889117ee05_n.jpg",
    "id_album": "2020068132",
    "description": "Vehicle_765084",
    "title": "Vehicle_765084",
    "link_img": "https://live.staticflickr.com/65535/50041414101_b5a557dffe_o.jpg",
    "id_image": "Vehicle_765084",
    "count_view": 0
  },
  {
    "link_thumb": "https://live.staticflickr.com/65535/50039863317_1126692171_n.jpg",
    "id_album": "829169633",
    "description": "Cyborg_706265",
    "title": "Cyborg_706265",
    "link_img": "https://live.staticflickr.com/65535/50039863317_95582ffcb6_o.jpg",
    "id_image": "Cyborg_706265",
    "count_view": 0
  },
  {
    "link_thumb": "https://live.staticflickr.com/65535/50041098336_2e5b454e15_n.jpg",
    "id_album": "-1863373220",
    "description": "StarWars_107621",
    "title": "StarWars_107621",
    "link_img": "https://live.staticflickr.com/65535/50041098336_2f49ba1fdf_o.jpg",
    "id_image": "StarWars_107621",
    "count_view": 0
  },
  {
    "link_thumb": "https://live.staticflickr.com/65535/50039278691_e0bc2692a1_n.jpg",
    "id_album": "-419633230",
    "description": "Apocalyptic_117055",
    "title": "Apocalyptic_117055",
    "link_img": "https://live.staticflickr.com/65535/50039278691_5bdf59e847_o.jpg",
    "id_image": "Apocalyptic_117055",
    "count_view": 0
  },
  {
    "link_thumb": "https://live.staticflickr.com/65535/50039807081_1fb4da4527_n.jpg",
    "id_album": "-1610342324",
    "description": "Nebula_548311",
    "title": "Nebula_548311",
    "link_img": "https://live.staticflickr.com/65535/50039807081_d28e460ffd_o.jpg",
    "id_image": "Nebula_548311",
    "count_view": 0
  },
  {
    "link_thumb": "https://live.staticflickr.com/65535/50040522102_f0e12d1788_n.jpg",
    "id_album": "779690680",
    "description": "Robot_171435",
    "title": "Robot_171435",
    "link_img": "https://live.staticflickr.com/65535/50040522102_8369554555_o.jpg",
    "id_image": "Robot_171435",
    "count_view": 0
  },
  {
    "link_thumb": "https://live.staticflickr.com/65535/50039789722_7cce967f17_n.jpg",
    "id_album": "-1964113117",
    "description": "City_958305",
    "title": "City_958305",
    "link_img": "https://live.staticflickr.com/65535/50039789722_6a3592cc65_o.jpg",
    "id_image": "City_958305",
    "count_view": 0
  },
  {
    "link_thumb": "https://live.staticflickr.com/65535/50039488698_1e4ce2943e_n.jpg",
    "id_album": "814701616",
    "description": "PlanetaryRing_56259",
    "title": "PlanetaryRing_56259",
    "link_img": "https://live.staticflickr.com/65535/50039488698_307bcb86fb_o.jpg",
    "id_image": "PlanetaryRing_56259",
    "count_view": 0
  },
  {
    "link_thumb": "https://live.staticflickr.com/65535/50040735886_6df3961fde_n.jpg",
    "id_album": "2130067313",
    "description": "Spaceship_677167",
    "title": "Spaceship_677167",
    "link_img": "https://live.staticflickr.com/65535/50040735886_679cc5214e_o.jpg",
    "id_image": "Spaceship_677167",
    "count_view": 0
  },
  {
    "link_thumb": "https://live.staticflickr.com/65535/50040215592_701921c097_n.jpg",
    "id_album": "395161030",
    "description": "Planet_463339",
    "title": "Planet_463339",
    "link_img": "https://live.staticflickr.com/65535/50040215592_1d2a23b3c3_o.jpg",
    "id_image": "Planet_463339",
    "count_view": 0
  },
  {
    "link_thumb": "https://live.staticflickr.com/65535/50040430892_9e7f46975a_n.jpg",
    "id_album": "376235057",
    "description": "Planetscape_363159",
    "title": "Planetscape_363159",
    "link_img": "https://live.staticflickr.com/65535/50040430892_fd99d30908_o.jpg",
    "id_image": "Planetscape_363159",
    "count_view": 0
  },
  {
    "link_thumb": "https://live.staticflickr.com/65535/50039258488_d839decf0a_n.jpg",
    "id_album": "-1610342324",
    "description": "Nebula_550544",
    "title": "Nebula_550544",
    "link_img": "https://live.staticflickr.com/65535/50039258488_967900c28c_o.jpg",
    "id_image": "Nebula_550544",
    "count_view": 0
  },
  {
    "link_thumb": "https://live.staticflickr.com/65535/50038716918_e9f7b48cdd_n.jpg",
    "id_album": "849020728",
    "description": "Alien_43578",
    "title": "Alien_43578",
    "link_img": "https://live.staticflickr.com/65535/50038716918_9f80e6f2a8_o.jpg",
    "id_image": "Alien_43578",
    "count_view": 0
  },
  {
    "link_thumb": "https://live.staticflickr.com/65535/50038745233_ea95bb65e1_n.jpg",
    "id_album": "523598895",
    "description": "Artistic_109233",
    "title": "Artistic_109233",
    "link_img": "https://live.staticflickr.com/65535/50038745233_dfc89f2c99_o.jpg",
    "id_image": "Artistic_109233",
    "count_view": 0
  },
  {
    "link_thumb": "https://live.staticflickr.com/65535/50040680457_561c542f3a_n.jpg",
    "id_album": "779690680",
    "description": "Robot_918801",
    "title": "Robot_918801",
    "link_img": "https://live.staticflickr.com/65535/50040680457_b4bb704eb9_o.jpg",
    "id_image": "Robot_918801",
    "count_view": 0
  },
  {
    "link_thumb": "https://live.staticflickr.com/65535/50040754471_04c79ffc44_n.jpg",
    "id_album": "2130067313",
    "description": "Spaceship_852661",
    "title": "Spaceship_852661",
    "link_img": "https://live.staticflickr.com/65535/50040754471_6dfafedba3_o.jpg",
    "id_image": "Spaceship_852661",
    "count_view": 0
  },
  {
    "link_thumb": "https://live.staticflickr.com/65535/50039685302_34ba0eab2d_n.jpg",
    "id_album": "406431601",
    "description": "Building_692305",
    "title": "Building_692305",
    "link_img": "https://live.staticflickr.com/65535/50039685302_e6e191ceef_o.jpg",
    "id_image": "Building_692305",
    "count_view": 0
  },
  {
    "link_thumb": "https://live.staticflickr.com/65535/50041589121_82a8b8178b_n.jpg",
    "id_album": "-1675918237",
    "description": "WomenWarrior_870420",
    "title": "WomenWarrior_870420",
    "link_img": "https://live.staticflickr.com/65535/50041589121_cb9dc558ae_o.jpg",
    "id_image": "WomenWarrior_870420",
    "count_view": 0
  },
  {
    "link_thumb": "https://live.staticflickr.com/65535/50040530471_e0d531acaa_n.jpg",
    "id_album": "1613540653",
    "description": "Space_694467",
    "title": "Space_694467",
    "link_img": "https://live.staticflickr.com/65535/50040530471_4a1440dbea_o.jpg",
    "id_image": "Space_694467",
    "count_view": 0
  },
  {
    "link_thumb": "https://live.staticflickr.com/65535/50039548282_816ee04fd9_n.jpg",
    "id_album": "-419633230",
    "description": "Apocalyptic_692651",
    "title": "Apocalyptic_692651",
    "link_img": "https://live.staticflickr.com/65535/50039548282_d2f42c32d1_o.jpg",
    "id_image": "Apocalyptic_692651",
    "count_view": 0
  },
  {
    "link_thumb": "https://live.staticflickr.com/65535/50040936923_b75d010d81_n.jpg",
    "id_album": "-1261420436",
    "description": "Warrior_872481",
    "title": "Warrior_872481",
    "link_img": "https://live.staticflickr.com/65535/50040936923_886e11182c_o.jpg",
    "id_image": "Warrior_872481",
    "count_view": 0
  },
  {
    "link_thumb": "https://live.staticflickr.com/65535/50038911668_d1f8d28102_n.jpg",
    "id_album": "-1964113117",
    "description": "City_297913",
    "title": "City_297913",
    "link_img": "https://live.staticflickr.com/65535/50038911668_a1f12360f3_o.jpg",
    "id_image": "City_297913",
    "count_view": 0
  },
  {
    "link_thumb": "https://live.staticflickr.com/65535/50040351366_48d5a85c92_n.jpg",
    "id_album": "779690680",
    "description": "Robot_649115",
    "title": "Robot_649115",
    "link_img": "https://live.staticflickr.com/65535/50040351366_e6b5310be5_o.jpg",
    "id_image": "Robot_649115",
    "count_view": 0
  },
  {
    "link_thumb": "https://live.staticflickr.com/65535/50041241146_bae6f29631_n.jpg",
    "id_album": "-1863373220",
    "description": "StarWars_916314",
    "title": "StarWars_916314",
    "link_img": "https://live.staticflickr.com/65535/50041241146_9b1eda3aa1_o.jpg",
    "id_image": "StarWars_916314",
    "count_view": 0
  },
  {
    "link_thumb": "https://live.staticflickr.com/65535/50040376246_1da39238a5_n.jpg",
    "id_album": "779690680",
    "description": "Robot_857302",
    "title": "Robot_857302",
    "link_img": "https://live.staticflickr.com/65535/50040376246_0d06366074_o.jpg",
    "id_image": "Robot_857302",
    "count_view": 0
  },
  {
    "link_thumb": "https://live.staticflickr.com/65535/50040579221_dd588b0e18_n.jpg",
    "id_album": "2130067313",
    "description": "Spaceship_145902",
    "title": "Spaceship_145902",
    "link_img": "https://live.staticflickr.com/65535/50040579221_1d1166cd8b_o.jpg",
    "id_image": "Spaceship_145902",
    "count_view": 0
  },
  {
    "link_thumb": "https://live.staticflickr.com/65535/50040731063_5c8ccabdd5_n.jpg",
    "id_album": "1267121215",
    "description": "Steampunk_105717",
    "title": "Steampunk_105717",
    "link_img": "https://live.staticflickr.com/65535/50040731063_53bfb19b26_o.jpg",
    "id_image": "Steampunk_105717",
    "count_view": 0
  },
  {
    "link_thumb": "https://live.staticflickr.com/65535/50040100302_23c1a5f3d4_n.jpg",
    "id_album": "-1610342324",
    "description": "Nebula_786599",
    "title": "Nebula_786599",
    "link_img": "https://live.staticflickr.com/65535/50040100302_1fa8f0a5cb_o.jpg",
    "id_image": "Nebula_786599",
    "count_view": 0
  },
  {
    "link_thumb": "https://live.staticflickr.com/65535/50039767126_16c740e46c_n.jpg",
    "id_album": "-1610342324",
    "description": "Nebula_195802",
    "title": "Nebula_195802",
    "link_img": "https://live.staticflickr.com/65535/50039767126_2af15ac996_o.jpg",
    "id_image": "Nebula_195802",
    "count_view": 0
  },
  {
    "link_thumb": "https://live.staticflickr.com/65535/50039492021_77ece82312_n.jpg",
    "id_album": "-1964113117",
    "description": "City_711429",
    "title": "City_711429",
    "link_img": "https://live.staticflickr.com/65535/50039492021_efd4cbd769_o.jpg",
    "id_image": "City_711429",
    "count_view": 0
  },
  {
    "link_thumb": "https://live.staticflickr.com/65535/50038904573_a5dcd26130_n.jpg",
    "id_album": "-1964113117",
    "description": "City_245882",
    "title": "City_245882",
    "link_img": "https://live.staticflickr.com/65535/50038904573_52f7a5300b_o.jpg",
    "id_image": "City_245882",
    "count_view": 0
  },
  {
    "link_thumb": "https://live.staticflickr.com/65535/50041853547_ac3f84ac2c_n.jpg",
    "id_album": "-1675918237",
    "description": "WomenWarrior_970141",
    "title": "WomenWarrior_970141",
    "link_img": "https://live.staticflickr.com/65535/50041853547_1b9794e31c_o.jpg",
    "id_image": "WomenWarrior_970141",
    "count_view": 0
  },
  {
    "link_thumb": "https://live.staticflickr.com/65535/50041160981_8a6231ef3e_n.jpg",
    "id_album": "-1863373220",
    "description": "StarWars_296342",
    "title": "StarWars_296342",
    "link_img": "https://live.staticflickr.com/65535/50041160981_657db3e705_o.jpg",
    "id_image": "StarWars_296342",
    "count_view": 0
  },
  {
    "link_thumb": "https://live.staticflickr.com/65535/50039423746_97509086a6_n.jpg",
    "id_album": "406431601",
    "description": "Building_804048",
    "title": "Building_804048",
    "link_img": "https://live.staticflickr.com/65535/50039423746_7cf2deb51f_o.jpg",
    "id_image": "Building_804048",
    "count_view": 0
  },
  {
    "link_thumb": "https://live.staticflickr.com/65535/50039570007_263ff28893_n.jpg",
    "id_album": "523598895",
    "description": "Artistic_188244",
    "title": "Artistic_188244",
    "link_img": "https://live.staticflickr.com/65535/50039570007_0429d40303_o.jpg",
    "id_image": "Artistic_188244",
    "count_view": 0
  },
  {
    "link_thumb": "https://live.staticflickr.com/65535/50040246372_b5d90e594a_n.jpg",
    "id_album": "395161030",
    "description": "Planet_891442",
    "title": "Planet_891442",
    "link_img": "https://live.staticflickr.com/65535/50040246372_1f89c3166d_o.jpg",
    "id_image": "Planet_891442",
    "count_view": 0
  },
  {
    "link_thumb": "https://live.staticflickr.com/65535/50039699812_a360930b74_n.jpg",
    "id_album": "-1964113117",
    "description": "City_156371",
    "title": "City_156371",
    "link_img": "https://live.staticflickr.com/65535/50039699812_04627277bc_o.jpg",
    "id_image": "City_156371",
    "count_view": 0
  },
  {
    "link_thumb": "https://live.staticflickr.com/65535/50039318701_92fe2ba90d_n.jpg",
    "id_album": "523598895",
    "description": "Artistic_222730",
    "title": "Artistic_222730",
    "link_img": "https://live.staticflickr.com/65535/50039318701_df9f7e0c4a_o.jpg",
    "id_image": "Artistic_222730",
    "count_view": 0
  },
  {
    "link_thumb": "https://live.staticflickr.com/65535/50038873573_8708fde1eb_n.jpg",
    "id_album": "406431601",
    "description": "Building_591891",
    "title": "Building_591891",
    "link_img": "https://live.staticflickr.com/65535/50038873573_8c13991aa6_o.jpg",
    "id_image": "Building_591891",
    "count_view": 0
  },
  {
    "link_thumb": "https://live.staticflickr.com/65535/50040782973_cea07782ac_n.jpg",
    "id_album": "-221671103",
    "description": "Sun_106265",
    "title": "Sun_106265",
    "link_img": "https://live.staticflickr.com/65535/50040782973_79779d8a65_o.jpg",
    "id_image": "Sun_106265",
    "count_view": 0
  },
  {
    "link_thumb": "https://live.staticflickr.com/65535/50039821998_cb5489927f_n.jpg",
    "id_album": "779690680",
    "description": "Robot_857293",
    "title": "Robot_857293",
    "link_img": "https://live.staticflickr.com/65535/50039821998_b1a3cf559c_o.jpg",
    "id_image": "Robot_857293",
    "count_view": 0
  },
  {
    "link_thumb": "https://live.staticflickr.com/65535/50040331281_b73e37e98e_n.jpg",
    "id_album": "779690680",
    "description": "Robot_530262",
    "title": "Robot_530262",
    "link_img": "https://live.staticflickr.com/65535/50040331281_d7b7e09630_o.jpg",
    "id_image": "Robot_530262",
    "count_view": 0
  },
  {
    "link_thumb": "https://live.staticflickr.com/65535/50040680277_d6a7581ab1_n.jpg",
    "id_album": "779690680",
    "description": "Robot_918800",
    "title": "Robot_918800",
    "link_img": "https://live.staticflickr.com/65535/50040680277_5e9144c39d_o.jpg",
    "id_image": "Robot_918800",
    "count_view": 0
  },
  {
    "link_thumb": "https://live.staticflickr.com/65535/50040418037_b9406fae54_n.jpg",
    "id_album": "376235057",
    "description": "Planetscape_216511",
    "title": "Planetscape_216511",
    "link_img": "https://live.staticflickr.com/65535/50040418037_3993a95d08_o.jpg",
    "id_image": "Planetscape_216511",
    "count_view": 0
  },
  {
    "link_thumb": "https://live.staticflickr.com/65535/50040741362_b0e241b18d_n.jpg",
    "id_album": "1613540653",
    "description": "Space_192889",
    "title": "Space_192889",
    "link_img": "https://live.staticflickr.com/65535/50040741362_403dac0a45_o.jpg",
    "id_image": "Space_192889",
    "count_view": 0
  },
  {
    "link_thumb": "https://live.staticflickr.com/65535/50039550082_479b552b2a_n.jpg",
    "id_album": "-419633230",
    "description": "Apocalyptic_957340",
    "title": "Apocalyptic_957340",
    "link_img": "https://live.staticflickr.com/65535/50039550082_48929cab07_o.jpg",
    "id_image": "Apocalyptic_957340",
    "count_view": 0
  },
  {
    "link_thumb": "https://live.staticflickr.com/65535/50039773401_a78d8b2db0_n.jpg",
    "id_album": "-1610342324",
    "description": "Nebula_225904",
    "title": "Nebula_225904",
    "link_img": "https://live.staticflickr.com/65535/50039773401_f76bef9e82_o.jpg",
    "id_image": "Nebula_225904",
    "count_view": 0
  },
  {
    "link_thumb": "https://live.staticflickr.com/65535/50040089972_493bf6190b_n.jpg",
    "id_album": "-1610342324",
    "description": "Nebula_726872",
    "title": "Nebula_726872",
    "link_img": "https://live.staticflickr.com/65535/50040089972_3e56455a2f_o.jpg",
    "id_image": "Nebula_726872",
    "count_view": 0
  },
  {
    "link_thumb": "https://live.staticflickr.com/65535/50039631187_88d29e9427_n.jpg",
    "id_album": "869545341",
    "description": "Astronaut_829628",
    "title": "Astronaut_829628",
    "link_img": "https://live.staticflickr.com/65535/50039631187_c18759acfc_o.jpg",
    "id_image": "Astronaut_829628",
    "count_view": 0
  },
  {
    "link_thumb": "https://live.staticflickr.com/65535/50040557651_9c419337e9_n.jpg",
    "id_album": "-1532370292",
    "description": "SpaceStation_425727",
    "title": "SpaceStation_425727",
    "link_img": "https://live.staticflickr.com/65535/50040557651_8edd4e62f6_o.jpg",
    "id_image": "SpaceStation_425727",
    "count_view": 0
  },
  {
    "link_thumb": "https://live.staticflickr.com/65535/50039701628_8772fd24d6_n.jpg",
    "id_album": "779690680",
    "description": "Robot_131017",
    "title": "Robot_131017",
    "link_img": "https://live.staticflickr.com/65535/50039701628_0e8006e3b1_o.jpg",
    "id_image": "Robot_131017",
    "count_view": 0
  },
  {
    "link_thumb": "https://live.staticflickr.com/65535/50040477961_581a53ba86_n.jpg",
    "id_album": "1613540653",
    "description": "Space_196372",
    "title": "Space_196372",
    "link_img": "https://live.staticflickr.com/65535/50040477961_f2b0dff19f_o.jpg",
    "id_image": "Space_196372",
    "count_view": 0
  },
  {
    "link_thumb": "https://live.staticflickr.com/65535/50041031763_067fe49795_n.jpg",
    "id_album": "-1675918237",
    "description": "WomenWarrior_616398",
    "title": "WomenWarrior_616398",
    "link_img": "https://live.staticflickr.com/65535/50041031763_fb7673a37f_o.jpg",
    "id_image": "WomenWarrior_616398",
    "count_view": 0
  },
  {
    "link_thumb": "https://live.staticflickr.com/65535/50039355338_cb43afdc57_n.jpg",
    "id_album": "395161030",
    "description": "Planet_129689",
    "title": "Planet_129689",
    "link_img": "https://live.staticflickr.com/65535/50039355338_3b207e4c69_o.jpg",
    "id_image": "Planet_129689",
    "count_view": 0
  },
  {
    "link_thumb": "https://live.staticflickr.com/65535/50038920473_8f8f0715cc_n.jpg",
    "id_album": "-1964113117",
    "description": "City_403207",
    "title": "City_403207",
    "link_img": "https://live.staticflickr.com/65535/50038920473_f73d9c1f9c_o.jpg",
    "id_image": "City_403207",
    "count_view": 0
  },
  {
    "link_thumb": "https://live.staticflickr.com/65535/50041542851_41a031f902_n.jpg",
    "id_album": "-1126835654",
    "description": "Women_615461",
    "title": "Women_615461",
    "link_img": "https://live.staticflickr.com/65535/50041542851_12ab918f9c_o.jpg",
    "id_image": "Women_615461",
    "count_view": 0
  },
  {
    "link_thumb": "https://live.staticflickr.com/65535/50040171917_75406aec22_n.jpg",
    "id_album": "395161030",
    "description": "Planet_167856",
    "title": "Planet_167856",
    "link_img": "https://live.staticflickr.com/65535/50040171917_30a8881d3a_o.jpg",
    "id_image": "Planet_167856",
    "count_view": 0
  },
  {
    "link_thumb": "https://live.staticflickr.com/65535/50039704647_7284850ac3_n.jpg",
    "id_album": "-1964113117",
    "description": "City_201194",
    "title": "City_201194",
    "link_img": "https://live.staticflickr.com/65535/50039704647_30f82b793c_o.jpg",
    "id_image": "City_201194",
    "count_view": 0
  },
  {
    "link_thumb": "https://live.staticflickr.com/65535/50038735358_30a2181952_n.jpg",
    "id_album": "-419633230",
    "description": "Apocalyptic_319075",
    "title": "Apocalyptic_319075",
    "link_img": "https://live.staticflickr.com/65535/50038735358_be99913b8f_o.jpg",
    "id_image": "Apocalyptic_319075",
    "count_view": 0
  },
  {
    "link_thumb": "https://live.staticflickr.com/65535/50040972882_cf1a89ab2b_n.jpg",
    "id_album": "2130067313",
    "description": "Spaceship_530267",
    "title": "Spaceship_530267",
    "link_img": "https://live.staticflickr.com/65535/50040972882_7e61524343_o.jpg",
    "id_image": "Spaceship_530267",
    "count_view": 0
  },
  {
    "link_thumb": "https://live.staticflickr.com/65535/50039148758_841122936a_n.jpg",
    "id_album": "1402713104",
    "description": "Landscape_650217",
    "title": "Landscape_650217",
    "link_img": "https://live.staticflickr.com/65535/50039148758_bd45c469a1_o.jpg",
    "id_image": "Landscape_650217",
    "count_view": 0
  },
  {
    "link_thumb": "https://live.staticflickr.com/65535/50040268252_be4745d358_n.jpg",
    "id_album": "1443611160",
    "description": "PlanetRise_383204",
    "title": "PlanetRise_383204",
    "link_img": "https://live.staticflickr.com/65535/50040268252_e223aaa1a8_o.jpg",
    "id_image": "PlanetRise_383204",
    "count_view": 0
  },
  {
    "link_thumb": "https://live.staticflickr.com/65535/50040865147_9f5dc8f6bc_n.jpg",
    "id_album": "2130067313",
    "description": "Spaceship_235124",
    "title": "Spaceship_235124",
    "link_img": "https://live.staticflickr.com/65535/50040865147_9fa98a3e00_o.jpg",
    "id_image": "Spaceship_235124",
    "count_view": 0
  },
  {
    "link_thumb": "https://live.staticflickr.com/65535/50041604467_3649713fbe_n.jpg",
    "id_album": "-221671103",
    "description": "Sun_215993",
    "title": "Sun_215993",
    "link_img": "https://live.staticflickr.com/65535/50041604467_2aba0a01e6_o.jpg",
    "id_image": "Sun_215993",
    "count_view": 0
  },
  {
    "link_thumb": "https://live.staticflickr.com/65535/50039660656_b1967767fe_n.jpg",
    "id_album": "1402713104",
    "description": "Landscape_146032",
    "title": "Landscape_146032",
    "link_img": "https://live.staticflickr.com/65535/50039660656_f0bcc06d6d_o.jpg",
    "id_image": "Landscape_146032",
    "count_view": 0
  },
  {
    "link_thumb": "https://live.staticflickr.com/65535/50039233878_0bf6f13ce6_n.jpg",
    "id_album": "-1610342324",
    "description": "Nebula_289232",
    "title": "Nebula_289232",
    "link_img": "https://live.staticflickr.com/65535/50039233878_26d3cb40d8_o.jpg",
    "id_image": "Nebula_289232",
    "count_view": 0
  },
  {
    "link_thumb": "https://live.staticflickr.com/65535/50039669656_c6d075a804_n.jpg",
    "id_album": "1402713104",
    "description": "Landscape_282511",
    "title": "Landscape_282511",
    "link_img": "https://live.staticflickr.com/65535/50039669656_de2e1ece3d_o.jpg",
    "id_image": "Landscape_282511",
    "count_view": 0
  },
  {
    "link_thumb": "https://live.staticflickr.com/65535/50040023957_a5d6ce6c3a_n.jpg",
    "id_album": "-1610342324",
    "description": "Nebula_1009935",
    "title": "Nebula_1009935",
    "link_img": "https://live.staticflickr.com/65535/50040023957_bfcdd3754f_o.jpg",
    "id_image": "Nebula_1009935",
    "count_view": 0
  },
  {
    "link_thumb": "https://live.staticflickr.com/65535/50039624593_9887abaff3_n.jpg",
    "id_album": "376235057",
    "description": "Planetscape_529578",
    "title": "Planetscape_529578",
    "link_img": "https://live.staticflickr.com/65535/50039624593_9df5a7c284_o.jpg",
    "id_image": "Planetscape_529578",
    "count_view": 0
  },
  {
    "link_thumb": "https://live.staticflickr.com/65535/50039277881_6e1d38fd10_n.jpg",
    "id_album": "849020728",
    "description": "Alien_955776",
    "title": "Alien_955776",
    "link_img": "https://live.staticflickr.com/65535/50039277881_5f57cf37fe_o.jpg",
    "id_image": "Alien_955776",
    "count_view": 0
  },
  {
    "link_thumb": "https://live.staticflickr.com/65535/50039397961_6936991385_n.jpg",
    "id_album": "1187037014",
    "description": "Battle_262003",
    "title": "Battle_262003",
    "link_img": "https://live.staticflickr.com/65535/50039397961_da15c59c10_o.jpg",
    "id_image": "Battle_262003",
    "count_view": 0
  },
  {
    "link_thumb": "https://live.staticflickr.com/65535/50038931673_3411d1c4c0_n.jpg",
    "id_album": "-1964113117",
    "description": "City_599390",
    "title": "City_599390",
    "link_img": "https://live.staticflickr.com/65535/50038931673_a549ca7de0_o.jpg",
    "id_image": "City_599390",
    "count_view": 0
  },
  {
    "link_thumb": "https://live.staticflickr.com/65535/50041076901_ee207b52b7_n.jpg",
    "id_album": "-1863373220",
    "description": "StarWars_1006239",
    "title": "StarWars_1006239",
    "link_img": "https://live.staticflickr.com/65535/50041076901_76223c555c_o.jpg",
    "id_image": "StarWars_1006239",
    "count_view": 0
  },
  {
    "link_thumb": "https://live.staticflickr.com/65535/50039508566_356204ceb5_n.jpg",
    "id_album": "-1964113117",
    "description": "City_869607",
    "title": "City_869607",
    "link_img": "https://live.staticflickr.com/65535/50039508566_7fff4f6010_o.jpg",
    "id_image": "City_869607",
    "count_view": 0
  },
  {
    "link_thumb": "https://live.staticflickr.com/65535/50039701727_c50efd0d04_n.jpg",
    "id_album": "-1964113117",
    "description": "City_169626",
    "title": "City_169626",
    "link_img": "https://live.staticflickr.com/65535/50039701727_ba6a70fd8b_o.jpg",
    "id_image": "City_169626",
    "count_view": 0
  },
  {
    "link_thumb": "https://live.staticflickr.com/65535/50039215313_3eba38ec0f_n.jpg",
    "id_album": "-1610342324",
    "description": "Nebula_179721",
    "title": "Nebula_179721",
    "link_img": "https://live.staticflickr.com/65535/50039215313_1bb7253b20_o.jpg",
    "id_image": "Nebula_179721",
    "count_view": 0
  },
  {
    "link_thumb": "https://live.staticflickr.com/65535/50039996831_e0c44e867e_n.jpg",
    "id_album": "1443611160",
    "description": "PlanetRise_156344",
    "title": "PlanetRise_156344",
    "link_img": "https://live.staticflickr.com/65535/50039996831_7301281897_o.jpg",
    "id_image": "PlanetRise_156344",
    "count_view": 0
  },
  {
    "link_thumb": "https://live.staticflickr.com/65535/50038986788_e1099c1f34_n.jpg",
    "id_album": "-1964113117",
    "description": "City_999423",
    "title": "City_999423",
    "link_img": "https://live.staticflickr.com/65535/50038986788_172392eb08_o.jpg",
    "id_image": "City_999423",
    "count_view": 0
  },
  {
    "link_thumb": "https://live.staticflickr.com/65535/50038895013_f0be286115_n.jpg",
    "id_album": "-1964113117",
    "description": "City_205966",
    "title": "City_205966",
    "link_img": "https://live.staticflickr.com/65535/50038895013_b836af654a_o.jpg",
    "id_image": "City_205966",
    "count_view": 0
  },
  {
    "link_thumb": "https://live.staticflickr.com/65535/50040806793_3f6ffc8704_n.jpg",
    "id_album": "-1177476763",
    "description": "Sunrise_350440",
    "title": "Sunrise_350440",
    "link_img": "https://live.staticflickr.com/65535/50040806793_39368c7dbd_o.jpg",
    "id_image": "Sunrise_350440",
    "count_view": 0
  },
  {
    "link_thumb": "https://live.staticflickr.com/65535/50041725282_54fc8eec43_n.jpg",
    "id_album": "-1261420436",
    "description": "Warrior_446493",
    "title": "Warrior_446493",
    "link_img": "https://live.staticflickr.com/65535/50041725282_7a8e6954c4_o.jpg",
    "id_image": "Warrior_446493",
    "count_view": 0
  },
  {
    "link_thumb": "https://live.staticflickr.com/65535/50039820197_fd5d0f6226_n.jpg",
    "id_album": "-437872736",
    "description": "Creature_690959",
    "title": "Creature_690959",
    "link_img": "https://live.staticflickr.com/65535/50039820197_6d3f66a6ce_o.jpg",
    "id_image": "Creature_690959",
    "count_view": 0
  },
  {
    "link_thumb": "https://live.staticflickr.com/65535/50039385376_60365939f2_n.jpg",
    "id_album": "869545341",
    "description": "Astronaut_957462",
    "title": "Astronaut_957462",
    "link_img": "https://live.staticflickr.com/65535/50039385376_b5a7ccb7a2_o.jpg",
    "id_image": "Astronaut_957462",
    "count_view": 0
  },
  {
    "link_thumb": "https://live.staticflickr.com/65535/50040516437_6a0488d52c_n.jpg",
    "id_album": "779690680",
    "description": "Robot_112627",
    "title": "Robot_112627",
    "link_img": "https://live.staticflickr.com/65535/50040516437_cd7725eaf2_o.jpg",
    "id_image": "Robot_112627",
    "count_view": 0
  },
  {
    "link_thumb": "https://live.staticflickr.com/65535/50039871837_abc9f25e9a_n.jpg",
    "id_album": "651930207",
    "description": "Explosion_329790",
    "title": "Explosion_329790",
    "link_img": "https://live.staticflickr.com/65535/50039871837_cd3cf47d00_o.jpg",
    "id_image": "Explosion_329790",
    "count_view": 0
  },
  {
    "link_thumb": "https://live.staticflickr.com/65535/50039668482_7722791d2c_n.jpg",
    "id_album": "1187037014",
    "description": "Battle_667619",
    "title": "Battle_667619",
    "link_img": "https://live.staticflickr.com/65535/50039668482_9683557a47_o.jpg",
    "id_image": "Battle_667619",
    "count_view": 0
  },
  {
    "link_thumb": "https://live.staticflickr.com/65535/50040218071_7571b0c5f5_n.jpg",
    "id_album": "-482547208",
    "description": "PostApocalyptic_676803",
    "title": "PostApocalyptic_676803",
    "link_img": "https://live.staticflickr.com/65535/50040218071_27d329b9ea_o.jpg",
    "id_image": "PostApocalyptic_676803",
    "count_view": 0
  },
  {
    "link_thumb": "https://live.staticflickr.com/65535/50041283401_4a87f0645a_n.jpg",
    "id_album": "-1587696329",
    "description": "Stars_846724",
    "title": "Stars_846724",
    "link_img": "https://live.staticflickr.com/65535/50041283401_4fe8faeca7_o.jpg",
    "id_image": "Stars_846724",
    "count_view": 0
  },
  {
    "link_thumb": "https://live.staticflickr.com/65535/50039934703_281e3199a1_n.jpg",
    "id_album": "1613540653",
    "description": "Space_294956",
    "title": "Space_294956",
    "link_img": "https://live.staticflickr.com/65535/50039934703_69f0662ac3_o.jpg",
    "id_image": "Space_294956",
    "count_view": 0
  },
  {
    "link_thumb": "https://live.staticflickr.com/65535/50039693716_dcd6d4ce62_n.jpg",
    "id_album": "1402713104",
    "description": "Landscape_558948",
    "title": "Landscape_558948",
    "link_img": "https://live.staticflickr.com/65535/50039693716_bc36f43346_o.jpg",
    "id_image": "Landscape_558948",
    "count_view": 0
  },
  {
    "link_thumb": "https://live.staticflickr.com/65535/50039098758_880fb546a2_n.jpg",
    "id_album": "1204249541",
    "description": "Galaxy_606742",
    "title": "Galaxy_606742",
    "link_img": "https://live.staticflickr.com/65535/50039098758_620bc386f9_o.jpg",
    "id_image": "Galaxy_606742",
    "count_view": 0
  },
  {
    "link_thumb": "https://live.staticflickr.com/65535/50038847288_4c6ec24f9a_n.jpg",
    "id_album": "1187037014",
    "description": "Battle_173777",
    "title": "Battle_173777",
    "link_img": "https://live.staticflickr.com/65535/50038847288_4b7667c0cd_o.jpg",
    "id_image": "Battle_173777",
    "count_view": 0
  },
  {
    "link_thumb": "https://live.staticflickr.com/65535/50040258551_0d4cf8991d_n.jpg",
    "id_album": "779690680",
    "description": "Robot_180627",
    "title": "Robot_180627",
    "link_img": "https://live.staticflickr.com/65535/50040258551_6b892b676f_o.jpg",
    "id_image": "Robot_180627",
    "count_view": 0
  },
  {
    "link_thumb": "https://live.staticflickr.com/65535/50040529617_a4216c7698_n.jpg",
    "id_album": "779690680",
    "description": "Robot_209412",
    "title": "Robot_209412",
    "link_img": "https://live.staticflickr.com/65535/50040529617_9b1f0ae27c_o.jpg",
    "id_image": "Robot_209412",
    "count_view": 0
  },
  {
    "link_thumb": "https://live.staticflickr.com/65535/50039539931_163e836ae1_n.jpg",
    "id_album": "894679094",
    "description": "Collision_351527",
    "title": "Collision_351527",
    "link_img": "https://live.staticflickr.com/65535/50039539931_b879d61d01_o.jpg",
    "id_image": "Collision_351527",
    "count_view": 0
  },
  {
    "link_thumb": "https://live.staticflickr.com/65535/50039144003_9877b1cee6_n.jpg",
    "id_album": "1402713104",
    "description": "Landscape_549184",
    "title": "Landscape_549184",
    "link_img": "https://live.staticflickr.com/65535/50039144003_a28302d139_o.jpg",
    "id_image": "Landscape_549184",
    "count_view": 0
  },
  {
    "link_thumb": "https://live.staticflickr.com/65535/50040808303_0740cb786a_n.jpg",
    "id_album": "-1177476763",
    "description": "Sunrise_372793",
    "title": "Sunrise_372793",
    "link_img": "https://live.staticflickr.com/65535/50040808303_df11ca71c3_o.jpg",
    "id_image": "Sunrise_372793",
    "count_view": 0
  },
  {
    "link_thumb": "https://live.staticflickr.com/65535/50040081707_e43e2b9939_n.jpg",
    "id_album": "-1610342324",
    "description": "Nebula_63591",
    "title": "Nebula_63591",
    "link_img": "https://live.staticflickr.com/65535/50040081707_7ba6e92990_o.jpg",
    "id_image": "Nebula_63591",
    "count_view": 0
  },
  {
    "link_thumb": "https://live.staticflickr.com/65535/50039892497_667b10148b_n.jpg",
    "id_album": "1204249541",
    "description": "Galaxy_286847",
    "title": "Galaxy_286847",
    "link_img": "https://live.staticflickr.com/65535/50039892497_82c94ce85a_o.jpg",
    "id_image": "Galaxy_286847",
    "count_view": 0
  },
  {
    "link_thumb": "https://live.staticflickr.com/65535/50039625263_993f79b79c_n.jpg",
    "id_album": "376235057",
    "description": "Planetscape_559145",
    "title": "Planetscape_559145",
    "link_img": "https://live.staticflickr.com/65535/50039625263_83c0774ed9_o.jpg",
    "id_image": "Planetscape_559145",
    "count_view": 0
  },
  {
    "link_thumb": "https://live.staticflickr.com/65535/50039619822_818f4f8534_n.jpg",
    "id_album": "869545341",
    "description": "Astronaut_556960",
    "title": "Astronaut_556960",
    "link_img": "https://live.staticflickr.com/65535/50039619822_5907c63979_o.jpg",
    "id_image": "Astronaut_556960",
    "count_view": 0
  },
  {
    "link_thumb": "https://live.staticflickr.com/65535/50040387842_9dcedae910_n.jpg",
    "id_album": "-1102314093",
    "description": "Planets_533844",
    "title": "Planets_533844",
    "link_img": "https://live.staticflickr.com/65535/50040387842_2d3284f8f9_o.jpg",
    "id_image": "Planets_533844",
    "count_view": 0
  },
  {
    "link_thumb": "https://live.staticflickr.com/65535/50040709158_03ef6e235a_n.jpg",
    "id_album": "-1587696329",
    "description": "Stars_333385",
    "title": "Stars_333385",
    "link_img": "https://live.staticflickr.com/65535/50040709158_eab6e0441c_o.jpg",
    "id_image": "Stars_333385",
    "count_view": 0
  },
  {
    "link_thumb": "https://live.staticflickr.com/65535/50039580366_5588f45d7d_n.jpg",
    "id_album": "829169633",
    "description": "Cyborg_187721",
    "title": "Cyborg_187721",
    "link_img": "https://live.staticflickr.com/65535/50039580366_f812e1e118_o.jpg",
    "id_image": "Cyborg_187721",
    "count_view": 0
  },
  {
    "link_thumb": "https://live.staticflickr.com/65535/50041761577_ca177b60c0_n.jpg",
    "id_album": "-1261420436",
    "description": "Warrior_992224",
    "title": "Warrior_992224",
    "link_img": "https://live.staticflickr.com/65535/50041761577_45f141c5e9_o.jpg",
    "id_image": "Warrior_992224",
    "count_view": 0
  },
  {
    "link_thumb": "https://live.staticflickr.com/65535/50038901743_0e03d54cc6_n.jpg",
    "id_album": "-1964113117",
    "description": "City_229033",
    "title": "City_229033",
    "link_img": "https://live.staticflickr.com/65535/50038901743_b3d146c39f_o.jpg",
    "id_image": "City_229033",
    "count_view": 0
  },
  {
    "link_thumb": "https://live.staticflickr.com/65535/50040324266_d7896ee185_n.jpg",
    "id_album": "779690680",
    "description": "Robot_476108",
    "title": "Robot_476108",
    "link_img": "https://live.staticflickr.com/65535/50040324266_97dddc093c_o.jpg",
    "id_image": "Robot_476108",
    "count_view": 0
  },
  {
    "link_thumb": "https://live.staticflickr.com/65535/50039250763_73b55a0511_n.jpg",
    "id_album": "-1610342324",
    "description": "Nebula_485838",
    "title": "Nebula_485838",
    "link_img": "https://live.staticflickr.com/65535/50039250763_2ed3a14e5a_o.jpg",
    "id_image": "Nebula_485838",
    "count_view": 0
  },
  {
    "link_thumb": "https://live.staticflickr.com/65535/50039369868_1e6c3b2e35_n.jpg",
    "id_album": "395161030",
    "description": "Planet_206087",
    "title": "Planet_206087",
    "link_img": "https://live.staticflickr.com/65535/50039369868_2c81d7a794_o.jpg",
    "id_image": "Planet_206087",
    "count_view": 0
  },
  {
    "link_thumb": "https://live.staticflickr.com/65535/50039812338_90b23430ed_n.jpg",
    "id_album": "779690680",
    "description": "Robot_763233",
    "title": "Robot_763233",
    "link_img": "https://live.staticflickr.com/65535/50039812338_0538a5e033_o.jpg",
    "id_image": "Robot_763233",
    "count_view": 0
  },
  {
    "link_thumb": "https://live.staticflickr.com/65535/50039250388_bbde72d9d9_n.jpg",
    "id_album": "-1610342324",
    "description": "Nebula_466777",
    "title": "Nebula_466777",
    "link_img": "https://live.staticflickr.com/65535/50039250388_ca4b043a2b_o.jpg",
    "id_image": "Nebula_466777",
    "count_view": 0
  },
  {
    "link_thumb": "https://live.staticflickr.com/65535/50040510142_8b46392e08_n.jpg",
    "id_album": "-839602625",
    "description": "Predator_599866",
    "title": "Predator_599866",
    "link_img": "https://live.staticflickr.com/65535/50040510142_ff45d0b257_o.jpg",
    "id_image": "Predator_599866",
    "count_view": 0
  },
  {
    "link_thumb": "https://live.staticflickr.com/65535/50039913397_b5d9a69f2f_n.jpg",
    "id_album": "1204249541",
    "description": "Galaxy_678110",
    "title": "Galaxy_678110",
    "link_img": "https://live.staticflickr.com/65535/50039913397_bc7499d786_o.jpg",
    "id_image": "Galaxy_678110",
    "count_view": 0
  },
  {
    "link_thumb": "https://live.staticflickr.com/65535/50039702318_4ebcd9ca59_n.jpg",
    "id_album": "779690680",
    "description": "Robot_147397",
    "title": "Robot_147397",
    "link_img": "https://live.staticflickr.com/65535/50039702318_c3f45407de_o.jpg",
    "id_image": "Robot_147397",
    "count_view": 0
  },
  {
    "link_thumb": "https://live.staticflickr.com/65535/50039799116_4be67d2167_n.jpg",
    "id_album": "-1610342324",
    "description": "Nebula_459202",
    "title": "Nebula_459202",
    "link_img": "https://live.staticflickr.com/65535/50039799116_e2d71a15eb_o.jpg",
    "id_image": "Nebula_459202",
    "count_view": 0
  },
  {
    "link_thumb": "https://live.staticflickr.com/65535/50039686127_152e139b08_n.jpg",
    "id_album": "406431601",
    "description": "Building_766529",
    "title": "Building_766529",
    "link_img": "https://live.staticflickr.com/65535/50039686127_a397691602_o.jpg",
    "id_image": "Building_766529",
    "count_view": 0
  },
  {
    "link_thumb": "https://live.staticflickr.com/65535/50039542846_e0226a4ac6_n.jpg",
    "id_album": "894679094",
    "description": "Collision_681631",
    "title": "Collision_681631",
    "link_img": "https://live.staticflickr.com/65535/50039542846_58d7a93684_o.jpg",
    "id_image": "Collision_681631",
    "count_view": 0
  },
  {
    "link_thumb": "https://live.staticflickr.com/65535/50038864813_c4f0b210a7_n.jpg",
    "id_album": "-1780971522",
    "description": "Biohazard_333718",
    "title": "Biohazard_333718",
    "link_img": "https://live.staticflickr.com/65535/50038864813_1dc0694ce0_o.jpg",
    "id_image": "Biohazard_333718",
    "count_view": 0
  },
  {
    "link_thumb": "https://live.staticflickr.com/65535/50039000358_25b3337d7e_n.jpg",
    "id_album": "-437872736",
    "description": "Creature_282527",
    "title": "Creature_282527",
    "link_img": "https://live.staticflickr.com/65535/50039000358_d1205a310f_o.jpg",
    "id_image": "Creature_282527",
    "count_view": 0
  },
  {
    "link_thumb": "https://live.staticflickr.com/65535/50039660096_6b29c75710_n.jpg",
    "id_album": "1402713104",
    "description": "Landscape_121896",
    "title": "Landscape_121896",
    "link_img": "https://live.staticflickr.com/65535/50039660096_582a5837ee_o.jpg",
    "id_image": "Landscape_121896",
    "count_view": 0
  },
  {
    "link_thumb": "https://live.staticflickr.com/65535/50040007978_5e9d3b8640_n.jpg",
    "id_album": "-1532370292",
    "description": "SpaceStation_676809",
    "title": "SpaceStation_676809",
    "link_img": "https://live.staticflickr.com/65535/50040007978_bc5552d74a_o.jpg",
    "id_image": "SpaceStation_676809",
    "count_view": 0
  },
  {
    "link_thumb": "https://live.staticflickr.com/65535/50041560287_8aef074cec_n.jpg",
    "id_album": "1267121215",
    "description": "Steampunk_190424",
    "title": "Steampunk_190424",
    "link_img": "https://live.staticflickr.com/65535/50041560287_e304727147_o.jpg",
    "id_image": "Steampunk_190424",
    "count_view": 0
  },
  {
    "link_thumb": "https://live.staticflickr.com/65535/50040098817_bcdbb98d8b_n.jpg",
    "id_album": "-1610342324",
    "description": "Nebula_77311",
    "title": "Nebula_77311",
    "link_img": "https://live.staticflickr.com/65535/50040098817_c9a131e319_o.jpg",
    "id_image": "Nebula_77311",
    "count_view": 0
  },
  {
    "link_thumb": "https://live.staticflickr.com/65535/50039986522_15712bc631_n.jpg",
    "id_album": "1402713104",
    "description": "Landscape_917847",
    "title": "Landscape_917847",
    "link_img": "https://live.staticflickr.com/65535/50039986522_a87384a6bd_o.jpg",
    "id_image": "Landscape_917847",
    "count_view": 0
  },
  {
    "link_thumb": "https://live.staticflickr.com/65535/50040395776_6770f91f91_n.jpg",
    "id_album": "779690680",
    "description": "Robot_889655",
    "title": "Robot_889655",
    "link_img": "https://live.staticflickr.com/65535/50040395776_2b220b068e_o.jpg",
    "id_image": "Robot_889655",
    "count_view": 0
  },
  {
    "link_thumb": "https://live.staticflickr.com/65535/50039652071_e3dd958192_n.jpg",
    "id_album": "1204249541",
    "description": "Galaxy_737203",
    "title": "Galaxy_737203",
    "link_img": "https://live.staticflickr.com/65535/50039652071_03779d7b35_o.jpg",
    "id_image": "Galaxy_737203",
    "count_view": 0
  },
  {
    "link_thumb": "https://live.staticflickr.com/65535/50040254846_306a980d24_n.jpg",
    "id_album": "779690680",
    "description": "Robot_146639",
    "title": "Robot_146639",
    "link_img": "https://live.staticflickr.com/65535/50040254846_749b8f1e88_o.jpg",
    "id_image": "Robot_146639",
    "count_view": 0
  },
  {
    "link_thumb": "https://live.staticflickr.com/65535/50039747136_ece0d8ae17_n.jpg",
    "id_album": "-1388385651",
    "description": "MilkyWay_788472",
    "title": "MilkyWay_788472",
    "link_img": "https://live.staticflickr.com/65535/50039747136_dcf88bd79f_o.jpg",
    "id_image": "MilkyWay_788472",
    "count_view": 0
  },
  {
    "link_thumb": "https://live.staticflickr.com/65535/50040115831_3ffc6895e1_n.jpg",
    "id_album": "-1102314093",
    "description": "Planets_439169",
    "title": "Planets_439169",
    "link_img": "https://live.staticflickr.com/65535/50040115831_11b882951d_o.jpg",
    "id_image": "Planets_439169",
    "count_view": 0
  },
  {
    "link_thumb": "https://live.staticflickr.com/65535/50041581741_a332186751_n.jpg",
    "id_album": "-1675918237",
    "description": "WomenWarrior_585247",
    "title": "WomenWarrior_585247",
    "link_img": "https://live.staticflickr.com/65535/50041581741_ab8af969cd_o.jpg",
    "id_image": "WomenWarrior_585247",
    "count_view": 0
  },
  {
    "link_thumb": "https://live.staticflickr.com/65535/50040738426_22718a9821_n.jpg",
    "id_album": "2130067313",
    "description": "Spaceship_696164",
    "title": "Spaceship_696164",
    "link_img": "https://live.staticflickr.com/65535/50040738426_d184f5df38_o.jpg",
    "id_image": "Spaceship_696164",
    "count_view": 0
  },
  {
    "link_thumb": "https://live.staticflickr.com/65535/50038987518_2a665c4755_n.jpg",
    "id_album": "894679094",
    "description": "Collision_13253",
    "title": "Collision_13253",
    "link_img": "https://live.staticflickr.com/65535/50038987518_3f981130ae_o.jpg",
    "id_image": "Collision_13253",
    "count_view": 0
  },
  {
    "link_thumb": "https://live.staticflickr.com/65535/50039994417_feb75076c0_n.jpg",
    "id_album": "-1388385651",
    "description": "MilkyWay_153318",
    "title": "MilkyWay_153318",
    "link_img": "https://live.staticflickr.com/65535/50039994417_0033894f23_o.jpg",
    "id_image": "MilkyWay_153318",
    "count_view": 0
  },
  {
    "link_thumb": "https://live.staticflickr.com/65535/50039657171_e3d2921f5f_n.jpg",
    "id_album": "1204249541",
    "description": "Galaxy_957510",
    "title": "Galaxy_957510",
    "link_img": "https://live.staticflickr.com/65535/50039657171_0be74c2891_o.jpg",
    "id_image": "Galaxy_957510",
    "count_view": 0
  },
  {
    "link_thumb": "https://live.staticflickr.com/65535/50041338136_760776478b_n.jpg",
    "id_album": "-221671103",
    "description": "Sun_106490",
    "title": "Sun_106490",
    "link_img": "https://live.staticflickr.com/65535/50041338136_782456eb93_o.jpg",
    "id_image": "Sun_106490",
    "count_view": 0
  },
  {
    "link_thumb": "https://live.staticflickr.com/65535/50039856451_a276bd1299_n.jpg",
    "id_album": "-1610342324",
    "description": "Nebula_942697",
    "title": "Nebula_942697",
    "link_img": "https://live.staticflickr.com/65535/50039856451_c6640c6b0d_o.jpg",
    "id_image": "Nebula_942697",
    "count_view": 0
  },
  {
    "link_thumb": "https://live.staticflickr.com/65535/50039753127_19b1b2ac99_n.jpg",
    "id_album": "-1964113117",
    "description": "City_709119",
    "title": "City_709119",
    "link_img": "https://live.staticflickr.com/65535/50039753127_f9daa96369_o.jpg",
    "id_image": "City_709119",
    "count_view": 0
  },
  {
    "link_thumb": "https://live.staticflickr.com/65535/50040388711_57a3bbc126_n.jpg",
    "id_album": "779690680",
    "description": "Robot_878416",
    "title": "Robot_878416",
    "link_img": "https://live.staticflickr.com/65535/50040388711_3650cf58c8_o.jpg",
    "id_image": "Robot_878416",
    "count_view": 0
  },
  {
    "link_thumb": "https://live.staticflickr.com/65535/50040667042_6a94aebe1c_n.jpg",
    "id_album": "779690680",
    "description": "Robot_906344",
    "title": "Robot_906344",
    "link_img": "https://live.staticflickr.com/65535/50040667042_ca3c596371_o.jpg",
    "id_image": "Robot_906344",
    "count_view": 0
  },
  {
    "link_thumb": "https://live.staticflickr.com/65535/50041843997_2ab33b713c_n.jpg",
    "id_album": "-1675918237",
    "description": "WomenWarrior_592959",
    "title": "WomenWarrior_592959",
    "link_img": "https://live.staticflickr.com/65535/50041843997_3f8e36ae06_o.jpg",
    "id_image": "WomenWarrior_592959",
    "count_view": 0
  },
  {
    "link_thumb": "https://live.staticflickr.com/65535/50041610242_78be89bf9e_n.jpg",
    "id_album": "-221671103",
    "description": "Sun_373740",
    "title": "Sun_373740",
    "link_img": "https://live.staticflickr.com/65535/50041610242_504537e91e_o.jpg",
    "id_image": "Sun_373740",
    "count_view": 0
  },
  {
    "link_thumb": "https://live.staticflickr.com/65535/50039683013_5db81b9238_n.jpg",
    "id_album": "-482547208",
    "description": "PostApocalyptic_971388",
    "title": "PostApocalyptic_971388",
    "link_img": "https://live.staticflickr.com/65535/50039683013_7292c81f04_o.jpg",
    "id_image": "PostApocalyptic_971388",
    "count_view": 0
  },
  {
    "link_thumb": "https://live.staticflickr.com/65535/50040378522_80f4ab4e2a_n.jpg",
    "id_album": "-1102314093",
    "description": "Planets_428363",
    "title": "Planets_428363",
    "link_img": "https://live.staticflickr.com/65535/50040378522_cfc25e30fe_o.jpg",
    "id_image": "Planets_428363",
    "count_view": 0
  },
  {
    "link_thumb": "https://live.staticflickr.com/65535/50039942598_79340d4ec1_n.jpg",
    "id_album": "1613540653",
    "description": "Space_345775",
    "title": "Space_345775",
    "link_img": "https://live.staticflickr.com/65535/50039942598_2932e78ff0_o.jpg",
    "id_image": "Space_345775",
    "count_view": 0
  },
  {
    "link_thumb": "https://live.staticflickr.com/65535/50039793202_1e8feb241f_n.jpg",
    "id_album": "-1964113117",
    "description": "City_981425",
    "title": "City_981425",
    "link_img": "https://live.staticflickr.com/65535/50039793202_381fb87322_o.jpg",
    "id_image": "City_981425",
    "count_view": 0
  },
  {
    "link_thumb": "https://live.staticflickr.com/65535/50039763116_fa90be45fc_n.jpg",
    "id_album": "-1610342324",
    "description": "Nebula_133363",
    "title": "Nebula_133363",
    "link_img": "https://live.staticflickr.com/65535/50039763116_4b3926f55d_o.jpg",
    "id_image": "Nebula_133363",
    "count_view": 0
  },
  {
    "link_thumb": "https://live.staticflickr.com/65535/50039564948_13493836fc_n.jpg",
    "id_album": "-1102314093",
    "description": "Planets_433687",
    "title": "Planets_433687",
    "link_img": "https://live.staticflickr.com/65535/50039564948_d486e48f1e_o.jpg",
    "id_image": "Planets_433687",
    "count_view": 0
  },
  {
    "link_thumb": "https://live.staticflickr.com/65535/50039841298_eb2ebd2254_n.jpg",
    "id_album": "779690680",
    "description": "Robot_886635",
    "title": "Robot_886635",
    "link_img": "https://live.staticflickr.com/65535/50039841298_32e33be649_o.jpg",
    "id_image": "Robot_886635",
    "count_view": 0
  },
  {
    "link_thumb": "https://live.staticflickr.com/65535/50039667357_1b291c16c8_n.jpg",
    "id_album": "1187037014",
    "description": "Battle_615954",
    "title": "Battle_615954",
    "link_img": "https://live.staticflickr.com/65535/50039667357_d77a41ae63_o.jpg",
    "id_image": "Battle_615954",
    "count_view": 0
  },
  {
    "link_thumb": "https://live.staticflickr.com/65535/50040545942_3605156c07_n.jpg",
    "id_album": "779690680",
    "description": "Robot_286162",
    "title": "Robot_286162",
    "link_img": "https://live.staticflickr.com/65535/50040545942_08dc1401f4_o.jpg",
    "id_image": "Robot_286162",
    "count_view": 0
  },
  {
    "link_thumb": "https://live.staticflickr.com/65535/50041621452_7ef21fcee8_n.jpg",
    "id_album": "-1177476763",
    "description": "Sunrise_229465",
    "title": "Sunrise_229465",
    "link_img": "https://live.staticflickr.com/65535/50041621452_9d1090bcb6_o.jpg",
    "id_image": "Sunrise_229465",
    "count_view": 0
  },
  {
    "link_thumb": "https://live.staticflickr.com/65535/50039850246_b8404210aa_n.jpg",
    "id_album": "-1610342324",
    "description": "Nebula_891193",
    "title": "Nebula_891193",
    "link_img": "https://live.staticflickr.com/65535/50039850246_b42f41ebeb_o.jpg",
    "id_image": "Nebula_891193",
    "count_view": 0
  },
  {
    "link_thumb": "https://live.staticflickr.com/65535/50038767243_141f34b2a3_n.jpg",
    "id_album": "523598895",
    "description": "Artistic_214924",
    "title": "Artistic_214924",
    "link_img": "https://live.staticflickr.com/65535/50038767243_84459953db_o.jpg",
    "id_image": "Artistic_214924",
    "count_view": 0
  },
  {
    "link_thumb": "https://live.staticflickr.com/65535/50039703168_05333d16ba_n.jpg",
    "id_album": "779690680",
    "description": "Robot_153445",
    "title": "Robot_153445",
    "link_img": "https://live.staticflickr.com/65535/50039703168_1a309fcf98_o.jpg",
    "id_image": "Robot_153445",
    "count_view": 0
  },
  {
    "link_thumb": "https://live.staticflickr.com/65535/50041839362_43b4fa2867_n.jpg",
    "id_album": "-1675918237",
    "description": "WomenWarrior_516631",
    "title": "WomenWarrior_516631",
    "link_img": "https://live.staticflickr.com/65535/50041839362_0523db2bf4_o.jpg",
    "id_image": "WomenWarrior_516631",
    "count_view": 0
  },
  {
    "link_thumb": "https://live.staticflickr.com/65535/50039801441_7c7bbc5bd0_n.jpg",
    "id_album": "-1610342324",
    "description": "Nebula_501296",
    "title": "Nebula_501296",
    "link_img": "https://live.staticflickr.com/65535/50039801441_8e82ccc801_o.jpg",
    "id_image": "Nebula_501296",
    "count_view": 0
  },
  {
    "link_thumb": "https://live.staticflickr.com/65535/50040014458_23bb36e9b4_n.jpg",
    "id_album": "2130067313",
    "description": "Spaceship_1004213",
    "title": "Spaceship_1004213",
    "link_img": "https://live.staticflickr.com/65535/50040014458_45e6f89b09_o.jpg",
    "id_image": "Spaceship_1004213",
    "count_view": 0
  },
  {
    "link_thumb": "https://live.staticflickr.com/65535/50040087207_57b21758b7_n.jpg",
    "id_album": "-1610342324",
    "description": "Nebula_701721",
    "title": "Nebula_701721",
    "link_img": "https://live.staticflickr.com/65535/50040087207_e30a920517_o.jpg",
    "id_image": "Nebula_701721",
    "count_view": 0
  },
  {
    "link_thumb": "https://live.staticflickr.com/65535/50039823046_c98c7fe471_n.jpg",
    "id_album": "-1610342324",
    "description": "Nebula_689588",
    "title": "Nebula_689588",
    "link_img": "https://live.staticflickr.com/65535/50039823046_063738cc80_o.jpg",
    "id_image": "Nebula_689588",
    "count_view": 0
  },
  {
    "link_thumb": "https://live.staticflickr.com/65535/50039632473_05090d731a_n.jpg",
    "id_album": "376235057",
    "description": "Planetscape_904531",
    "title": "Planetscape_904531",
    "link_img": "https://live.staticflickr.com/65535/50039632473_7afa35828c_o.jpg",
    "id_image": "Planetscape_904531",
    "count_view": 0
  },
  {
    "link_thumb": "https://live.staticflickr.com/65535/50039916951_8f0a85979d_n.jpg",
    "id_album": "395161030",
    "description": "Planet_197459",
    "title": "Planet_197459",
    "link_img": "https://live.staticflickr.com/65535/50039916951_3ebe7cae92_o.jpg",
    "id_image": "Planet_197459",
    "count_view": 0
  },
  {
    "link_thumb": "https://live.staticflickr.com/65535/50038940373_f969a02269_n.jpg",
    "id_album": "-1964113117",
    "description": "City_694102",
    "title": "City_694102",
    "link_img": "https://live.staticflickr.com/65535/50038940373_8ceb414c27_o.jpg",
    "id_image": "City_694102",
    "count_view": 0
  },
  {
    "link_thumb": "https://live.staticflickr.com/65535/50040688907_72c0da7dee_n.jpg",
    "id_album": "779690680",
    "description": "Robot_928619",
    "title": "Robot_928619",
    "link_img": "https://live.staticflickr.com/65535/50040688907_53c4a25530_o.jpg",
    "id_image": "Robot_928619",
    "count_view": 0
  },
  {
    "link_thumb": "https://live.staticflickr.com/65535/50039822786_a2d41b30d8_n.jpg",
    "id_album": "-1610342324",
    "description": "Nebula_687242",
    "title": "Nebula_687242",
    "link_img": "https://live.staticflickr.com/65535/50039822786_f5cf946704_o.jpg",
    "id_image": "Nebula_687242",
    "count_view": 0
  },
  {
    "link_thumb": "https://live.staticflickr.com/65535/50039498511_8ac94b0d94_n.jpg",
    "id_album": "-1964113117",
    "description": "City_80585",
    "title": "City_80585",
    "link_img": "https://live.staticflickr.com/65535/50039498511_ae0372f85e_o.jpg",
    "id_image": "City_80585",
    "count_view": 0
  },
  {
    "link_thumb": "https://live.staticflickr.com/65535/50039908518_83af7ff6da_n.jpg",
    "id_album": "1613540653",
    "description": "Space_110332",
    "title": "Space_110332",
    "link_img": "https://live.staticflickr.com/65535/50039908518_45e9e28a8a_o.jpg",
    "id_image": "Space_110332",
    "count_view": 0
  },
  {
    "link_thumb": "https://live.staticflickr.com/65535/50039781271_a6a87ebd94_n.jpg",
    "id_album": "-1610342324",
    "description": "Nebula_284522",
    "title": "Nebula_284522",
    "link_img": "https://live.staticflickr.com/65535/50039781271_dfc7131b43_o.jpg",
    "id_image": "Nebula_284522",
    "count_view": 0
  },
  {
    "link_thumb": "https://live.staticflickr.com/65535/50039987128_c29d1bf364_n.jpg",
    "id_album": "1613540653",
    "description": "Space_805177",
    "title": "Space_805177",
    "link_img": "https://live.staticflickr.com/65535/50039987128_2a5829c13a_o.jpg",
    "id_image": "Space_805177",
    "count_view": 0
  },
  {
    "link_thumb": "https://live.staticflickr.com/65535/50039790258_2306000de4_n.jpg",
    "id_album": "779690680",
    "description": "Robot_606943",
    "title": "Robot_606943",
    "link_img": "https://live.staticflickr.com/65535/50039790258_70efc5fe23_o.jpg",
    "id_image": "Robot_606943",
    "count_view": 0
  },
  {
    "link_thumb": "https://live.staticflickr.com/65535/50040519217_5f0c467647_n.jpg",
    "id_album": "779690680",
    "description": "Robot_145931",
    "title": "Robot_145931",
    "link_img": "https://live.staticflickr.com/65535/50040519217_34831e1eab_o.jpg",
    "id_image": "Robot_145931",
    "count_view": 0
  },
  {
    "link_thumb": "https://live.staticflickr.com/65535/50041449031_4f6fc4cf77_n.jpg",
    "id_album": "-1261420436",
    "description": "Warrior_331577",
    "title": "Warrior_331577",
    "link_img": "https://live.staticflickr.com/65535/50041449031_7b777b345d_o.jpg",
    "id_image": "Warrior_331577",
    "count_view": 0
  },
  {
    "link_thumb": "https://live.staticflickr.com/65535/50039643638_1b2e3c7d12_n.jpg",
    "id_album": "-482547208",
    "description": "PostApocalyptic_210815",
    "title": "PostApocalyptic_210815",
    "link_img": "https://live.staticflickr.com/65535/50039643638_481e6a5c6e_o.jpg",
    "id_image": "PostApocalyptic_210815",
    "count_view": 0
  },
  {
    "link_thumb": "https://live.staticflickr.com/65535/50038829113_4953b13eb8_n.jpg",
    "id_album": "869545341",
    "description": "Astronaut_911516",
    "title": "Astronaut_911516",
    "link_img": "https://live.staticflickr.com/65535/50038829113_7d0ac53961_o.jpg",
    "id_image": "Astronaut_911516",
    "count_view": 0
  },
  {
    "link_thumb": "https://live.staticflickr.com/65535/50040636288_a2b4c83ffa_n.jpg",
    "id_album": "-1863373220",
    "description": "StarWars_517138",
    "title": "StarWars_517138",
    "link_img": "https://live.staticflickr.com/65535/50040636288_10b35d50c4_o.jpg",
    "id_image": "StarWars_517138",
    "count_view": 0
  },
  {
    "link_thumb": "https://live.staticflickr.com/65535/50039684582_d497257d33_n.jpg",
    "id_album": "406431601",
    "description": "Building_453316",
    "title": "Building_453316",
    "link_img": "https://live.staticflickr.com/65535/50039684582_4aea1a3934_o.jpg",
    "id_image": "Building_453316",
    "count_view": 0
  },
  {
    "link_thumb": "https://live.staticflickr.com/65535/50038934743_02eb740576_n.jpg",
    "id_album": "-1964113117",
    "description": "City_649182",
    "title": "City_649182",
    "link_img": "https://live.staticflickr.com/65535/50038934743_843ab563d2_o.jpg",
    "id_image": "City_649182",
    "count_view": 0
  },
  {
    "link_thumb": "https://live.staticflickr.com/65535/50039221963_e3440a77c9_n.jpg",
    "id_album": "-1610342324",
    "description": "Nebula_220577",
    "title": "Nebula_220577",
    "link_img": "https://live.staticflickr.com/65535/50039221963_1b7aa1ab18_o.jpg",
    "id_image": "Nebula_220577",
    "count_view": 0
  },
  {
    "link_thumb": "https://live.staticflickr.com/65535/50041715037_b7b2dfd156_n.jpg",
    "id_album": "-1261420436",
    "description": "Warrior_364228",
    "title": "Warrior_364228",
    "link_img": "https://live.staticflickr.com/65535/50041715037_1e1a573a07_o.jpg",
    "id_image": "Warrior_364228",
    "count_view": 0
  },
  {
    "link_thumb": "https://live.staticflickr.com/65535/50038901823_311e1293e8_n.jpg",
    "id_album": "-1964113117",
    "description": "City_229237",
    "title": "City_229237",
    "link_img": "https://live.staticflickr.com/65535/50038901823_5b0012060e_o.jpg",
    "id_image": "City_229237",
    "count_view": 0
  },
  {
    "link_thumb": "https://live.staticflickr.com/65535/50038802873_6369bc2cc4_n.jpg",
    "id_album": "869545341",
    "description": "Astronaut_232224",
    "title": "Astronaut_232224",
    "link_img": "https://live.staticflickr.com/65535/50038802873_3c6c36f885_o.jpg",
    "id_image": "Astronaut_232224",
    "count_view": 0
  },
  {
    "link_thumb": "https://live.staticflickr.com/65535/50039733126_9a03c2ea99_n.jpg",
    "id_album": "-1388385651",
    "description": "MilkyWay_555673",
    "title": "MilkyWay_555673",
    "link_img": "https://live.staticflickr.com/65535/50039733126_f60241675a_o.jpg",
    "id_image": "MilkyWay_555673",
    "count_view": 0
  },
  {
    "link_thumb": "https://live.staticflickr.com/65535/50039789261_a38b95e74c_n.jpg",
    "id_album": "-1610342324",
    "description": "Nebula_381561",
    "title": "Nebula_381561",
    "link_img": "https://live.staticflickr.com/65535/50039789261_b4a3ce1147_o.jpg",
    "id_image": "Nebula_381561",
    "count_view": 0
  },
  {
    "link_thumb": "https://live.staticflickr.com/65535/50040454017_51cfca1589_n.jpg",
    "id_album": "-482547208",
    "description": "PostApocalyptic_115275",
    "title": "PostApocalyptic_115275",
    "link_img": "https://live.staticflickr.com/65535/50040454017_060a67d484_o.jpg",
    "id_image": "PostApocalyptic_115275",
    "count_view": 0
  },
  {
    "link_thumb": "https://live.staticflickr.com/65535/50039314311_8f0f2c6b3d_n.jpg",
    "id_album": "523598895",
    "description": "Artistic_210704",
    "title": "Artistic_210704",
    "link_img": "https://live.staticflickr.com/65535/50039314311_24685474ca_o.jpg",
    "id_image": "Artistic_210704",
    "count_view": 0
  },
  {
    "link_thumb": "https://live.staticflickr.com/65535/50039609386_c1f1bb0132_n.jpg",
    "id_album": "651930207",
    "description": "Explosion_346591",
    "title": "Explosion_346591",
    "link_img": "https://live.staticflickr.com/65535/50039609386_5e1a46bf28_o.jpg",
    "id_image": "Explosion_346591",
    "count_view": 0
  },
  {
    "link_thumb": "https://live.staticflickr.com/65535/50040986287_a74fdc1878_n.jpg",
    "id_album": "2130067313",
    "description": "Spaceship_605718",
    "title": "Spaceship_605718",
    "link_img": "https://live.staticflickr.com/65535/50040986287_437cc31167_o.jpg",
    "id_image": "Spaceship_605718",
    "count_view": 0
  },
  {
    "link_thumb": "https://live.staticflickr.com/65535/50038679693_a35264e421_n.jpg",
    "id_album": "280884763",
    "description": "Abstract_123869",
    "title": "Abstract_123869",
    "link_img": "https://live.staticflickr.com/65535/50038679693_38997663ae_o.jpg",
    "id_image": "Abstract_123869",
    "count_view": 0
  },
  {
    "link_thumb": "https://live.staticflickr.com/65535/50039780367_7e1b84899f_n.jpg",
    "id_album": "-1964113117",
    "description": "City_906337",
    "title": "City_906337",
    "link_img": "https://live.staticflickr.com/65535/50039780367_6ec599353f_o.jpg",
    "id_image": "City_906337",
    "count_view": 0
  },
  {
    "link_thumb": "https://live.staticflickr.com/65535/50041540201_84407de15a_n.jpg",
    "id_album": "-1126835654",
    "description": "Women_599863",
    "title": "Women_599863",
    "link_img": "https://live.staticflickr.com/65535/50041540201_29c9fdb00f_o.jpg",
    "id_image": "Women_599863",
    "count_view": 0
  }
]